Scanning method <java.io.ObjectInputStream: void registerObjectRead(java.lang.Object,int,boolean)>

All seen event types: BinaryOperationRecord, StoreArrayRecord, MethodReturnRecord, MethodCallRecord, MethodStartRecord, LoadInstanceRecord, LoadArrayRecord, MethodEndRecord, IfRecord, 
Ignored event types: IfRecord, 

JSON Encoded Analysis Data (for visualization):{"heapEdges":[{"step":0,"from":"1093293768","to":"1093388400","type":"load","field":"<java.io.ObjectInputStream: java.util.ArrayList objectsRead>"},{"step":1,"from":"1093388400","to":"1093388400.<java.util.ArrayList: int size>","type":"load","field":"<java.util.ArrayList: int size>"},{"step":2,"from":"1093293768","to":"1093388400","type":"load","field":"<java.io.ObjectInputStream: java.util.ArrayList objectsRead>"},{"step":3,"from":"1093388400","to":"1093453440","type":"load","field":"<java.util.ArrayList: java.lang.Object[] array>"},{"step":4,"from":"1093388400","to":"1093388400.<java.util.ArrayList: int size>","type":"load","field":"<java.util.ArrayList: int size>"},{"step":5,"from":"1093453440","to":"1093286304","type":"load","field":"arrayIdx_int:1"},{"step":6,"from":"1093286304","to":"1093453440","type":"store","field":"arrayIdx_int:1"}],"parameters":[{"id":"1093293768","name":"this","klass":"java.io.ObjectInputStream"},{"id":"1093286304","name":"arg#1","klass":"java.lang.Object"},{"id":"sdaReg0","name":"arg#2","klass":"int"},{"id":"sdaReg1","name":"arg#3","klass":"boolean"}],"returns":[{"id":null,"name":"return","klass":null}],"colors":{"heapLocToColor":{"1093453440.arrayIdx_int:1":[1],"sdaReg4":[0],"sdaReg5":[1],"1093286304":[0, 1],"1093453440":[0],"1093293768.<java.io.ObjectInputStream: java.util.ArrayList objectsRead>":[0],"1093388400":[0],"sdaReg3":[0],"sdaReg2":[2],"1093293768":[0],"sdaReg1":[3],"sdaReg0":[2],"1093388400.<java.util.ArrayList: int size>":[0]},"colorToColor":{"0":[0],"1":[0]},"colorToLabel":{"0":"this","1":"arg#1","2":"arg#2","3":"arg#3","4":"return"}}}

Generated Model
	arg#1->this

