Scanning method <java.io.PrintStream: void print(double)>

All seen event types: MethodReturnRecord, MethodCallRecord, LoadInstanceRecord, MethodStartRecord, MethodEndRecord, IfRecord, 
Ignored event types: IfRecord, 

JSON Encoded Analysis Data (for visualization):{"heapEdges":[{"step":0,"from":"sdaReg0","to":"sdaReg1","type":"model"},{"step":1,"from":"1093299648","to":"1093356376","type":"load","field":"<java.io.FilterOutputStream: java.io.OutputStream out>"},{"step":2,"from":"1093299648","to":"1093299648.<java.io.PrintStream: java.lang.String encoding>","type":"load","field":"<java.io.PrintStream: java.lang.String encoding>"},{"step":3,"from":"sdaReg1","to":"1093680288","type":"model"},{"step":4,"from":"1093299648","to":"1093680288","type":"model"},{"step":5,"from":"1093680288","to":"1093299648","type":"model"}],"parameters":[{"id":"1093299648","name":"this","klass":"java.io.PrintStream"},{"id":"sdaReg0","name":"arg#1","klass":"double"}],"returns":[{"id":null,"name":"return","klass":null}],"colors":{"heapLocToColor":{"1093356376":[0],"1093299648":[0],"sdaReg3":[2, 3],"1093299648.<java.io.PrintStream: java.lang.String encoding>":[0],"sdaReg2":[0],"sdaReg1":[2],"1093680288":[0, 2, 3],"sdaReg0":[1]},"colorToColor":{"0":[0],"1":[2],"2":[0],"3":[0]},"colorToLabel":{"0":"this","1":"arg#1","4":"return"}}}

Generated Model
	arg#1->this

