Scanning method <android.os.Bundle: boolean getBoolean(java.lang.String)>

All seen event types: BinaryOperationRecord, MethodReturnRecord, MethodCallRecord, CastRecord, ArrayLengthRecord, LoadInstanceRecord, MethodStartRecord, LoadArrayRecord, MethodEndRecord, IfRecord, 
Ignored event types: IfRecord, 

JSON Encoded Analysis Data (for visualization):{"heapEdges":[{"step":0,"from":"1093712368","to":"1093833072","type":"load","field":"<android.os.Bundle: java.util.Map mMap>"},{"step":1,"from":"1093833072","to":"1094100208","type":"load","field":"<java.util.HashMap: java.util.HashMap$HashMapEntry[] table>"},{"step":2,"from":"1094100208","to":"1094100248","type":"load","field":"arrayIdx_int:2"},{"step":3,"from":"1094100248","to":"1093516160","type":"load","field":"<java.util.HashMap$HashMapEntry: java.lang.Object key>"},{"step":4,"from":"1094100248","to":"1085837744","type":"load","field":"<java.util.HashMap$HashMapEntry: java.lang.Object value>"},{"step":5,"from":"1085837744","to":"sdaReg20","type":"model"}],"parameters":[{"id":"1093712368","name":"this","klass":"android.os.Bundle"},{"id":"sdaReg0","name":"arg#1","klass":"string"}],"returns":[{"id":"sdaReg20","name":"return","klass":"boolean"}],"colors":{"heapLocToColor":{"sdaReg8":[2],"sdaReg9":[2],"sdaReg6":[2],"sdaReg7":[2],"sdaReg4":[0],"1094100208":[0],"sdaReg5":[0],"1093833072":[0],"1093712368":[0],"sdaReg13":[2],"1094100248":[0],"sdaReg14":[2],"sdaReg11":[2],"1085837744":[0],"sdaReg12":[2],"sdaReg10":[2],"sdaReg2":[0],"sdaReg19":[0],"sdaReg1":[0],"sdaReg20":[0, 3],"1093516160":[0],"sdaReg0":[1],"sdaReg17":[2],"sdaReg18":[0]},"colorToColor":{"0":[4],"3":[4]},"colorToLabel":{"0":"this","1":"arg#1","4":"return"}}}

Generated Model
	this->return

