Scanning method <android.os.Bundle: boolean getBoolean(java.lang.String)>

All seen event types: StoreArrayRecord, SimpleAssignmentRecord, ExitMonitorRecord, MethodStartRecord, LoadInstanceRecord, IfRecord, NewObjectRecord, StoreInstanceRecord, NewArrayRecord, LoadStaticRecord, BinaryOperationRecord, MethodCallRecord, MethodReturnRecord, SwitchRecord, EnterMonitorRecord, ArrayLengthRecord, CastRecord, LoadArrayRecord, MethodEndRecord, 
Ignored event types: ExitMonitorRecord, SwitchRecord, EnterMonitorRecord, IfRecord, 

JSON Encoded Analysis Data (for visualization):{"heapEdges":[{"step":0,"from":"1093861704","to":"1093451880","type":"load","field":"<android.os.Bundle: android.os.Parcel mParcelledData>"},{"step":1,"from":"1093861704","to":"1093451880","type":"load","field":"<android.os.Bundle: android.os.Parcel mParcelledData>"},{"step":2,"from":"1093451880","to":"sdaReg2","type":"model"},{"step":3,"from":"static.<java.util.HashMap: java.util.Map$Entry[] EMPTY_TABLE>","to":"1083997920","type":"load","field":"<java.util.HashMap: java.util.Map$Entry[] EMPTY_TABLE>"},{"step":4,"from":"1083997920","to":"1093811608","type":"store","field":"<java.util.HashMap: java.util.HashMap$HashMapEntry[] table>"},{"step":5,"from":"1093811608","to":"sdaReg9","type":"create","field":"<java.util.HashMap: int threshold>"},{"step":6,"from":"1093861704","to":"1093811608","type":"create","field":"<android.os.Bundle: java.util.Map mMap>"},{"step":7,"from":"1093861704","to":"1093451880","type":"load","field":"<android.os.Bundle: android.os.Parcel mParcelledData>"},{"step":8,"from":"1093451880","to":"sdaReg16","type":"model"},{"step":9,"from":"1093451880","to":"sdaReg17","type":"model"},{"step":10,"from":"1093451880","to":"sdaReg21","type":"model"},{"step":11,"from":"1093451880","to":"sdaReg22","type":"model"},{"step":12,"from":"sdaReg23","to":"1085837744","type":"model"},{"step":13,"from":"1093811608","to":"1093811608.<java.util.HashMap: int modCount>","type":"load","field":"<java.util.HashMap: int modCount>"},{"step":14,"from":"sdaReg41","to":"1093811608","type":"store","field":"<java.util.HashMap: int modCount>"},{"step":15,"from":"1093811608","to":"1093811608.<java.util.HashMap: int size>","type":"load","field":"<java.util.HashMap: int size>"},{"step":16,"from":"sdaReg42","to":"1093811608","type":"store","field":"<java.util.HashMap: int size>"},{"step":17,"from":"1093811608","to":"1093638344","type":"create","field":"<java.util.HashMap: java.util.HashMap$HashMapEntry[] table>"},{"step":18,"from":"sdaReg50","to":"1093811608","type":"store","field":"<java.util.HashMap: int threshold>"},{"step":19,"from":"1093787648","to":"1093638384","type":"store","field":"<java.util.HashMap$HashMapEntry: java.lang.Object key>"},{"step":20,"from":"1093638384","to":"1085837744","type":"create","field":"<java.util.HashMap$HashMapEntry: java.lang.Object value>"},{"step":21,"from":"sdaReg37","to":"1093638384","type":"store","field":"<java.util.HashMap$HashMapEntry: int hash>"},{"step":22,"from":"1093638344","to":"1093638384","type":"create","field":"arrayIdx_int:2"},{"step":23,"from":"1093861704","to":"1093451880","type":"load","field":"<android.os.Bundle: android.os.Parcel mParcelledData>"},{"step":24,"from":"1093451880","to":"1093451880.<android.os.Parcel: int mOwnObject>","type":"load","field":"<android.os.Parcel: int mOwnObject>"},{"step":25,"from":"static.<android.os.Parcel: android.os.Parcel[] sOwnedPool>","to":"1084044960","type":"load","field":"<android.os.Parcel: android.os.Parcel[] sOwnedPool>"},{"step":26,"from":"1093451880","to":"1084044960","type":"store","field":"arrayIdx_int:0"},{"step":27,"from":"1093861704","to":"sdaReg69","type":"create","field":"<android.os.Bundle: android.os.Parcel mParcelledData>"},{"step":28,"from":"1085837744","to":"sdaReg89","type":"model"}],"parameters":[{"id":"1093861704","name":"this","klass":"android.os.Bundle"},{"id":"sdaReg0","name":"arg#1","klass":"string"}],"returns":[{"id":"sdaReg89","name":"return","klass":"boolean"}],"colors":{"heapLocToColor":{"sdaReg61":[9],"1093861704.<android.os.Bundle: android.os.Parcel mParcelledData>":[0],"1093811608":[3],"1084044960":[13],"sdaReg66":[13],"sdaReg67":[13],"sdaReg64":[12],"sdaReg65":[0],"sdaReg63":[12],"sdaReg72":[0],"sdaReg14":[0],"sdaReg70":[0],"sdaReg11":[0],"sdaReg12":[3],"1093638344":[11],"sdaReg10":[3],"sdaReg59":[12],"sdaReg58":[9],"sdaReg19":[0],"1083997920":[4],"sdaReg56":[3],"sdaReg17":[0, 6],"sdaReg53":[11],"sdaReg16":[0, 5],"sdaReg51":[11],"sdaReg77":[14],"sdaReg78":[14],"sdaReg79":[14],"1093811608.<java.util.HashMap: int size>":[3],"sdaReg73":[3],"sdaReg74":[14],"sdaReg75":[14],"sdaReg76":[14],"sdaReg81":[14],"sdaReg80":[14],"1093861704":[0],"sdaReg82":[14],"1093638384":[12],"sdaReg46":[3],"sdaReg41":[3],"sdaReg40":[10],"sdaReg43":[3],"sdaReg42":[3],"static.<android.os.Parcel: android.os.Parcel[] sOwnedPool>":[13],"sdaReg86":[15],"sdaReg87":[9],"sdaReg85":[14],"sdaReg88":[9],"sdaReg89":[16, 9],"1093811608.<java.util.HashMap: int modCount>":[3],"sdaReg37":[10],"sdaReg32":[10],"sdaReg31":[10],"static.<java.util.HashMap: java.util.Map$Entry[] EMPTY_TABLE>":[4],"sdaReg30":[10],"sdaReg36":[10],"sdaReg35":[10],"sdaReg34":[10],"sdaReg33":[10],"sdaReg8":[4],"sdaReg6":[3],"sdaReg7":[4],"sdaReg4":[3],"sdaReg5":[3],"1093451880.<android.os.Parcel: int mOwnObject>":[0],"sdaReg26":[3],"sdaReg29":[10],"1085837744":[9],"sdaReg28":[9],"1093451880":[0],"sdaReg3":[3],"sdaReg2":[0, 2],"sdaReg21":[0, 7],"sdaReg1":[0],"sdaReg0":[1],"sdaReg22":[0, 8],"sdaReg25":[9],"sdaReg24":[9]},"colorToColor":{"0":[13],"16":[17],"3":[0, 3],"4":[3],"9":[17, 12],"10":[12],"11":[3],"12":[11]},"colorToLabel":{"0":"this","1":"arg#1","4":"<java.util.HashMap: java.util.Map$Entry[] EMPTY_TABLE>","13":"<android.os.Parcel: android.os.Parcel[] sOwnedPool>","17":"return"}}}

Generated Model
	this-><android.os.Parcel: android.os.Parcel[] sOwnedPool>

