Scanning method <java.util.Formatter$FormatToken: void <init>(java.util.Formatter$1)>

All seen event types: MethodReturnRecord, MethodCallRecord, MethodStartRecord, MethodEndRecord, StoreInstanceRecord, 
Ignored event types: 

JSON Encoded Analysis Data (for visualization):{"heapEdges":[{"step":0,"from":"1093228872","to":"sdaReg2","type":"create","field":"<java.util.Formatter$FormatToken: int argIndex>"},{"step":1,"from":"1093228872","to":"sdaReg3","type":"create","field":"<java.util.Formatter$FormatToken: char conversionType>"},{"step":2,"from":"1093228872","to":"sdaReg4","type":"create","field":"<java.util.Formatter$FormatToken: int precision>"},{"step":3,"from":"1093228872","to":"sdaReg5","type":"create","field":"<java.util.Formatter$FormatToken: int width>"}],"parameters":[{"id":"1093228872","name":"this","klass":"java.util.Formatter$FormatToken"},{"id":"0","name":"arg#1","klass":"java.util.Formatter$1"}],"returns":[{"id":"1093228872","name":"return","klass":"java.util.Formatter$FormatToken"}],"colors":{"heapLocToColor":{"1093228872":[0],"0":[1],"sdaReg6":[0],"sdaReg1":[0],"sdaReg0":[0]},"colorToColor":{"0":[2]},"colorToLabel":{"0":"this","1":"arg#1","2":"return"}}}

Generated Model
	this->return

