Scanning method <java.net.URLConnection: boolean getDoInput()>

All seen event types: LoadInstanceRecord, 
Ignored event types: 

JSON Encoded Analysis Data (for visualization):{"heapEdges":[{"step":0,"from":"1093611456","to":"1093611456.<java.net.URLConnection: boolean doInput>","type":"load","field":"<java.net.URLConnection: boolean doInput>"}],"parameters":[{"id":"1093611456","name":"this","klass":"java.net.URLConnection"}],"returns":[{"id":"1093611456.<java.net.URLConnection: boolean doInput>","name":"return","klass":"boolean"}],"colors":{"heapLocToColor":{"1093611456":[0],"1093611456.<java.net.URLConnection: boolean doInput>":[0]},"colorToColor":{"0":[1]},"colorToLabel":{"0":"this","1":"return"}}}

Generated Model
	this->return

