Scanning method <android.os.Bundle: void writeToParcel(android.os.Parcel,int)>

All seen event types: SimpleAssignmentRecord, LoadInstanceRecord, MethodStartRecord, IfRecord, InstanceOfRecord, NewObjectRecord, StoreInstanceRecord, BinaryOperationRecord, MethodCallRecord, MethodReturnRecord, ArrayLengthRecord, CastRecord, LoadArrayRecord, MethodEndRecord, 
Ignored event types: IfRecord, 

JSON Encoded Analysis Data (for visualization):{"heapEdges":[{"step":0,"from":"1093932544","to":"1093932544.<android.os.Bundle: boolean mAllowFds>","type":"load","field":"<android.os.Bundle: boolean mAllowFds>"},{"step":1,"from":"1093450584","to":"1093932544.<android.os.Bundle: boolean mAllowFds>","type":"model"},{"step":2,"from":"1093450584","to":"sdaReg1","type":"model"},{"step":3,"from":"1093932544.<android.os.Bundle: boolean mAllowFds>","to":"1093450584","type":"model"},{"step":4,"from":"1093932544.<android.os.Bundle: boolean mAllowFds>","to":"sdaReg1","type":"model"},{"step":5,"from":"1093450584","to":"sdaReg2","type":"model"},{"step":6,"from":"1093932544","to":"1093939512","type":"load","field":"<android.os.Bundle: java.util.Map mMap>"},{"step":7,"from":"1093939512","to":"1093904072","type":"store","field":"<java.util.HashMap$EntrySet: java.util.HashMap this$0>"},{"step":8,"from":"1093939512","to":"1093904072","type":"create","field":"<java.util.HashMap: java.util.Set entrySet>"},{"step":9,"from":"1093939512","to":"1093939512.<java.util.HashMap: int size>","type":"load","field":"<java.util.HashMap: int size>"},{"step":10,"from":"1093450584","to":"1093939512.<java.util.HashMap: int size>","type":"model"},{"step":11,"from":"1093939512.<java.util.HashMap: int size>","to":"1093450584","type":"model"},{"step":12,"from":"1093939512","to":"1093679280","type":"store","field":"<java.util.HashMap$EntryIterator: java.util.HashMap this$0>"},{"step":13,"from":"1093939512","to":"1093679280","type":"store","field":"<java.util.HashMap$HashIterator: java.util.HashMap this$0>"},{"step":14,"from":"1093939512","to":"1093939512.<java.util.HashMap: int modCount>","type":"load","field":"<java.util.HashMap: int modCount>"},{"step":15,"from":"1093939512.<java.util.HashMap: int modCount>","to":"1093679280","type":"store","field":"<java.util.HashMap$HashIterator: int expectedModCount>"},{"step":16,"from":"1093939512","to":"1093644776","type":"load","field":"<java.util.HashMap: java.util.HashMap$HashMapEntry[] table>"},{"step":17,"from":"1093679280","to":"1093679280.<java.util.HashMap$HashIterator: int nextIndex>","type":"load","field":"<java.util.HashMap$HashIterator: int nextIndex>"},{"step":18,"from":"1093679280","to":"1093679280.<java.util.HashMap$HashIterator: int nextIndex>","type":"load","field":"<java.util.HashMap$HashIterator: int nextIndex>"},{"step":19,"from":"sdaReg31","to":"1093679280","type":"store","field":"<java.util.HashMap$HashIterator: int nextIndex>"},{"step":20,"from":"sdaReg31","to":"1093679280","type":"store","field":"<java.util.HashMap$HashIterator: int nextIndex>"},{"step":21,"from":"sdaReg31","to":"1093679280","type":"store","field":"<java.util.HashMap$HashIterator: int nextIndex>"},{"step":22,"from":"1093644776","to":"1093742288","type":"load","field":"arrayIdx_int:2"},{"step":23,"from":"1093742288","to":"1093679280","type":"store","field":"<java.util.HashMap$HashIterator: java.util.HashMap$HashMapEntry nextEntry>"},{"step":24,"from":"1093939512","to":"1093939512.<java.util.HashMap: int modCount>","type":"load","field":"<java.util.HashMap: int modCount>"},{"step":25,"from":"1093939512","to":"1093644776","type":"load","field":"<java.util.HashMap: java.util.HashMap$HashMapEntry[] table>"},{"step":26,"from":"sdaReg45","to":"1093679280","type":"store","field":"<java.util.HashMap$HashIterator: int nextIndex>"},{"step":27,"from":"1093742288","to":"1093679280","type":"store","field":"<java.util.HashMap$HashIterator: java.util.HashMap$HashMapEntry lastEntryReturned>"},{"step":28,"from":"1093742288","to":"1093516192","type":"load","field":"<java.util.HashMap$HashMapEntry: java.lang.Object key>"},{"step":29,"from":"1093450584","to":"sdaReg56","type":"model"},{"step":30,"from":"sdaReg56","to":"1093450584","type":"model"},{"step":31,"from":"1093742288","to":"1093696640","type":"load","field":"<java.util.HashMap$HashMapEntry: java.lang.Object value>"},{"step":32,"from":"1093696640","to":"1093696640.<java.util.ArrayList: int size>","type":"load","field":"<java.util.ArrayList: int size>"},{"step":33,"from":"1093450584","to":"1093696640.<java.util.ArrayList: int size>","type":"model"},{"step":34,"from":"1093696640.<java.util.ArrayList: int size>","to":"1093450584","type":"model"},{"step":35,"from":"1093696640","to":"1093696640.<java.util.ArrayList: int size>","type":"load","field":"<java.util.ArrayList: int size>"},{"step":36,"from":"1093696640","to":"1093428944","type":"load","field":"<java.util.ArrayList: java.lang.Object[] array>"},{"step":37,"from":"1093428944","to":"1093880584","type":"load","field":"arrayIdx_int:0"},{"step":38,"from":"1093880584","to":"1093880584.<android.os.Bundle: boolean mAllowFds>","type":"load","field":"<android.os.Bundle: boolean mAllowFds>"},{"step":39,"from":"1093450584","to":"1093880584.<android.os.Bundle: boolean mAllowFds>","type":"model"},{"step":40,"from":"1093450584","to":"sdaReg92","type":"model"},{"step":41,"from":"1093880584.<android.os.Bundle: boolean mAllowFds>","to":"1093450584","type":"model"},{"step":42,"from":"1093880584.<android.os.Bundle: boolean mAllowFds>","to":"sdaReg92","type":"model"},{"step":43,"from":"1093450584","to":"sdaReg93","type":"model"},{"step":44,"from":"1093880584","to":"1093867032","type":"load","field":"<android.os.Bundle: java.util.Map mMap>"},{"step":45,"from":"1093867032","to":"1093503704","type":"store","field":"<java.util.HashMap$EntrySet: java.util.HashMap this$0>"},{"step":46,"from":"1093867032","to":"1093503704","type":"create","field":"<java.util.HashMap: java.util.Set entrySet>"},{"step":47,"from":"1093867032","to":"1093867032.<java.util.HashMap: int size>","type":"load","field":"<java.util.HashMap: int size>"},{"step":48,"from":"1093450584","to":"1093867032.<java.util.HashMap: int size>","type":"model"},{"step":49,"from":"1093867032.<java.util.HashMap: int size>","to":"1093450584","type":"model"},{"step":50,"from":"1093867032","to":"1094057488","type":"store","field":"<java.util.HashMap$EntryIterator: java.util.HashMap this$0>"},{"step":51,"from":"1093867032","to":"1094057488","type":"store","field":"<java.util.HashMap$HashIterator: java.util.HashMap this$0>"},{"step":52,"from":"1093867032","to":"1093867032.<java.util.HashMap: int modCount>","type":"load","field":"<java.util.HashMap: int modCount>"},{"step":53,"from":"1093867032.<java.util.HashMap: int modCount>","to":"1094057488","type":"store","field":"<java.util.HashMap$HashIterator: int expectedModCount>"},{"step":54,"from":"1093867032","to":"1083997920","type":"load","field":"<java.util.HashMap: java.util.HashMap$HashMapEntry[] table>"},{"step":55,"from":"1094057488","to":"1094057488.<java.util.HashMap$HashIterator: int nextIndex>","type":"load","field":"<java.util.HashMap$HashIterator: int nextIndex>"},{"step":56,"from":"1094057488","to":"1094057488.<java.util.HashMap$HashIterator: int nextIndex>","type":"load","field":"<java.util.HashMap$HashIterator: int nextIndex>"},{"step":57,"from":"sdaReg122","to":"1094057488","type":"store","field":"<java.util.HashMap$HashIterator: int nextIndex>"},{"step":58,"from":"sdaReg122","to":"1094057488","type":"store","field":"<java.util.HashMap$HashIterator: int nextIndex>"},{"step":59,"from":"1093450584","to":"sdaReg132","type":"model"},{"step":60,"from":"1093450584","to":"sdaReg133","type":"model"},{"step":61,"from":"sdaReg133","to":"1093450584","type":"model"},{"step":62,"from":"1093450584","to":"sdaReg134","type":"model"},{"step":63,"from":"sdaReg134","to":"1093450584","type":"model"},{"step":64,"from":"1093450584","to":"sdaReg132","type":"model"},{"step":65,"from":"sdaReg132","to":"1093450584","type":"model"},{"step":66,"from":"1093450584","to":"sdaReg92","type":"model"},{"step":67,"from":"sdaReg92","to":"1093450584","type":"model"},{"step":68,"from":"1093696640","to":"1093696640.<java.util.ArrayList: int size>","type":"load","field":"<java.util.ArrayList: int size>"},{"step":69,"from":"1093696640","to":"1093428944","type":"load","field":"<java.util.ArrayList: java.lang.Object[] array>"},{"step":70,"from":"1093428944","to":"1093867504","type":"load","field":"arrayIdx_int:1"},{"step":71,"from":"1093867504","to":"1093867504.<android.os.Bundle: boolean mAllowFds>","type":"load","field":"<android.os.Bundle: boolean mAllowFds>"},{"step":72,"from":"1093450584","to":"1093867504.<android.os.Bundle: boolean mAllowFds>","type":"model"},{"step":73,"from":"1093450584","to":"sdaReg149","type":"model"},{"step":74,"from":"1093867504.<android.os.Bundle: boolean mAllowFds>","to":"1093450584","type":"model"},{"step":75,"from":"1093867504.<android.os.Bundle: boolean mAllowFds>","to":"sdaReg149","type":"model"},{"step":76,"from":"1093450584","to":"sdaReg150","type":"model"},{"step":77,"from":"1093867504","to":"1093428472","type":"load","field":"<android.os.Bundle: java.util.Map mMap>"},{"step":78,"from":"1093428472","to":"1093448720","type":"store","field":"<java.util.HashMap$EntrySet: java.util.HashMap this$0>"},{"step":79,"from":"1093428472","to":"1093448720","type":"create","field":"<java.util.HashMap: java.util.Set entrySet>"},{"step":80,"from":"1093428472","to":"1093428472.<java.util.HashMap: int size>","type":"load","field":"<java.util.HashMap: int size>"},{"step":81,"from":"1093450584","to":"1093428472.<java.util.HashMap: int size>","type":"model"},{"step":82,"from":"1093428472.<java.util.HashMap: int size>","to":"1093450584","type":"model"},{"step":83,"from":"1093428472","to":"1094116104","type":"store","field":"<java.util.HashMap$EntryIterator: java.util.HashMap this$0>"},{"step":84,"from":"1093428472","to":"1094116104","type":"store","field":"<java.util.HashMap$HashIterator: java.util.HashMap this$0>"},{"step":85,"from":"1093428472","to":"1093428472.<java.util.HashMap: int modCount>","type":"load","field":"<java.util.HashMap: int modCount>"},{"step":86,"from":"1093428472.<java.util.HashMap: int modCount>","to":"1094116104","type":"store","field":"<java.util.HashMap$HashIterator: int expectedModCount>"},{"step":87,"from":"1093428472","to":"1083997920","type":"load","field":"<java.util.HashMap: java.util.HashMap$HashMapEntry[] table>"},{"step":88,"from":"1094116104","to":"1094116104.<java.util.HashMap$HashIterator: int nextIndex>","type":"load","field":"<java.util.HashMap$HashIterator: int nextIndex>"},{"step":89,"from":"1094116104","to":"1094116104.<java.util.HashMap$HashIterator: int nextIndex>","type":"load","field":"<java.util.HashMap$HashIterator: int nextIndex>"},{"step":90,"from":"sdaReg179","to":"1094116104","type":"store","field":"<java.util.HashMap$HashIterator: int nextIndex>"},{"step":91,"from":"sdaReg179","to":"1094116104","type":"store","field":"<java.util.HashMap$HashIterator: int nextIndex>"},{"step":92,"from":"1093450584","to":"sdaReg189","type":"model"},{"step":93,"from":"1093450584","to":"sdaReg190","type":"model"},{"step":94,"from":"sdaReg190","to":"1093450584","type":"model"},{"step":95,"from":"1093450584","to":"sdaReg191","type":"model"},{"step":96,"from":"sdaReg191","to":"1093450584","type":"model"},{"step":97,"from":"1093450584","to":"sdaReg189","type":"model"},{"step":98,"from":"sdaReg189","to":"1093450584","type":"model"},{"step":99,"from":"1093450584","to":"sdaReg149","type":"model"},{"step":100,"from":"sdaReg149","to":"1093450584","type":"model"},{"step":101,"from":"1093450584","to":"sdaReg194","type":"model"},{"step":102,"from":"1093450584","to":"sdaReg195","type":"model"},{"step":103,"from":"sdaReg195","to":"1093450584","type":"model"},{"step":104,"from":"1093450584","to":"sdaReg196","type":"model"},{"step":105,"from":"sdaReg196","to":"1093450584","type":"model"},{"step":106,"from":"1093450584","to":"sdaReg194","type":"model"},{"step":107,"from":"sdaReg194","to":"1093450584","type":"model"},{"step":108,"from":"1093450584","to":"sdaReg1","type":"model"},{"step":109,"from":"sdaReg1","to":"1093450584","type":"model"}],"parameters":[{"id":"1093932544","name":"this","klass":"android.os.Bundle"},{"id":"1093450584","name":"arg#1","klass":"android.os.Parcel"},{"id":"sdaReg0","name":"arg#2","klass":"int"}],"returns":[{"id":null,"name":"return","klass":null}],"colors":{"heapLocToColor":{"sdaReg191":[16, 1, 13],"sdaReg125":[10],"sdaReg190":[1, 13],"sdaReg126":[10],"sdaReg127":[10],"sdaReg192":[6],"sdaReg128":[10],"sdaReg129":[10],"1093867032.<java.util.HashMap: int modCount>":[0],"sdaReg195":[1, 4],"sdaReg194":[17, 1],"sdaReg196":[17, 1, 4],"sdaReg13":[5],"sdaReg14":[5],"sdaReg11":[5],"sdaReg12":[5],"sdaReg10":[5],"1093428472":[0],"sdaReg19":[5],"sdaReg122":[10],"sdaReg17":[5],"sdaReg18":[5],"sdaReg15":[5],"sdaReg16":[5],"sdaReg116":[0],"sdaReg117":[10],"sdaReg114":[0],"sdaReg115":[10],"sdaReg118":[0],"sdaReg119":[10],"1093450584":[1],"sdaReg78":[0],"sdaReg79":[0],"sdaReg73":[0],"sdaReg74":[1],"sdaReg75":[0],"sdaReg76":[0],"1093428944":[0],"sdaReg81":[0],"sdaReg80":[1],"1093932544.<android.os.Bundle: boolean mAllowFds>":[0, 1],"1093904072":[5],"sdaReg113":[10],"sdaReg112":[0],"sdaReg111":[9],"sdaReg110":[9],"sdaReg107":[9],"sdaReg108":[9],"sdaReg109":[9],"sdaReg103":[9],"sdaReg104":[9],"sdaReg171":[0],"sdaReg105":[9],"1093939512":[0],"sdaReg170":[15],"sdaReg106":[9],"sdaReg173":[0],"sdaReg86":[0],"sdaReg172":[15],"sdaReg87":[1],"sdaReg175":[0],"sdaReg174":[15],"1093696640.<java.util.ArrayList: java.lang.Object[] array>":[0],"sdaReg176":[15],"sdaReg179":[15],"sdaReg88":[0],"sdaReg89":[0],"sdaReg90":[1],"sdaReg94":[1],"sdaReg93":[1, 8],"sdaReg92":[1, 7],"sdaReg100":[0],"1093644776":[0],"1093880584.<android.os.Bundle: boolean mAllowFds>":[0, 1],"sdaReg102":[9],"sdaReg101":[9],"1093503704":[9],"sdaReg182":[15],"1093428472.<java.util.HashMap: int modCount>":[0],"sdaReg186":[15],"sdaReg95":[0],"sdaReg185":[15],"sdaReg96":[0],"sdaReg184":[15],"1093867032":[0],"sdaReg97":[9],"sdaReg183":[15],"sdaReg98":[0],"sdaReg99":[9],"sdaReg189":[1, 16],"sdaReg187":[15],"1093679280.<java.util.HashMap$HashIterator: int nextIndex>":[6],"1093428472.<java.util.HashMap: java.util.HashMap$HashMapEntry[] table>":[0],"1093867504.<android.os.Bundle: boolean mAllowFds>":[0, 1],"1093867504":[0],"1093939512.<java.util.HashMap: int size>":[0, 1],"sdaReg60":[0],"1093880584":[0],"1093742288":[0],"1094057488":[10],"sdaReg169":[0],"sdaReg161":[14],"sdaReg162":[14],"sdaReg163":[14],"sdaReg164":[14],"sdaReg165":[14],"sdaReg166":[14],"sdaReg167":[14],"sdaReg168":[14],"sdaReg59":[1],"sdaReg58":[0],"sdaReg57":[0],"1083997920":[0],"sdaReg56":[0, 1],"1094057488.<java.util.HashMap$HashIterator: int nextIndex>":[10],"sdaReg54":[0],"sdaReg53":[1],"sdaReg52":[0],"sdaReg160":[14],"sdaReg51":[0],"1093939512.<java.util.HashMap: java.util.HashMap$HashMapEntry[] table>":[0],"sdaReg50":[0],"1094116104":[15],"sdaReg159":[14],"sdaReg158":[14],"sdaReg152":[0],"sdaReg153":[0],"sdaReg150":[1, 13],"sdaReg151":[1],"sdaReg156":[14],"sdaReg49":[0],"sdaReg157":[0],"sdaReg48":[0],"sdaReg154":[14],"1093448720":[14],"sdaReg155":[0],"sdaReg47":[0],"1093932544":[0],"sdaReg41":[6],"sdaReg43":[6],"sdaReg42":[6],"sdaReg147":[1],"sdaReg149":[1, 12],"sdaReg143":[0],"sdaReg144":[1],"sdaReg39":[6],"sdaReg145":[0],"sdaReg38":[6],"sdaReg146":[0],"sdaReg37":[6],"sdaReg31":[6],"1093867032.<java.util.HashMap: int size>":[0, 1],"sdaReg36":[6],"sdaReg35":[6],"sdaReg34":[6],"sdaReg8":[5],"sdaReg9":[0],"sdaReg6":[5],"sdaReg7":[0],"sdaReg4":[0],"sdaReg5":[0],"1093428472.<java.util.HashMap: int size>":[0, 1],"1093696640":[0],"1093696640.<java.util.ArrayList: int size>":[0, 1],"sdaReg138":[0],"sdaReg137":[1],"sdaReg136":[0],"sdaReg134":[1, 8, 11],"1093939512.<java.util.HashMap: int modCount>":[0],"sdaReg27":[0],"sdaReg135":[0],"sdaReg26":[6],"sdaReg132":[1, 11],"1093679280":[6],"sdaReg133":[1, 8],"sdaReg28":[6],"sdaReg130":[10],"1094116104.<java.util.HashMap$HashIterator: int nextIndex>":[15],"sdaReg3":[1],"sdaReg2":[1, 4],"sdaReg21":[0],"sdaReg1":[1, 3],"sdaReg20":[5],"sdaReg0":[2],"sdaReg23":[0],"sdaReg22":[6],"sdaReg25":[0],"1093516192":[0],"sdaReg24":[6]},"colorToColor":{"0":[1, 3, 5, 6, 7, 9, 10, 12, 14, 15],"1":[1, 3, 7, 12],"3":[1],"4":[1],"5":[0],"6":[6],"7":[1],"8":[1],"9":[0],"10":[10],"11":[1],"12":[1],"13":[1],"14":[0],"15":[15],"17":[1],"16":[1]},"colorToLabel":{"0":"this","1":"arg#1","2":"arg#2","18":"return"}}}

Generated Model
	this->arg#1

