Scanning method <android.os.Bundle: void writeToParcel(android.os.Parcel,int)>

All seen event types: SimpleAssignmentRecord, LoadInstanceRecord, MethodStartRecord, IfRecord, InstanceOfRecord, NewObjectRecord, StoreInstanceRecord, BinaryOperationRecord, MethodCallRecord, MethodReturnRecord, ArrayLengthRecord, CastRecord, LoadArrayRecord, MethodEndRecord, 
Ignored event types: IfRecord, 

JSON Encoded Analysis Data (for visualization):{"heapEdges":[{"step":0,"from":"1093941240","to":"1093941240.<android.os.Bundle: boolean mAllowFds>","type":"load","field":"<android.os.Bundle: boolean mAllowFds>"},{"step":1,"from":"1093453024","to":"1093941240.<android.os.Bundle: boolean mAllowFds>","type":"model"},{"step":2,"from":"1093453024","to":"sdaReg1","type":"model"},{"step":3,"from":"1093941240.<android.os.Bundle: boolean mAllowFds>","to":"1093453024","type":"model"},{"step":4,"from":"1093941240.<android.os.Bundle: boolean mAllowFds>","to":"sdaReg1","type":"model"},{"step":5,"from":"1093453024","to":"sdaReg2","type":"model"},{"step":6,"from":"1093941240","to":"1093951880","type":"load","field":"<android.os.Bundle: java.util.Map mMap>"},{"step":7,"from":"1093951880","to":"1093466272","type":"store","field":"<java.util.HashMap$EntrySet: java.util.HashMap this$0>"},{"step":8,"from":"1093951880","to":"1093466272","type":"create","field":"<java.util.HashMap: java.util.Set entrySet>"},{"step":9,"from":"1093951880","to":"1093951880.<java.util.HashMap: int size>","type":"load","field":"<java.util.HashMap: int size>"},{"step":10,"from":"1093453024","to":"1093951880.<java.util.HashMap: int size>","type":"model"},{"step":11,"from":"1093951880.<java.util.HashMap: int size>","to":"1093453024","type":"model"},{"step":12,"from":"1093951880","to":"1093630576","type":"store","field":"<java.util.HashMap$EntryIterator: java.util.HashMap this$0>"},{"step":13,"from":"1093951880","to":"1093630576","type":"store","field":"<java.util.HashMap$HashIterator: java.util.HashMap this$0>"},{"step":14,"from":"1093951880","to":"1093951880.<java.util.HashMap: int modCount>","type":"load","field":"<java.util.HashMap: int modCount>"},{"step":15,"from":"1093951880.<java.util.HashMap: int modCount>","to":"1093630576","type":"store","field":"<java.util.HashMap$HashIterator: int expectedModCount>"},{"step":16,"from":"1093951880","to":"1093689912","type":"load","field":"<java.util.HashMap: java.util.HashMap$HashMapEntry[] table>"},{"step":17,"from":"1093630576","to":"1093630576.<java.util.HashMap$HashIterator: int nextIndex>","type":"load","field":"<java.util.HashMap$HashIterator: int nextIndex>"},{"step":18,"from":"1093630576","to":"1093630576.<java.util.HashMap$HashIterator: int nextIndex>","type":"load","field":"<java.util.HashMap$HashIterator: int nextIndex>"},{"step":19,"from":"sdaReg31","to":"1093630576","type":"store","field":"<java.util.HashMap$HashIterator: int nextIndex>"},{"step":20,"from":"sdaReg31","to":"1093630576","type":"store","field":"<java.util.HashMap$HashIterator: int nextIndex>"},{"step":21,"from":"sdaReg31","to":"1093630576","type":"store","field":"<java.util.HashMap$HashIterator: int nextIndex>"},{"step":22,"from":"1093689912","to":"1093691816","type":"load","field":"arrayIdx_int:2"},{"step":23,"from":"1093691816","to":"1093630576","type":"store","field":"<java.util.HashMap$HashIterator: java.util.HashMap$HashMapEntry nextEntry>"},{"step":24,"from":"1093951880","to":"1093951880.<java.util.HashMap: int modCount>","type":"load","field":"<java.util.HashMap: int modCount>"},{"step":25,"from":"1093951880","to":"1093689912","type":"load","field":"<java.util.HashMap: java.util.HashMap$HashMapEntry[] table>"},{"step":26,"from":"sdaReg45","to":"1093630576","type":"store","field":"<java.util.HashMap$HashIterator: int nextIndex>"},{"step":27,"from":"1093691816","to":"1093630576","type":"store","field":"<java.util.HashMap$HashIterator: java.util.HashMap$HashMapEntry lastEntryReturned>"},{"step":28,"from":"1093691816","to":"1093512728","type":"load","field":"<java.util.HashMap$HashMapEntry: java.lang.Object key>"},{"step":29,"from":"1093453024","to":"sdaReg56","type":"model"},{"step":30,"from":"sdaReg56","to":"1093453024","type":"model"},{"step":31,"from":"1093691816","to":"1093567520","type":"load","field":"<java.util.HashMap$HashMapEntry: java.lang.Object value>"},{"step":32,"from":"1093453024","to":"sdaReg85","type":"model"},{"step":33,"from":"sdaReg85","to":"1093453024","type":"model"},{"step":34,"from":"1093567520","to":"1093898832","type":"load","field":"arrayIdx_int:0"},{"step":35,"from":"1093898832","to":"1084342632","type":"model"},{"step":36,"from":"1084342632","to":"sdaReg90","type":"model"},{"step":37,"from":"1093453024","to":"sdaReg90","type":"model"},{"step":38,"from":"sdaReg90","to":"1093453024","type":"model"},{"step":39,"from":"1093898832","to":"1093898832.<android.os.Bundle: boolean mAllowFds>","type":"load","field":"<android.os.Bundle: boolean mAllowFds>"},{"step":40,"from":"1093453024","to":"1093898832.<android.os.Bundle: boolean mAllowFds>","type":"model"},{"step":41,"from":"1093453024","to":"sdaReg93","type":"model"},{"step":42,"from":"1093898832.<android.os.Bundle: boolean mAllowFds>","to":"1093453024","type":"model"},{"step":43,"from":"1093898832.<android.os.Bundle: boolean mAllowFds>","to":"sdaReg93","type":"model"},{"step":44,"from":"1093453024","to":"sdaReg94","type":"model"},{"step":45,"from":"1093898832","to":"1093800680","type":"load","field":"<android.os.Bundle: java.util.Map mMap>"},{"step":46,"from":"1093800680","to":"1093442696","type":"store","field":"<java.util.HashMap$EntrySet: java.util.HashMap this$0>"},{"step":47,"from":"1093800680","to":"1093442696","type":"create","field":"<java.util.HashMap: java.util.Set entrySet>"},{"step":48,"from":"1093800680","to":"1093800680.<java.util.HashMap: int size>","type":"load","field":"<java.util.HashMap: int size>"},{"step":49,"from":"1093453024","to":"1093800680.<java.util.HashMap: int size>","type":"model"},{"step":50,"from":"1093800680.<java.util.HashMap: int size>","to":"1093453024","type":"model"},{"step":51,"from":"1093800680","to":"1093994376","type":"store","field":"<java.util.HashMap$EntryIterator: java.util.HashMap this$0>"},{"step":52,"from":"1093800680","to":"1093994376","type":"store","field":"<java.util.HashMap$HashIterator: java.util.HashMap this$0>"},{"step":53,"from":"1093800680","to":"1093800680.<java.util.HashMap: int modCount>","type":"load","field":"<java.util.HashMap: int modCount>"},{"step":54,"from":"1093800680.<java.util.HashMap: int modCount>","to":"1093994376","type":"store","field":"<java.util.HashMap$HashIterator: int expectedModCount>"},{"step":55,"from":"1093800680","to":"1083997920","type":"load","field":"<java.util.HashMap: java.util.HashMap$HashMapEntry[] table>"},{"step":56,"from":"1093994376","to":"1093994376.<java.util.HashMap$HashIterator: int nextIndex>","type":"load","field":"<java.util.HashMap$HashIterator: int nextIndex>"},{"step":57,"from":"1093994376","to":"1093994376.<java.util.HashMap$HashIterator: int nextIndex>","type":"load","field":"<java.util.HashMap$HashIterator: int nextIndex>"},{"step":58,"from":"sdaReg123","to":"1093994376","type":"store","field":"<java.util.HashMap$HashIterator: int nextIndex>"},{"step":59,"from":"sdaReg123","to":"1093994376","type":"store","field":"<java.util.HashMap$HashIterator: int nextIndex>"},{"step":60,"from":"1093453024","to":"sdaReg133","type":"model"},{"step":61,"from":"1093453024","to":"sdaReg134","type":"model"},{"step":62,"from":"sdaReg134","to":"1093453024","type":"model"},{"step":63,"from":"1093453024","to":"sdaReg135","type":"model"},{"step":64,"from":"sdaReg135","to":"1093453024","type":"model"},{"step":65,"from":"1093453024","to":"sdaReg133","type":"model"},{"step":66,"from":"sdaReg133","to":"1093453024","type":"model"},{"step":67,"from":"1093453024","to":"sdaReg93","type":"model"},{"step":68,"from":"sdaReg93","to":"1093453024","type":"model"},{"step":69,"from":"1093567520","to":"1093703792","type":"load","field":"arrayIdx_int:1"},{"step":70,"from":"1093703792","to":"1084342632","type":"model"},{"step":71,"from":"1084342632","to":"sdaReg139","type":"model"},{"step":72,"from":"1093453024","to":"sdaReg139","type":"model"},{"step":73,"from":"sdaReg139","to":"1093453024","type":"model"},{"step":74,"from":"1093703792","to":"1093703792.<android.os.Bundle: boolean mAllowFds>","type":"load","field":"<android.os.Bundle: boolean mAllowFds>"},{"step":75,"from":"1093453024","to":"1093703792.<android.os.Bundle: boolean mAllowFds>","type":"model"},{"step":76,"from":"1093453024","to":"sdaReg142","type":"model"},{"step":77,"from":"1093703792.<android.os.Bundle: boolean mAllowFds>","to":"1093453024","type":"model"},{"step":78,"from":"1093703792.<android.os.Bundle: boolean mAllowFds>","to":"sdaReg142","type":"model"},{"step":79,"from":"1093453024","to":"sdaReg143","type":"model"},{"step":80,"from":"1093703792","to":"1093566880","type":"load","field":"<android.os.Bundle: java.util.Map mMap>"},{"step":81,"from":"1093566880","to":"1093466256","type":"store","field":"<java.util.HashMap$EntrySet: java.util.HashMap this$0>"},{"step":82,"from":"1093566880","to":"1093466256","type":"create","field":"<java.util.HashMap: java.util.Set entrySet>"},{"step":83,"from":"1093566880","to":"1093566880.<java.util.HashMap: int size>","type":"load","field":"<java.util.HashMap: int size>"},{"step":84,"from":"1093453024","to":"1093566880.<java.util.HashMap: int size>","type":"model"},{"step":85,"from":"1093566880.<java.util.HashMap: int size>","to":"1093453024","type":"model"},{"step":86,"from":"1093566880","to":"1093670704","type":"store","field":"<java.util.HashMap$EntryIterator: java.util.HashMap this$0>"},{"step":87,"from":"1093566880","to":"1093670704","type":"store","field":"<java.util.HashMap$HashIterator: java.util.HashMap this$0>"},{"step":88,"from":"1093566880","to":"1093566880.<java.util.HashMap: int modCount>","type":"load","field":"<java.util.HashMap: int modCount>"},{"step":89,"from":"1093566880.<java.util.HashMap: int modCount>","to":"1093670704","type":"store","field":"<java.util.HashMap$HashIterator: int expectedModCount>"},{"step":90,"from":"1093566880","to":"1083997920","type":"load","field":"<java.util.HashMap: java.util.HashMap$HashMapEntry[] table>"},{"step":91,"from":"1093670704","to":"1093670704.<java.util.HashMap$HashIterator: int nextIndex>","type":"load","field":"<java.util.HashMap$HashIterator: int nextIndex>"},{"step":92,"from":"1093670704","to":"1093670704.<java.util.HashMap$HashIterator: int nextIndex>","type":"load","field":"<java.util.HashMap$HashIterator: int nextIndex>"},{"step":93,"from":"sdaReg172","to":"1093670704","type":"store","field":"<java.util.HashMap$HashIterator: int nextIndex>"},{"step":94,"from":"sdaReg172","to":"1093670704","type":"store","field":"<java.util.HashMap$HashIterator: int nextIndex>"},{"step":95,"from":"1093453024","to":"sdaReg182","type":"model"},{"step":96,"from":"1093453024","to":"sdaReg183","type":"model"},{"step":97,"from":"sdaReg183","to":"1093453024","type":"model"},{"step":98,"from":"1093453024","to":"sdaReg184","type":"model"},{"step":99,"from":"sdaReg184","to":"1093453024","type":"model"},{"step":100,"from":"1093453024","to":"sdaReg182","type":"model"},{"step":101,"from":"sdaReg182","to":"1093453024","type":"model"},{"step":102,"from":"1093453024","to":"sdaReg142","type":"model"},{"step":103,"from":"sdaReg142","to":"1093453024","type":"model"},{"step":104,"from":"1093453024","to":"sdaReg187","type":"model"},{"step":105,"from":"1093453024","to":"sdaReg188","type":"model"},{"step":106,"from":"sdaReg188","to":"1093453024","type":"model"},{"step":107,"from":"1093453024","to":"sdaReg189","type":"model"},{"step":108,"from":"sdaReg189","to":"1093453024","type":"model"},{"step":109,"from":"1093453024","to":"sdaReg187","type":"model"},{"step":110,"from":"sdaReg187","to":"1093453024","type":"model"},{"step":111,"from":"1093453024","to":"sdaReg1","type":"model"},{"step":112,"from":"sdaReg1","to":"1093453024","type":"model"}],"parameters":[{"id":"1093941240","name":"this","klass":"android.os.Bundle"},{"id":"1093453024","name":"arg#1","klass":"android.os.Parcel"},{"id":"sdaReg0","name":"arg#2","klass":"int"}],"returns":[{"id":null,"name":"return","klass":null}],"colors":{"heapLocToColor":{"sdaReg126":[12],"sdaReg127":[12],"1093670704.<java.util.HashMap$HashIterator: int nextIndex>":[18],"sdaReg128":[12],"sdaReg129":[12],"1093466256":[17],"sdaReg13":[5],"sdaReg14":[5],"sdaReg11":[5],"sdaReg12":[5],"sdaReg10":[5],"sdaReg120":[12],"sdaReg19":[5],"sdaReg17":[5],"sdaReg18":[5],"1093670704":[18],"sdaReg15":[5],"sdaReg123":[12],"sdaReg16":[5],"sdaReg116":[12],"sdaReg117":[0],"sdaReg114":[12],"sdaReg115":[0],"sdaReg118":[12],"sdaReg119":[0],"1093567520":[0],"sdaReg81":[0],"sdaReg80":[0],"sdaReg83":[0],"1093800680.<java.util.HashMap: int modCount>":[0],"sdaReg82":[1],"1093630576":[6],"1093630576.<java.util.HashMap$HashIterator: int nextIndex>":[6],"sdaReg113":[0],"sdaReg112":[11],"sdaReg111":[11],"sdaReg110":[11],"sdaReg107":[11],"sdaReg108":[11],"sdaReg109":[11],"1093466272":[5],"sdaReg103":[11],"sdaReg104":[11],"1093689912":[0],"sdaReg105":[11],"sdaReg106":[11],"sdaReg172":[18],"sdaReg87":[1],"sdaReg175":[18],"sdaReg85":[1],"sdaReg177":[18],"sdaReg176":[18],"sdaReg179":[18],"sdaReg88":[0],"sdaReg178":[18],"sdaReg89":[0, 7],"sdaReg90":[0, 1, 7, 8],"1093800680":[0],"sdaReg94":[1, 10],"sdaReg93":[1, 9],"1093951880":[0],"1093453024":[1],"sdaReg92":[1],"sdaReg91":[0],"sdaReg100":[11],"1093442696":[11],"sdaReg102":[11],"sdaReg101":[0],"1093898832":[0],"sdaReg182":[1, 19],"sdaReg180":[18],"sdaReg95":[1],"sdaReg185":[6],"sdaReg96":[0],"sdaReg184":[16, 1, 19],"1093941240.<android.os.Bundle: boolean mAllowFds>":[0, 1],"sdaReg97":[0],"sdaReg183":[16, 1],"sdaReg98":[11],"sdaReg99":[0],"sdaReg189":[1, 4, 20],"sdaReg188":[1, 4],"sdaReg187":[1, 20],"1084342632":[0, 7],"1093703792.<android.os.Bundle: boolean mAllowFds>":[0, 1],"sdaReg60":[0],"1093994376":[12],"sdaReg169":[18],"sdaReg161":[17],"sdaReg162":[0],"sdaReg163":[18],"sdaReg164":[0],"sdaReg165":[18],"1093941240":[0],"1093951880.<java.util.HashMap: java.util.HashMap$HashMapEntry[] table>":[0],"1093566880.<java.util.HashMap: int modCount>":[0],"sdaReg166":[0],"sdaReg167":[18],"1093566880":[0],"sdaReg168":[0],"sdaReg59":[1],"sdaReg58":[0],"sdaReg57":[0],"1083997920":[0],"sdaReg56":[0, 1],"sdaReg54":[0],"1093994376.<java.util.HashMap$HashIterator: int nextIndex>":[12],"sdaReg53":[1],"sdaReg52":[0],"sdaReg160":[17],"sdaReg51":[0],"sdaReg50":[0],"1093512728":[0],"sdaReg159":[17],"sdaReg158":[17],"1093951880.<java.util.HashMap: int modCount>":[0],"sdaReg152":[17],"sdaReg153":[17],"sdaReg150":[0],"sdaReg151":[17],"sdaReg156":[17],"sdaReg49":[0],"sdaReg157":[17],"sdaReg48":[0],"sdaReg154":[17],"sdaReg155":[17],"sdaReg47":[0],"sdaReg41":[6],"sdaReg43":[6],"sdaReg42":[6],"1093898832.<android.os.Bundle: boolean mAllowFds>":[0, 1],"1093691816":[0],"sdaReg148":[0],"sdaReg147":[17],"1093703792":[0],"sdaReg149":[17],"sdaReg143":[1, 16],"sdaReg144":[1],"sdaReg39":[6],"sdaReg145":[0],"sdaReg38":[6],"sdaReg146":[0],"sdaReg37":[6],"sdaReg140":[0],"1093800680.<java.util.HashMap: int size>":[0, 1],"sdaReg141":[1],"1093566880.<java.util.HashMap: int size>":[0, 1],"sdaReg142":[1, 15],"1093951880.<java.util.HashMap: int size>":[0, 1],"sdaReg31":[6],"sdaReg36":[6],"sdaReg35":[6],"sdaReg34":[6],"sdaReg8":[5],"sdaReg9":[0],"sdaReg6":[5],"sdaReg7":[0],"sdaReg4":[0],"sdaReg5":[0],"sdaReg139":[0, 1, 7, 14],"sdaReg138":[0, 7],"sdaReg137":[0],"sdaReg136":[1],"sdaReg134":[1, 10],"sdaReg27":[0],"sdaReg135":[1, 10, 13],"sdaReg26":[6],"sdaReg133":[1, 13],"sdaReg28":[6],"sdaReg130":[12],"sdaReg131":[12],"sdaReg3":[1],"sdaReg2":[1, 4],"sdaReg21":[0],"sdaReg1":[1, 3],"sdaReg20":[5],"sdaReg0":[2],"1093566880.<java.util.HashMap: java.util.HashMap$HashMapEntry[] table>":[0],"sdaReg23":[0],"sdaReg22":[6],"sdaReg25":[0],"sdaReg24":[6]},"colorToColor":{"0":[17, 1, 18, 3, 5, 6, 9, 11, 12, 15],"1":[1, 3, 9, 15],"3":[1],"4":[1],"5":[0],"6":[6],"7":[1],"8":[1],"9":[1],"10":[1],"11":[0],"12":[12],"13":[1],"14":[1],"15":[1],"17":[0],"16":[1],"19":[1],"18":[18],"20":[1]},"colorToLabel":{"0":"this","1":"arg#1","2":"arg#2","21":"return"}}}

Generated Model
	this->arg#1

