Scanning method <java.util.Formatter: java.lang.Object getArgument(java.lang.Object[],int,java.util.Formatter$FormatSpecifierParser,java.lang.Object,boolean)>

All seen event types: ArrayLengthRecord, LoadArrayRecord, IfRecord, 
Ignored event types: IfRecord, 

JSON Encoded Analysis Data (for visualization):{"heapEdges":[{"step":0,"from":"1094133016","to":"1094133048","type":"load","field":"arrayIdx_int:1"}],"parameters":[{"id":"1094135840","name":"this","klass":"java.util.Formatter"},{"id":"1094133016","name":"arg#1","klass":"java.lang.Object[]"},{"id":"sdaReg0","name":"arg#2","klass":"int"},{"id":"1094136968","name":"arg#3","klass":"java.util.Formatter$FormatSpecifierParser"},{"id":"1093301144","name":"arg#4","klass":"java.lang.Object"},{"id":"sdaReg1","name":"arg#5","klass":"boolean"}],"returns":[{"id":"1094133048","name":"return","klass":"java.lang.Object"}],"colors":{"heapLocToColor":{"1094133016":[1],"1094133048":[1],"sdaReg1":[5],"1094136968":[3],"sdaReg0":[2],"1094135840":[0],"1093301144":[4]},"colorToColor":{"1":[6]},"colorToLabel":{"0":"this","1":"arg#1","2":"arg#2","3":"arg#3","4":"arg#4","5":"arg#5","6":"return"}}}

Generated Model
	arg#1->return

