Scanning method <java.io.DataOutputStream: void write(int)>

All seen event types: BinaryOperationRecord, StoreArrayRecord, MethodReturnRecord, MethodCallRecord, CastRecord, ArrayLengthRecord, MethodStartRecord, LoadInstanceRecord, MethodEndRecord, IfRecord, StoreInstanceRecord, 
Ignored event types: IfRecord, 

JSON Encoded Analysis Data (for visualization):{"heapEdges":[{"step":0,"from":"1093670080","to":"1093289808","type":"load","field":"<java.io.FilterOutputStream: java.io.OutputStream out>"},{"step":1,"from":"1093289808","to":"1093289808.<java.io.ByteArrayOutputStream: int count>","type":"load","field":"<java.io.ByteArrayOutputStream: int count>"},{"step":2,"from":"1093289808","to":"1093229240","type":"load","field":"<java.io.ByteArrayOutputStream: byte[] buf>"},{"step":3,"from":"1093289808","to":"1093229240","type":"load","field":"<java.io.ByteArrayOutputStream: byte[] buf>"},{"step":4,"from":"1093289808","to":"1093289808.<java.io.ByteArrayOutputStream: int count>","type":"load","field":"<java.io.ByteArrayOutputStream: int count>"},{"step":5,"from":"sdaReg3","to":"1093289808","type":"store","field":"<java.io.ByteArrayOutputStream: int count>"},{"step":6,"from":"sdaReg4","to":"1093229240","type":"store","field":"arrayIdx_int:0"},{"step":7,"from":"1093670080","to":"1093670080.<java.io.DataOutputStream: int written>","type":"load","field":"<java.io.DataOutputStream: int written>"},{"step":8,"from":"sdaReg5","to":"1093670080","type":"store","field":"<java.io.DataOutputStream: int written>"}],"parameters":[{"id":"1093670080","name":"this","klass":"java.io.DataOutputStream"},{"id":"sdaReg0","name":"arg#1","klass":"int"}],"returns":[{"id":null,"name":"return","klass":null}],"colors":{"heapLocToColor":{"1093289808.<java.io.ByteArrayOutputStream: int count>":[0],"1093289808.<java.io.ByteArrayOutputStream: byte[] buf>":[0],"1093289808":[0],"1093670080":[0],"sdaReg4":[1],"sdaReg5":[0],"sdaReg3":[0],"sdaReg1":[0],"1093670080.<java.io.DataOutputStream: int written>":[0],"sdaReg0":[1],"1093229240":[0]},"colorToColor":{"0":[0],"1":[0]},"colorToLabel":{"0":"this","1":"arg#1","2":"return"}}}

Generated Model
	arg#1->this

