Scanning method <java.util.HashSet: java.util.Iterator iterator()>

All seen event types: BinaryOperationRecord, SimpleAssignmentRecord, MethodReturnRecord, MethodCallRecord, ArrayLengthRecord, MethodStartRecord, LoadInstanceRecord, LoadArrayRecord, MethodEndRecord, IfRecord, StoreInstanceRecord, NewObjectRecord, 
Ignored event types: IfRecord, 

JSON Encoded Analysis Data (for visualization):{"heapEdges":[{"step":0,"from":"1093556072","to":"1093556088","type":"load","field":"<java.util.HashSet: java.util.HashMap backingMap>"},{"step":1,"from":"1093556088","to":"1093637824","type":"store","field":"<java.util.HashMap$KeySet: java.util.HashMap this$0>"},{"step":2,"from":"1093556088","to":"1093637824","type":"create","field":"<java.util.HashMap: java.util.Set keySet>"},{"step":3,"from":"1093556088","to":"1093637840","type":"store","field":"<java.util.HashMap$KeyIterator: java.util.HashMap this$0>"},{"step":4,"from":"1093556088","to":"1093637840","type":"store","field":"<java.util.HashMap$HashIterator: java.util.HashMap this$0>"},{"step":5,"from":"1093556088","to":"1093556088.<java.util.HashMap: int modCount>","type":"load","field":"<java.util.HashMap: int modCount>"},{"step":6,"from":"1093556088.<java.util.HashMap: int modCount>","to":"1093637840","type":"store","field":"<java.util.HashMap$HashIterator: int expectedModCount>"},{"step":7,"from":"1093556088","to":"1093563280","type":"load","field":"<java.util.HashMap: java.util.HashMap$HashMapEntry[] table>"},{"step":8,"from":"1093637840","to":"1093637840.<java.util.HashMap$HashIterator: int nextIndex>","type":"load","field":"<java.util.HashMap$HashIterator: int nextIndex>"},{"step":9,"from":"1093637840","to":"1093637840.<java.util.HashMap$HashIterator: int nextIndex>","type":"load","field":"<java.util.HashMap$HashIterator: int nextIndex>"},{"step":10,"from":"sdaReg25","to":"1093637840","type":"store","field":"<java.util.HashMap$HashIterator: int nextIndex>"},{"step":11,"from":"sdaReg25","to":"1093637840","type":"store","field":"<java.util.HashMap$HashIterator: int nextIndex>"},{"step":12,"from":"sdaReg25","to":"1093637840","type":"store","field":"<java.util.HashMap$HashIterator: int nextIndex>"},{"step":13,"from":"1093563280","to":"1093616296","type":"load","field":"arrayIdx_int:2"},{"step":14,"from":"1093616296","to":"1093637840","type":"store","field":"<java.util.HashMap$HashIterator: java.util.HashMap$HashMapEntry nextEntry>"}],"parameters":[{"id":"1093556072","name":"this","klass":"java.util.HashSet"}],"returns":[{"id":"1093637840","name":"return","klass":"java.util.Iterator"}],"colors":{"heapLocToColor":{"1093563280":[0],"1093556088":[0],"sdaReg13":[1],"sdaReg14":[1],"sdaReg11":[1],"sdaReg12":[1],"sdaReg10":[1],"sdaReg32":[2],"sdaReg31":[2],"sdaReg30":[2],"sdaReg19":[0],"1093637824":[1],"sdaReg17":[0],"sdaReg18":[2],"sdaReg15":[0],"sdaReg16":[2],"sdaReg8":[1],"sdaReg9":[1],"sdaReg6":[1],"sdaReg7":[1],"1093637840":[2],"sdaReg4":[0],"sdaReg5":[1],"1093637840.<java.util.HashMap$HashIterator: int nextIndex>":[2],"1093556088.<java.util.HashMap: int modCount>":[0],"1093616296":[0],"sdaReg29":[2],"sdaReg28":[2],"sdaReg3":[1],"sdaReg2":[0],"sdaReg21":[0],"sdaReg1":[1],"sdaReg0":[0],"sdaReg20":[2],"sdaReg22":[2],"sdaReg25":[2],"1093556072":[0]},"colorToColor":{"0":[1, 2],"1":[0],"2":[2, 3]},"colorToLabel":{"0":"this","3":"return"}}}

Generated Model
	this->return

