Scanning method <java.net.URL: java.lang.String getHost()>

All seen event types: LoadInstanceRecord, 
Ignored event types: 

JSON Encoded Analysis Data (for visualization):{"heapEdges":[{"step":0,"from":"1093280112","to":"1093280112.<java.net.URL: java.lang.String host>","type":"load","field":"<java.net.URL: java.lang.String host>"}],"parameters":[{"id":"1093280112","name":"this","klass":"java.net.URL"}],"returns":[{"id":"1093280112.<java.net.URL: java.lang.String host>","name":"return","klass":"string"}],"colors":{"heapLocToColor":{"1093280112":[0],"1093280112.<java.net.URL: java.lang.String host>":[0]},"colorToColor":{"0":[1]},"colorToLabel":{"0":"this","1":"return"}}}

Generated Model
	this->return

