Scanning method <java.util.ArrayList: boolean addAll(int,java.util.Collection)>

All seen event types: NewArrayRecord, BinaryOperationRecord, MethodReturnRecord, MethodCallRecord, ArrayLengthRecord, MethodStartRecord, LoadInstanceRecord, MethodEndRecord, IfRecord, StoreInstanceRecord, 
Ignored event types: IfRecord, 

JSON Encoded Analysis Data (for visualization):{"heapEdges":[{"step":0,"from":"1093407224","to":"1093407224.<java.util.ArrayList: int size>","type":"load","field":"<java.util.ArrayList: int size>"},{"step":1,"from":"1093287304","to":"1093287304.<java.util.ArrayList: int size>","type":"load","field":"<java.util.ArrayList: int size>"},{"step":2,"from":"1093287304","to":"1093835384","type":"load","field":"<java.util.ArrayList: java.lang.Object[] array>"},{"step":3,"from":"1093835384","to":"1093835648","type":"model"},{"step":4,"from":"1093407224","to":"1093748416","type":"load","field":"<java.util.ArrayList: java.lang.Object[] array>"},{"step":5,"from":"1093835648","to":"1093748416","type":"model"},{"step":6,"from":"sdaReg4","to":"1093407224","type":"store","field":"<java.util.ArrayList: int size>"},{"step":7,"from":"1093407224","to":"1093407224.<java.util.AbstractList: int modCount>","type":"load","field":"<java.util.AbstractList: int modCount>"},{"step":8,"from":"sdaReg8","to":"1093407224","type":"store","field":"<java.util.AbstractList: int modCount>"}],"parameters":[{"id":"1093407224","name":"this","klass":"java.util.ArrayList"},{"id":"sdaReg0","name":"arg#1","klass":"int"},{"id":"1093287304","name":"arg#2","klass":"java.util.Collection"}],"returns":[{"id":null,"name":"return","klass":"boolean"}],"colors":{"heapLocToColor":{"sdaReg8":[0],"sdaReg6":[1],"sdaReg7":[0, 1],"sdaReg4":[0],"1093835384":[2],"1093287304":[2],"1093407224":[0],"1093407224.<java.util.AbstractList: int modCount>":[0],"sdaReg2":[3],"sdaReg1":[2],"1093748416":[0],"sdaReg0":[1],"1093835648":[3],"1093407224.<java.util.ArrayList: int size>":[0],"1093287304.<java.util.ArrayList: int size>":[2]},"colorToColor":{"0":[0],"2":[3],"3":[0]},"colorToLabel":{"0":"this","1":"arg#1","2":"arg#2","4":"return"}}}

Generated Model
	arg#2->this

