Scanning method <android.os.Message: android.os.Message obtain()>

All seen event types: LoadStaticRecord, BinaryOperationRecord, StoreStaticRecord, SimpleAssignmentRecord, ExitMonitorRecord, EnterMonitorRecord, LoadInstanceRecord, IfRecord, StoreInstanceRecord, 
Ignored event types: ExitMonitorRecord, EnterMonitorRecord, IfRecord, 

JSON Encoded Analysis Data (for visualization):{"heapEdges":[{"step":0,"from":"static.<android.os.Message: java.lang.Object sPoolSync>","to":"1085010160","type":"load","field":"<android.os.Message: java.lang.Object sPoolSync>"},{"step":1,"from":"static.<android.os.Message: android.os.Message sPool>","to":"1093479760","type":"load","field":"<android.os.Message: android.os.Message sPool>"},{"step":2,"from":"static.<android.os.Message: android.os.Message sPool>","to":"1093479760","type":"load","field":"<android.os.Message: android.os.Message sPool>"},{"step":3,"from":"1093479760","to":"sdaReg1","type":"create","field":"<android.os.Message: android.os.Message next>"},{"step":4,"from":"static.<android.os.Message: int sPoolSize>","to":"static.<android.os.Message: int sPoolSize>","type":"load","field":"<android.os.Message: int sPoolSize>"},{"step":5,"from":"sdaReg2","to":"static.<android.os.Message: int sPoolSize>","type":"store","field":"<android.os.Message: int sPoolSize>"}],"parameters":[],"returns":[{"id":"1093479760","name":"return","klass":"android.os.Message"}],"colors":{"heapLocToColor":{"1085010160":[0],"1093479760":[1],"sdaReg2":[2],"static.<android.os.Message: java.lang.Object sPoolSync>":[0],"static.<android.os.Message: int sPoolSize>":[2],"static.<android.os.Message: android.os.Message sPool>":[1],"sdaReg0":[0]},"colorToColor":{"1":[3],"2":[2]},"colorToLabel":{"0":"<android.os.Message: java.lang.Object sPoolSync>","1":"<android.os.Message: android.os.Message sPool>","2":"<android.os.Message: int sPoolSize>","3":"return"}}}

Generated Model

