Scanning method <java.util.Hashtable: java.lang.Object put(java.lang.Object,java.lang.Object)>

All seen event types: BinaryOperationRecord, SimpleAssignmentRecord, MethodReturnRecord, MethodCallRecord, ArrayLengthRecord, LoadInstanceRecord, MethodStartRecord, LoadArrayRecord, MethodEndRecord, IfRecord, StoreInstanceRecord, 
Ignored event types: IfRecord, 

JSON Encoded Analysis Data (for visualization):{"heapEdges":[{"step":0,"from":"1083979984","to":"1083986248","type":"load","field":"<java.util.Hashtable: java.util.Hashtable$HashtableEntry[] table>"},{"step":1,"from":"1083986248","to":"1083987208","type":"load","field":"arrayIdx_int:19"},{"step":2,"from":"1083987208","to":"1083987208.<java.util.Hashtable$HashtableEntry: int hash>","type":"load","field":"<java.util.Hashtable$HashtableEntry: int hash>"},{"step":3,"from":"1083987208","to":"1083986000","type":"load","field":"<java.util.Hashtable$HashtableEntry: java.util.Hashtable$HashtableEntry next>"},{"step":4,"from":"1083986000","to":"1083986000.<java.util.Hashtable$HashtableEntry: int hash>","type":"load","field":"<java.util.Hashtable$HashtableEntry: int hash>"},{"step":5,"from":"1083986000","to":"1083983080","type":"load","field":"<java.util.Hashtable$HashtableEntry: java.util.Hashtable$HashtableEntry next>"},{"step":6,"from":"1083983080","to":"1083983080.<java.util.Hashtable$HashtableEntry: int hash>","type":"load","field":"<java.util.Hashtable$HashtableEntry: int hash>"},{"step":7,"from":"1083983080","to":"1083982848","type":"load","field":"<java.util.Hashtable$HashtableEntry: java.lang.Object key>"},{"step":8,"from":"1083983080","to":"1093549056","type":"load","field":"<java.util.Hashtable$HashtableEntry: java.lang.Object value>"},{"step":9,"from":"1093549056","to":"1083983080","type":"store","field":"<java.util.Hashtable$HashtableEntry: java.lang.Object value>"}],"parameters":[{"id":"1083979984","name":"this","klass":"java.util.Hashtable"},{"id":"1083982848","name":"arg#1","klass":"java.lang.Object"},{"id":"1093549056","name":"arg#2","klass":"java.lang.Object"}],"returns":[{"id":"1093549056","name":"return","klass":"java.lang.Object"}],"colors":{"heapLocToColor":{"1083983080":[0],"sdaReg8":[3],"sdaReg6":[3],"1083983080.<java.util.Hashtable$HashtableEntry: int hash>":[0],"sdaReg7":[3],"1083987208":[0],"sdaReg4":[3],"sdaReg5":[3],"1083986000":[0],"1083983080.<java.util.Hashtable$HashtableEntry: java.lang.Object value>":[2],"sdaReg13":[4],"sdaReg11":[3],"1083982848":[0, 1],"1083986248":[0],"sdaReg3":[3],"sdaReg2":[3],"1083983080.<java.util.Hashtable$HashtableEntry: java.lang.Object key>":[1],"1083987208.<java.util.Hashtable$HashtableEntry: int hash>":[0],"1093549056":[0, 2],"sdaReg1":[3],"sdaReg0":[3],"1083979984":[0],"1083986000.<java.util.Hashtable$HashtableEntry: int hash>":[0]},"colorToColor":{"0":[0, 5],"2":[0, 5]},"colorToLabel":{"0":"this","1":"arg#1","2":"arg#2","5":"return"}}}

Generated Model
	this->return
	arg#2->this
	arg#2->return

