Scanning method <java.util.HashMap$KeySet: java.util.Iterator iterator()>

All seen event types: BinaryOperationRecord, SimpleAssignmentRecord, MethodReturnRecord, MethodCallRecord, ArrayLengthRecord, MethodStartRecord, LoadInstanceRecord, LoadArrayRecord, MethodEndRecord, IfRecord, StoreInstanceRecord, NewObjectRecord, 
Ignored event types: IfRecord, 

JSON Encoded Analysis Data (for visualization):{"heapEdges":[{"step":0,"from":"1093638032","to":"1093559200","type":"load","field":"<java.util.HashMap$KeySet: java.util.HashMap this$0>"},{"step":1,"from":"1093559200","to":"1093638048","type":"store","field":"<java.util.HashMap$KeyIterator: java.util.HashMap this$0>"},{"step":2,"from":"1093559200","to":"1093638048","type":"store","field":"<java.util.HashMap$HashIterator: java.util.HashMap this$0>"},{"step":3,"from":"1093559200","to":"1093559200.<java.util.HashMap: int modCount>","type":"load","field":"<java.util.HashMap: int modCount>"},{"step":4,"from":"1093559200.<java.util.HashMap: int modCount>","to":"1093638048","type":"store","field":"<java.util.HashMap$HashIterator: int expectedModCount>"},{"step":5,"from":"1093559200","to":"1093566392","type":"load","field":"<java.util.HashMap: java.util.HashMap$HashMapEntry[] table>"},{"step":6,"from":"1093638048","to":"1093638048.<java.util.HashMap$HashIterator: int nextIndex>","type":"load","field":"<java.util.HashMap$HashIterator: int nextIndex>"},{"step":7,"from":"1093638048","to":"1093638048.<java.util.HashMap$HashIterator: int nextIndex>","type":"load","field":"<java.util.HashMap$HashIterator: int nextIndex>"},{"step":8,"from":"sdaReg10","to":"1093638048","type":"store","field":"<java.util.HashMap$HashIterator: int nextIndex>"},{"step":9,"from":"sdaReg10","to":"1093638048","type":"store","field":"<java.util.HashMap$HashIterator: int nextIndex>"},{"step":10,"from":"sdaReg10","to":"1093638048","type":"store","field":"<java.util.HashMap$HashIterator: int nextIndex>"},{"step":11,"from":"1093566392","to":"1093616520","type":"load","field":"arrayIdx_int:2"},{"step":12,"from":"1093616520","to":"1093638048","type":"store","field":"<java.util.HashMap$HashIterator: java.util.HashMap$HashMapEntry nextEntry>"}],"parameters":[{"id":"1093638032","name":"this","klass":"java.util.HashMap$KeySet"}],"returns":[{"id":"1093638048","name":"return","klass":"java.util.Iterator"}],"colors":{"heapLocToColor":{"sdaReg6":[0],"sdaReg7":[1],"sdaReg4":[0],"sdaReg5":[1],"1093638032":[0],"1093616520":[0],"1093559200.<java.util.HashMap: int modCount>":[0],"1093566392":[0],"sdaReg13":[1],"sdaReg14":[1],"1093559200":[0],"1093638048.<java.util.HashMap$HashIterator: int nextIndex>":[1],"1093638048":[1],"sdaReg10":[1],"sdaReg3":[1],"sdaReg2":[0],"sdaReg1":[1],"sdaReg0":[0],"sdaReg15":[1],"sdaReg16":[1]},"colorToColor":{"0":[1],"1":[1, 2]},"colorToLabel":{"0":"this","2":"return"}}}

Generated Model
	this->return

