Scanning method <java.util.TreeMap$Node: java.util.TreeMap$Node next()>

All seen event types: SimpleAssignmentRecord, LoadInstanceRecord, IfRecord, 
Ignored event types: IfRecord, 

JSON Encoded Analysis Data (for visualization):{"heapEdges":[{"step":0,"from":"1095583056","to":"1095583016","type":"load","field":"<java.util.TreeMap$Node: java.util.TreeMap$Node parent>"},{"step":1,"from":"1095583016","to":"1096043560","type":"load","field":"<java.util.TreeMap$Node: java.util.TreeMap$Node left>"},{"step":2,"from":"1095583016","to":"1095116944","type":"load","field":"<java.util.TreeMap$Node: java.util.TreeMap$Node parent>"},{"step":3,"from":"1095116944","to":"1095583016","type":"load","field":"<java.util.TreeMap$Node: java.util.TreeMap$Node left>"}],"parameters":[{"id":"1095583056","name":"this","klass":"java.util.TreeMap$Node"}],"returns":[{"id":"1095116944","name":"return","klass":"java.util.TreeMap$Node"}],"colors":{"heapLocToColor":{"1095116944":[0],"1095116944.<java.util.TreeMap$Node: java.util.TreeMap$Node left>":[0],"1095583056":[0],"1096043560":[0],"1095583016":[0]},"colorToColor":{"0":[1]},"colorToLabel":{"0":"this","1":"return"}}}

Generated Model
	this->return

