Scanning method <java.util.TreeMap$Node: java.util.TreeMap$Node next()>

All seen event types: SimpleAssignmentRecord, LoadInstanceRecord, IfRecord, 
Ignored event types: IfRecord, 

JSON Encoded Analysis Data (for visualization):{"heapEdges":[{"step":0,"from":"1093788712","to":"1095979048","type":"load","field":"<java.util.TreeMap$Node: java.util.TreeMap$Node parent>"},{"step":1,"from":"1095979048","to":"1093788712","type":"load","field":"<java.util.TreeMap$Node: java.util.TreeMap$Node left>"}],"parameters":[{"id":"1093788712","name":"this","klass":"java.util.TreeMap$Node"}],"returns":[{"id":"1095979048","name":"return","klass":"java.util.TreeMap$Node"}],"colors":{"heapLocToColor":{"1095979048":[0],"1095979048.<java.util.TreeMap$Node: java.util.TreeMap$Node left>":[0],"1093788712":[0]},"colorToColor":{"0":[1]},"colorToLabel":{"0":"this","1":"return"}}}

Generated Model
	this->return

