Scanning method <java.util.TreeMap$Node: java.util.TreeMap$Node next()>

All seen event types: SimpleAssignmentRecord, LoadInstanceRecord, IfRecord, 
Ignored event types: IfRecord, 

JSON Encoded Analysis Data (for visualization):{"heapEdges":[{"step":0,"from":"1095559696","to":"1095803272","type":"load","field":"<java.util.TreeMap$Node: java.util.TreeMap$Node parent>"},{"step":1,"from":"1095803272","to":"1095559696","type":"load","field":"<java.util.TreeMap$Node: java.util.TreeMap$Node left>"}],"parameters":[{"id":"1095559696","name":"this","klass":"java.util.TreeMap$Node"}],"returns":[{"id":"1095803272","name":"return","klass":"java.util.TreeMap$Node"}],"colors":{"heapLocToColor":{"1095803272":[0],"1095803272.<java.util.TreeMap$Node: java.util.TreeMap$Node left>":[0],"1095559696":[0]},"colorToColor":{"0":[1]},"colorToLabel":{"0":"this","1":"return"}}}

Generated Model
	this->return

