Scanning method <java.io.ByteArrayInputStream: int read()>

All seen event types: BinaryOperationRecord, LoadInstanceRecord, LoadArrayRecord, IfRecord, StoreInstanceRecord, 
Ignored event types: IfRecord, 

JSON Encoded Analysis Data (for visualization):{"heapEdges":[{"step":0,"from":"1093586728","to":"1093586728.<java.io.ByteArrayInputStream: int pos>","type":"load","field":"<java.io.ByteArrayInputStream: int pos>"},{"step":1,"from":"1093586728","to":"1093586728.<java.io.ByteArrayInputStream: int count>","type":"load","field":"<java.io.ByteArrayInputStream: int count>"},{"step":2,"from":"1093586728","to":"1093587224","type":"load","field":"<java.io.ByteArrayInputStream: byte[] buf>"},{"step":3,"from":"1093586728","to":"1093586728.<java.io.ByteArrayInputStream: int pos>","type":"load","field":"<java.io.ByteArrayInputStream: int pos>"},{"step":4,"from":"sdaReg0","to":"1093586728","type":"store","field":"<java.io.ByteArrayInputStream: int pos>"},{"step":5,"from":"1093587224","to":"1093587224.arrayIdx_int:1","type":"load","field":"arrayIdx_int:1"}],"parameters":[{"id":"1093586728","name":"this","klass":"java.io.ByteArrayInputStream"}],"returns":[{"id":"sdaReg1","name":"return","klass":"int"}],"colors":{"heapLocToColor":{"1093587224.arrayIdx_int:1":[0],"1093586728.<java.io.ByteArrayInputStream: int pos>":[0],"1093587224":[0],"sdaReg1":[0],"sdaReg0":[0],"1093586728":[0],"1093586728.<java.io.ByteArrayInputStream: int count>":[0]},"colorToColor":{"0":[0, 1]},"colorToLabel":{"0":"this","1":"return"}}}

Generated Model
	this->return

