Scanning method <java.net.URI: java.lang.String toASCIIString()>

All seen event types: LoadStaticRecord, BinaryOperationRecord, SimpleAssignmentRecord, MethodReturnRecord, MethodCallRecord, LoadInstanceRecord, MethodStartRecord, MethodEndRecord, IfRecord, NewObjectRecord, 
Ignored event types: IfRecord, 

JSON Encoded Analysis Data (for visualization):{"heapEdges":[{"step":0,"from":"static.<java.net.URI: libcore.net.UriCodec ASCII_ONLY>","to":"1085479048","type":"load","field":"<java.net.URI: libcore.net.UriCodec ASCII_ONLY>"},{"step":1,"from":"1093672384","to":"1093672384.<java.net.URI: java.lang.String string>","type":"load","field":"<java.net.URI: java.lang.String string>"},{"step":2,"from":"1093672384","to":"1093672384.<java.net.URI: java.lang.String string>","type":"load","field":"<java.net.URI: java.lang.String string>"},{"step":3,"from":"static.<java.nio.charset.Charsets: java.nio.charset.Charset UTF_8>","to":"1084325896","type":"load","field":"<java.nio.charset.Charsets: java.nio.charset.Charset UTF_8>"},{"step":4,"from":"1093672384.<java.net.URI: java.lang.String string>","to":"sdaReg12","type":"model"},{"step":5,"from":"sdaReg12","to":"1093263912","type":"model"},{"step":6,"from":"1093672384.<java.net.URI: java.lang.String string>","to":"sdaReg14","type":"model"},{"step":7,"from":"sdaReg14","to":"1093263912","type":"model"},{"step":8,"from":"1093672384.<java.net.URI: java.lang.String string>","to":"sdaReg16","type":"model"},{"step":9,"from":"sdaReg16","to":"1093263912","type":"model"},{"step":10,"from":"1093672384.<java.net.URI: java.lang.String string>","to":"sdaReg18","type":"model"},{"step":11,"from":"sdaReg18","to":"1093263912","type":"model"},{"step":12,"from":"1093672384.<java.net.URI: java.lang.String string>","to":"sdaReg20","type":"model"},{"step":13,"from":"sdaReg20","to":"1093263912","type":"model"},{"step":14,"from":"1093672384.<java.net.URI: java.lang.String string>","to":"sdaReg24","type":"model"},{"step":15,"from":"sdaReg24","to":"1093263912","type":"model"},{"step":16,"from":"1093672384.<java.net.URI: java.lang.String string>","to":"sdaReg28","type":"model"},{"step":17,"from":"sdaReg28","to":"1093263912","type":"model"},{"step":18,"from":"1093672384.<java.net.URI: java.lang.String string>","to":"sdaReg32","type":"model"},{"step":19,"from":"sdaReg32","to":"1093263912","type":"model"},{"step":20,"from":"1093672384.<java.net.URI: java.lang.String string>","to":"sdaReg34","type":"model"},{"step":21,"from":"sdaReg34","to":"1093263912","type":"model"},{"step":22,"from":"1093672384.<java.net.URI: java.lang.String string>","to":"sdaReg36","type":"model"},{"step":23,"from":"sdaReg36","to":"1093263912","type":"model"},{"step":24,"from":"1093672384.<java.net.URI: java.lang.String string>","to":"sdaReg38","type":"model"},{"step":25,"from":"sdaReg38","to":"1093263912","type":"model"},{"step":26,"from":"1093672384.<java.net.URI: java.lang.String string>","to":"sdaReg40","type":"model"},{"step":27,"from":"sdaReg40","to":"1093263912","type":"model"},{"step":28,"from":"1093672384.<java.net.URI: java.lang.String string>","to":"sdaReg44","type":"model"},{"step":29,"from":"sdaReg44","to":"1093263912","type":"model"},{"step":30,"from":"1093672384.<java.net.URI: java.lang.String string>","to":"sdaReg46","type":"model"},{"step":31,"from":"sdaReg46","to":"1093263912","type":"model"},{"step":32,"from":"1093672384.<java.net.URI: java.lang.String string>","to":"sdaReg48","type":"model"},{"step":33,"from":"sdaReg48","to":"1093263912","type":"model"},{"step":34,"from":"1093672384.<java.net.URI: java.lang.String string>","to":"sdaReg50","type":"model"},{"step":35,"from":"sdaReg50","to":"1093263912","type":"model"},{"step":36,"from":"1093672384.<java.net.URI: java.lang.String string>","to":"sdaReg52","type":"model"},{"step":37,"from":"sdaReg52","to":"1093263912","type":"model"},{"step":38,"from":"1093672384.<java.net.URI: java.lang.String string>","to":"sdaReg54","type":"model"},{"step":39,"from":"sdaReg54","to":"1093263912","type":"model"},{"step":40,"from":"1093672384.<java.net.URI: java.lang.String string>","to":"sdaReg56","type":"model"},{"step":41,"from":"sdaReg56","to":"1093263912","type":"model"},{"step":42,"from":"1093672384.<java.net.URI: java.lang.String string>","to":"sdaReg58","type":"model"},{"step":43,"from":"sdaReg58","to":"1093263912","type":"model"},{"step":44,"from":"1093672384.<java.net.URI: java.lang.String string>","to":"sdaReg60","type":"model"},{"step":45,"from":"sdaReg60","to":"1093263912","type":"model"},{"step":46,"from":"1093672384.<java.net.URI: java.lang.String string>","to":"sdaReg62","type":"model"},{"step":47,"from":"sdaReg62","to":"1093263912","type":"model"},{"step":48,"from":"1093672384.<java.net.URI: java.lang.String string>","to":"sdaReg66","type":"model"},{"step":49,"from":"sdaReg66","to":"1093263912","type":"model"},{"step":50,"from":"1093672384.<java.net.URI: java.lang.String string>","to":"sdaReg68","type":"model"},{"step":51,"from":"sdaReg68","to":"1093263912","type":"model"},{"step":52,"from":"1093672384.<java.net.URI: java.lang.String string>","to":"sdaReg70","type":"model"},{"step":53,"from":"sdaReg70","to":"1093263912","type":"model"},{"step":54,"from":"1093672384.<java.net.URI: java.lang.String string>","to":"sdaReg72","type":"model"},{"step":55,"from":"sdaReg72","to":"1093263912","type":"model"},{"step":56,"from":"1093263912","to":"sdaReg74","type":"model"}],"parameters":[{"id":"1093672384","name":"this","klass":"java.net.URI"}],"returns":[{"id":"sdaReg74","name":"return","klass":"string"}],"colors":{"heapLocToColor":{"sdaReg60":[0, 45],"sdaReg61":[46],"sdaReg68":[0, 51],"sdaReg69":[52],"sdaReg66":[0, 49],"sdaReg67":[50],"sdaReg65":[48],"sdaReg62":[0, 47],"sdaReg63":[2],"sdaReg72":[0, 55],"sdaReg13":[6],"sdaReg71":[54],"sdaReg14":[0, 7],"sdaReg70":[0, 53],"sdaReg11":[4],"sdaReg12":[0, 5],"sdaReg59":[44],"sdaReg58":[0, 43],"sdaReg57":[42],"static.<java.net.URI: libcore.net.UriCodec ASCII_ONLY>":[2],"sdaReg56":[0, 41],"sdaReg19":[12],"sdaReg55":[40],"sdaReg54":[0, 39],"sdaReg17":[10],"sdaReg53":[38],"sdaReg18":[0, 11],"sdaReg52":[0, 37],"sdaReg15":[8],"sdaReg51":[36],"sdaReg16":[0, 9],"sdaReg50":[0, 35],"sdaReg73":[56],"sdaReg74":[1, 57],"sdaReg49":[34],"sdaReg48":[0, 33],"sdaReg45":[30],"sdaReg44":[0, 29],"sdaReg47":[32],"sdaReg46":[0, 31],"sdaReg41":[2],"sdaReg40":[0, 27],"sdaReg43":[28],"sdaReg39":[26],"1093263912":[1],"sdaReg38":[0, 25],"sdaReg37":[24],"sdaReg32":[0, 19],"sdaReg31":[18],"sdaReg36":[0, 23],"sdaReg35":[22],"sdaReg34":[0, 21],"sdaReg33":[20],"sdaReg6":[1],"sdaReg7":[3],"sdaReg4":[1],"1085479048":[2],"1084325896":[3],"sdaReg5":[2],"sdaReg27":[16],"sdaReg29":[2],"sdaReg28":[0, 17],"1093672384":[0],"sdaReg3":[2],"sdaReg2":[0],"sdaReg1":[1],"sdaReg21":[2],"sdaReg20":[0, 13],"sdaReg0":[1],"1093672384.<java.net.URI: java.lang.String string>":[0],"static.<java.nio.charset.Charsets: java.nio.charset.Charset UTF_8>":[3],"sdaReg23":[14],"sdaReg25":[2],"sdaReg24":[0, 15]},"colorToColor":{"0":[1],"1":[58],"5":[1],"7":[1],"9":[1],"11":[1],"13":[1],"15":[1],"17":[1],"19":[1],"21":[1],"23":[1],"25":[1],"27":[1],"29":[1],"31":[1],"35":[1],"33":[1],"39":[1],"37":[1],"43":[1],"41":[1],"47":[1],"45":[1],"51":[1],"49":[1],"55":[1],"53":[1],"57":[58]},"colorToLabel":{"0":"this","2":"<java.net.URI: libcore.net.UriCodec ASCII_ONLY>","3":"<java.nio.charset.Charsets: java.nio.charset.Charset UTF_8>","58":"return"}}}

Generated Model
	this->return

