Scanning method <java.util.TreeMap: java.lang.Object put(java.lang.Object,java.lang.Object)>

All seen event types: SimpleAssignmentRecord, MethodStartRecord, LoadInstanceRecord, IfRecord, NewObjectRecord, StoreInstanceRecord, LoadStaticRecord, BinaryOperationRecord, MethodCallRecord, MethodReturnRecord, SwitchRecord, CastRecord, LoadArrayRecord, MethodEndRecord, 
Ignored event types: SwitchRecord, IfRecord, 

JSON Encoded Analysis Data (for visualization):{"heapEdges":[{"step":0,"from":"static.<java.util.TreeMap$Relation: java.util.TreeMap$Relation CREATE>","to":"1085707192","type":"load","field":"<java.util.TreeMap$Relation: java.util.TreeMap$Relation CREATE>"},{"step":1,"from":"1093233072","to":"1093260488","type":"load","field":"<java.util.TreeMap: java.util.TreeMap$Node root>"},{"step":2,"from":"1093233072","to":"1083970648","type":"load","field":"<java.util.TreeMap: java.util.Comparator comparator>"},{"step":3,"from":"static.<java.util.TreeMap: java.util.Comparator NATURAL_ORDER>","to":"1083970648","type":"load","field":"<java.util.TreeMap: java.util.Comparator NATURAL_ORDER>"},{"step":4,"from":"1093233072","to":"1093260488","type":"load","field":"<java.util.TreeMap: java.util.TreeMap$Node root>"},{"step":5,"from":"1093260488","to":"1093852672","type":"load","field":"<java.util.TreeMap$Node: java.lang.Object key>"},{"step":6,"from":"1094178736","to":"1093852672","type":"model"},{"step":7,"from":"1094178736","to":"sdaReg8","type":"model"},{"step":8,"from":"1093852672","to":"1094178736","type":"model"},{"step":9,"from":"1093852672","to":"sdaReg8","type":"model"},{"step":10,"from":"static.<java.util.TreeMap$2: int[] $SwitchMap$java$util$TreeMap$Relation>","to":"1085752200","type":"load","field":"<java.util.TreeMap$2: int[] $SwitchMap$java$util$TreeMap$Relation>"},{"step":11,"from":"1085707192","to":"sdaReg11","type":"model"},{"step":12,"from":"1085752200","to":"1085752200.arrayIdx_int:3","type":"load","field":"arrayIdx_int:3"},{"step":13,"from":"1093260488","to":"1095430504","type":"store","field":"<java.util.TreeMap$Node: java.util.TreeMap$Node parent>"},{"step":14,"from":"1094178736","to":"1095430504","type":"store","field":"<java.util.TreeMap$Node: java.lang.Object key>"},{"step":15,"from":"1095430504","to":"sdaReg16","type":"create","field":"<java.util.TreeMap$Node: int height>"},{"step":16,"from":"1093260488","to":"1095430504","type":"create","field":"<java.util.TreeMap$Node: java.util.TreeMap$Node right>"},{"step":17,"from":"1093233072","to":"1093233072.<java.util.TreeMap: int size>","type":"load","field":"<java.util.TreeMap: int size>"},{"step":18,"from":"sdaReg19","to":"1093233072","type":"store","field":"<java.util.TreeMap: int size>"},{"step":19,"from":"1093233072","to":"1093233072.<java.util.TreeMap: int modCount>","type":"load","field":"<java.util.TreeMap: int modCount>"},{"step":20,"from":"sdaReg20","to":"1093233072","type":"store","field":"<java.util.TreeMap: int modCount>"},{"step":21,"from":"static.<java.util.TreeMap: boolean $assertionsDisabled>","to":"static.<java.util.TreeMap: boolean $assertionsDisabled>","type":"load","field":"<java.util.TreeMap: boolean $assertionsDisabled>"},{"step":22,"from":"sdaReg26","to":"sdaReg27","type":"model"},{"step":23,"from":"sdaReg26","to":"sdaReg29","type":"model"},{"step":24,"from":"sdaReg27","to":"sdaReg26","type":"model"},{"step":25,"from":"sdaReg27","to":"sdaReg29","type":"model"},{"step":26,"from":"sdaReg30","to":"1093260488","type":"store","field":"<java.util.TreeMap$Node: int height>"},{"step":27,"from":"1085638584","to":"1095430504","type":"store","field":"<java.util.TreeMap$Node: java.lang.Object value>"}],"parameters":[{"id":"1093233072","name":"this","klass":"java.util.TreeMap"},{"id":"1094178736","name":"arg#1","klass":"java.lang.Object"},{"id":"1085638584","name":"arg#2","klass":"java.lang.Object"}],"returns":[{"id":"0","name":"return","klass":"java.lang.Object"}],"colors":{"heapLocToColor":{"1093233072.<java.util.TreeMap: java.util.TreeMap$Node root>":[0],"static.<java.util.TreeMap: java.util.Comparator NATURAL_ORDER>":[0, 4],"1085752200.arrayIdx_int:3":[6],"1093233072.<java.util.TreeMap: int size>":[0],"sdaReg13":[0],"sdaReg14":[1],"1094178736":[1],"sdaReg11":[3, 7],"sdaReg12":[8],"sdaReg31":[8],"1085707192":[3],"sdaReg30":[10],"sdaReg19":[0],"sdaReg17":[8],"sdaReg18":[8],"sdaReg15":[8],"sdaReg8":[1, 5],"sdaReg9":[1, 5],"sdaReg6":[1],"sdaReg7":[1],"sdaReg4":[1],"1085752200":[6],"sdaReg5":[3],"static.<java.util.TreeMap$Relation: java.util.TreeMap$Relation CREATE>":[3],"1093233072.<java.util.TreeMap: int modCount>":[0],"1093233072":[0],"1093852672":[0, 1],"1095430504":[8],"static.<java.util.TreeMap$2: int[] $SwitchMap$java$util$TreeMap$Relation>":[6],"sdaReg29":[10],"static.<java.util.TreeMap: boolean $assertionsDisabled>":[9],"sdaReg3":[0],"sdaReg2":[2],"sdaReg21":[0],"sdaReg1":[1],"1085638584":[2],"sdaReg20":[0],"sdaReg0":[0],"sdaReg22":[0],"sdaReg24":[0],"1083970648":[0, 4],"1093260488":[0]},"colorToColor":{"0":[0, 1, 5, 8],"1":[1, 5, 8],"2":[8],"8":[0],"10":[0]},"colorToLabel":{"0":"this","1":"arg#1","2":"arg#2","3":"<java.util.TreeMap$Relation: java.util.TreeMap$Relation CREATE>","4":"<java.util.TreeMap: java.util.Comparator NATURAL_ORDER>","6":"<java.util.TreeMap$2: int[] $SwitchMap$java$util$TreeMap$Relation>","9":"<java.util.TreeMap: boolean $assertionsDisabled>","11":"return"}}}

Generated Model
	this->arg#1
	arg#2->this
	arg#2->arg#1
	arg#1->this

