Scanning method <java.util.TreeMap: java.lang.Object put(java.lang.Object,java.lang.Object)>

All seen event types: SimpleAssignmentRecord, MethodStartRecord, LoadInstanceRecord, IfRecord, NewObjectRecord, StoreInstanceRecord, LoadStaticRecord, BinaryOperationRecord, MethodCallRecord, MethodReturnRecord, SwitchRecord, CastRecord, LoadArrayRecord, MethodEndRecord, 
Ignored event types: SwitchRecord, IfRecord, 

JSON Encoded Analysis Data (for visualization):{"heapEdges":[{"step":0,"from":"static.<java.util.TreeMap$Relation: java.util.TreeMap$Relation CREATE>","to":"1085707192","type":"load","field":"<java.util.TreeMap$Relation: java.util.TreeMap$Relation CREATE>"},{"step":1,"from":"1093233072","to":"1093447784","type":"load","field":"<java.util.TreeMap: java.util.TreeMap$Node root>"},{"step":2,"from":"1093233072","to":"1083970648","type":"load","field":"<java.util.TreeMap: java.util.Comparator comparator>"},{"step":3,"from":"static.<java.util.TreeMap: java.util.Comparator NATURAL_ORDER>","to":"1083970648","type":"load","field":"<java.util.TreeMap: java.util.Comparator NATURAL_ORDER>"},{"step":4,"from":"1093233072","to":"1093447784","type":"load","field":"<java.util.TreeMap: java.util.TreeMap$Node root>"},{"step":5,"from":"1093447784","to":"1093229088","type":"load","field":"<java.util.TreeMap$Node: java.lang.Object key>"},{"step":6,"from":"1093342360","to":"1093229088","type":"model"},{"step":7,"from":"1093342360","to":"sdaReg8","type":"model"},{"step":8,"from":"1093229088","to":"1093342360","type":"model"},{"step":9,"from":"1093229088","to":"sdaReg8","type":"model"},{"step":10,"from":"1093447784","to":"1094178200","type":"load","field":"<java.util.TreeMap$Node: java.util.TreeMap$Node right>"},{"step":11,"from":"1094178200","to":"1093750272","type":"load","field":"<java.util.TreeMap$Node: java.lang.Object key>"},{"step":12,"from":"1093342360","to":"1093750272","type":"model"},{"step":13,"from":"1093342360","to":"sdaReg11","type":"model"},{"step":14,"from":"1093750272","to":"1093342360","type":"model"},{"step":15,"from":"1093750272","to":"sdaReg11","type":"model"},{"step":16,"from":"1094178200","to":"1093532944","type":"load","field":"<java.util.TreeMap$Node: java.util.TreeMap$Node right>"},{"step":17,"from":"1093532944","to":"1093431536","type":"load","field":"<java.util.TreeMap$Node: java.lang.Object key>"},{"step":18,"from":"1093342360","to":"1093431536","type":"model"},{"step":19,"from":"1093342360","to":"sdaReg12","type":"model"},{"step":20,"from":"1093431536","to":"1093342360","type":"model"},{"step":21,"from":"1093431536","to":"sdaReg12","type":"model"},{"step":22,"from":"1093532944","to":"1093532984","type":"load","field":"<java.util.TreeMap$Node: java.util.TreeMap$Node right>"},{"step":23,"from":"1093532984","to":"1093475704","type":"load","field":"<java.util.TreeMap$Node: java.lang.Object key>"},{"step":24,"from":"1093342360","to":"1093475704","type":"model"},{"step":25,"from":"1093342360","to":"sdaReg13","type":"model"},{"step":26,"from":"1093475704","to":"1093342360","type":"model"},{"step":27,"from":"1093475704","to":"sdaReg13","type":"model"},{"step":28,"from":"static.<java.util.TreeMap$2: int[] $SwitchMap$java$util$TreeMap$Relation>","to":"1085752200","type":"load","field":"<java.util.TreeMap$2: int[] $SwitchMap$java$util$TreeMap$Relation>"},{"step":29,"from":"1085707192","to":"sdaReg14","type":"model"},{"step":30,"from":"1085752200","to":"1085752200.arrayIdx_int:3","type":"load","field":"arrayIdx_int:3"},{"step":31,"from":"1093532984","to":"1093533024","type":"store","field":"<java.util.TreeMap$Node: java.util.TreeMap$Node parent>"},{"step":32,"from":"1093342360","to":"1093533024","type":"store","field":"<java.util.TreeMap$Node: java.lang.Object key>"},{"step":33,"from":"1093533024","to":"sdaReg19","type":"create","field":"<java.util.TreeMap$Node: int height>"},{"step":34,"from":"1093532984","to":"1093533024","type":"create","field":"<java.util.TreeMap$Node: java.util.TreeMap$Node right>"},{"step":35,"from":"1093233072","to":"1093233072.<java.util.TreeMap: int size>","type":"load","field":"<java.util.TreeMap: int size>"},{"step":36,"from":"sdaReg22","to":"1093233072","type":"store","field":"<java.util.TreeMap: int size>"},{"step":37,"from":"1093233072","to":"1093233072.<java.util.TreeMap: int modCount>","type":"load","field":"<java.util.TreeMap: int modCount>"},{"step":38,"from":"sdaReg23","to":"1093233072","type":"store","field":"<java.util.TreeMap: int modCount>"},{"step":39,"from":"static.<java.util.TreeMap: boolean $assertionsDisabled>","to":"static.<java.util.TreeMap: boolean $assertionsDisabled>","type":"load","field":"<java.util.TreeMap: boolean $assertionsDisabled>"},{"step":40,"from":"sdaReg29","to":"sdaReg30","type":"model"},{"step":41,"from":"sdaReg29","to":"sdaReg32","type":"model"},{"step":42,"from":"sdaReg30","to":"sdaReg29","type":"model"},{"step":43,"from":"sdaReg30","to":"sdaReg32","type":"model"},{"step":44,"from":"sdaReg33","to":"1093532984","type":"store","field":"<java.util.TreeMap$Node: int height>"},{"step":45,"from":"1093532984","to":"1093532944","type":"load","field":"<java.util.TreeMap$Node: java.util.TreeMap$Node parent>"},{"step":46,"from":"1093532944","to":"1094178240","type":"load","field":"<java.util.TreeMap$Node: java.util.TreeMap$Node left>"},{"step":47,"from":"1093532944","to":"1093532984","type":"load","field":"<java.util.TreeMap$Node: java.util.TreeMap$Node right>"},{"step":48,"from":"1094178240","to":"1094178240.<java.util.TreeMap$Node: int height>","type":"load","field":"<java.util.TreeMap$Node: int height>"},{"step":49,"from":"static.<java.util.TreeMap: boolean $assertionsDisabled>","to":"static.<java.util.TreeMap: boolean $assertionsDisabled>","type":"load","field":"<java.util.TreeMap: boolean $assertionsDisabled>"},{"step":50,"from":"sdaReg29","to":"sdaReg30","type":"model"},{"step":51,"from":"sdaReg29","to":"sdaReg34","type":"model"},{"step":52,"from":"sdaReg30","to":"sdaReg29","type":"model"},{"step":53,"from":"sdaReg30","to":"sdaReg34","type":"model"},{"step":54,"from":"sdaReg33","to":"1093532944","type":"store","field":"<java.util.TreeMap$Node: int height>"},{"step":55,"from":"1093532944","to":"1094178200","type":"load","field":"<java.util.TreeMap$Node: java.util.TreeMap$Node parent>"},{"step":56,"from":"1094178200","to":"1095218224","type":"load","field":"<java.util.TreeMap$Node: java.util.TreeMap$Node left>"},{"step":57,"from":"1094178200","to":"1093532944","type":"load","field":"<java.util.TreeMap$Node: java.util.TreeMap$Node right>"},{"step":58,"from":"1095218224","to":"1095218224.<java.util.TreeMap$Node: int height>","type":"load","field":"<java.util.TreeMap$Node: int height>"},{"step":59,"from":"static.<java.util.TreeMap: boolean $assertionsDisabled>","to":"static.<java.util.TreeMap: boolean $assertionsDisabled>","type":"load","field":"<java.util.TreeMap: boolean $assertionsDisabled>"},{"step":60,"from":"sdaReg29","to":"sdaReg30","type":"model"},{"step":61,"from":"sdaReg29","to":"sdaReg35","type":"model"},{"step":62,"from":"sdaReg30","to":"sdaReg29","type":"model"},{"step":63,"from":"sdaReg30","to":"sdaReg35","type":"model"},{"step":64,"from":"sdaReg33","to":"1094178200","type":"store","field":"<java.util.TreeMap$Node: int height>"},{"step":65,"from":"1094178200","to":"1093447784","type":"load","field":"<java.util.TreeMap$Node: java.util.TreeMap$Node parent>"},{"step":66,"from":"1093447784","to":"1094753864","type":"load","field":"<java.util.TreeMap$Node: java.util.TreeMap$Node left>"},{"step":67,"from":"1093447784","to":"1094178200","type":"load","field":"<java.util.TreeMap$Node: java.util.TreeMap$Node right>"},{"step":68,"from":"1094753864","to":"1094753864.<java.util.TreeMap$Node: int height>","type":"load","field":"<java.util.TreeMap$Node: int height>"},{"step":69,"from":"static.<java.util.TreeMap: boolean $assertionsDisabled>","to":"static.<java.util.TreeMap: boolean $assertionsDisabled>","type":"load","field":"<java.util.TreeMap: boolean $assertionsDisabled>"},{"step":70,"from":"sdaReg29","to":"sdaReg30","type":"model"},{"step":71,"from":"sdaReg29","to":"sdaReg36","type":"model"},{"step":72,"from":"sdaReg30","to":"sdaReg29","type":"model"},{"step":73,"from":"sdaReg30","to":"sdaReg36","type":"model"},{"step":74,"from":"sdaReg33","to":"1093447784","type":"store","field":"<java.util.TreeMap$Node: int height>"},{"step":75,"from":"1085638584","to":"1093533024","type":"store","field":"<java.util.TreeMap$Node: java.lang.Object value>"}],"parameters":[{"id":"1093233072","name":"this","klass":"java.util.TreeMap"},{"id":"1093342360","name":"arg#1","klass":"java.lang.Object"},{"id":"1085638584","name":"arg#2","klass":"java.lang.Object"}],"returns":[{"id":"0","name":"return","klass":"java.lang.Object"}],"colors":{"heapLocToColor":{"1094753864.<java.util.TreeMap$Node: int height>":[0],"1093475704":[0, 1],"sdaReg13":[1, 8],"1093233072.<java.util.TreeMap: int size>":[0],"sdaReg14":[3, 10],"sdaReg11":[1, 6],"sdaReg12":[1, 7],"1093532944":[0],"1093532984":[0],"1085707192":[3],"sdaReg17":[1],"1094178200.<java.util.TreeMap$Node: java.util.TreeMap$Node parent>":[0],"sdaReg18":[11],"sdaReg15":[11],"sdaReg16":[0],"1094178200":[0],"1093532944.<java.util.TreeMap$Node: java.util.TreeMap$Node parent>":[0],"1085752200":[9],"1093233072":[0],"static.<java.util.TreeMap$2: int[] $SwitchMap$java$util$TreeMap$Relation>":[9],"1095218224.<java.util.TreeMap$Node: int height>":[0],"1095218224":[0],"static.<java.util.TreeMap: boolean $assertionsDisabled>":[12],"1094753864":[0],"1085638584":[2],"1093532944.<java.util.TreeMap$Node: java.util.TreeMap$Node right>":[0],"1083970648":[0, 4],"1093342360":[1],"1093233072.<java.util.TreeMap: java.util.TreeMap$Node root>":[0],"1093532984.<java.util.TreeMap$Node: java.util.TreeMap$Node parent>":[0],"static.<java.util.TreeMap: java.util.Comparator NATURAL_ORDER>":[0, 4],"1094178240":[0],"1093447784.<java.util.TreeMap$Node: java.util.TreeMap$Node right>":[0],"1093447784":[0],"1085752200.arrayIdx_int:3":[9],"sdaReg37":[11],"1094178240.<java.util.TreeMap$Node: int height>":[0],"1093750272":[0, 1],"sdaReg32":[13],"sdaReg31":[0],"sdaReg36":[16],"sdaReg35":[15],"sdaReg34":[14],"sdaReg33":[16, 13, 14, 15],"sdaReg8":[1, 5],"sdaReg9":[1, 5, 6, 7, 8],"sdaReg6":[1],"sdaReg7":[1],"sdaReg4":[1],"sdaReg5":[3],"static.<java.util.TreeMap$Relation: java.util.TreeMap$Relation CREATE>":[3],"1094178200.<java.util.TreeMap$Node: java.util.TreeMap$Node right>":[0],"1093233072.<java.util.TreeMap: int modCount>":[0],"1093431536":[0, 1],"sdaReg27":[0],"1093229088":[0, 1],"sdaReg29":[0],"sdaReg3":[0],"sdaReg2":[2],"sdaReg1":[1],"sdaReg21":[11],"sdaReg0":[0],"1093533024":[11],"sdaReg20":[11],"sdaReg23":[0],"sdaReg22":[0],"sdaReg25":[0],"sdaReg24":[0]},"colorToColor":{"0":[0, 16, 1, 5, 6, 7, 8, 11, 14, 15],"16":[0],"1":[1, 5, 6, 7, 8, 11],"2":[11],"11":[0],"13":[0],"14":[0],"15":[0]},"colorToLabel":{"0":"this","1":"arg#1","2":"arg#2","3":"<java.util.TreeMap$Relation: java.util.TreeMap$Relation CREATE>","4":"<java.util.TreeMap: java.util.Comparator NATURAL_ORDER>","9":"<java.util.TreeMap$2: int[] $SwitchMap$java$util$TreeMap$Relation>","12":"<java.util.TreeMap: boolean $assertionsDisabled>","17":"return"}}}

Generated Model
	this->arg#1
	arg#2->this
	arg#2->arg#1
	arg#1->this

