Scanning method <java.util.TreeMap: java.lang.Object put(java.lang.Object,java.lang.Object)>

All seen event types: SimpleAssignmentRecord, MethodStartRecord, LoadInstanceRecord, IfRecord, NewObjectRecord, StoreInstanceRecord, LoadStaticRecord, BinaryOperationRecord, MethodCallRecord, MethodReturnRecord, SwitchRecord, CastRecord, LoadArrayRecord, MethodEndRecord, 
Ignored event types: SwitchRecord, IfRecord, 

JSON Encoded Analysis Data (for visualization):{"heapEdges":[{"step":0,"from":"static.<java.util.TreeMap$Relation: java.util.TreeMap$Relation CREATE>","to":"1085707192","type":"load","field":"<java.util.TreeMap$Relation: java.util.TreeMap$Relation CREATE>"},{"step":1,"from":"1093233072","to":"1093260488","type":"load","field":"<java.util.TreeMap: java.util.TreeMap$Node root>"},{"step":2,"from":"1093233072","to":"1083970648","type":"load","field":"<java.util.TreeMap: java.util.Comparator comparator>"},{"step":3,"from":"static.<java.util.TreeMap: java.util.Comparator NATURAL_ORDER>","to":"1083970648","type":"load","field":"<java.util.TreeMap: java.util.Comparator NATURAL_ORDER>"},{"step":4,"from":"1093233072","to":"1093260488","type":"load","field":"<java.util.TreeMap: java.util.TreeMap$Node root>"},{"step":5,"from":"1093260488","to":"1093852672","type":"load","field":"<java.util.TreeMap$Node: java.lang.Object key>"},{"step":6,"from":"1094032064","to":"1093852672","type":"model"},{"step":7,"from":"1094032064","to":"sdaReg8","type":"model"},{"step":8,"from":"1093852672","to":"1094032064","type":"model"},{"step":9,"from":"1093852672","to":"sdaReg8","type":"model"},{"step":10,"from":"1093260488","to":"1095430504","type":"load","field":"<java.util.TreeMap$Node: java.util.TreeMap$Node right>"},{"step":11,"from":"1095430504","to":"1094178736","type":"load","field":"<java.util.TreeMap$Node: java.lang.Object key>"},{"step":12,"from":"1094032064","to":"1094178736","type":"model"},{"step":13,"from":"1094032064","to":"sdaReg11","type":"model"},{"step":14,"from":"1094178736","to":"1094032064","type":"model"},{"step":15,"from":"1094178736","to":"sdaReg11","type":"model"},{"step":16,"from":"static.<java.util.TreeMap$2: int[] $SwitchMap$java$util$TreeMap$Relation>","to":"1085752200","type":"load","field":"<java.util.TreeMap$2: int[] $SwitchMap$java$util$TreeMap$Relation>"},{"step":17,"from":"1085707192","to":"sdaReg12","type":"model"},{"step":18,"from":"1085752200","to":"1085752200.arrayIdx_int:3","type":"load","field":"arrayIdx_int:3"},{"step":19,"from":"1095430504","to":"1094753824","type":"store","field":"<java.util.TreeMap$Node: java.util.TreeMap$Node parent>"},{"step":20,"from":"1094032064","to":"1094753824","type":"store","field":"<java.util.TreeMap$Node: java.lang.Object key>"},{"step":21,"from":"1094753824","to":"sdaReg17","type":"create","field":"<java.util.TreeMap$Node: int height>"},{"step":22,"from":"1095430504","to":"1094753824","type":"create","field":"<java.util.TreeMap$Node: java.util.TreeMap$Node right>"},{"step":23,"from":"1093233072","to":"1093233072.<java.util.TreeMap: int size>","type":"load","field":"<java.util.TreeMap: int size>"},{"step":24,"from":"sdaReg20","to":"1093233072","type":"store","field":"<java.util.TreeMap: int size>"},{"step":25,"from":"1093233072","to":"1093233072.<java.util.TreeMap: int modCount>","type":"load","field":"<java.util.TreeMap: int modCount>"},{"step":26,"from":"sdaReg21","to":"1093233072","type":"store","field":"<java.util.TreeMap: int modCount>"},{"step":27,"from":"static.<java.util.TreeMap: boolean $assertionsDisabled>","to":"static.<java.util.TreeMap: boolean $assertionsDisabled>","type":"load","field":"<java.util.TreeMap: boolean $assertionsDisabled>"},{"step":28,"from":"sdaReg27","to":"sdaReg28","type":"model"},{"step":29,"from":"sdaReg27","to":"sdaReg30","type":"model"},{"step":30,"from":"sdaReg28","to":"sdaReg27","type":"model"},{"step":31,"from":"sdaReg28","to":"sdaReg30","type":"model"},{"step":32,"from":"sdaReg31","to":"1095430504","type":"store","field":"<java.util.TreeMap$Node: int height>"},{"step":33,"from":"1095430504","to":"1093260488","type":"load","field":"<java.util.TreeMap$Node: java.util.TreeMap$Node parent>"},{"step":34,"from":"1093260488","to":"1095430504","type":"load","field":"<java.util.TreeMap$Node: java.util.TreeMap$Node right>"},{"step":35,"from":"1093260488","to":"1095430504","type":"load","field":"<java.util.TreeMap$Node: java.util.TreeMap$Node right>"},{"step":36,"from":"1093260488","to":"sdaReg41","type":"create","field":"<java.util.TreeMap$Node: java.util.TreeMap$Node parent>"},{"step":37,"from":"1095430504","to":"1093233072","type":"store","field":"<java.util.TreeMap: java.util.TreeMap$Node root>"},{"step":38,"from":"1093260488","to":"1095430504","type":"store","field":"<java.util.TreeMap$Node: java.util.TreeMap$Node left>"},{"step":39,"from":"1095430504","to":"1093260488","type":"store","field":"<java.util.TreeMap$Node: java.util.TreeMap$Node parent>"},{"step":40,"from":"sdaReg42","to":"sdaReg43","type":"model"},{"step":41,"from":"sdaReg42","to":"sdaReg44","type":"model"},{"step":42,"from":"sdaReg43","to":"sdaReg42","type":"model"},{"step":43,"from":"sdaReg43","to":"sdaReg44","type":"model"},{"step":44,"from":"sdaReg45","to":"1093260488","type":"store","field":"<java.util.TreeMap$Node: int height>"},{"step":45,"from":"sdaReg47","to":"1095430504","type":"store","field":"<java.util.TreeMap$Node: int height>"},{"step":46,"from":"1085638584","to":"1094753824","type":"store","field":"<java.util.TreeMap$Node: java.lang.Object value>"}],"parameters":[{"id":"1093233072","name":"this","klass":"java.util.TreeMap"},{"id":"1094032064","name":"arg#1","klass":"java.lang.Object"},{"id":"1085638584","name":"arg#2","klass":"java.lang.Object"}],"returns":[{"id":"0","name":"return","klass":"java.lang.Object"}],"colors":{"heapLocToColor":{"1095430504.<java.util.TreeMap$Node: java.util.TreeMap$Node parent>":[0],"sdaReg13":[9],"1093233072.<java.util.TreeMap: int size>":[0],"sdaReg14":[0],"sdaReg11":[1, 6],"sdaReg12":[3, 8],"1085707192":[3],"sdaReg19":[9],"sdaReg18":[9],"sdaReg15":[1],"sdaReg16":[9],"1085752200":[7],"1093233072":[0],"static.<java.util.TreeMap$2: int[] $SwitchMap$java$util$TreeMap$Relation>":[7],"sdaReg48":[9],"1094753824":[9],"static.<java.util.TreeMap: boolean $assertionsDisabled>":[10],"sdaReg45":[12],"sdaReg44":[12],"sdaReg47":[13],"1085638584":[2],"sdaReg46":[13],"sdaReg40":[0],"1093260488":[0],"1083970648":[0, 4],"1093233072.<java.util.TreeMap: java.util.TreeMap$Node root>":[0],"static.<java.util.TreeMap: java.util.Comparator NATURAL_ORDER>":[0, 4],"1085752200.arrayIdx_int:3":[7],"sdaReg39":[0],"1094178736":[0, 1],"sdaReg38":[0],"sdaReg37":[0],"1093260488.<java.util.TreeMap$Node: java.util.TreeMap$Node right>":[0],"sdaReg31":[11],"sdaReg30":[11],"sdaReg36":[0],"sdaReg8":[1, 5],"1094032064":[1],"sdaReg9":[1, 5, 6],"sdaReg6":[1],"sdaReg7":[1],"sdaReg4":[1],"sdaReg5":[3],"static.<java.util.TreeMap$Relation: java.util.TreeMap$Relation CREATE>":[3],"1093233072.<java.util.TreeMap: int modCount>":[0],"1093852672":[0, 1],"1095430504":[0],"sdaReg3":[0],"sdaReg2":[2],"sdaReg1":[1],"sdaReg21":[0],"sdaReg0":[0],"sdaReg20":[0],"sdaReg23":[0],"sdaReg22":[0],"sdaReg25":[0]},"colorToColor":{"0":[0, 1, 5, 6, 9],"1":[1, 5, 6, 9],"2":[9],"9":[0],"11":[0],"12":[0],"13":[0]},"colorToLabel":{"0":"this","1":"arg#1","2":"arg#2","3":"<java.util.TreeMap$Relation: java.util.TreeMap$Relation CREATE>","4":"<java.util.TreeMap: java.util.Comparator NATURAL_ORDER>","7":"<java.util.TreeMap$2: int[] $SwitchMap$java$util$TreeMap$Relation>","10":"<java.util.TreeMap: boolean $assertionsDisabled>","14":"return"}}}

Generated Model
	this->arg#1
	arg#2->this
	arg#2->arg#1
	arg#1->this

