Scanning method <java.util.TreeMap: java.lang.Object put(java.lang.Object,java.lang.Object)>

All seen event types: SimpleAssignmentRecord, MethodStartRecord, LoadInstanceRecord, IfRecord, NewObjectRecord, StoreInstanceRecord, LoadStaticRecord, BinaryOperationRecord, MethodCallRecord, MethodReturnRecord, SwitchRecord, CastRecord, LoadArrayRecord, MethodEndRecord, 
Ignored event types: SwitchRecord, IfRecord, 

JSON Encoded Analysis Data (for visualization):{"heapEdges":[{"step":0,"from":"static.<java.util.TreeMap$Relation: java.util.TreeMap$Relation CREATE>","to":"1085707192","type":"load","field":"<java.util.TreeMap$Relation: java.util.TreeMap$Relation CREATE>"},{"step":1,"from":"1093233072","to":"1093533024","type":"load","field":"<java.util.TreeMap: java.util.TreeMap$Node root>"},{"step":2,"from":"1093233072","to":"1083970648","type":"load","field":"<java.util.TreeMap: java.util.Comparator comparator>"},{"step":3,"from":"static.<java.util.TreeMap: java.util.Comparator NATURAL_ORDER>","to":"1083970648","type":"load","field":"<java.util.TreeMap: java.util.Comparator NATURAL_ORDER>"},{"step":4,"from":"1093233072","to":"1093533024","type":"load","field":"<java.util.TreeMap: java.util.TreeMap$Node root>"},{"step":5,"from":"1093533024","to":"1093342360","type":"load","field":"<java.util.TreeMap$Node: java.lang.Object key>"},{"step":6,"from":"1093789280","to":"1093342360","type":"model"},{"step":7,"from":"1093789280","to":"sdaReg8","type":"model"},{"step":8,"from":"1093342360","to":"1093789280","type":"model"},{"step":9,"from":"1093342360","to":"sdaReg8","type":"model"},{"step":10,"from":"1093533024","to":"1093544664","type":"load","field":"<java.util.TreeMap$Node: java.util.TreeMap$Node right>"},{"step":11,"from":"1093544664","to":"1093594080","type":"load","field":"<java.util.TreeMap$Node: java.lang.Object key>"},{"step":12,"from":"1093789280","to":"1093594080","type":"model"},{"step":13,"from":"1093789280","to":"sdaReg11","type":"model"},{"step":14,"from":"1093594080","to":"1093789280","type":"model"},{"step":15,"from":"1093594080","to":"sdaReg11","type":"model"},{"step":16,"from":"1093544664","to":"1096045000","type":"load","field":"<java.util.TreeMap$Node: java.util.TreeMap$Node right>"},{"step":17,"from":"1096045000","to":"1093336024","type":"load","field":"<java.util.TreeMap$Node: java.lang.Object key>"},{"step":18,"from":"1093789280","to":"1093336024","type":"model"},{"step":19,"from":"1093789280","to":"sdaReg12","type":"model"},{"step":20,"from":"1093336024","to":"1093789280","type":"model"},{"step":21,"from":"1093336024","to":"sdaReg12","type":"model"},{"step":22,"from":"1096045000","to":"1096045040","type":"load","field":"<java.util.TreeMap$Node: java.util.TreeMap$Node right>"},{"step":23,"from":"1096045040","to":"1093336536","type":"load","field":"<java.util.TreeMap$Node: java.lang.Object key>"},{"step":24,"from":"1093789280","to":"1093336536","type":"model"},{"step":25,"from":"1093789280","to":"sdaReg13","type":"model"},{"step":26,"from":"1093336536","to":"1093789280","type":"model"},{"step":27,"from":"1093336536","to":"sdaReg13","type":"model"},{"step":28,"from":"1096045040","to":"1095563624","type":"load","field":"<java.util.TreeMap$Node: java.util.TreeMap$Node right>"},{"step":29,"from":"1095563624","to":"1093254744","type":"load","field":"<java.util.TreeMap$Node: java.lang.Object key>"},{"step":30,"from":"1093789280","to":"1093254744","type":"model"},{"step":31,"from":"1093789280","to":"sdaReg14","type":"model"},{"step":32,"from":"1093254744","to":"1093789280","type":"model"},{"step":33,"from":"1093254744","to":"sdaReg14","type":"model"},{"step":34,"from":"static.<java.util.TreeMap$2: int[] $SwitchMap$java$util$TreeMap$Relation>","to":"1085752200","type":"load","field":"<java.util.TreeMap$2: int[] $SwitchMap$java$util$TreeMap$Relation>"},{"step":35,"from":"1085707192","to":"sdaReg15","type":"model"},{"step":36,"from":"1085752200","to":"1085752200.arrayIdx_int:3","type":"load","field":"arrayIdx_int:3"},{"step":37,"from":"1095563624","to":"1095477952","type":"store","field":"<java.util.TreeMap$Node: java.util.TreeMap$Node parent>"},{"step":38,"from":"1093789280","to":"1095477952","type":"store","field":"<java.util.TreeMap$Node: java.lang.Object key>"},{"step":39,"from":"1095477952","to":"sdaReg20","type":"create","field":"<java.util.TreeMap$Node: int height>"},{"step":40,"from":"1095563624","to":"1095477952","type":"create","field":"<java.util.TreeMap$Node: java.util.TreeMap$Node right>"},{"step":41,"from":"1093233072","to":"1093233072.<java.util.TreeMap: int size>","type":"load","field":"<java.util.TreeMap: int size>"},{"step":42,"from":"sdaReg23","to":"1093233072","type":"store","field":"<java.util.TreeMap: int size>"},{"step":43,"from":"1093233072","to":"1093233072.<java.util.TreeMap: int modCount>","type":"load","field":"<java.util.TreeMap: int modCount>"},{"step":44,"from":"sdaReg24","to":"1093233072","type":"store","field":"<java.util.TreeMap: int modCount>"},{"step":45,"from":"static.<java.util.TreeMap: boolean $assertionsDisabled>","to":"static.<java.util.TreeMap: boolean $assertionsDisabled>","type":"load","field":"<java.util.TreeMap: boolean $assertionsDisabled>"},{"step":46,"from":"sdaReg30","to":"sdaReg31","type":"model"},{"step":47,"from":"sdaReg30","to":"sdaReg33","type":"model"},{"step":48,"from":"sdaReg31","to":"sdaReg30","type":"model"},{"step":49,"from":"sdaReg31","to":"sdaReg33","type":"model"},{"step":50,"from":"sdaReg34","to":"1095563624","type":"store","field":"<java.util.TreeMap$Node: int height>"},{"step":51,"from":"1095563624","to":"1096045040","type":"load","field":"<java.util.TreeMap$Node: java.util.TreeMap$Node parent>"},{"step":52,"from":"1096045040","to":"1095563624","type":"load","field":"<java.util.TreeMap$Node: java.util.TreeMap$Node right>"},{"step":53,"from":"1096045040","to":"1095563624","type":"load","field":"<java.util.TreeMap$Node: java.util.TreeMap$Node right>"},{"step":54,"from":"1096045040","to":"1096045000","type":"load","field":"<java.util.TreeMap$Node: java.util.TreeMap$Node parent>"},{"step":55,"from":"1096045040","to":"sdaReg44","type":"create","field":"<java.util.TreeMap$Node: java.util.TreeMap$Node parent>"},{"step":56,"from":"1096045000","to":"1095563624","type":"store","field":"<java.util.TreeMap$Node: java.util.TreeMap$Node parent>"},{"step":57,"from":"1096045000","to":"1093544704","type":"load","field":"<java.util.TreeMap$Node: java.util.TreeMap$Node left>"},{"step":58,"from":"static.<java.util.TreeMap: boolean $assertionsDisabled>","to":"static.<java.util.TreeMap: boolean $assertionsDisabled>","type":"load","field":"<java.util.TreeMap: boolean $assertionsDisabled>"},{"step":59,"from":"1095563624","to":"1096045000","type":"store","field":"<java.util.TreeMap$Node: java.util.TreeMap$Node right>"},{"step":60,"from":"1096045040","to":"1095563624","type":"store","field":"<java.util.TreeMap$Node: java.util.TreeMap$Node left>"},{"step":61,"from":"1095563624","to":"1096045040","type":"store","field":"<java.util.TreeMap$Node: java.util.TreeMap$Node parent>"},{"step":62,"from":"sdaReg45","to":"sdaReg46","type":"model"},{"step":63,"from":"sdaReg45","to":"sdaReg47","type":"model"},{"step":64,"from":"sdaReg46","to":"sdaReg45","type":"model"},{"step":65,"from":"sdaReg46","to":"sdaReg47","type":"model"},{"step":66,"from":"sdaReg48","to":"1096045040","type":"store","field":"<java.util.TreeMap$Node: int height>"},{"step":67,"from":"sdaReg50","to":"1095563624","type":"store","field":"<java.util.TreeMap$Node: int height>"},{"step":68,"from":"1085638584","to":"1095477952","type":"store","field":"<java.util.TreeMap$Node: java.lang.Object value>"}],"parameters":[{"id":"1093233072","name":"this","klass":"java.util.TreeMap"},{"id":"1093789280","name":"arg#1","klass":"java.lang.Object"},{"id":"1085638584","name":"arg#2","klass":"java.lang.Object"}],"returns":[{"id":"0","name":"return","klass":"java.lang.Object"}],"colors":{"heapLocToColor":{"sdaReg13":[1, 8],"1093233072.<java.util.TreeMap: int size>":[0],"sdaReg14":[1, 9],"sdaReg11":[1, 6],"sdaReg12":[1, 7],"1095563624":[0],"1085707192":[3],"1093336536":[0, 1],"sdaReg19":[12],"sdaReg17":[0],"sdaReg18":[1],"sdaReg15":[3, 11],"sdaReg51":[12],"sdaReg16":[12],"sdaReg50":[16],"1085752200":[10],"1093544664":[0],"1093233072":[0],"1096045040.<java.util.TreeMap$Node: java.util.TreeMap$Node parent>":[0],"static.<java.util.TreeMap$2: int[] $SwitchMap$java$util$TreeMap$Relation>":[10],"sdaReg49":[16],"sdaReg48":[15],"static.<java.util.TreeMap: boolean $assertionsDisabled>":[13],"sdaReg47":[15],"1085638584":[2],"sdaReg41":[0],"sdaReg40":[0],"sdaReg43":[0],"sdaReg42":[0],"1083970648":[0, 4],"1093342360":[0, 1],"1093544704":[0],"1093233072.<java.util.TreeMap: java.util.TreeMap$Node root>":[0],"static.<java.util.TreeMap: java.util.Comparator NATURAL_ORDER>":[0, 4],"1093254744":[0, 1],"1096045040.<java.util.TreeMap$Node: java.util.TreeMap$Node right>":[0],"1085752200.arrayIdx_int:3":[10],"sdaReg39":[0],"1096045040":[0],"1096045000":[0],"sdaReg34":[14],"sdaReg33":[14],"1093789280":[1],"sdaReg8":[1, 5],"sdaReg9":[1, 5, 6, 7, 8, 9],"sdaReg6":[1],"sdaReg7":[1],"sdaReg4":[1],"sdaReg5":[3],"static.<java.util.TreeMap$Relation: java.util.TreeMap$Relation CREATE>":[3],"1095563624.<java.util.TreeMap$Node: java.util.TreeMap$Node parent>":[0],"1093233072.<java.util.TreeMap: int modCount>":[0],"sdaReg26":[0],"1093594080":[0, 1],"sdaReg28":[0],"1093336024":[0, 1],"1095477952":[12],"sdaReg3":[0],"sdaReg2":[2],"sdaReg1":[1],"sdaReg21":[12],"sdaReg0":[0],"1093533024":[0],"sdaReg23":[0],"sdaReg22":[12],"sdaReg25":[0],"sdaReg24":[0]},"colorToColor":{"0":[0, 1, 5, 6, 7, 8, 9, 12],"16":[0],"1":[1, 5, 6, 7, 8, 9, 12],"2":[12],"12":[0],"14":[0],"15":[0]},"colorToLabel":{"0":"this","1":"arg#1","2":"arg#2","3":"<java.util.TreeMap$Relation: java.util.TreeMap$Relation CREATE>","4":"<java.util.TreeMap: java.util.Comparator NATURAL_ORDER>","10":"<java.util.TreeMap$2: int[] $SwitchMap$java$util$TreeMap$Relation>","13":"<java.util.TreeMap: boolean $assertionsDisabled>","17":"return"}}}

Generated Model
	this->arg#1
	arg#2->this
	arg#2->arg#1
	arg#1->this

