Scanning method <java.util.TreeMap: java.lang.Object put(java.lang.Object,java.lang.Object)>

All seen event types: SimpleAssignmentRecord, MethodStartRecord, LoadInstanceRecord, IfRecord, NewObjectRecord, StoreInstanceRecord, LoadStaticRecord, BinaryOperationRecord, MethodCallRecord, MethodReturnRecord, SwitchRecord, CastRecord, LoadArrayRecord, MethodEndRecord, 
Ignored event types: SwitchRecord, IfRecord, 

JSON Encoded Analysis Data (for visualization):{"heapEdges":[{"step":0,"from":"static.<java.util.TreeMap$Relation: java.util.TreeMap$Relation CREATE>","to":"1085707192","type":"load","field":"<java.util.TreeMap$Relation: java.util.TreeMap$Relation CREATE>"},{"step":1,"from":"1093233072","to":"1094753864","type":"load","field":"<java.util.TreeMap: java.util.TreeMap$Node root>"},{"step":2,"from":"1093233072","to":"1083970648","type":"load","field":"<java.util.TreeMap: java.util.Comparator comparator>"},{"step":3,"from":"static.<java.util.TreeMap: java.util.Comparator NATURAL_ORDER>","to":"1083970648","type":"load","field":"<java.util.TreeMap: java.util.Comparator NATURAL_ORDER>"},{"step":4,"from":"1093233072","to":"1094753864","type":"load","field":"<java.util.TreeMap: java.util.TreeMap$Node root>"},{"step":5,"from":"1094753864","to":"1094193096","type":"load","field":"<java.util.TreeMap$Node: java.lang.Object key>"},{"step":6,"from":"1093229088","to":"1094193096","type":"model"},{"step":7,"from":"1093229088","to":"sdaReg8","type":"model"},{"step":8,"from":"1094193096","to":"1093229088","type":"model"},{"step":9,"from":"1094193096","to":"sdaReg8","type":"model"},{"step":10,"from":"1094753864","to":"1093686520","type":"load","field":"<java.util.TreeMap$Node: java.util.TreeMap$Node right>"},{"step":11,"from":"1093686520","to":"1093571160","type":"load","field":"<java.util.TreeMap$Node: java.lang.Object key>"},{"step":12,"from":"1093229088","to":"1093571160","type":"model"},{"step":13,"from":"1093229088","to":"sdaReg11","type":"model"},{"step":14,"from":"1093571160","to":"1093229088","type":"model"},{"step":15,"from":"1093571160","to":"sdaReg11","type":"model"},{"step":16,"from":"1093686520","to":"1093685344","type":"load","field":"<java.util.TreeMap$Node: java.util.TreeMap$Node right>"},{"step":17,"from":"1093685344","to":"1093259736","type":"load","field":"<java.util.TreeMap$Node: java.lang.Object key>"},{"step":18,"from":"1093229088","to":"1093259736","type":"model"},{"step":19,"from":"1093229088","to":"sdaReg12","type":"model"},{"step":20,"from":"1093259736","to":"1093229088","type":"model"},{"step":21,"from":"1093259736","to":"sdaReg12","type":"model"},{"step":22,"from":"static.<java.util.TreeMap$2: int[] $SwitchMap$java$util$TreeMap$Relation>","to":"1085752200","type":"load","field":"<java.util.TreeMap$2: int[] $SwitchMap$java$util$TreeMap$Relation>"},{"step":23,"from":"1085707192","to":"sdaReg13","type":"model"},{"step":24,"from":"1085752200","to":"1085752200.arrayIdx_int:3","type":"load","field":"arrayIdx_int:3"},{"step":25,"from":"1093685344","to":"1093447784","type":"store","field":"<java.util.TreeMap$Node: java.util.TreeMap$Node parent>"},{"step":26,"from":"1093229088","to":"1093447784","type":"store","field":"<java.util.TreeMap$Node: java.lang.Object key>"},{"step":27,"from":"1093447784","to":"sdaReg18","type":"create","field":"<java.util.TreeMap$Node: int height>"},{"step":28,"from":"1093685344","to":"1093447784","type":"create","field":"<java.util.TreeMap$Node: java.util.TreeMap$Node right>"},{"step":29,"from":"1093233072","to":"1093233072.<java.util.TreeMap: int size>","type":"load","field":"<java.util.TreeMap: int size>"},{"step":30,"from":"sdaReg21","to":"1093233072","type":"store","field":"<java.util.TreeMap: int size>"},{"step":31,"from":"1093233072","to":"1093233072.<java.util.TreeMap: int modCount>","type":"load","field":"<java.util.TreeMap: int modCount>"},{"step":32,"from":"sdaReg22","to":"1093233072","type":"store","field":"<java.util.TreeMap: int modCount>"},{"step":33,"from":"static.<java.util.TreeMap: boolean $assertionsDisabled>","to":"static.<java.util.TreeMap: boolean $assertionsDisabled>","type":"load","field":"<java.util.TreeMap: boolean $assertionsDisabled>"},{"step":34,"from":"sdaReg28","to":"sdaReg29","type":"model"},{"step":35,"from":"sdaReg28","to":"sdaReg31","type":"model"},{"step":36,"from":"sdaReg29","to":"sdaReg28","type":"model"},{"step":37,"from":"sdaReg29","to":"sdaReg31","type":"model"},{"step":38,"from":"sdaReg32","to":"1093685344","type":"store","field":"<java.util.TreeMap$Node: int height>"},{"step":39,"from":"1093685344","to":"1093686520","type":"load","field":"<java.util.TreeMap$Node: java.util.TreeMap$Node parent>"},{"step":40,"from":"1093686520","to":"1094753904","type":"load","field":"<java.util.TreeMap$Node: java.util.TreeMap$Node left>"},{"step":41,"from":"1093686520","to":"1093685344","type":"load","field":"<java.util.TreeMap$Node: java.util.TreeMap$Node right>"},{"step":42,"from":"1094753904","to":"1094753904.<java.util.TreeMap$Node: int height>","type":"load","field":"<java.util.TreeMap$Node: int height>"},{"step":43,"from":"static.<java.util.TreeMap: boolean $assertionsDisabled>","to":"static.<java.util.TreeMap: boolean $assertionsDisabled>","type":"load","field":"<java.util.TreeMap: boolean $assertionsDisabled>"},{"step":44,"from":"sdaReg28","to":"sdaReg29","type":"model"},{"step":45,"from":"sdaReg28","to":"sdaReg33","type":"model"},{"step":46,"from":"sdaReg29","to":"sdaReg28","type":"model"},{"step":47,"from":"sdaReg29","to":"sdaReg33","type":"model"},{"step":48,"from":"sdaReg32","to":"1093686520","type":"store","field":"<java.util.TreeMap$Node: int height>"},{"step":49,"from":"1093686520","to":"1094753864","type":"load","field":"<java.util.TreeMap$Node: java.util.TreeMap$Node parent>"},{"step":50,"from":"1094753864","to":"1095430504","type":"load","field":"<java.util.TreeMap$Node: java.util.TreeMap$Node left>"},{"step":51,"from":"1094753864","to":"1093686520","type":"load","field":"<java.util.TreeMap$Node: java.util.TreeMap$Node right>"},{"step":52,"from":"1095430504","to":"1095430504.<java.util.TreeMap$Node: int height>","type":"load","field":"<java.util.TreeMap$Node: int height>"},{"step":53,"from":"static.<java.util.TreeMap: boolean $assertionsDisabled>","to":"static.<java.util.TreeMap: boolean $assertionsDisabled>","type":"load","field":"<java.util.TreeMap: boolean $assertionsDisabled>"},{"step":54,"from":"sdaReg28","to":"sdaReg29","type":"model"},{"step":55,"from":"sdaReg28","to":"sdaReg34","type":"model"},{"step":56,"from":"sdaReg29","to":"sdaReg28","type":"model"},{"step":57,"from":"sdaReg29","to":"sdaReg34","type":"model"},{"step":58,"from":"sdaReg32","to":"1094753864","type":"store","field":"<java.util.TreeMap$Node: int height>"},{"step":59,"from":"1085638584","to":"1093447784","type":"store","field":"<java.util.TreeMap$Node: java.lang.Object value>"}],"parameters":[{"id":"1093233072","name":"this","klass":"java.util.TreeMap"},{"id":"1093229088","name":"arg#1","klass":"java.lang.Object"},{"id":"1085638584","name":"arg#2","klass":"java.lang.Object"}],"returns":[{"id":"0","name":"return","klass":"java.lang.Object"}],"colors":{"heapLocToColor":{"sdaReg13":[3, 9],"1093233072.<java.util.TreeMap: int size>":[0],"sdaReg14":[10],"sdaReg11":[1, 6],"sdaReg12":[1, 7],"1085707192":[3],"sdaReg19":[10],"sdaReg17":[10],"sdaReg15":[0],"1095430504.<java.util.TreeMap$Node: int height>":[0],"sdaReg16":[1],"1085752200":[8],"1093686520.<java.util.TreeMap$Node: java.util.TreeMap$Node right>":[0],"1093686520.<java.util.TreeMap$Node: java.util.TreeMap$Node parent>":[0],"1093233072":[0],"1094753904":[0],"static.<java.util.TreeMap$2: int[] $SwitchMap$java$util$TreeMap$Relation>":[8],"static.<java.util.TreeMap: boolean $assertionsDisabled>":[11],"1085638584":[2],"1094753864":[0],"1083970648":[0, 4],"1093686520":[0],"1093233072.<java.util.TreeMap: java.util.TreeMap$Node root>":[0],"static.<java.util.TreeMap: java.util.Comparator NATURAL_ORDER>":[0, 4],"1094753864.<java.util.TreeMap$Node: java.util.TreeMap$Node right>":[0],"1094753904.<java.util.TreeMap$Node: int height>":[0],"1093447784":[10],"1085752200.arrayIdx_int:3":[8],"1093685344.<java.util.TreeMap$Node: java.util.TreeMap$Node parent>":[0],"sdaReg32":[12, 13, 14],"sdaReg31":[12],"sdaReg30":[0],"sdaReg35":[10],"sdaReg34":[14],"sdaReg33":[13],"1093571160":[0, 1],"sdaReg8":[1, 5],"1093685344":[0],"sdaReg9":[1, 5, 6, 7],"sdaReg6":[1],"sdaReg7":[1],"sdaReg4":[1],"sdaReg5":[3],"1093259736":[0, 1],"static.<java.util.TreeMap$Relation: java.util.TreeMap$Relation CREATE>":[3],"1094193096":[0, 1],"1093233072.<java.util.TreeMap: int modCount>":[0],"1095430504":[0],"1093229088":[1],"sdaReg26":[0],"sdaReg28":[0],"sdaReg3":[0],"sdaReg2":[2],"sdaReg1":[1],"sdaReg21":[0],"sdaReg0":[0],"sdaReg20":[10],"sdaReg23":[0],"sdaReg22":[0],"sdaReg24":[0]},"colorToColor":{"0":[0, 1, 5, 6, 7, 10, 13, 14],"1":[1, 5, 6, 7, 10],"2":[10],"10":[0],"12":[0],"13":[0],"14":[0]},"colorToLabel":{"0":"this","1":"arg#1","2":"arg#2","3":"<java.util.TreeMap$Relation: java.util.TreeMap$Relation CREATE>","4":"<java.util.TreeMap: java.util.Comparator NATURAL_ORDER>","8":"<java.util.TreeMap$2: int[] $SwitchMap$java$util$TreeMap$Relation>","11":"<java.util.TreeMap: boolean $assertionsDisabled>","15":"return"}}}

Generated Model
	this->arg#1
	arg#2->this
	arg#2->arg#1
	arg#1->this

