Scanning method <java.util.TreeMap: java.lang.Object put(java.lang.Object,java.lang.Object)>

All seen event types: SimpleAssignmentRecord, MethodStartRecord, LoadInstanceRecord, IfRecord, NewObjectRecord, StoreInstanceRecord, LoadStaticRecord, BinaryOperationRecord, MethodCallRecord, MethodReturnRecord, SwitchRecord, CastRecord, LoadArrayRecord, MethodEndRecord, 
Ignored event types: SwitchRecord, IfRecord, 

JSON Encoded Analysis Data (for visualization):{"heapEdges":[{"step":0,"from":"static.<java.util.TreeMap$Relation: java.util.TreeMap$Relation CREATE>","to":"1085707192","type":"load","field":"<java.util.TreeMap$Relation: java.util.TreeMap$Relation CREATE>"},{"step":1,"from":"1093233072","to":"1094259416","type":"load","field":"<java.util.TreeMap: java.util.TreeMap$Node root>"},{"step":2,"from":"1093233072","to":"1083970648","type":"load","field":"<java.util.TreeMap: java.util.Comparator comparator>"},{"step":3,"from":"static.<java.util.TreeMap: java.util.Comparator NATURAL_ORDER>","to":"1083970648","type":"load","field":"<java.util.TreeMap: java.util.Comparator NATURAL_ORDER>"},{"step":4,"from":"1093233072","to":"1094259416","type":"load","field":"<java.util.TreeMap: java.util.TreeMap$Node root>"},{"step":5,"from":"1094259416","to":"1093427368","type":"load","field":"<java.util.TreeMap$Node: java.lang.Object key>"},{"step":6,"from":"1093410536","to":"1093427368","type":"model"},{"step":7,"from":"1093410536","to":"sdaReg8","type":"model"},{"step":8,"from":"1093427368","to":"1093410536","type":"model"},{"step":9,"from":"1093427368","to":"sdaReg8","type":"model"},{"step":10,"from":"1094259416","to":"1096093824","type":"load","field":"<java.util.TreeMap$Node: java.util.TreeMap$Node right>"},{"step":11,"from":"1096093824","to":"1093524480","type":"load","field":"<java.util.TreeMap$Node: java.lang.Object key>"},{"step":12,"from":"1093410536","to":"1093524480","type":"model"},{"step":13,"from":"1093410536","to":"sdaReg11","type":"model"},{"step":14,"from":"1093524480","to":"1093410536","type":"model"},{"step":15,"from":"1093524480","to":"sdaReg11","type":"model"},{"step":16,"from":"1096093824","to":"1093229472","type":"load","field":"<java.util.TreeMap$Node: java.util.TreeMap$Node right>"},{"step":17,"from":"1093229472","to":"1093284704","type":"load","field":"<java.util.TreeMap$Node: java.lang.Object key>"},{"step":18,"from":"1093410536","to":"1093284704","type":"model"},{"step":19,"from":"1093410536","to":"sdaReg12","type":"model"},{"step":20,"from":"1093284704","to":"1093410536","type":"model"},{"step":21,"from":"1093284704","to":"sdaReg12","type":"model"},{"step":22,"from":"1093229472","to":"1093938576","type":"load","field":"<java.util.TreeMap$Node: java.util.TreeMap$Node right>"},{"step":23,"from":"1093938576","to":"1093375472","type":"load","field":"<java.util.TreeMap$Node: java.lang.Object key>"},{"step":24,"from":"1093410536","to":"1093375472","type":"model"},{"step":25,"from":"1093410536","to":"sdaReg13","type":"model"},{"step":26,"from":"1093375472","to":"1093410536","type":"model"},{"step":27,"from":"1093375472","to":"sdaReg13","type":"model"},{"step":28,"from":"1093938576","to":"1095420264","type":"load","field":"<java.util.TreeMap$Node: java.util.TreeMap$Node right>"},{"step":29,"from":"1095420264","to":"1093396616","type":"load","field":"<java.util.TreeMap$Node: java.lang.Object key>"},{"step":30,"from":"1093410536","to":"1093396616","type":"model"},{"step":31,"from":"1093410536","to":"sdaReg14","type":"model"},{"step":32,"from":"1093396616","to":"1093410536","type":"model"},{"step":33,"from":"1093396616","to":"sdaReg14","type":"model"},{"step":34,"from":"1095420264","to":"1095559696","type":"load","field":"<java.util.TreeMap$Node: java.util.TreeMap$Node right>"},{"step":35,"from":"1095559696","to":"1093397624","type":"load","field":"<java.util.TreeMap$Node: java.lang.Object key>"},{"step":36,"from":"1093410536","to":"1093397624","type":"model"},{"step":37,"from":"1093410536","to":"sdaReg15","type":"model"},{"step":38,"from":"1093397624","to":"1093410536","type":"model"},{"step":39,"from":"1093397624","to":"sdaReg15","type":"model"},{"step":40,"from":"1095559696","to":"1095803272","type":"load","field":"<java.util.TreeMap$Node: java.util.TreeMap$Node right>"},{"step":41,"from":"1095803272","to":"1093412864","type":"load","field":"<java.util.TreeMap$Node: java.lang.Object key>"},{"step":42,"from":"1093410536","to":"1093412864","type":"model"},{"step":43,"from":"1093410536","to":"sdaReg16","type":"model"},{"step":44,"from":"1093412864","to":"1093410536","type":"model"},{"step":45,"from":"1093412864","to":"sdaReg16","type":"model"},{"step":46,"from":"static.<java.util.TreeMap$2: int[] $SwitchMap$java$util$TreeMap$Relation>","to":"1085752200","type":"load","field":"<java.util.TreeMap$2: int[] $SwitchMap$java$util$TreeMap$Relation>"},{"step":47,"from":"1085707192","to":"sdaReg17","type":"model"},{"step":48,"from":"1085752200","to":"1085752200.arrayIdx_int:3","type":"load","field":"arrayIdx_int:3"},{"step":49,"from":"1095803272","to":"1096177952","type":"store","field":"<java.util.TreeMap$Node: java.util.TreeMap$Node parent>"},{"step":50,"from":"1093410536","to":"1096177952","type":"store","field":"<java.util.TreeMap$Node: java.lang.Object key>"},{"step":51,"from":"1096177952","to":"sdaReg22","type":"create","field":"<java.util.TreeMap$Node: int height>"},{"step":52,"from":"1095803272","to":"1096177952","type":"create","field":"<java.util.TreeMap$Node: java.util.TreeMap$Node right>"},{"step":53,"from":"1093233072","to":"1093233072.<java.util.TreeMap: int size>","type":"load","field":"<java.util.TreeMap: int size>"},{"step":54,"from":"sdaReg25","to":"1093233072","type":"store","field":"<java.util.TreeMap: int size>"},{"step":55,"from":"1093233072","to":"1093233072.<java.util.TreeMap: int modCount>","type":"load","field":"<java.util.TreeMap: int modCount>"},{"step":56,"from":"sdaReg26","to":"1093233072","type":"store","field":"<java.util.TreeMap: int modCount>"},{"step":57,"from":"static.<java.util.TreeMap: boolean $assertionsDisabled>","to":"static.<java.util.TreeMap: boolean $assertionsDisabled>","type":"load","field":"<java.util.TreeMap: boolean $assertionsDisabled>"},{"step":58,"from":"sdaReg32","to":"sdaReg33","type":"model"},{"step":59,"from":"sdaReg32","to":"sdaReg35","type":"model"},{"step":60,"from":"sdaReg33","to":"sdaReg32","type":"model"},{"step":61,"from":"sdaReg33","to":"sdaReg35","type":"model"},{"step":62,"from":"sdaReg36","to":"1095803272","type":"store","field":"<java.util.TreeMap$Node: int height>"},{"step":63,"from":"1095803272","to":"1095559696","type":"load","field":"<java.util.TreeMap$Node: java.util.TreeMap$Node parent>"},{"step":64,"from":"1095559696","to":"1095803272","type":"load","field":"<java.util.TreeMap$Node: java.util.TreeMap$Node right>"},{"step":65,"from":"1095559696","to":"1095803272","type":"load","field":"<java.util.TreeMap$Node: java.util.TreeMap$Node right>"},{"step":66,"from":"1095559696","to":"1095420264","type":"load","field":"<java.util.TreeMap$Node: java.util.TreeMap$Node parent>"},{"step":67,"from":"1095559696","to":"sdaReg46","type":"create","field":"<java.util.TreeMap$Node: java.util.TreeMap$Node parent>"},{"step":68,"from":"1095420264","to":"1095803272","type":"store","field":"<java.util.TreeMap$Node: java.util.TreeMap$Node parent>"},{"step":69,"from":"1095420264","to":"1094908296","type":"load","field":"<java.util.TreeMap$Node: java.util.TreeMap$Node left>"},{"step":70,"from":"static.<java.util.TreeMap: boolean $assertionsDisabled>","to":"static.<java.util.TreeMap: boolean $assertionsDisabled>","type":"load","field":"<java.util.TreeMap: boolean $assertionsDisabled>"},{"step":71,"from":"1095803272","to":"1095420264","type":"store","field":"<java.util.TreeMap$Node: java.util.TreeMap$Node right>"},{"step":72,"from":"1095559696","to":"1095803272","type":"store","field":"<java.util.TreeMap$Node: java.util.TreeMap$Node left>"},{"step":73,"from":"1095803272","to":"1095559696","type":"store","field":"<java.util.TreeMap$Node: java.util.TreeMap$Node parent>"},{"step":74,"from":"sdaReg47","to":"sdaReg48","type":"model"},{"step":75,"from":"sdaReg47","to":"sdaReg49","type":"model"},{"step":76,"from":"sdaReg48","to":"sdaReg47","type":"model"},{"step":77,"from":"sdaReg48","to":"sdaReg49","type":"model"},{"step":78,"from":"sdaReg50","to":"1095559696","type":"store","field":"<java.util.TreeMap$Node: int height>"},{"step":79,"from":"sdaReg52","to":"1095803272","type":"store","field":"<java.util.TreeMap$Node: int height>"},{"step":80,"from":"1085638584","to":"1096177952","type":"store","field":"<java.util.TreeMap$Node: java.lang.Object value>"}],"parameters":[{"id":"1093233072","name":"this","klass":"java.util.TreeMap"},{"id":"1093410536","name":"arg#1","klass":"java.lang.Object"},{"id":"1085638584","name":"arg#2","klass":"java.lang.Object"}],"returns":[{"id":"0","name":"return","klass":"java.lang.Object"}],"colors":{"heapLocToColor":{"1093410536":[1],"1093284704":[0, 1],"1093233072.<java.util.TreeMap: int size>":[0],"sdaReg13":[1, 8],"sdaReg14":[1, 9],"sdaReg11":[1, 6],"1093375472":[0, 1],"sdaReg12":[1, 7],"1085707192":[3],"1094259416":[0],"sdaReg19":[0],"sdaReg17":[3, 13],"sdaReg53":[14],"sdaReg18":[14],"sdaReg52":[18],"sdaReg15":[1, 10],"sdaReg51":[18],"sdaReg16":[1, 11],"sdaReg50":[17],"1085752200":[12],"1095559696.<java.util.TreeMap$Node: java.util.TreeMap$Node right>":[0],"1093233072":[0],"1094908296":[0],"static.<java.util.TreeMap$2: int[] $SwitchMap$java$util$TreeMap$Relation>":[12],"sdaReg49":[17],"1095803272.<java.util.TreeMap$Node: java.util.TreeMap$Node parent>":[0],"1093427368":[0, 1],"static.<java.util.TreeMap: boolean $assertionsDisabled>":[15],"sdaReg45":[0],"sdaReg44":[0],"1093229472":[0],"1085638584":[2],"sdaReg41":[0],"sdaReg43":[0],"sdaReg42":[0],"1083970648":[0, 4],"1095803272":[0],"1096093824":[0],"1093233072.<java.util.TreeMap: java.util.TreeMap$Node root>":[0],"1093412864":[0, 1],"static.<java.util.TreeMap: java.util.Comparator NATURAL_ORDER>":[0, 4],"1095559696.<java.util.TreeMap$Node: java.util.TreeMap$Node parent>":[0],"1095559696":[0],"1085752200.arrayIdx_int:3":[12],"1093524480":[0, 1],"sdaReg30":[0],"1093396616":[0, 1],"sdaReg36":[16],"sdaReg35":[16],"sdaReg8":[1, 5],"sdaReg9":[1, 5, 6, 7, 8, 9, 10, 11],"sdaReg6":[1],"sdaReg7":[1],"sdaReg4":[1],"sdaReg5":[3],"static.<java.util.TreeMap$Relation: java.util.TreeMap$Relation CREATE>":[3],"1093233072.<java.util.TreeMap: int modCount>":[0],"1093938576":[0],"sdaReg27":[0],"sdaReg26":[0],"sdaReg28":[0],"1096177952":[14],"sdaReg3":[0],"sdaReg2":[2],"1093397624":[0, 1],"sdaReg1":[1],"sdaReg21":[14],"sdaReg0":[0],"sdaReg20":[1],"sdaReg23":[14],"sdaReg25":[0],"1095420264":[0],"sdaReg24":[14]},"colorToColor":{"17":[0],"0":[0, 1, 5, 6, 7, 8, 9, 10, 11, 14],"16":[0],"1":[1, 5, 6, 7, 8, 9, 10, 11, 14],"2":[14],"18":[0],"14":[0]},"colorToLabel":{"0":"this","1":"arg#1","2":"arg#2","3":"<java.util.TreeMap$Relation: java.util.TreeMap$Relation CREATE>","4":"<java.util.TreeMap: java.util.Comparator NATURAL_ORDER>","12":"<java.util.TreeMap$2: int[] $SwitchMap$java$util$TreeMap$Relation>","15":"<java.util.TreeMap: boolean $assertionsDisabled>","19":"return"}}}

Generated Model
	this->arg#1
	arg#2->this
	arg#2->arg#1
	arg#1->this

