Scanning method <java.net.InetAddress: java.lang.String getCanonicalHostName()>

All seen event types: LoadStaticRecord, MethodReturnRecord, MethodCallRecord, ArrayLengthRecord, CastRecord, LoadInstanceRecord, MethodStartRecord, MethodEndRecord, IfRecord, StoreInstanceRecord, NewObjectRecord, 
Ignored event types: IfRecord, 

JSON Encoded Analysis Data (for visualization):{"heapEdges":[{"step":0,"from":"static.<libcore.io.Libcore: libcore.io.Os os>","to":"1083982784","type":"load","field":"<libcore.io.Libcore: libcore.io.Os os>"},{"step":1,"from":"static.<libcore.io.OsConstants: int NI_NAMEREQD>","to":"static.<libcore.io.OsConstants: int NI_NAMEREQD>","type":"load","field":"<libcore.io.OsConstants: int NI_NAMEREQD>"},{"step":2,"from":"static.<libcore.io.OsConstants: int NI_NAMEREQD>","to":"sdaReg2","type":"model"},{"step":3,"from":"1093702496","to":"sdaReg2","type":"model"},{"step":4,"from":"1093702496","to":"1093702520","type":"load","field":"<java.net.InetAddress: byte[] ipaddress>"},{"step":5,"from":"1093702520","to":"1093507672","type":"model"},{"step":6,"from":"static.<libcore.io.OsConstants: int AF_INET>","to":"static.<libcore.io.OsConstants: int AF_INET>","type":"load","field":"<libcore.io.OsConstants: int AF_INET>"},{"step":7,"from":"static.<libcore.io.OsConstants: int AF_INET>","to":"1093286464","type":"store","field":"<java.net.InetAddress: int family>"},{"step":8,"from":"1093286464","to":"1093507672","type":"create","field":"<java.net.InetAddress: byte[] ipaddress>"},{"step":9,"from":"sdaReg2","to":"1093286464","type":"store","field":"<java.net.InetAddress: java.lang.String hostName>"}],"parameters":[{"id":"1093702496","name":"this","klass":"java.net.InetAddress"}],"returns":[{"id":null,"name":"return","klass":"string"}],"colors":{"heapLocToColor":{"sdaReg8":[0, 5],"sdaReg9":[6],"sdaReg7":[6],"sdaReg4":[0, 5],"sdaReg5":[0, 5],"1093507672":[0, 5],"1083982784":[2],"1093286464":[6],"static.<libcore.io.Libcore: libcore.io.Os os>":[2],"1093702496":[0],"sdaReg13":[6],"sdaReg14":[6],"sdaReg11":[6],"sdaReg12":[6],"static.<libcore.io.OsConstants: int AF_INET>":[7],"sdaReg10":[0, 5],"1084337336":[1],"1093702520":[0],"sdaReg3":[0, 5],"sdaReg2":[4],"sdaReg1":[1],"sdaReg0":[0],"sdaReg15":[6],"static.<libcore.io.OsConstants: int NI_NAMEREQD>":[3]},"colorToColor":{"0":[4, 6],"3":[4],"4":[6],"5":[6],"7":[6]},"colorToLabel":{"0":"this","2":"<libcore.io.Libcore: libcore.io.Os os>","3":"<libcore.io.OsConstants: int NI_NAMEREQD>","7":"<libcore.io.OsConstants: int AF_INET>","8":"return"}}}

Generated Model

