Scanning method <android.util.Base64: byte[] decode(byte[],int,int,int)>

All seen event types: StoreArrayRecord, SimpleAssignmentRecord, MethodStartRecord, LoadInstanceRecord, IfRecord, NewObjectRecord, StoreInstanceRecord, NewArrayRecord, LoadStaticRecord, BinaryOperationRecord, SwitchRecord, MethodCallRecord, MethodReturnRecord, ArrayLengthRecord, CastRecord, LoadArrayRecord, MethodEndRecord, 
Ignored event types: SwitchRecord, IfRecord, 

JSON Encoded Analysis Data (for visualization):{"heapEdges":[{"step":0,"from":"1093491712","to":"1093491744","type":"create","field":"<android.util.Base64$Coder: byte[] output>"},{"step":1,"from":"static.<android.util.Base64$Decoder: int[] DECODE>","to":"1093757704","type":"load","field":"<android.util.Base64$Decoder: int[] DECODE>"},{"step":2,"from":"1093757704","to":"1093491712","type":"store","field":"<android.util.Base64$Decoder: int[] alphabet>"},{"step":3,"from":"1093491712","to":"sdaReg11","type":"create","field":"<android.util.Base64$Decoder: int state>"},{"step":4,"from":"1093491712","to":"sdaReg12","type":"create","field":"<android.util.Base64$Decoder: int value>"},{"step":5,"from":"1093590688","to":"1093590688.arrayIdx_int:0","type":"load","field":"arrayIdx_int:0"},{"step":6,"from":"1093757704","to":"1093757704.arrayIdx_int:89","type":"load","field":"arrayIdx_int:89"},{"step":7,"from":"1093590688","to":"1093590688.arrayIdx_int:1","type":"load","field":"arrayIdx_int:1"},{"step":8,"from":"1093757704","to":"1093757704.arrayIdx_int:87","type":"load","field":"arrayIdx_int:87"},{"step":9,"from":"1093590688","to":"1093590688.arrayIdx_int:2","type":"load","field":"arrayIdx_int:2"},{"step":10,"from":"1093757704","to":"1093757704.arrayIdx_int:74","type":"load","field":"arrayIdx_int:74"},{"step":11,"from":"1093590688","to":"1093590688.arrayIdx_int:3","type":"load","field":"arrayIdx_int:3"},{"step":12,"from":"1093757704","to":"1093757704.arrayIdx_int:106","type":"load","field":"arrayIdx_int:106"},{"step":13,"from":"sdaReg37","to":"1093491744","type":"store","field":"arrayIdx_int:2"},{"step":14,"from":"sdaReg40","to":"1093491744","type":"store","field":"arrayIdx_int:1"},{"step":15,"from":"sdaReg42","to":"1093491744","type":"store","field":"arrayIdx_int:0"},{"step":16,"from":"1093590688","to":"1093590688.arrayIdx_int:4","type":"load","field":"arrayIdx_int:4"},{"step":17,"from":"1093757704","to":"1093757704.arrayIdx_int:90","type":"load","field":"arrayIdx_int:90"},{"step":18,"from":"1093590688","to":"1093590688.arrayIdx_int:5","type":"load","field":"arrayIdx_int:5"},{"step":19,"from":"1093757704","to":"1093757704.arrayIdx_int:71","type":"load","field":"arrayIdx_int:71"},{"step":20,"from":"1093590688","to":"1093590688.arrayIdx_int:6","type":"load","field":"arrayIdx_int:6"},{"step":21,"from":"1093757704","to":"1093757704.arrayIdx_int:86","type":"load","field":"arrayIdx_int:86"},{"step":22,"from":"1093590688","to":"1093590688.arrayIdx_int:7","type":"load","field":"arrayIdx_int:7"},{"step":23,"from":"1093757704","to":"1093757704.arrayIdx_int:109","type":"load","field":"arrayIdx_int:109"},{"step":24,"from":"sdaReg37","to":"1093491744","type":"store","field":"arrayIdx_int:5"},{"step":25,"from":"sdaReg40","to":"1093491744","type":"store","field":"arrayIdx_int:4"},{"step":26,"from":"sdaReg42","to":"1093491744","type":"store","field":"arrayIdx_int:3"},{"step":27,"from":"1093590688","to":"1093590688.arrayIdx_int:8","type":"load","field":"arrayIdx_int:8"},{"step":28,"from":"1093757704","to":"1093757704.arrayIdx_int:90","type":"load","field":"arrayIdx_int:90"},{"step":29,"from":"1093590688","to":"1093590688.arrayIdx_int:9","type":"load","field":"arrayIdx_int:9"},{"step":30,"from":"1093757704","to":"1093757704.arrayIdx_int:50","type":"load","field":"arrayIdx_int:50"},{"step":31,"from":"1093590688","to":"1093590688.arrayIdx_int:10","type":"load","field":"arrayIdx_int:10"},{"step":32,"from":"1093757704","to":"1093757704.arrayIdx_int:104","type":"load","field":"arrayIdx_int:104"},{"step":33,"from":"1093590688","to":"1093590688.arrayIdx_int:11","type":"load","field":"arrayIdx_int:11"},{"step":34,"from":"1093757704","to":"1093757704.arrayIdx_int:112","type":"load","field":"arrayIdx_int:112"},{"step":35,"from":"sdaReg37","to":"1093491744","type":"store","field":"arrayIdx_int:8"},{"step":36,"from":"sdaReg40","to":"1093491744","type":"store","field":"arrayIdx_int:7"},{"step":37,"from":"sdaReg42","to":"1093491744","type":"store","field":"arrayIdx_int:6"},{"step":38,"from":"1093590688","to":"1093590688.arrayIdx_int:12","type":"load","field":"arrayIdx_int:12"},{"step":39,"from":"1093757704","to":"1093757704.arrayIdx_int:97","type":"load","field":"arrayIdx_int:97"},{"step":40,"from":"1093590688","to":"1093590688.arrayIdx_int:13","type":"load","field":"arrayIdx_int:13"},{"step":41,"from":"1093757704","to":"1093757704.arrayIdx_int:109","type":"load","field":"arrayIdx_int:109"},{"step":42,"from":"1093590688","to":"1093590688.arrayIdx_int:14","type":"load","field":"arrayIdx_int:14"},{"step":43,"from":"1093757704","to":"1093757704.arrayIdx_int:116","type":"load","field":"arrayIdx_int:116"},{"step":44,"from":"1093590688","to":"1093590688.arrayIdx_int:15","type":"load","field":"arrayIdx_int:15"},{"step":45,"from":"1093757704","to":"1093757704.arrayIdx_int:115","type":"load","field":"arrayIdx_int:115"},{"step":46,"from":"sdaReg37","to":"1093491744","type":"store","field":"arrayIdx_int:11"},{"step":47,"from":"sdaReg40","to":"1093491744","type":"store","field":"arrayIdx_int:10"},{"step":48,"from":"sdaReg42","to":"1093491744","type":"store","field":"arrayIdx_int:9"},{"step":49,"from":"1093590688","to":"1093590688.arrayIdx_int:16","type":"load","field":"arrayIdx_int:16"},{"step":50,"from":"1093757704","to":"1093757704.arrayIdx_int:98","type":"load","field":"arrayIdx_int:98"},{"step":51,"from":"1093590688","to":"1093590688.arrayIdx_int:17","type":"load","field":"arrayIdx_int:17"},{"step":52,"from":"1093757704","to":"1093757704.arrayIdx_int:87","type":"load","field":"arrayIdx_int:87"},{"step":53,"from":"1093590688","to":"1093590688.arrayIdx_int:18","type":"load","field":"arrayIdx_int:18"},{"step":54,"from":"1093757704","to":"1093757704.arrayIdx_int:53","type":"load","field":"arrayIdx_int:53"},{"step":55,"from":"1093590688","to":"1093590688.arrayIdx_int:19","type":"load","field":"arrayIdx_int:19"},{"step":56,"from":"1093757704","to":"1093757704.arrayIdx_int:118","type":"load","field":"arrayIdx_int:118"},{"step":57,"from":"sdaReg37","to":"1093491744","type":"store","field":"arrayIdx_int:14"},{"step":58,"from":"sdaReg40","to":"1093491744","type":"store","field":"arrayIdx_int:13"},{"step":59,"from":"sdaReg42","to":"1093491744","type":"store","field":"arrayIdx_int:12"},{"step":60,"from":"1093590688","to":"1093590688.arrayIdx_int:20","type":"load","field":"arrayIdx_int:20"},{"step":61,"from":"1093757704","to":"1093757704.arrayIdx_int:99","type":"load","field":"arrayIdx_int:99"},{"step":62,"from":"1093590688","to":"1093590688.arrayIdx_int:21","type":"load","field":"arrayIdx_int:21"},{"step":63,"from":"1093757704","to":"1093757704.arrayIdx_int:72","type":"load","field":"arrayIdx_int:72"},{"step":64,"from":"1093590688","to":"1093590688.arrayIdx_int:22","type":"load","field":"arrayIdx_int:22"},{"step":65,"from":"1093757704","to":"1093757704.arrayIdx_int:70","type":"load","field":"arrayIdx_int:70"},{"step":66,"from":"1093590688","to":"1093590688.arrayIdx_int:23","type":"load","field":"arrayIdx_int:23"},{"step":67,"from":"1093757704","to":"1093757704.arrayIdx_int:121","type":"load","field":"arrayIdx_int:121"},{"step":68,"from":"sdaReg37","to":"1093491744","type":"store","field":"arrayIdx_int:17"},{"step":69,"from":"sdaReg40","to":"1093491744","type":"store","field":"arrayIdx_int:16"},{"step":70,"from":"sdaReg42","to":"1093491744","type":"store","field":"arrayIdx_int:15"},{"step":71,"from":"1093590688","to":"1093590688.arrayIdx_int:24","type":"load","field":"arrayIdx_int:24"},{"step":72,"from":"1093757704","to":"1093757704.arrayIdx_int:99","type":"load","field":"arrayIdx_int:99"},{"step":73,"from":"1093590688","to":"1093590688.arrayIdx_int:25","type":"load","field":"arrayIdx_int:25"},{"step":74,"from":"1093757704","to":"1093757704.arrayIdx_int:51","type":"load","field":"arrayIdx_int:51"},{"step":75,"from":"1093590688","to":"1093590688.arrayIdx_int:26","type":"load","field":"arrayIdx_int:26"},{"step":76,"from":"1093757704","to":"1093757704.arrayIdx_int:82","type":"load","field":"arrayIdx_int:82"},{"step":77,"from":"1093590688","to":"1093590688.arrayIdx_int:27","type":"load","field":"arrayIdx_int:27"},{"step":78,"from":"1093757704","to":"1093757704.arrayIdx_int:49","type":"load","field":"arrayIdx_int:49"},{"step":79,"from":"sdaReg37","to":"1093491744","type":"store","field":"arrayIdx_int:20"},{"step":80,"from":"sdaReg40","to":"1093491744","type":"store","field":"arrayIdx_int:19"},{"step":81,"from":"sdaReg42","to":"1093491744","type":"store","field":"arrayIdx_int:18"},{"step":82,"from":"1093590688","to":"1093590688.arrayIdx_int:28","type":"load","field":"arrayIdx_int:28"},{"step":83,"from":"1093757704","to":"1093757704.arrayIdx_int:100","type":"load","field":"arrayIdx_int:100"},{"step":84,"from":"1093590688","to":"1093590688.arrayIdx_int:29","type":"load","field":"arrayIdx_int:29"},{"step":85,"from":"1093757704","to":"1093757704.arrayIdx_int:110","type":"load","field":"arrayIdx_int:110"},{"step":86,"from":"1093590688","to":"1093590688.arrayIdx_int:30","type":"load","field":"arrayIdx_int:30"},{"step":87,"from":"1093757704","to":"1093757704.arrayIdx_int:100","type":"load","field":"arrayIdx_int:100"},{"step":88,"from":"1093590688","to":"1093590688.arrayIdx_int:31","type":"load","field":"arrayIdx_int:31"},{"step":89,"from":"1093757704","to":"1093757704.arrayIdx_int:52","type":"load","field":"arrayIdx_int:52"},{"step":90,"from":"sdaReg37","to":"1093491744","type":"store","field":"arrayIdx_int:23"},{"step":91,"from":"sdaReg40","to":"1093491744","type":"store","field":"arrayIdx_int:22"},{"step":92,"from":"sdaReg42","to":"1093491744","type":"store","field":"arrayIdx_int:21"},{"step":93,"from":"1093590688","to":"1093590688.arrayIdx_int:32","type":"load","field":"arrayIdx_int:32"},{"step":94,"from":"1093757704","to":"1093757704.arrayIdx_int:101","type":"load","field":"arrayIdx_int:101"},{"step":95,"from":"1093590688","to":"1093590688.arrayIdx_int:33","type":"load","field":"arrayIdx_int:33"},{"step":96,"from":"1093757704","to":"1093757704.arrayIdx_int:88","type":"load","field":"arrayIdx_int:88"},{"step":97,"from":"1093590688","to":"1093590688.arrayIdx_int:34","type":"load","field":"arrayIdx_int:34"},{"step":98,"from":"1093757704","to":"1093757704.arrayIdx_int:112","type":"load","field":"arrayIdx_int:112"},{"step":99,"from":"1093590688","to":"1093590688.arrayIdx_int:35","type":"load","field":"arrayIdx_int:35"},{"step":100,"from":"1093757704","to":"1093757704.arrayIdx_int:104","type":"load","field":"arrayIdx_int:104"},{"step":101,"from":"sdaReg37","to":"1093491744","type":"store","field":"arrayIdx_int:26"},{"step":102,"from":"sdaReg40","to":"1093491744","type":"store","field":"arrayIdx_int:25"},{"step":103,"from":"sdaReg42","to":"1093491744","type":"store","field":"arrayIdx_int:24"},{"step":104,"from":"1093590688","to":"1093590688.arrayIdx_int:36","type":"load","field":"arrayIdx_int:36"},{"step":105,"from":"1093757704","to":"1093757704.arrayIdx_int:89","type":"load","field":"arrayIdx_int:89"},{"step":106,"from":"1093590688","to":"1093590688.arrayIdx_int:37","type":"load","field":"arrayIdx_int:37"},{"step":107,"from":"1093757704","to":"1093757704.arrayIdx_int:109","type":"load","field":"arrayIdx_int:109"},{"step":108,"from":"1093590688","to":"1093590688.arrayIdx_int:38","type":"load","field":"arrayIdx_int:38"},{"step":109,"from":"1093757704","to":"1093757704.arrayIdx_int:78","type":"load","field":"arrayIdx_int:78"},{"step":110,"from":"1093590688","to":"1093590688.arrayIdx_int:39","type":"load","field":"arrayIdx_int:39"},{"step":111,"from":"1093757704","to":"1093757704.arrayIdx_int:107","type":"load","field":"arrayIdx_int:107"},{"step":112,"from":"sdaReg37","to":"1093491744","type":"store","field":"arrayIdx_int:29"},{"step":113,"from":"sdaReg40","to":"1093491744","type":"store","field":"arrayIdx_int:28"},{"step":114,"from":"sdaReg42","to":"1093491744","type":"store","field":"arrayIdx_int:27"},{"step":115,"from":"1093590688","to":"1093590688.arrayIdx_int:40","type":"load","field":"arrayIdx_int:40"},{"step":116,"from":"1093757704","to":"1093757704.arrayIdx_int:90","type":"load","field":"arrayIdx_int:90"},{"step":117,"from":"1093590688","to":"1093590688.arrayIdx_int:41","type":"load","field":"arrayIdx_int:41"},{"step":118,"from":"1093757704","to":"1093757704.arrayIdx_int:87","type":"load","field":"arrayIdx_int:87"},{"step":119,"from":"1093590688","to":"1093590688.arrayIdx_int:42","type":"load","field":"arrayIdx_int:42"},{"step":120,"from":"1093757704","to":"1093757704.arrayIdx_int:90","type":"load","field":"arrayIdx_int:90"},{"step":121,"from":"1093590688","to":"1093590688.arrayIdx_int:43","type":"load","field":"arrayIdx_int:43"},{"step":122,"from":"1093757704","to":"1093757704.arrayIdx_int:110","type":"load","field":"arrayIdx_int:110"},{"step":123,"from":"sdaReg37","to":"1093491744","type":"store","field":"arrayIdx_int:32"},{"step":124,"from":"sdaReg40","to":"1093491744","type":"store","field":"arrayIdx_int:31"},{"step":125,"from":"sdaReg42","to":"1093491744","type":"store","field":"arrayIdx_int:30"},{"step":126,"from":"1093590688","to":"1093590688.arrayIdx_int:44","type":"load","field":"arrayIdx_int:44"},{"step":127,"from":"1093757704","to":"1093757704.arrayIdx_int:97","type":"load","field":"arrayIdx_int:97"},{"step":128,"from":"1093590688","to":"1093590688.arrayIdx_int:45","type":"load","field":"arrayIdx_int:45"},{"step":129,"from":"1093757704","to":"1093757704.arrayIdx_int:71","type":"load","field":"arrayIdx_int:71"},{"step":130,"from":"1093590688","to":"1093590688.arrayIdx_int:46","type":"load","field":"arrayIdx_int:46"},{"step":131,"from":"1093757704","to":"1093757704.arrayIdx_int:108","type":"load","field":"arrayIdx_int:108"},{"step":132,"from":"1093590688","to":"1093590688.arrayIdx_int:47","type":"load","field":"arrayIdx_int:47"},{"step":133,"from":"1093757704","to":"1093757704.arrayIdx_int:113","type":"load","field":"arrayIdx_int:113"},{"step":134,"from":"sdaReg37","to":"1093491744","type":"store","field":"arrayIdx_int:35"},{"step":135,"from":"sdaReg40","to":"1093491744","type":"store","field":"arrayIdx_int:34"},{"step":136,"from":"sdaReg42","to":"1093491744","type":"store","field":"arrayIdx_int:33"},{"step":137,"from":"1093590688","to":"1093590688.arrayIdx_int:48","type":"load","field":"arrayIdx_int:48"},{"step":138,"from":"1093757704","to":"1093757704.arrayIdx_int:97","type":"load","field":"arrayIdx_int:97"},{"step":139,"from":"1093590688","to":"1093590688.arrayIdx_int:49","type":"load","field":"arrayIdx_int:49"},{"step":140,"from":"1093757704","to":"1093757704.arrayIdx_int:50","type":"load","field":"arrayIdx_int:50"},{"step":141,"from":"1093590688","to":"1093590688.arrayIdx_int:50","type":"load","field":"arrayIdx_int:50"},{"step":142,"from":"1093757704","to":"1093757704.arrayIdx_int:120","type":"load","field":"arrayIdx_int:120"},{"step":143,"from":"1093590688","to":"1093590688.arrayIdx_int:51","type":"load","field":"arrayIdx_int:51"},{"step":144,"from":"1093757704","to":"1093757704.arrayIdx_int:116","type":"load","field":"arrayIdx_int:116"},{"step":145,"from":"sdaReg37","to":"1093491744","type":"store","field":"arrayIdx_int:38"},{"step":146,"from":"sdaReg40","to":"1093491744","type":"store","field":"arrayIdx_int:37"},{"step":147,"from":"sdaReg42","to":"1093491744","type":"store","field":"arrayIdx_int:36"},{"step":148,"from":"1093590688","to":"1093590688.arrayIdx_int:52","type":"load","field":"arrayIdx_int:52"},{"step":149,"from":"1093757704","to":"1093757704.arrayIdx_int:98","type":"load","field":"arrayIdx_int:98"},{"step":150,"from":"1093590688","to":"1093590688.arrayIdx_int:53","type":"load","field":"arrayIdx_int:53"},{"step":151,"from":"1093757704","to":"1093757704.arrayIdx_int:109","type":"load","field":"arrayIdx_int:109"},{"step":152,"from":"1093590688","to":"1093590688.arrayIdx_int:54","type":"load","field":"arrayIdx_int:54"},{"step":153,"from":"1093757704","to":"1093757704.arrayIdx_int:57","type":"load","field":"arrayIdx_int:57"},{"step":154,"from":"1093590688","to":"1093590688.arrayIdx_int:55","type":"load","field":"arrayIdx_int:55"},{"step":155,"from":"1093757704","to":"1093757704.arrayIdx_int:119","type":"load","field":"arrayIdx_int:119"},{"step":156,"from":"sdaReg37","to":"1093491744","type":"store","field":"arrayIdx_int:41"},{"step":157,"from":"sdaReg40","to":"1093491744","type":"store","field":"arrayIdx_int:40"},{"step":158,"from":"sdaReg42","to":"1093491744","type":"store","field":"arrayIdx_int:39"},{"step":159,"from":"1093590688","to":"1093590688.arrayIdx_int:56","type":"load","field":"arrayIdx_int:56"},{"step":160,"from":"1093757704","to":"1093757704.arrayIdx_int:99","type":"load","field":"arrayIdx_int:99"},{"step":161,"from":"1093590688","to":"1093590688.arrayIdx_int:57","type":"load","field":"arrayIdx_int:57"},{"step":162,"from":"1093757704","to":"1093757704.arrayIdx_int:88","type":"load","field":"arrayIdx_int:88"},{"step":163,"from":"1093590688","to":"1093590688.arrayIdx_int:58","type":"load","field":"arrayIdx_int:58"},{"step":164,"from":"1093757704","to":"1093757704.arrayIdx_int:74","type":"load","field":"arrayIdx_int:74"},{"step":165,"from":"1093590688","to":"1093590688.arrayIdx_int:59","type":"load","field":"arrayIdx_int:59"},{"step":166,"from":"1093757704","to":"1093757704.arrayIdx_int:122","type":"load","field":"arrayIdx_int:122"},{"step":167,"from":"sdaReg37","to":"1093491744","type":"store","field":"arrayIdx_int:44"},{"step":168,"from":"sdaReg40","to":"1093491744","type":"store","field":"arrayIdx_int:43"},{"step":169,"from":"sdaReg42","to":"1093491744","type":"store","field":"arrayIdx_int:42"},{"step":170,"from":"1093590688","to":"1093590688.arrayIdx_int:60","type":"load","field":"arrayIdx_int:60"},{"step":171,"from":"1093757704","to":"1093757704.arrayIdx_int:100","type":"load","field":"arrayIdx_int:100"},{"step":172,"from":"1093590688","to":"1093590688.arrayIdx_int:61","type":"load","field":"arrayIdx_int:61"},{"step":173,"from":"1093757704","to":"1093757704.arrayIdx_int:72","type":"load","field":"arrayIdx_int:72"},{"step":174,"from":"1093590688","to":"1093590688.arrayIdx_int:62","type":"load","field":"arrayIdx_int:62"},{"step":175,"from":"1093757704","to":"1093757704.arrayIdx_int:86","type":"load","field":"arrayIdx_int:86"},{"step":176,"from":"1093590688","to":"1093590688.arrayIdx_int:63","type":"load","field":"arrayIdx_int:63"},{"step":177,"from":"1093757704","to":"1093757704.arrayIdx_int:50","type":"load","field":"arrayIdx_int:50"},{"step":178,"from":"sdaReg37","to":"1093491744","type":"store","field":"arrayIdx_int:47"},{"step":179,"from":"sdaReg40","to":"1093491744","type":"store","field":"arrayIdx_int:46"},{"step":180,"from":"sdaReg42","to":"1093491744","type":"store","field":"arrayIdx_int:45"},{"step":181,"from":"1093590688","to":"1093590688.arrayIdx_int:64","type":"load","field":"arrayIdx_int:64"},{"step":182,"from":"1093757704","to":"1093757704.arrayIdx_int:100","type":"load","field":"arrayIdx_int:100"},{"step":183,"from":"1093590688","to":"1093590688.arrayIdx_int:65","type":"load","field":"arrayIdx_int:65"},{"step":184,"from":"1093757704","to":"1093757704.arrayIdx_int:51","type":"load","field":"arrayIdx_int:51"},{"step":185,"from":"1093590688","to":"1093590688.arrayIdx_int:66","type":"load","field":"arrayIdx_int:66"},{"step":186,"from":"1093757704","to":"1093757704.arrayIdx_int:104","type":"load","field":"arrayIdx_int:104"},{"step":187,"from":"1093590688","to":"1093590688.arrayIdx_int:67","type":"load","field":"arrayIdx_int:67"},{"step":188,"from":"1093757704","to":"1093757704.arrayIdx_int:53","type":"load","field":"arrayIdx_int:53"},{"step":189,"from":"sdaReg37","to":"1093491744","type":"store","field":"arrayIdx_int:50"},{"step":190,"from":"sdaReg40","to":"1093491744","type":"store","field":"arrayIdx_int:49"},{"step":191,"from":"sdaReg42","to":"1093491744","type":"store","field":"arrayIdx_int:48"},{"step":192,"from":"1093590688","to":"1093590688.arrayIdx_int:68","type":"load","field":"arrayIdx_int:68"},{"step":193,"from":"1093757704","to":"1093757704.arrayIdx_int:101","type":"load","field":"arrayIdx_int:101"},{"step":194,"from":"1093590688","to":"1093590688.arrayIdx_int:69","type":"load","field":"arrayIdx_int:69"},{"step":195,"from":"1093757704","to":"1093757704.arrayIdx_int:109","type":"load","field":"arrayIdx_int:109"},{"step":196,"from":"1093590688","to":"1093590688.arrayIdx_int:70","type":"load","field":"arrayIdx_int:70"},{"step":197,"from":"1093757704","to":"1093757704.arrayIdx_int:70","type":"load","field":"arrayIdx_int:70"},{"step":198,"from":"1093590688","to":"1093590688.arrayIdx_int:71","type":"load","field":"arrayIdx_int:71"},{"step":199,"from":"1093757704","to":"1093757704.arrayIdx_int:105","type":"load","field":"arrayIdx_int:105"},{"step":200,"from":"sdaReg37","to":"1093491744","type":"store","field":"arrayIdx_int:53"},{"step":201,"from":"sdaReg40","to":"1093491744","type":"store","field":"arrayIdx_int:52"},{"step":202,"from":"sdaReg42","to":"1093491744","type":"store","field":"arrayIdx_int:51"},{"step":203,"from":"1093590688","to":"1093590688.arrayIdx_int:72","type":"load","field":"arrayIdx_int:72"},{"step":204,"from":"1093757704","to":"1093757704.arrayIdx_int:89","type":"load","field":"arrayIdx_int:89"},{"step":205,"from":"1093590688","to":"1093590688.arrayIdx_int:73","type":"load","field":"arrayIdx_int:73"},{"step":206,"from":"1093757704","to":"1093757704.arrayIdx_int:50","type":"load","field":"arrayIdx_int:50"},{"step":207,"from":"1093590688","to":"1093590688.arrayIdx_int:74","type":"load","field":"arrayIdx_int:74"},{"step":208,"from":"1093757704","to":"1093757704.arrayIdx_int:81","type":"load","field":"arrayIdx_int:81"},{"step":209,"from":"1093590688","to":"1093590688.arrayIdx_int:75","type":"load","field":"arrayIdx_int:75"},{"step":210,"from":"1093757704","to":"1093757704.arrayIdx_int:61","type":"load","field":"arrayIdx_int:61"},{"step":211,"from":"1093590688","to":"1093590688.arrayIdx_int:72","type":"load","field":"arrayIdx_int:72"},{"step":212,"from":"1093757704","to":"1093757704.arrayIdx_int:89","type":"load","field":"arrayIdx_int:89"},{"step":213,"from":"1093590688","to":"1093590688.arrayIdx_int:73","type":"load","field":"arrayIdx_int:73"},{"step":214,"from":"1093757704","to":"1093757704.arrayIdx_int:50","type":"load","field":"arrayIdx_int:50"},{"step":215,"from":"1093590688","to":"1093590688.arrayIdx_int:74","type":"load","field":"arrayIdx_int:74"},{"step":216,"from":"1093757704","to":"1093757704.arrayIdx_int:81","type":"load","field":"arrayIdx_int:81"},{"step":217,"from":"1093590688","to":"1093590688.arrayIdx_int:75","type":"load","field":"arrayIdx_int:75"},{"step":218,"from":"1093757704","to":"1093757704.arrayIdx_int:61","type":"load","field":"arrayIdx_int:61"},{"step":219,"from":"sdaReg50","to":"1093491744","type":"store","field":"arrayIdx_int:55"},{"step":220,"from":"sdaReg52","to":"1093491744","type":"store","field":"arrayIdx_int:54"},{"step":221,"from":"1093590688","to":"1093590688.arrayIdx_int:76","type":"load","field":"arrayIdx_int:76"},{"step":222,"from":"1093757704","to":"1093757704.arrayIdx_int:10","type":"load","field":"arrayIdx_int:10"},{"step":223,"from":"sdaReg45","to":"1093491712","type":"store","field":"<android.util.Base64$Decoder: int state>"},{"step":224,"from":"sdaReg20","to":"1093491712","type":"store","field":"<android.util.Base64$Coder: int op>"},{"step":225,"from":"1093491744","to":"1093803536","type":"model"}],"parameters":[{"id":"1093590688","name":"arg#0","klass":"byte[]"},{"id":"sdaReg0","name":"arg#1","klass":"int"},{"id":"sdaReg1","name":"arg#2","klass":"int"},{"id":"sdaReg2","name":"arg#3","klass":"int"}],"returns":[{"id":"1093803536","name":"return","klass":"byte[]"}],"colors":{"heapLocToColor":{"1093590688.arrayIdx_int:38":[0],"1093757704.arrayIdx_int:101":[6],"1093590688.arrayIdx_int:39":[0],"1093757704.arrayIdx_int:100":[6],"1093757704.arrayIdx_int:53":[6],"1093757704.arrayIdx_int:52":[6],"1093757704.arrayIdx_int:57":[6],"sdaReg13":[4],"sdaReg14":[4],"1093590688.arrayIdx_int:40":[0],"1093757704.arrayIdx_int:50":[6],"sdaReg10":[3],"1093757704.arrayIdx_int:51":[6],"1093590688.arrayIdx_int:46":[0],"1093590688.arrayIdx_int:45":[0],"1093590688.arrayIdx_int:48":[0],"sdaReg19":[1, 2],"1093590688.arrayIdx_int:47":[0],"1093590688.arrayIdx_int:42":[0],"1093590688.arrayIdx_int:41":[0],"sdaReg18":[1],"1093590688.arrayIdx_int:44":[0],"sdaReg15":[4],"1093590688.arrayIdx_int:43":[0],"sdaReg16":[0],"1093757704.arrayIdx_int:110":[6],"1093590688.arrayIdx_int:49":[0],"1093757704.arrayIdx_int:112":[6],"static.<android.util.Base64$Decoder: int[] DECODE>":[6],"1093590688.arrayIdx_int:51":[0],"1093590688.arrayIdx_int:50":[0],"1093757704.arrayIdx_int:61":[6],"1093590688.arrayIdx_int:59":[0],"1093590688.arrayIdx_int:58":[0],"1093590688.arrayIdx_int:57":[0],"1093757704.arrayIdx_int:104":[6],"1093757704.arrayIdx_int:105":[6],"1093590688.arrayIdx_int:56":[0],"1093590688.arrayIdx_int:55":[0],"1093757704.arrayIdx_int:106":[6],"1093491712":[4],"1093590688.arrayIdx_int:54":[0],"1093757704.arrayIdx_int:107":[6],"1093590688.arrayIdx_int:53":[0],"1093757704.arrayIdx_int:108":[6],"1093590688.arrayIdx_int:52":[0],"1093757704.arrayIdx_int:109":[6],"1093590688.arrayIdx_int:16":[0],"1093590688.arrayIdx_int:17":[0],"1093590688.arrayIdx_int:18":[0],"1093590688.arrayIdx_int:19":[0],"1093757704.arrayIdx_int:78":[6],"1093757704.arrayIdx_int:74":[6],"1093757704.arrayIdx_int:72":[6],"1093757704.arrayIdx_int:70":[6],"1093757704.arrayIdx_int:71":[6],"1093590688.arrayIdx_int:20":[0],"1093590688.arrayIdx_int:22":[0],"1093491744":[5],"1093590688.arrayIdx_int:21":[0],"1093590688.arrayIdx_int:24":[0],"1093590688.arrayIdx_int:23":[0],"1093590688.arrayIdx_int:26":[0],"1093590688.arrayIdx_int:25":[0],"1093590688.arrayIdx_int:29":[0],"1093590688.arrayIdx_int:27":[0],"1093590688.arrayIdx_int:28":[0],"1093757704.arrayIdx_int:89":[6],"1093757704.arrayIdx_int:86":[6],"1093757704.arrayIdx_int:88":[6],"1093757704.arrayIdx_int:87":[6],"1093757704.arrayIdx_int:81":[6],"1093757704.arrayIdx_int:82":[6],"1093590688.arrayIdx_int:33":[0],"1093590688.arrayIdx_int:32":[0],"1093590688.arrayIdx_int:31":[0],"1093590688.arrayIdx_int:30":[0],"1093590688.arrayIdx_int:37":[0],"1093590688.arrayIdx_int:36":[0],"1093590688.arrayIdx_int:35":[0],"1093590688.arrayIdx_int:34":[0],"1093803536":[7],"1093757704.arrayIdx_int:10":[6],"1093590688.arrayIdx_int:70":[0],"1093590688.arrayIdx_int:71":[0],"1093590688.arrayIdx_int:72":[0],"1093590688.arrayIdx_int:73":[0],"1093757704.arrayIdx_int:90":[6],"1093590688.arrayIdx_int:74":[0],"1093590688.arrayIdx_int:75":[0],"1093590688.arrayIdx_int:76":[0],"1093757704.arrayIdx_int:97":[6],"1093757704.arrayIdx_int:98":[6],"1093757704.arrayIdx_int:99":[6],"sdaReg52":[6],"sdaReg51":[6],"1093590688.arrayIdx_int:61":[0],"1093590688.arrayIdx_int:62":[0],"sdaReg50":[6],"1093590688.arrayIdx_int:60":[0],"1093590688.arrayIdx_int:69":[0],"1093590688.arrayIdx_int:67":[0],"1093590688.arrayIdx_int:68":[0],"1093590688.arrayIdx_int:65":[0],"1093590688.arrayIdx_int:66":[0],"1093590688.arrayIdx_int:63":[0],"1093590688.arrayIdx_int:64":[0],"1093590688.arrayIdx_int:14":[0],"1093590688.arrayIdx_int:15":[0],"1093590688.arrayIdx_int:12":[0],"1093590688.arrayIdx_int:13":[0],"sdaReg49":[6],"1093590688.arrayIdx_int:10":[0],"1093590688.arrayIdx_int:11":[0],"sdaReg44":[0],"sdaReg47":[6],"sdaReg46":[6],"sdaReg41":[6],"sdaReg40":[6],"sdaReg43":[1],"sdaReg42":[6],"1093757704.arrayIdx_int:122":[6],"1093757704.arrayIdx_int:120":[6],"1093757704.arrayIdx_int:121":[6],"1093757704.arrayIdx_int:119":[6],"sdaReg39":[6],"1093757704.arrayIdx_int:118":[6],"sdaReg37":[6],"1093590688.arrayIdx_int:0":[0],"1093757704.arrayIdx_int:116":[6],"1093590688":[0],"1093757704.arrayIdx_int:115":[6],"1093590688.arrayIdx_int:2":[0],"1093757704.arrayIdx_int:113":[6],"1093590688.arrayIdx_int:1":[0],"sdaReg32":[1],"1093590688.arrayIdx_int:4":[0],"1093590688.arrayIdx_int:3":[0],"sdaReg31":[6],"sdaReg30":[6],"1093590688.arrayIdx_int:6":[0],"1093590688.arrayIdx_int:5":[0],"1093590688.arrayIdx_int:8":[0],"sdaReg35":[6],"1093590688.arrayIdx_int:7":[0],"sdaReg34":[6],"sdaReg33":[0],"1093590688.arrayIdx_int:9":[0],"sdaReg8":[4],"sdaReg9":[4],"sdaReg6":[5],"sdaReg7":[4],"sdaReg4":[2],"sdaReg5":[4],"1093757704.arrayIdx_int:49":[6],"sdaReg27":[6],"sdaReg26":[6],"sdaReg29":[0],"sdaReg28":[1],"sdaReg3":[2],"sdaReg2":[3],"sdaReg1":[2],"sdaReg21":[1],"sdaReg0":[1],"1093757704":[6],"sdaReg23":[6],"sdaReg22":[0],"sdaReg25":[0],"sdaReg24":[1]},"colorToColor":{"5":[4, 7],"6":[4, 5],"7":[8]},"colorToLabel":{"0":"arg#0","1":"arg#1","2":"arg#2","3":"arg#3","6":"<android.util.Base64$Decoder: int[] DECODE>","8":"return"}}}

Generated Model

