Scanning method <java.io.ObjectInputStream: byte nextTC()>

All seen event types: LoadInstanceRecord, IfRecord, StoreInstanceRecord, 
Ignored event types: IfRecord, 

JSON Encoded Analysis Data (for visualization):{"heapEdges":[{"step":0,"from":"1093240224","to":"1093240224.<java.io.ObjectInputStream: boolean hasPushbackTC>","type":"load","field":"<java.io.ObjectInputStream: boolean hasPushbackTC>"},{"step":1,"from":"1093240224","to":"sdaReg0","type":"create","field":"<java.io.ObjectInputStream: boolean hasPushbackTC>"},{"step":2,"from":"1093240224","to":"1093240224.<java.io.ObjectInputStream: byte pushbackTC>","type":"load","field":"<java.io.ObjectInputStream: byte pushbackTC>"}],"parameters":[{"id":"1093240224","name":"this","klass":"java.io.ObjectInputStream"}],"returns":[{"id":"1093240224.<java.io.ObjectInputStream: byte pushbackTC>","name":"return","klass":"byte"}],"colors":{"heapLocToColor":{"1093240224":[0],"1093240224.<java.io.ObjectInputStream: boolean hasPushbackTC>":[0],"1093240224.<java.io.ObjectInputStream: byte pushbackTC>":[0]},"colorToColor":{"0":[1]},"colorToLabel":{"0":"this","1":"return"}}}

Generated Model
	this->return

