Scanning method <java.io.ObjectInputStream: byte nextTC()>

All seen event types: BinaryOperationRecord, MethodReturnRecord, MethodCallRecord, CastRecord, MethodStartRecord, LoadInstanceRecord, LoadArrayRecord, MethodEndRecord, IfRecord, StoreInstanceRecord, 
Ignored event types: IfRecord, 

JSON Encoded Analysis Data (for visualization):{"heapEdges":[{"step":0,"from":"1093240224","to":"1093240224.<java.io.ObjectInputStream: boolean hasPushbackTC>","type":"load","field":"<java.io.ObjectInputStream: boolean hasPushbackTC>"},{"step":1,"from":"1093240224","to":"1093292592","type":"load","field":"<java.io.ObjectInputStream: java.io.DataInputStream input>"},{"step":2,"from":"1093292592","to":"1093296112","type":"load","field":"<java.io.FilterInputStream: java.io.InputStream in>"},{"step":3,"from":"1093296112","to":"1093296112.<java.io.ByteArrayInputStream: int pos>","type":"load","field":"<java.io.ByteArrayInputStream: int pos>"},{"step":4,"from":"1093296112","to":"1093296112.<java.io.ByteArrayInputStream: int count>","type":"load","field":"<java.io.ByteArrayInputStream: int count>"},{"step":5,"from":"1093296112","to":"1093281776","type":"load","field":"<java.io.ByteArrayInputStream: byte[] buf>"},{"step":6,"from":"1093296112","to":"1093296112.<java.io.ByteArrayInputStream: int pos>","type":"load","field":"<java.io.ByteArrayInputStream: int pos>"},{"step":7,"from":"sdaReg2","to":"1093296112","type":"store","field":"<java.io.ByteArrayInputStream: int pos>"},{"step":8,"from":"1093281776","to":"1093281776.arrayIdx_int:5","type":"load","field":"arrayIdx_int:5"},{"step":9,"from":"sdaReg4","to":"1093240224","type":"store","field":"<java.io.ObjectInputStream: byte pushbackTC>"}],"parameters":[{"id":"1093240224","name":"this","klass":"java.io.ObjectInputStream"}],"returns":[{"id":null,"name":"return","klass":"byte"}],"colors":{"heapLocToColor":{"1093296112":[0],"1093240224":[0],"sdaReg4":[0],"1093296112.<java.io.ByteArrayInputStream: int count>":[0],"1093296112.<java.io.ByteArrayInputStream: int pos>":[0],"1093240224.<java.io.ObjectInputStream: boolean hasPushbackTC>":[0],"sdaReg3":[0],"sdaReg2":[0],"sdaReg1":[0],"1093281776":[0],"sdaReg0":[0],"1093292592":[0],"1093281776.arrayIdx_int:5":[0]},"colorToColor":{"0":[0]},"colorToLabel":{"0":"this","1":"return"}}}

Generated Model

