Scanning method <java.nio.CharBuffer: char[] array()>

All seen event types: MethodReturnRecord, MethodCallRecord, LoadInstanceRecord, MethodStartRecord, MethodEndRecord, 
Ignored event types: 

JSON Encoded Analysis Data (for visualization):{"heapEdges":[{"step":0,"from":"1093434408","to":"1093434456","type":"load","field":"<java.nio.CharArrayBuffer: char[] backingArray>"}],"parameters":[{"id":"1093434408","name":"this","klass":"java.nio.CharBuffer"}],"returns":[{"id":"1093434456","name":"return","klass":"char[]"}],"colors":{"heapLocToColor":{"1093434456":[0],"1093434408":[0],"sdaReg1":[0],"sdaReg0":[0]},"colorToColor":{"0":[1]},"colorToLabel":{"0":"this","1":"return"}}}

Generated Model
	this->return

