Scanning method <java.util.AbstractList$SubAbstractList$SubAbstractListIterator: int nextIndex()>

All seen event types: BinaryOperationRecord, MethodReturnRecord, MethodCallRecord, MethodStartRecord, LoadInstanceRecord, MethodEndRecord, 
Ignored event types: 

JSON Encoded Analysis Data (for visualization):{"heapEdges":[{"step":0,"from":"1093246504","to":"1093246536","type":"load","field":"<java.util.AbstractList$SubAbstractList$SubAbstractListIterator: java.util.ListIterator iterator>"},{"step":1,"from":"1093246536","to":"1093246536.<java.util.AbstractList$SimpleListIterator: int pos>","type":"load","field":"<java.util.AbstractList$SimpleListIterator: int pos>"},{"step":2,"from":"1093246504","to":"1093246504.<java.util.AbstractList$SubAbstractList$SubAbstractListIterator: int start>","type":"load","field":"<java.util.AbstractList$SubAbstractList$SubAbstractListIterator: int start>"}],"parameters":[{"id":"1093246504","name":"this","klass":"java.util.AbstractList$SubAbstractList$SubAbstractListIterator"}],"returns":[{"id":"sdaReg2","name":"return","klass":"int"}],"colors":{"heapLocToColor":{"1093246504":[0],"1093246504.<java.util.AbstractList$SubAbstractList$SubAbstractListIterator: int start>":[0],"sdaReg2":[0],"sdaReg1":[0],"1093246536":[0],"sdaReg0":[0],"1093246536.<java.util.AbstractList$SimpleListIterator: int pos>":[0]},"colorToColor":{"0":[1]},"colorToLabel":{"0":"this","1":"return"}}}

Generated Model
	this->return

