Scanning method <java.io.SequenceInputStream: int read()>

All seen event types: BinaryOperationRecord, MethodReturnRecord, MethodCallRecord, MethodStartRecord, LoadInstanceRecord, LoadArrayRecord, MethodEndRecord, IfRecord, StoreInstanceRecord, 
Ignored event types: IfRecord, 

JSON Encoded Analysis Data (for visualization):{"heapEdges":[{"step":0,"from":"1093613792","to":"1093613928","type":"load","field":"<java.io.SequenceInputStream: java.io.InputStream in>"},{"step":1,"from":"1093613792","to":"1093613928","type":"load","field":"<java.io.SequenceInputStream: java.io.InputStream in>"},{"step":2,"from":"1093613928","to":"1093613928.<java.io.ByteArrayInputStream: int pos>","type":"load","field":"<java.io.ByteArrayInputStream: int pos>"},{"step":3,"from":"1093613928","to":"1093613928.<java.io.ByteArrayInputStream: int count>","type":"load","field":"<java.io.ByteArrayInputStream: int count>"},{"step":4,"from":"1093613928","to":"1093614312","type":"load","field":"<java.io.ByteArrayInputStream: byte[] buf>"},{"step":5,"from":"1093613928","to":"1093613928.<java.io.ByteArrayInputStream: int pos>","type":"load","field":"<java.io.ByteArrayInputStream: int pos>"},{"step":6,"from":"sdaReg1","to":"1093613928","type":"store","field":"<java.io.ByteArrayInputStream: int pos>"},{"step":7,"from":"1093614312","to":"1093614312.arrayIdx_int:0","type":"load","field":"arrayIdx_int:0"}],"parameters":[{"id":"1093613792","name":"this","klass":"java.io.SequenceInputStream"}],"returns":[{"id":"sdaReg2","name":"return","klass":"int"}],"colors":{"heapLocToColor":{"1093613928":[0],"1093614312":[0],"sdaReg2":[0],"1093613928.<java.io.ByteArrayInputStream: int count>":[0],"1093613792":[0],"sdaReg1":[0],"sdaReg0":[0],"1093613792.<java.io.SequenceInputStream: java.io.InputStream in>":[0],"1093613928.<java.io.ByteArrayInputStream: int pos>":[0],"1093614312.arrayIdx_int:0":[0]},"colorToColor":{"0":[0, 1]},"colorToLabel":{"0":"this","1":"return"}}}

Generated Model
	this->return

