Scanning method <android.text.Html: void withinBlockquote(java.lang.StringBuilder,android.text.Spanned,int,int)>

All seen event types: StoreArrayRecord, SimpleAssignmentRecord, MethodStartRecord, LoadInstanceRecord, IfRecord, NewObjectRecord, LoadStaticRecord, BinaryOperationRecord, MethodCallRecord, MethodReturnRecord, ArrayLengthRecord, CastRecord, LoadArrayRecord, MethodEndRecord, 
Ignored event types: IfRecord, 

JSON Encoded Analysis Data (for visualization):{"heapEdges":[{"step":0,"from":"1093779488","to":"1094557064","type":"load","field":"<android.text.SpannableStringBuilder: char[] mText>"},{"step":1,"from":"1093779488","to":"1093779488.<android.text.SpannableStringBuilder: int mGapLength>","type":"load","field":"<android.text.SpannableStringBuilder: int mGapLength>"},{"step":2,"from":"1093779488","to":"1093779488.<android.text.SpannableStringBuilder: int mGapStart>","type":"load","field":"<android.text.SpannableStringBuilder: int mGapStart>"},{"step":3,"from":"1093779488","to":"1094557064","type":"load","field":"<android.text.SpannableStringBuilder: char[] mText>"},{"step":4,"from":"1094557064","to":"1094557064.arrayIdx_int:13","type":"load","field":"arrayIdx_int:13"},{"step":5,"from":"1093779488","to":"1094557064","type":"load","field":"<android.text.SpannableStringBuilder: char[] mText>"},{"step":6,"from":"1093779488","to":"1093779488.<android.text.SpannableStringBuilder: int mGapLength>","type":"load","field":"<android.text.SpannableStringBuilder: int mGapLength>"},{"step":7,"from":"1093779488","to":"1093779488.<android.text.SpannableStringBuilder: int mGapStart>","type":"load","field":"<android.text.SpannableStringBuilder: int mGapStart>"},{"step":8,"from":"1093779488","to":"1094557064","type":"load","field":"<android.text.SpannableStringBuilder: char[] mText>"},{"step":9,"from":"1094557064","to":"1094557064.arrayIdx_int:14","type":"load","field":"arrayIdx_int:14"},{"step":10,"from":"1093779488","to":"1093779488.<android.text.SpannableStringBuilder: int mSpanCount>","type":"load","field":"<android.text.SpannableStringBuilder: int mSpanCount>"},{"step":11,"from":"1093779488","to":"1093648416","type":"load","field":"<android.text.SpannableStringBuilder: java.lang.Object[] mSpans>"},{"step":12,"from":"1093779488","to":"1093766368","type":"load","field":"<android.text.SpannableStringBuilder: int[] mSpanStarts>"},{"step":13,"from":"1093779488","to":"1093770064","type":"load","field":"<android.text.SpannableStringBuilder: int[] mSpanEnds>"},{"step":14,"from":"1093779488","to":"1093779488.<android.text.SpannableStringBuilder: int mGapStart>","type":"load","field":"<android.text.SpannableStringBuilder: int mGapStart>"},{"step":15,"from":"1093779488","to":"1093779488.<android.text.SpannableStringBuilder: int mGapLength>","type":"load","field":"<android.text.SpannableStringBuilder: int mGapLength>"},{"step":16,"from":"1093779488","to":"1093779488.<android.text.SpannableStringBuilder: int mSpanCount>","type":"load","field":"<android.text.SpannableStringBuilder: int mSpanCount>"},{"step":17,"from":"1093779488","to":"1093648416","type":"load","field":"<android.text.SpannableStringBuilder: java.lang.Object[] mSpans>"},{"step":18,"from":"1093779488","to":"1093766368","type":"load","field":"<android.text.SpannableStringBuilder: int[] mSpanStarts>"},{"step":19,"from":"1093779488","to":"1093770064","type":"load","field":"<android.text.SpannableStringBuilder: int[] mSpanEnds>"},{"step":20,"from":"1093779488","to":"1093773416","type":"load","field":"<android.text.SpannableStringBuilder: int[] mSpanFlags>"},{"step":21,"from":"1093779488","to":"1093779488.<android.text.SpannableStringBuilder: int mGapStart>","type":"load","field":"<android.text.SpannableStringBuilder: int mGapStart>"},{"step":22,"from":"1093779488","to":"1093779488.<android.text.SpannableStringBuilder: int mGapLength>","type":"load","field":"<android.text.SpannableStringBuilder: int mGapLength>"},{"step":23,"from":"1084661656","to":"sdaReg30","type":"model"},{"step":24,"from":"static.<com.android.internal.util.ArrayUtils: java.lang.Object[] sCache>","to":"1084375760","type":"load","field":"<com.android.internal.util.ArrayUtils: java.lang.Object[] sCache>"},{"step":25,"from":"static.<com.android.internal.util.ArrayUtils: java.lang.Object[] sCache>","to":"1084375760","type":"load","field":"<com.android.internal.util.ArrayUtils: java.lang.Object[] sCache>"},{"step":26,"from":"1084375760","to":"1093648256","type":"create","field":"arrayIdx_int:26"},{"step":27,"from":"1093779488","to":"1094557064","type":"load","field":"<android.text.SpannableStringBuilder: char[] mText>"},{"step":28,"from":"1093779488","to":"1093779488.<android.text.SpannableStringBuilder: int mGapLength>","type":"load","field":"<android.text.SpannableStringBuilder: int mGapLength>"},{"step":29,"from":"1093779488","to":"1093779488.<android.text.SpannableStringBuilder: int mGapStart>","type":"load","field":"<android.text.SpannableStringBuilder: int mGapStart>"},{"step":30,"from":"1093779488","to":"1094557064","type":"load","field":"<android.text.SpannableStringBuilder: char[] mText>"},{"step":31,"from":"1094557064","to":"1094557064.arrayIdx_int:0","type":"load","field":"arrayIdx_int:0"},{"step":32,"from":"1094557064.arrayIdx_int:0","to":"1093741096","type":"model"},{"step":33,"from":"1094557064.arrayIdx_int:0","to":"1093741096","type":"model"},{"step":34,"from":"1093741096","to":"sdaReg53","type":"model"},{"step":35,"from":"sdaReg53","to":"1093607824","type":"model"},{"step":36,"from":"1093779488","to":"1094557064","type":"load","field":"<android.text.SpannableStringBuilder: char[] mText>"},{"step":37,"from":"1093779488","to":"1093779488.<android.text.SpannableStringBuilder: int mGapLength>","type":"load","field":"<android.text.SpannableStringBuilder: int mGapLength>"},{"step":38,"from":"1093779488","to":"1093779488.<android.text.SpannableStringBuilder: int mGapStart>","type":"load","field":"<android.text.SpannableStringBuilder: int mGapStart>"},{"step":39,"from":"1093779488","to":"1094557064","type":"load","field":"<android.text.SpannableStringBuilder: char[] mText>"},{"step":40,"from":"1094557064","to":"1094557064.arrayIdx_int:1","type":"load","field":"arrayIdx_int:1"},{"step":41,"from":"1094557064.arrayIdx_int:1","to":"1093607800","type":"model"},{"step":42,"from":"1094557064.arrayIdx_int:1","to":"1093607800","type":"model"},{"step":43,"from":"1093607800","to":"sdaReg62","type":"model"},{"step":44,"from":"sdaReg62","to":"1093607824","type":"model"},{"step":45,"from":"1093779488","to":"1094557064","type":"load","field":"<android.text.SpannableStringBuilder: char[] mText>"},{"step":46,"from":"1093779488","to":"1093779488.<android.text.SpannableStringBuilder: int mGapLength>","type":"load","field":"<android.text.SpannableStringBuilder: int mGapLength>"},{"step":47,"from":"1093779488","to":"1093779488.<android.text.SpannableStringBuilder: int mGapStart>","type":"load","field":"<android.text.SpannableStringBuilder: int mGapStart>"},{"step":48,"from":"1093779488","to":"1094557064","type":"load","field":"<android.text.SpannableStringBuilder: char[] mText>"},{"step":49,"from":"1094557064","to":"1094557064.arrayIdx_int:2","type":"load","field":"arrayIdx_int:2"},{"step":50,"from":"1094557064.arrayIdx_int:2","to":"1093581792","type":"model"},{"step":51,"from":"1094557064.arrayIdx_int:2","to":"1093581792","type":"model"},{"step":52,"from":"1093581792","to":"sdaReg71","type":"model"},{"step":53,"from":"sdaReg71","to":"1093607824","type":"model"},{"step":54,"from":"1093779488","to":"1094557064","type":"load","field":"<android.text.SpannableStringBuilder: char[] mText>"},{"step":55,"from":"1093779488","to":"1093779488.<android.text.SpannableStringBuilder: int mGapLength>","type":"load","field":"<android.text.SpannableStringBuilder: int mGapLength>"},{"step":56,"from":"1093779488","to":"1093779488.<android.text.SpannableStringBuilder: int mGapStart>","type":"load","field":"<android.text.SpannableStringBuilder: int mGapStart>"},{"step":57,"from":"1093779488","to":"1094557064","type":"load","field":"<android.text.SpannableStringBuilder: char[] mText>"},{"step":58,"from":"1094557064","to":"1094557064.arrayIdx_int:3","type":"load","field":"arrayIdx_int:3"},{"step":59,"from":"1094557064.arrayIdx_int:3","to":"1095034816","type":"model"},{"step":60,"from":"1094557064.arrayIdx_int:3","to":"1095034816","type":"model"},{"step":61,"from":"1095034816","to":"sdaReg80","type":"model"},{"step":62,"from":"sdaReg80","to":"1093607824","type":"model"},{"step":63,"from":"1093779488","to":"1094557064","type":"load","field":"<android.text.SpannableStringBuilder: char[] mText>"},{"step":64,"from":"1093779488","to":"1093779488.<android.text.SpannableStringBuilder: int mGapLength>","type":"load","field":"<android.text.SpannableStringBuilder: int mGapLength>"},{"step":65,"from":"1093779488","to":"1093779488.<android.text.SpannableStringBuilder: int mGapStart>","type":"load","field":"<android.text.SpannableStringBuilder: int mGapStart>"},{"step":66,"from":"1093779488","to":"1094557064","type":"load","field":"<android.text.SpannableStringBuilder: char[] mText>"},{"step":67,"from":"1094557064","to":"1094557064.arrayIdx_int:4","type":"load","field":"arrayIdx_int:4"},{"step":68,"from":"1094557064.arrayIdx_int:4","to":"1093607824","type":"model"},{"step":69,"from":"1093779488","to":"1094557064","type":"load","field":"<android.text.SpannableStringBuilder: char[] mText>"},{"step":70,"from":"1093779488","to":"1093779488.<android.text.SpannableStringBuilder: int mGapLength>","type":"load","field":"<android.text.SpannableStringBuilder: int mGapLength>"},{"step":71,"from":"1093779488","to":"1093779488.<android.text.SpannableStringBuilder: int mGapStart>","type":"load","field":"<android.text.SpannableStringBuilder: int mGapStart>"},{"step":72,"from":"1093779488","to":"1094557064","type":"load","field":"<android.text.SpannableStringBuilder: char[] mText>"},{"step":73,"from":"1094557064","to":"1094557064.arrayIdx_int:5","type":"load","field":"arrayIdx_int:5"},{"step":74,"from":"1094557064.arrayIdx_int:5","to":"1093607824","type":"model"},{"step":75,"from":"1093779488","to":"1094557064","type":"load","field":"<android.text.SpannableStringBuilder: char[] mText>"},{"step":76,"from":"1093779488","to":"1093779488.<android.text.SpannableStringBuilder: int mGapLength>","type":"load","field":"<android.text.SpannableStringBuilder: int mGapLength>"},{"step":77,"from":"1093779488","to":"1093779488.<android.text.SpannableStringBuilder: int mGapStart>","type":"load","field":"<android.text.SpannableStringBuilder: int mGapStart>"},{"step":78,"from":"1093779488","to":"1094557064","type":"load","field":"<android.text.SpannableStringBuilder: char[] mText>"},{"step":79,"from":"1094557064","to":"1094557064.arrayIdx_int:6","type":"load","field":"arrayIdx_int:6"},{"step":80,"from":"1093779488","to":"1094557064","type":"load","field":"<android.text.SpannableStringBuilder: char[] mText>"},{"step":81,"from":"1093779488","to":"1093779488.<android.text.SpannableStringBuilder: int mGapLength>","type":"load","field":"<android.text.SpannableStringBuilder: int mGapLength>"},{"step":82,"from":"1093779488","to":"1093779488.<android.text.SpannableStringBuilder: int mGapStart>","type":"load","field":"<android.text.SpannableStringBuilder: int mGapStart>"},{"step":83,"from":"1093779488","to":"1094557064","type":"load","field":"<android.text.SpannableStringBuilder: char[] mText>"},{"step":84,"from":"1094557064","to":"1094557064.arrayIdx_int:7","type":"load","field":"arrayIdx_int:7"},{"step":85,"from":"1093779488","to":"1094557064","type":"load","field":"<android.text.SpannableStringBuilder: char[] mText>"},{"step":86,"from":"1093779488","to":"1093779488.<android.text.SpannableStringBuilder: int mGapLength>","type":"load","field":"<android.text.SpannableStringBuilder: int mGapLength>"},{"step":87,"from":"1093779488","to":"1093779488.<android.text.SpannableStringBuilder: int mGapStart>","type":"load","field":"<android.text.SpannableStringBuilder: int mGapStart>"},{"step":88,"from":"1093779488","to":"1094557064","type":"load","field":"<android.text.SpannableStringBuilder: char[] mText>"},{"step":89,"from":"1094557064","to":"1094557064.arrayIdx_int:7","type":"load","field":"arrayIdx_int:7"},{"step":90,"from":"1094557064.arrayIdx_int:7","to":"1093607824","type":"model"},{"step":91,"from":"1093779488","to":"1094557064","type":"load","field":"<android.text.SpannableStringBuilder: char[] mText>"},{"step":92,"from":"1093779488","to":"1093779488.<android.text.SpannableStringBuilder: int mGapLength>","type":"load","field":"<android.text.SpannableStringBuilder: int mGapLength>"},{"step":93,"from":"1093779488","to":"1093779488.<android.text.SpannableStringBuilder: int mGapStart>","type":"load","field":"<android.text.SpannableStringBuilder: int mGapStart>"},{"step":94,"from":"1093779488","to":"1094557064","type":"load","field":"<android.text.SpannableStringBuilder: char[] mText>"},{"step":95,"from":"1094557064","to":"1094557064.arrayIdx_int:8","type":"load","field":"arrayIdx_int:8"},{"step":96,"from":"1094557064.arrayIdx_int:8","to":"1093607824","type":"model"},{"step":97,"from":"1093779488","to":"1094557064","type":"load","field":"<android.text.SpannableStringBuilder: char[] mText>"},{"step":98,"from":"1093779488","to":"1093779488.<android.text.SpannableStringBuilder: int mGapLength>","type":"load","field":"<android.text.SpannableStringBuilder: int mGapLength>"},{"step":99,"from":"1093779488","to":"1093779488.<android.text.SpannableStringBuilder: int mGapStart>","type":"load","field":"<android.text.SpannableStringBuilder: int mGapStart>"},{"step":100,"from":"1093779488","to":"1094557064","type":"load","field":"<android.text.SpannableStringBuilder: char[] mText>"},{"step":101,"from":"1094557064","to":"1094557064.arrayIdx_int:9","type":"load","field":"arrayIdx_int:9"},{"step":102,"from":"1094557064.arrayIdx_int:9","to":"1093607824","type":"model"},{"step":103,"from":"1093779488","to":"1094557064","type":"load","field":"<android.text.SpannableStringBuilder: char[] mText>"},{"step":104,"from":"1093779488","to":"1093779488.<android.text.SpannableStringBuilder: int mGapLength>","type":"load","field":"<android.text.SpannableStringBuilder: int mGapLength>"},{"step":105,"from":"1093779488","to":"1093779488.<android.text.SpannableStringBuilder: int mGapStart>","type":"load","field":"<android.text.SpannableStringBuilder: int mGapStart>"},{"step":106,"from":"1093779488","to":"1094557064","type":"load","field":"<android.text.SpannableStringBuilder: char[] mText>"},{"step":107,"from":"1094557064","to":"1094557064.arrayIdx_int:10","type":"load","field":"arrayIdx_int:10"},{"step":108,"from":"1094557064.arrayIdx_int:10","to":"1093607824","type":"model"},{"step":109,"from":"1093779488","to":"1094557064","type":"load","field":"<android.text.SpannableStringBuilder: char[] mText>"},{"step":110,"from":"1093779488","to":"1093779488.<android.text.SpannableStringBuilder: int mGapLength>","type":"load","field":"<android.text.SpannableStringBuilder: int mGapLength>"},{"step":111,"from":"1093779488","to":"1093779488.<android.text.SpannableStringBuilder: int mGapStart>","type":"load","field":"<android.text.SpannableStringBuilder: int mGapStart>"},{"step":112,"from":"1093779488","to":"1094557064","type":"load","field":"<android.text.SpannableStringBuilder: char[] mText>"},{"step":113,"from":"1094557064","to":"1094557064.arrayIdx_int:11","type":"load","field":"arrayIdx_int:11"},{"step":114,"from":"1094557064.arrayIdx_int:11","to":"1093607824","type":"model"},{"step":115,"from":"1093779488","to":"1094557064","type":"load","field":"<android.text.SpannableStringBuilder: char[] mText>"},{"step":116,"from":"1093779488","to":"1093779488.<android.text.SpannableStringBuilder: int mGapLength>","type":"load","field":"<android.text.SpannableStringBuilder: int mGapLength>"},{"step":117,"from":"1093779488","to":"1093779488.<android.text.SpannableStringBuilder: int mGapStart>","type":"load","field":"<android.text.SpannableStringBuilder: int mGapStart>"},{"step":118,"from":"1093779488","to":"1094557064","type":"load","field":"<android.text.SpannableStringBuilder: char[] mText>"},{"step":119,"from":"1094557064","to":"1094557064.arrayIdx_int:12","type":"load","field":"arrayIdx_int:12"},{"step":120,"from":"1094557064.arrayIdx_int:12","to":"1093607824","type":"model"},{"step":121,"from":"sdaReg126","to":"1093607824","type":"model"}],"parameters":[{"id":"1093607824","name":"arg#0","klass":"java.lang.StringBuilder"},{"id":"1093779488","name":"arg#1","klass":"android.text.Spanned"},{"id":"sdaReg0","name":"arg#2","klass":"int"},{"id":"sdaReg1","name":"arg#3","klass":"int"}],"returns":[{"id":null,"name":"return","klass":null}],"colors":{"heapLocToColor":{"1093779488.<android.text.SpannableStringBuilder: int mGapStart>":[1],"sdaReg68":[12],"sdaReg69":[12],"sdaReg66":[1],"sdaReg67":[12],"sdaReg64":[1],"1093581792":[12],"sdaReg62":[10, 11],"sdaReg63":[1],"sdaReg13":[2],"sdaReg72":[1],"sdaReg14":[4],"sdaReg71":[12, 13],"sdaReg70":[12],"sdaReg12":[1],"sdaReg10":[1],"sdaReg120":[1],"sdaReg19":[2, 4],"sdaReg122":[1],"sdaReg17":[0],"sdaReg18":[1],"1093741096":[8],"1093773416":[1],"sdaReg116":[1],"1093779488.<android.text.SpannableStringBuilder: int mGapLength>":[1],"sdaReg114":[1],"sdaReg115":[1],"sdaReg118":[1],"sdaReg119":[1],"sdaReg77":[14],"sdaReg78":[14],"sdaReg79":[14],"sdaReg73":[1],"sdaReg75":[1],"sdaReg76":[14],"sdaReg81":[1],"sdaReg80":[14, 15],"1093779488.<android.text.SpannableStringBuilder: int[] mSpanStarts>":[1],"sdaReg82":[1],"1093607824":[0],"sdaReg112":[1],"sdaReg111":[1],"sdaReg110":[1],"sdaReg107":[1],"sdaReg108":[1],"sdaReg103":[1],"sdaReg104":[1],"sdaReg106":[1],"static.<com.android.internal.util.ArrayUtils: java.lang.Object[] sCache>":[6],"sdaReg86":[1],"1093779488.<android.text.SpannableStringBuilder: char[] mText>":[1],"sdaReg84":[1],"sdaReg85":[1],"sdaReg88":[1],"sdaReg89":[1],"sdaReg90":[1],"sdaReg94":[2],"sdaReg93":[2],"sdaReg92":[1],"sdaReg100":[1],"sdaReg102":[1],"1093648256":[7],"sdaReg95":[1],"sdaReg96":[1],"sdaReg98":[1],"sdaReg99":[1],"1093779488.<android.text.SpannableStringBuilder: int mSpanCount>":[1],"1093607800":[10],"sdaReg60":[10],"1094557064":[1],"sdaReg61":[10],"1093766368":[1],"1095034816":[14],"sdaReg59":[10],"sdaReg58":[10],"sdaReg57":[1],"1093770064":[1],"sdaReg55":[1],"sdaReg54":[1],"sdaReg53":[8, 9],"1093779488.<android.text.SpannableStringBuilder: int[] mSpanEnds>":[1],"sdaReg52":[8],"sdaReg51":[8],"sdaReg50":[8],"1093779488":[1],"sdaReg49":[8],"sdaReg48":[1],"sdaReg45":[1],"sdaReg44":[2],"sdaReg46":[1],"sdaReg43":[1],"sdaReg42":[0],"1093779488.<android.text.SpannableStringBuilder: java.lang.Object[] mSpans>":[1],"sdaReg39":[7],"sdaReg38":[7],"sdaReg37":[7],"1084375760":[6],"1093648416":[1],"sdaReg32":[5],"sdaReg31":[5],"sdaReg30":[5],"1094557064.arrayIdx_int:14":[1],"sdaReg36":[7],"1094557064.arrayIdx_int:13":[1],"1094557064.arrayIdx_int:12":[1],"sdaReg35":[7],"1094557064.arrayIdx_int:11":[1],"sdaReg34":[7],"1094557064.arrayIdx_int:10":[1],"sdaReg33":[5],"1094557064.arrayIdx_int:5":[1],"1094557064.arrayIdx_int:6":[1],"1094557064.arrayIdx_int:7":[1],"sdaReg8":[1],"1094557064.arrayIdx_int:8":[1],"sdaReg9":[1],"sdaReg6":[1],"1094557064.arrayIdx_int:1":[1],"1094557064.arrayIdx_int:2":[1],"1094557064.arrayIdx_int:3":[1],"sdaReg5":[1],"1094557064.arrayIdx_int:4":[1],"1094557064.arrayIdx_int:0":[1],"sdaReg3":[4],"sdaReg2":[2, 4],"sdaReg1":[3],"sdaReg0":[2],"sdaReg20":[1],"sdaReg23":[1],"1094557064.arrayIdx_int:9":[1]},"colorToColor":{"1":[0, 8, 10, 12, 14],"7":[6],"8":[0],"9":[0],"10":[0],"11":[0],"12":[0],"13":[0],"14":[0],"15":[0]},"colorToLabel":{"0":"arg#0","1":"arg#1","2":"arg#2","3":"arg#3","6":"<com.android.internal.util.ArrayUtils: java.lang.Object[] sCache>","16":"return"}}}

Generated Model
	arg#1->arg#0

