Scanning method <android.text.Html: void withinStyle(java.lang.StringBuilder,android.text.Spanned,int,int)>

All seen event types: BinaryOperationRecord, SimpleAssignmentRecord, MethodReturnRecord, MethodCallRecord, LoadInstanceRecord, MethodStartRecord, MethodEndRecord, IfRecord, 
Ignored event types: IfRecord, 

JSON Encoded Analysis Data (for visualization):{"heapEdges":[{"step":0,"from":"1094086736","to":"1094086736.<android.text.SpannableStringInternal: java.lang.String mText>","type":"load","field":"<android.text.SpannableStringInternal: java.lang.String mText>"},{"step":1,"from":"1094086736.<android.text.SpannableStringInternal: java.lang.String mText>","to":"sdaReg4","type":"model"},{"step":2,"from":"sdaReg4","to":"1093946728","type":"model"},{"step":3,"from":"1094086736","to":"1094086736.<android.text.SpannableStringInternal: java.lang.String mText>","type":"load","field":"<android.text.SpannableStringInternal: java.lang.String mText>"},{"step":4,"from":"1094086736.<android.text.SpannableStringInternal: java.lang.String mText>","to":"sdaReg6","type":"model"},{"step":5,"from":"sdaReg6","to":"1093946728","type":"model"},{"step":6,"from":"1094086736","to":"1094086736.<android.text.SpannableStringInternal: java.lang.String mText>","type":"load","field":"<android.text.SpannableStringInternal: java.lang.String mText>"},{"step":7,"from":"1094086736.<android.text.SpannableStringInternal: java.lang.String mText>","to":"sdaReg8","type":"model"},{"step":8,"from":"sdaReg8","to":"1093946728","type":"model"},{"step":9,"from":"1094086736","to":"1094086736.<android.text.SpannableStringInternal: java.lang.String mText>","type":"load","field":"<android.text.SpannableStringInternal: java.lang.String mText>"},{"step":10,"from":"1094086736.<android.text.SpannableStringInternal: java.lang.String mText>","to":"sdaReg10","type":"model"},{"step":11,"from":"sdaReg10","to":"1093946728","type":"model"},{"step":12,"from":"1094086736","to":"1094086736.<android.text.SpannableStringInternal: java.lang.String mText>","type":"load","field":"<android.text.SpannableStringInternal: java.lang.String mText>"},{"step":13,"from":"1094086736.<android.text.SpannableStringInternal: java.lang.String mText>","to":"sdaReg12","type":"model"},{"step":14,"from":"sdaReg12","to":"1093946728","type":"model"}],"parameters":[{"id":"1093946728","name":"arg#0","klass":"java.lang.StringBuilder"},{"id":"1094086736","name":"arg#1","klass":"android.text.Spanned"},{"id":"sdaReg0","name":"arg#2","klass":"int"},{"id":"sdaReg1","name":"arg#3","klass":"int"}],"returns":[{"id":null,"name":"return","klass":null}],"colors":{"heapLocToColor":{"sdaReg8":[1, 6],"sdaReg9":[1],"sdaReg6":[1, 5],"sdaReg7":[1],"sdaReg4":[1, 4],"sdaReg5":[1],"1094086736":[1],"sdaReg11":[1],"sdaReg12":[1, 8],"sdaReg10":[1, 7],"sdaReg3":[1],"sdaReg2":[2],"1094086736.<android.text.SpannableStringInternal: java.lang.String mText>":[1],"sdaReg1":[3],"1093946728":[0],"sdaReg0":[2]},"colorToColor":{"1":[0],"4":[0],"5":[0],"6":[0],"7":[0],"8":[0]},"colorToLabel":{"0":"arg#0","1":"arg#1","2":"arg#2","3":"arg#3","9":"return"}}}

Generated Model
	arg#1->arg#0

