Scanning method <android.text.Html: void withinStyle(java.lang.StringBuilder,android.text.Spanned,int,int)>

All seen event types: BinaryOperationRecord, SimpleAssignmentRecord, MethodReturnRecord, MethodCallRecord, LoadInstanceRecord, MethodStartRecord, MethodEndRecord, IfRecord, 
Ignored event types: IfRecord, 

JSON Encoded Analysis Data (for visualization):{"heapEdges":[{"step":0,"from":"1093766888","to":"1093766888.<android.text.SpannableStringInternal: java.lang.String mText>","type":"load","field":"<android.text.SpannableStringInternal: java.lang.String mText>"},{"step":1,"from":"1093766888.<android.text.SpannableStringInternal: java.lang.String mText>","to":"sdaReg4","type":"model"},{"step":2,"from":"sdaReg4","to":"1093428240","type":"model"},{"step":3,"from":"1093766888","to":"1093766888.<android.text.SpannableStringInternal: java.lang.String mText>","type":"load","field":"<android.text.SpannableStringInternal: java.lang.String mText>"},{"step":4,"from":"1093766888.<android.text.SpannableStringInternal: java.lang.String mText>","to":"sdaReg6","type":"model"},{"step":5,"from":"sdaReg6","to":"1093428240","type":"model"},{"step":6,"from":"1093766888","to":"1093766888.<android.text.SpannableStringInternal: java.lang.String mText>","type":"load","field":"<android.text.SpannableStringInternal: java.lang.String mText>"},{"step":7,"from":"1093766888.<android.text.SpannableStringInternal: java.lang.String mText>","to":"sdaReg8","type":"model"},{"step":8,"from":"sdaReg8","to":"1093428240","type":"model"},{"step":9,"from":"1093766888","to":"1093766888.<android.text.SpannableStringInternal: java.lang.String mText>","type":"load","field":"<android.text.SpannableStringInternal: java.lang.String mText>"},{"step":10,"from":"1093766888.<android.text.SpannableStringInternal: java.lang.String mText>","to":"sdaReg10","type":"model"},{"step":11,"from":"sdaReg10","to":"1093428240","type":"model"},{"step":12,"from":"1093766888","to":"1093766888.<android.text.SpannableStringInternal: java.lang.String mText>","type":"load","field":"<android.text.SpannableStringInternal: java.lang.String mText>"},{"step":13,"from":"1093766888.<android.text.SpannableStringInternal: java.lang.String mText>","to":"sdaReg12","type":"model"},{"step":14,"from":"sdaReg12","to":"1093428240","type":"model"},{"step":15,"from":"1093766888","to":"1093766888.<android.text.SpannableStringInternal: java.lang.String mText>","type":"load","field":"<android.text.SpannableStringInternal: java.lang.String mText>"},{"step":16,"from":"1093766888.<android.text.SpannableStringInternal: java.lang.String mText>","to":"sdaReg14","type":"model"},{"step":17,"from":"1093766888","to":"1093766888.<android.text.SpannableStringInternal: java.lang.String mText>","type":"load","field":"<android.text.SpannableStringInternal: java.lang.String mText>"},{"step":18,"from":"1093766888.<android.text.SpannableStringInternal: java.lang.String mText>","to":"sdaReg18","type":"model"},{"step":19,"from":"1093766888","to":"1093766888.<android.text.SpannableStringInternal: java.lang.String mText>","type":"load","field":"<android.text.SpannableStringInternal: java.lang.String mText>"},{"step":20,"from":"1093766888.<android.text.SpannableStringInternal: java.lang.String mText>","to":"sdaReg20","type":"model"},{"step":21,"from":"sdaReg20","to":"1093428240","type":"model"},{"step":22,"from":"1093766888","to":"1093766888.<android.text.SpannableStringInternal: java.lang.String mText>","type":"load","field":"<android.text.SpannableStringInternal: java.lang.String mText>"},{"step":23,"from":"1093766888.<android.text.SpannableStringInternal: java.lang.String mText>","to":"sdaReg22","type":"model"},{"step":24,"from":"sdaReg22","to":"1093428240","type":"model"},{"step":25,"from":"1093766888","to":"1093766888.<android.text.SpannableStringInternal: java.lang.String mText>","type":"load","field":"<android.text.SpannableStringInternal: java.lang.String mText>"},{"step":26,"from":"1093766888.<android.text.SpannableStringInternal: java.lang.String mText>","to":"sdaReg24","type":"model"},{"step":27,"from":"sdaReg24","to":"1093428240","type":"model"},{"step":28,"from":"1093766888","to":"1093766888.<android.text.SpannableStringInternal: java.lang.String mText>","type":"load","field":"<android.text.SpannableStringInternal: java.lang.String mText>"},{"step":29,"from":"1093766888.<android.text.SpannableStringInternal: java.lang.String mText>","to":"sdaReg26","type":"model"},{"step":30,"from":"sdaReg26","to":"1093428240","type":"model"},{"step":31,"from":"1093766888","to":"1093766888.<android.text.SpannableStringInternal: java.lang.String mText>","type":"load","field":"<android.text.SpannableStringInternal: java.lang.String mText>"},{"step":32,"from":"1093766888.<android.text.SpannableStringInternal: java.lang.String mText>","to":"sdaReg28","type":"model"},{"step":33,"from":"sdaReg28","to":"1093428240","type":"model"}],"parameters":[{"id":"1093428240","name":"arg#0","klass":"java.lang.StringBuilder"},{"id":"1093766888","name":"arg#1","klass":"android.text.Spanned"},{"id":"sdaReg0","name":"arg#2","klass":"int"},{"id":"sdaReg1","name":"arg#3","klass":"int"}],"returns":[{"id":null,"name":"return","klass":null}],"colors":{"heapLocToColor":{"sdaReg13":[1],"sdaReg14":[1, 9],"sdaReg11":[1],"sdaReg12":[1, 8],"sdaReg10":[1, 7],"sdaReg19":[1],"1093766888":[1],"sdaReg17":[1],"sdaReg18":[1, 10],"sdaReg15":[2],"sdaReg16":[2],"sdaReg8":[1, 6],"sdaReg9":[1],"sdaReg6":[1, 5],"sdaReg7":[1],"sdaReg4":[1, 4],"sdaReg5":[1],"1093766888.<android.text.SpannableStringInternal: java.lang.String mText>":[1],"1093428240":[0],"sdaReg27":[1],"sdaReg26":[1, 14],"sdaReg28":[1, 15],"sdaReg3":[1],"sdaReg2":[2],"sdaReg1":[3],"sdaReg21":[1],"sdaReg0":[2],"sdaReg20":[1, 11],"sdaReg23":[1],"sdaReg22":[1, 12],"sdaReg25":[1],"sdaReg24":[1, 13]},"colorToColor":{"1":[0],"4":[0],"5":[0],"6":[0],"7":[0],"8":[0],"11":[0],"12":[0],"13":[0],"14":[0],"15":[0]},"colorToLabel":{"0":"arg#0","1":"arg#1","2":"arg#2","3":"arg#3","16":"return"}}}

Generated Model
	arg#1->arg#0

