Scanning method <java.io.PrintWriter: void println(char)>

All seen event types: SimpleAssignmentRecord, ExitMonitorRecord, MethodStartRecord, LoadInstanceRecord, IfRecord, NewObjectRecord, StoreInstanceRecord, BinaryOperationRecord, MethodCallRecord, MethodReturnRecord, EnterMonitorRecord, ArrayLengthRecord, MethodEndRecord, 
Ignored event types: ExitMonitorRecord, EnterMonitorRecord, IfRecord, 

JSON Encoded Analysis Data (for visualization):{"heapEdges":[{"step":0,"from":"sdaReg0","to":"sdaReg1","type":"model"},{"step":1,"from":"1093582608","to":"1093582640","type":"load","field":"<java.io.Writer: java.lang.Object lock>"},{"step":2,"from":"sdaReg5","to":"1093658512","type":"model"},{"step":3,"from":"1093582608","to":"1093582640","type":"load","field":"<java.io.Writer: java.lang.Object lock>"},{"step":4,"from":"1093582608","to":"1093582640","type":"load","field":"<java.io.PrintWriter: java.io.Writer out>"},{"step":5,"from":"1093582608","to":"1093582640","type":"load","field":"<java.io.PrintWriter: java.io.Writer out>"},{"step":6,"from":"1093582640","to":"1093582432","type":"load","field":"<java.io.Writer: java.lang.Object lock>"},{"step":7,"from":"1093582640","to":"1093601336","type":"load","field":"<java.io.OutputStreamWriter: java.nio.charset.CharsetEncoder encoder>"},{"step":8,"from":"1093658536","to":"sdaReg40","type":"create","field":"<java.nio.Buffer: int mark>"},{"step":9,"from":"1093658536","to":"sdaReg41","type":"create","field":"<java.nio.Buffer: int position>"},{"step":10,"from":"1093658536","to":"sdaReg38","type":"create","field":"<java.nio.Buffer: int _elementSizeShift>"},{"step":11,"from":"sdaReg32","to":"1093658536","type":"store","field":"<java.nio.Buffer: int limit>"},{"step":12,"from":"sdaReg32","to":"1093658536","type":"store","field":"<java.nio.Buffer: int capacity>"},{"step":13,"from":"1093658536","to":"1093658512","type":"create","field":"<java.nio.CharArrayBuffer: char[] backingArray>"},{"step":14,"from":"1093658536","to":"sdaReg35","type":"create","field":"<java.nio.CharArrayBuffer: int offset>"},{"step":15,"from":"1093658536","to":"sdaReg13","type":"create","field":"<java.nio.Buffer: int position>"},{"step":16,"from":"sdaReg48","to":"1093658536","type":"store","field":"<java.nio.Buffer: int limit>"},{"step":17,"from":"1093582640","to":"1093601336","type":"load","field":"<java.io.OutputStreamWriter: java.nio.charset.CharsetEncoder encoder>"},{"step":18,"from":"1093582640","to":"1093582672","type":"load","field":"<java.io.OutputStreamWriter: java.nio.ByteBuffer bytes>"},{"step":19,"from":"1093601336","to":"1093658536","type":"model"},{"step":20,"from":"1093601336","to":"1093582672","type":"model"},{"step":21,"from":"1093601336","to":"1084215096","type":"model"},{"step":22,"from":"1093658536","to":"1093601336","type":"model"},{"step":23,"from":"1093658536","to":"1093582672","type":"model"},{"step":24,"from":"1093658536","to":"1084215096","type":"model"},{"step":25,"from":"1093582672","to":"1093601336","type":"model"},{"step":26,"from":"1093582672","to":"1093658536","type":"model"},{"step":27,"from":"1093582672","to":"1084215096","type":"model"},{"step":28,"from":"1084215096","to":"1084215096.<java.nio.charset.CoderResult: int type>","type":"load","field":"<java.nio.charset.CoderResult: int type>"},{"step":29,"from":"1084215096","to":"1084215096.<java.nio.charset.CoderResult: int type>","type":"load","field":"<java.nio.charset.CoderResult: int type>"},{"step":30,"from":"1084215096","to":"1084215096.<java.nio.charset.CoderResult: int type>","type":"load","field":"<java.nio.charset.CoderResult: int type>"},{"step":31,"from":"1093582608","to":"1093582640","type":"load","field":"<java.io.Writer: java.lang.Object lock>"},{"step":32,"from":"sdaReg61","to":"1093658728","type":"model"},{"step":33,"from":"1093582608","to":"1093582640","type":"load","field":"<java.io.Writer: java.lang.Object lock>"},{"step":34,"from":"1093582608","to":"1093582640","type":"load","field":"<java.io.PrintWriter: java.io.Writer out>"},{"step":35,"from":"1093582608","to":"1093582640","type":"load","field":"<java.io.PrintWriter: java.io.Writer out>"},{"step":36,"from":"1093582640","to":"1093582432","type":"load","field":"<java.io.Writer: java.lang.Object lock>"},{"step":37,"from":"1093582640","to":"1093601336","type":"load","field":"<java.io.OutputStreamWriter: java.nio.charset.CharsetEncoder encoder>"},{"step":38,"from":"1093658752","to":"sdaReg96","type":"create","field":"<java.nio.Buffer: int mark>"},{"step":39,"from":"1093658752","to":"sdaReg97","type":"create","field":"<java.nio.Buffer: int position>"},{"step":40,"from":"1093658752","to":"sdaReg94","type":"create","field":"<java.nio.Buffer: int _elementSizeShift>"},{"step":41,"from":"sdaReg88","to":"1093658752","type":"store","field":"<java.nio.Buffer: int limit>"},{"step":42,"from":"sdaReg88","to":"1093658752","type":"store","field":"<java.nio.Buffer: int capacity>"},{"step":43,"from":"1093658752","to":"1093658728","type":"create","field":"<java.nio.CharArrayBuffer: char[] backingArray>"},{"step":44,"from":"1093658752","to":"sdaReg91","type":"create","field":"<java.nio.CharArrayBuffer: int offset>"},{"step":45,"from":"1093658752","to":"sdaReg69","type":"create","field":"<java.nio.Buffer: int position>"},{"step":46,"from":"sdaReg104","to":"1093658752","type":"store","field":"<java.nio.Buffer: int limit>"},{"step":47,"from":"1093582640","to":"1093601336","type":"load","field":"<java.io.OutputStreamWriter: java.nio.charset.CharsetEncoder encoder>"},{"step":48,"from":"1093582640","to":"1093582672","type":"load","field":"<java.io.OutputStreamWriter: java.nio.ByteBuffer bytes>"},{"step":49,"from":"1093601336","to":"1093658752","type":"model"},{"step":50,"from":"1093601336","to":"1093582672","type":"model"},{"step":51,"from":"1093601336","to":"1084215096","type":"model"},{"step":52,"from":"1093658752","to":"1093601336","type":"model"},{"step":53,"from":"1093658752","to":"1093582672","type":"model"},{"step":54,"from":"1093658752","to":"1084215096","type":"model"},{"step":55,"from":"1093582672","to":"1093601336","type":"model"},{"step":56,"from":"1093582672","to":"1093658752","type":"model"},{"step":57,"from":"1093582672","to":"1084215096","type":"model"},{"step":58,"from":"1084215096","to":"1084215096.<java.nio.charset.CoderResult: int type>","type":"load","field":"<java.nio.charset.CoderResult: int type>"},{"step":59,"from":"1084215096","to":"1084215096.<java.nio.charset.CoderResult: int type>","type":"load","field":"<java.nio.charset.CoderResult: int type>"},{"step":60,"from":"1084215096","to":"1084215096.<java.nio.charset.CoderResult: int type>","type":"load","field":"<java.nio.charset.CoderResult: int type>"},{"step":61,"from":"1093582608","to":"1093582608.<java.io.PrintWriter: boolean autoFlush>","type":"load","field":"<java.io.PrintWriter: boolean autoFlush>"}],"parameters":[{"id":"1093582608","name":"this","klass":"java.io.PrintWriter"},{"id":"sdaReg0","name":"arg#1","klass":"char"}],"returns":[{"id":null,"name":"return","klass":null}],"colors":{"heapLocToColor":{"sdaReg60":[0],"sdaReg61":[6],"1093582640.<java.io.OutputStreamWriter: java.nio.charset.CharsetEncoder encoder>":[0],"sdaReg68":[6, 7],"1093658512":[2, 3],"sdaReg67":[0],"sdaReg64":[0],"sdaReg65":[6, 7],"sdaReg62":[0],"sdaReg63":[6, 7],"sdaReg72":[0],"sdaReg71":[6, 7],"sdaReg14":[0],"sdaReg70":[0],"sdaReg11":[0],"sdaReg12":[2, 3],"sdaReg59":[6],"sdaReg58":[0],"sdaReg57":[0],"1093658752":[0, 8],"sdaReg55":[0, 5],"sdaReg17":[0],"1093582608":[0],"sdaReg18":[2, 3],"sdaReg53":[0, 5],"sdaReg15":[2, 3],"sdaReg52":[0, 5],"sdaReg16":[0],"sdaReg51":[4],"1093582640":[0],"1093601336":[0],"sdaReg50":[0],"sdaReg73":[0],"sdaReg74":[6, 7],"sdaReg75":[0],"sdaReg76":[0],"sdaReg80":[6, 7],"1093658536":[0, 4],"sdaReg49":[4],"1084215096":[0, 5],"sdaReg45":[4],"1093658728":[6, 7],"sdaReg44":[4],"sdaReg47":[4],"sdaReg46":[4],"sdaReg111":[0, 5],"sdaReg43":[4],"sdaReg42":[4],"sdaReg107":[8],"sdaReg108":[0, 5],"sdaReg109":[0, 5],"1093582672":[0],"sdaReg103":[8],"sdaReg105":[8],"sdaReg106":[0],"1093582640.<java.io.OutputStreamWriter: java.nio.ByteBuffer bytes>":[0],"sdaReg86":[8],"sdaReg87":[6, 7],"sdaReg84":[8],"sdaReg85":[6, 7],"sdaReg89":[8],"sdaReg90":[6, 7],"1093582608.<java.io.Writer: java.lang.Object lock>":[0],"sdaReg39":[4],"sdaReg37":[4],"1093582608.<java.io.PrintWriter: boolean autoFlush>":[0],"sdaReg93":[8],"1093582432":[0],"sdaReg92":[8],"sdaReg100":[8],"sdaReg31":[2, 3],"sdaReg102":[8],"sdaReg30":[4],"sdaReg101":[8],"1084215096.<java.nio.charset.CoderResult: int type>":[0, 5],"sdaReg36":[4],"sdaReg34":[2, 3],"sdaReg33":[4],"sdaReg8":[0],"sdaReg9":[2, 3],"sdaReg6":[0],"1093582640.<java.io.Writer: java.lang.Object lock>":[0],"sdaReg7":[2, 3],"sdaReg4":[0],"sdaReg5":[2],"sdaReg95":[8],"sdaReg98":[8],"sdaReg99":[8],"sdaReg29":[2, 3],"sdaReg28":[4],"sdaReg2":[0],"1093582608.<java.io.PrintWriter: java.io.Writer out>":[0],"sdaReg1":[2],"sdaReg20":[0],"sdaReg0":[1],"sdaReg24":[2, 3]},"colorToColor":{"0":[0, 4, 5, 8],"1":[2],"2":[4],"3":[4],"4":[0, 5],"6":[8],"7":[8],"8":[0, 5]},"colorToLabel":{"0":"this","1":"arg#1","9":"return"}}}

Generated Model
	arg#1->this

