Scanning method <java.net.InetAddress: byte[] getAddress()>

All seen event types: MethodReturnRecord, MethodCallRecord, CastRecord, LoadInstanceRecord, 
Ignored event types: 

JSON Encoded Analysis Data (for visualization):{"heapEdges":[{"step":0,"from":"1093501136","to":"1093488264","type":"load","field":"<java.net.InetAddress: byte[] ipaddress>"},{"step":1,"from":"1093488264","to":"1093299504","type":"model"}],"parameters":[{"id":"1093501136","name":"this","klass":"java.net.InetAddress"}],"returns":[{"id":"1093299504","name":"return","klass":"byte[]"}],"colors":{"heapLocToColor":{"1093299504":[0, 1],"sdaReg1":[0, 1],"1093488264":[0],"sdaReg0":[0, 1],"1093501136":[0]},"colorToColor":{"0":[2],"1":[2]},"colorToLabel":{"0":"this","2":"return"}}}

Generated Model
	this->return

