Scanning method <java.util.HashMap: java.lang.Object put(java.lang.Object,java.lang.Object)>

All seen event types: StoreArrayRecord, SimpleAssignmentRecord, MethodStartRecord, LoadInstanceRecord, IfRecord, NewObjectRecord, StoreInstanceRecord, NewArrayRecord, BinaryOperationRecord, MethodCallRecord, MethodReturnRecord, ArrayLengthRecord, CastRecord, LoadArrayRecord, MethodEndRecord, 
Ignored event types: IfRecord, 

JSON Encoded Analysis Data (for visualization):{"heapEdges":[{"step":0,"from":"1093556920","to":"1093556976","type":"load","field":"<java.util.HashMap: java.util.HashMap$HashMapEntry[] table>"},{"step":1,"from":"1093556976","to":"1093557056","type":"load","field":"arrayIdx_int:0"},{"step":2,"from":"1093557056","to":"1093557056.<java.util.HashMap$HashMapEntry: int hash>","type":"load","field":"<java.util.HashMap$HashMapEntry: int hash>"},{"step":3,"from":"1093556920","to":"1093556920.<java.util.HashMap: int modCount>","type":"load","field":"<java.util.HashMap: int modCount>"},{"step":4,"from":"sdaReg12","to":"1093556920","type":"store","field":"<java.util.HashMap: int modCount>"},{"step":5,"from":"1093556920","to":"1093556920.<java.util.HashMap: int size>","type":"load","field":"<java.util.HashMap: int size>"},{"step":6,"from":"sdaReg13","to":"1093556920","type":"store","field":"<java.util.HashMap: int size>"},{"step":7,"from":"1093556920","to":"1093556920.<java.util.HashMap: int threshold>","type":"load","field":"<java.util.HashMap: int threshold>"},{"step":8,"from":"1093556920","to":"1093556976","type":"load","field":"<java.util.HashMap: java.util.HashMap$HashMapEntry[] table>"},{"step":9,"from":"1093556920","to":"1093557184","type":"create","field":"<java.util.HashMap: java.util.HashMap$HashMapEntry[] table>"},{"step":10,"from":"sdaReg21","to":"1093556920","type":"store","field":"<java.util.HashMap: int threshold>"},{"step":11,"from":"1093556976","to":"1093557056","type":"load","field":"arrayIdx_int:0"},{"step":12,"from":"1093557056","to":"1093557056.<java.util.HashMap$HashMapEntry: int hash>","type":"load","field":"<java.util.HashMap$HashMapEntry: int hash>"},{"step":13,"from":"1093557056","to":"1093557184","type":"store","field":"arrayIdx_int:0"},{"step":14,"from":"1093556976","to":"1093557152","type":"load","field":"arrayIdx_int:1"},{"step":15,"from":"1093557152","to":"1093557152.<java.util.HashMap$HashMapEntry: int hash>","type":"load","field":"<java.util.HashMap$HashMapEntry: int hash>"},{"step":16,"from":"1093557152","to":"1093557184","type":"store","field":"arrayIdx_int:5"},{"step":17,"from":"1093557152","to":"1093557120","type":"load","field":"<java.util.HashMap$HashMapEntry: java.util.HashMap$HashMapEntry next>"},{"step":18,"from":"1093557120","to":"1093557120.<java.util.HashMap$HashMapEntry: int hash>","type":"load","field":"<java.util.HashMap$HashMapEntry: int hash>"},{"step":19,"from":"1093557120","to":"1093557184","type":"store","field":"arrayIdx_int:1"},{"step":20,"from":"1093557152","to":"sdaReg29","type":"create","field":"<java.util.HashMap$HashMapEntry: java.util.HashMap$HashMapEntry next>"},{"step":21,"from":"1093556976","to":"1093557088","type":"load","field":"arrayIdx_int:3"},{"step":22,"from":"1093557088","to":"1093557088.<java.util.HashMap$HashMapEntry: int hash>","type":"load","field":"<java.util.HashMap$HashMapEntry: int hash>"},{"step":23,"from":"1093557088","to":"1093557184","type":"store","field":"arrayIdx_int:3"},{"step":24,"from":"1093570848","to":"1093557240","type":"store","field":"<java.util.HashMap$HashMapEntry: java.lang.Object key>"},{"step":25,"from":"1083976944","to":"1093557240","type":"store","field":"<java.util.HashMap$HashMapEntry: java.lang.Object value>"},{"step":26,"from":"sdaReg8","to":"1093557240","type":"store","field":"<java.util.HashMap$HashMapEntry: int hash>"},{"step":27,"from":"1093557056","to":"1093557240","type":"store","field":"<java.util.HashMap$HashMapEntry: java.util.HashMap$HashMapEntry next>"},{"step":28,"from":"1093557184","to":"1093557240","type":"create","field":"arrayIdx_int:0"}],"parameters":[{"id":"1093556920","name":"this","klass":"java.util.HashMap"},{"id":"1093570848","name":"arg#1","klass":"java.lang.Object"},{"id":"1083976944","name":"arg#2","klass":"java.lang.Object"}],"returns":[{"id":"0","name":"return","klass":"java.lang.Object"}],"colors":{"heapLocToColor":{"1093556976":[0],"1093556920.<java.util.HashMap: int threshold>":[0],"1093557088":[0],"1093557184":[4],"sdaReg13":[0],"sdaReg39":[0],"1083976944":[2],"sdaReg14":[0],"sdaReg38":[2],"sdaReg11":[3],"sdaReg37":[1],"1093557152.<java.util.HashMap$HashMapEntry: int hash>":[0],"sdaReg12":[0],"1093556920":[0],"1093557056.<java.util.HashMap$HashMapEntry: int hash>":[0],"sdaReg30":[4],"sdaReg36":[5],"sdaReg17":[0],"sdaReg35":[2],"sdaReg34":[1],"sdaReg33":[0],"1093557088.<java.util.HashMap$HashMapEntry: int hash>":[0],"1093557120.<java.util.HashMap$HashMapEntry: int hash>":[0],"1093557240":[5],"sdaReg8":[3],"sdaReg6":[3],"sdaReg7":[3],"sdaReg4":[3],"sdaReg5":[3],"1093556920.<java.util.HashMap: int modCount>":[0],"1093556920.<java.util.HashMap: int size>":[0],"1093557056":[0],"1093570848":[1],"sdaReg27":[0],"sdaReg26":[0],"sdaReg28":[0],"1093556920.<java.util.HashMap: java.util.HashMap$HashMapEntry[] table>":[0],"1093557120":[0],"sdaReg3":[3],"1093556976.arrayIdx_int:0":[0],"sdaReg2":[3],"sdaReg1":[3],"sdaReg0":[3],"sdaReg41":[5],"1093557152":[0],"sdaReg40":[5],"sdaReg22":[4],"sdaReg24":[0]},"colorToColor":{"0":[0, 4, 5],"1":[5],"2":[5],"3":[5],"4":[0],"5":[4]},"colorToLabel":{"0":"this","1":"arg#1","2":"arg#2","6":"return"}}}

Generated Model
	arg#2->this
	arg#1->this

