Scanning method <android.os.Bundle: android.os.Parcelable[] getParcelableArray(java.lang.String)>

All seen event types: StoreArrayRecord, SimpleAssignmentRecord, ExitMonitorRecord, MethodStartRecord, LoadInstanceRecord, IfRecord, InstanceOfRecord, NewObjectRecord, StoreInstanceRecord, LoadStaticRecord, NewArrayRecord, BinaryOperationRecord, MethodCallRecord, MethodReturnRecord, SwitchRecord, EnterMonitorRecord, ArrayLengthRecord, CastRecord, LoadArrayRecord, MethodEndRecord, 
Ignored event types: ExitMonitorRecord, SwitchRecord, EnterMonitorRecord, IfRecord, 

JSON Encoded Analysis Data (for visualization):{"heapEdges":[{"step":0,"from":"1093732488","to":"1093447448","type":"load","field":"<android.os.Bundle: android.os.Parcel mParcelledData>"},{"step":1,"from":"1093732488","to":"1093447448","type":"load","field":"<android.os.Bundle: android.os.Parcel mParcelledData>"},{"step":2,"from":"1093447448","to":"sdaReg2","type":"model"},{"step":3,"from":"static.<java.util.HashMap: java.util.Map$Entry[] EMPTY_TABLE>","to":"1083997920","type":"load","field":"<java.util.HashMap: java.util.Map$Entry[] EMPTY_TABLE>"},{"step":4,"from":"1083997920","to":"1093718328","type":"store","field":"<java.util.HashMap: java.util.HashMap$HashMapEntry[] table>"},{"step":5,"from":"1093718328","to":"sdaReg9","type":"create","field":"<java.util.HashMap: int threshold>"},{"step":6,"from":"1093732488","to":"1093718328","type":"create","field":"<android.os.Bundle: java.util.Map mMap>"},{"step":7,"from":"1093732488","to":"1093447448","type":"load","field":"<android.os.Bundle: android.os.Parcel mParcelledData>"},{"step":8,"from":"1093447448","to":"sdaReg16","type":"model"},{"step":9,"from":"1093447448","to":"sdaReg17","type":"model"},{"step":10,"from":"1093447448","to":"sdaReg21","type":"model"},{"step":11,"from":"1093447448","to":"sdaReg24","type":"model"},{"step":12,"from":"1093447448","to":"sdaReg28","type":"model"},{"step":13,"from":"static.<android.os.Parcel: java.util.HashMap mCreators>","to":"1084045240","type":"load","field":"<android.os.Parcel: java.util.HashMap mCreators>"},{"step":14,"from":"static.<android.os.Parcel: java.util.HashMap mCreators>","to":"1084045240","type":"load","field":"<android.os.Parcel: java.util.HashMap mCreators>"},{"step":15,"from":"static.<java.util.HashMap: java.util.Map$Entry[] EMPTY_TABLE>","to":"1083997920","type":"load","field":"<java.util.HashMap: java.util.Map$Entry[] EMPTY_TABLE>"},{"step":16,"from":"1083997920","to":"1093705416","type":"store","field":"<java.util.HashMap: java.util.HashMap$HashMapEntry[] table>"},{"step":17,"from":"1093705416","to":"sdaReg41","type":"create","field":"<java.util.HashMap: int threshold>"},{"step":18,"from":"static.<android.os.Parcel: java.util.HashMap mCreators>","to":"1084045240","type":"load","field":"<android.os.Parcel: java.util.HashMap mCreators>"},{"step":19,"from":"1093705472","to":"1093705416","type":"create","field":"<java.util.HashMap$HashMapEntry: java.lang.Object value>"},{"step":20,"from":"1093705472","to":"sdaReg52","type":"create","field":"<java.util.HashMap$HashMapEntry: int hash>"},{"step":21,"from":"1084045240","to":"1093705472","type":"create","field":"<java.util.HashMap: java.util.HashMap$HashMapEntry entryForNullKey>"},{"step":22,"from":"1084045240","to":"1084045240.<java.util.HashMap: int size>","type":"load","field":"<java.util.HashMap: int size>"},{"step":23,"from":"sdaReg55","to":"1084045240","type":"store","field":"<java.util.HashMap: int size>"},{"step":24,"from":"1084045240","to":"1084045240.<java.util.HashMap: int modCount>","type":"load","field":"<java.util.HashMap: int modCount>"},{"step":25,"from":"sdaReg56","to":"1084045240","type":"store","field":"<java.util.HashMap: int modCount>"},{"step":26,"from":"sdaReg28","to":"1084342632","type":"model"},{"step":27,"from":"1084342632","to":"1093707800","type":"model"},{"step":28,"from":"1093707800","to":"1084917792","type":"model"},{"step":29,"from":"1093705416","to":"1093705416.<java.util.HashMap: int modCount>","type":"load","field":"<java.util.HashMap: int modCount>"},{"step":30,"from":"sdaReg91","to":"1093705416","type":"store","field":"<java.util.HashMap: int modCount>"},{"step":31,"from":"1093705416","to":"1093705416.<java.util.HashMap: int size>","type":"load","field":"<java.util.HashMap: int size>"},{"step":32,"from":"sdaReg92","to":"1093705416","type":"store","field":"<java.util.HashMap: int size>"},{"step":33,"from":"1093705416","to":"1093707952","type":"create","field":"<java.util.HashMap: java.util.HashMap$HashMapEntry[] table>"},{"step":34,"from":"sdaReg100","to":"1093705416","type":"store","field":"<java.util.HashMap: int threshold>"},{"step":35,"from":"1093705288","to":"1093707992","type":"store","field":"<java.util.HashMap$HashMapEntry: java.lang.Object key>"},{"step":36,"from":"1093707992","to":"1084917792","type":"create","field":"<java.util.HashMap$HashMapEntry: java.lang.Object value>"},{"step":37,"from":"sdaReg87","to":"1093707992","type":"store","field":"<java.util.HashMap$HashMapEntry: int hash>"},{"step":38,"from":"1093707952","to":"1093707992","type":"create","field":"arrayIdx_int:3"},{"step":39,"from":"1093447448","to":"sdaReg122","type":"model"},{"step":40,"from":"1093759688","to":"sdaReg126","type":"create","field":"<android.os.Bundle: java.util.Map mMap>"},{"step":41,"from":"1093759688","to":"sdaReg127","type":"create","field":"<android.os.Bundle: android.os.Parcel mParcelledData>"},{"step":42,"from":"1093759688","to":"sdaReg128","type":"create","field":"<android.os.Bundle: boolean mHasFds>"},{"step":43,"from":"1093759688","to":"sdaReg129","type":"create","field":"<android.os.Bundle: boolean mFdsKnown>"},{"step":44,"from":"1093759688","to":"sdaReg130","type":"create","field":"<android.os.Bundle: boolean mAllowFds>"},{"step":45,"from":"1093447448","to":"sdaReg133","type":"model"},{"step":46,"from":"1093447448","to":"sdaReg134","type":"model"},{"step":47,"from":"1093447448","to":"sdaReg135","type":"model"},{"step":48,"from":"sdaReg135","to":"1093447448","type":"model"},{"step":49,"from":"static.<android.os.Parcel: android.os.Parcel[] sOwnedPool>","to":"1084044960","type":"load","field":"<android.os.Parcel: android.os.Parcel[] sOwnedPool>"},{"step":50,"from":"1093563352","to":"sdaReg139","type":"model"},{"step":51,"from":"sdaReg139","to":"1093563352","type":"model"},{"step":52,"from":"1093563352","to":"1093447448","type":"model"},{"step":53,"from":"1093563352","to":"sdaReg134","type":"model"},{"step":54,"from":"1093563352","to":"sdaReg122","type":"model"},{"step":55,"from":"1093447448","to":"1093563352","type":"model"},{"step":56,"from":"1093447448","to":"sdaReg134","type":"model"},{"step":57,"from":"1093447448","to":"sdaReg122","type":"model"},{"step":58,"from":"sdaReg134","to":"1093563352","type":"model"},{"step":59,"from":"sdaReg134","to":"1093447448","type":"model"},{"step":60,"from":"sdaReg134","to":"sdaReg122","type":"model"},{"step":61,"from":"sdaReg122","to":"1093563352","type":"model"},{"step":62,"from":"sdaReg122","to":"1093447448","type":"model"},{"step":63,"from":"sdaReg122","to":"sdaReg134","type":"model"},{"step":64,"from":"1093759688","to":"1093563352","type":"create","field":"<android.os.Bundle: android.os.Parcel mParcelledData>"},{"step":65,"from":"1093563352","to":"sdaReg143","type":"model"},{"step":66,"from":"sdaReg143","to":"1093759688","type":"store","field":"<android.os.Bundle: boolean mHasFds>"},{"step":67,"from":"1093759688","to":"sdaReg144","type":"create","field":"<android.os.Bundle: boolean mFdsKnown>"},{"step":68,"from":"1093907280","to":"1093759688","type":"create","field":"arrayIdx_int:0"},{"step":69,"from":"1093447448","to":"sdaReg155","type":"model"},{"step":70,"from":"static.<android.os.Parcel: java.util.HashMap mCreators>","to":"1084045240","type":"load","field":"<android.os.Parcel: java.util.HashMap mCreators>"},{"step":71,"from":"static.<android.os.Parcel: java.util.HashMap mCreators>","to":"1084045240","type":"load","field":"<android.os.Parcel: java.util.HashMap mCreators>"},{"step":72,"from":"1093447448","to":"sdaReg184","type":"model"},{"step":73,"from":"1094074264","to":"sdaReg188","type":"create","field":"<android.os.Bundle: java.util.Map mMap>"},{"step":74,"from":"1094074264","to":"sdaReg189","type":"create","field":"<android.os.Bundle: android.os.Parcel mParcelledData>"},{"step":75,"from":"1094074264","to":"sdaReg190","type":"create","field":"<android.os.Bundle: boolean mHasFds>"},{"step":76,"from":"1094074264","to":"sdaReg191","type":"create","field":"<android.os.Bundle: boolean mFdsKnown>"},{"step":77,"from":"1094074264","to":"sdaReg192","type":"create","field":"<android.os.Bundle: boolean mAllowFds>"},{"step":78,"from":"1093447448","to":"sdaReg195","type":"model"},{"step":79,"from":"1093447448","to":"sdaReg196","type":"model"},{"step":80,"from":"1093447448","to":"sdaReg197","type":"model"},{"step":81,"from":"sdaReg197","to":"1093447448","type":"model"},{"step":82,"from":"static.<android.os.Parcel: android.os.Parcel[] sOwnedPool>","to":"1084044960","type":"load","field":"<android.os.Parcel: android.os.Parcel[] sOwnedPool>"},{"step":83,"from":"1094128248","to":"sdaReg201","type":"model"},{"step":84,"from":"sdaReg201","to":"1094128248","type":"model"},{"step":85,"from":"1094128248","to":"1093447448","type":"model"},{"step":86,"from":"1094128248","to":"sdaReg196","type":"model"},{"step":87,"from":"1094128248","to":"sdaReg184","type":"model"},{"step":88,"from":"1093447448","to":"1094128248","type":"model"},{"step":89,"from":"1093447448","to":"sdaReg196","type":"model"},{"step":90,"from":"1093447448","to":"sdaReg184","type":"model"},{"step":91,"from":"sdaReg196","to":"1094128248","type":"model"},{"step":92,"from":"sdaReg196","to":"1093447448","type":"model"},{"step":93,"from":"sdaReg196","to":"sdaReg184","type":"model"},{"step":94,"from":"sdaReg184","to":"1094128248","type":"model"},{"step":95,"from":"sdaReg184","to":"1093447448","type":"model"},{"step":96,"from":"sdaReg184","to":"sdaReg196","type":"model"},{"step":97,"from":"1094074264","to":"1094128248","type":"create","field":"<android.os.Bundle: android.os.Parcel mParcelledData>"},{"step":98,"from":"1094128248","to":"sdaReg205","type":"model"},{"step":99,"from":"sdaReg205","to":"1094074264","type":"store","field":"<android.os.Bundle: boolean mHasFds>"},{"step":100,"from":"1094074264","to":"sdaReg206","type":"create","field":"<android.os.Bundle: boolean mFdsKnown>"},{"step":101,"from":"1093907280","to":"1094074264","type":"create","field":"arrayIdx_int:1"},{"step":102,"from":"1093718328","to":"1093718328.<java.util.HashMap: int modCount>","type":"load","field":"<java.util.HashMap: int modCount>"},{"step":103,"from":"sdaReg232","to":"1093718328","type":"store","field":"<java.util.HashMap: int modCount>"},{"step":104,"from":"1093718328","to":"1093718328.<java.util.HashMap: int size>","type":"load","field":"<java.util.HashMap: int size>"},{"step":105,"from":"sdaReg233","to":"1093718328","type":"store","field":"<java.util.HashMap: int size>"},{"step":106,"from":"1093718328","to":"1094154360","type":"create","field":"<java.util.HashMap: java.util.HashMap$HashMapEntry[] table>"},{"step":107,"from":"sdaReg241","to":"1093718328","type":"store","field":"<java.util.HashMap: int threshold>"},{"step":108,"from":"1093939696","to":"1094154400","type":"store","field":"<java.util.HashMap$HashMapEntry: java.lang.Object key>"},{"step":109,"from":"1094154400","to":"1093907280","type":"create","field":"<java.util.HashMap$HashMapEntry: java.lang.Object value>"},{"step":110,"from":"sdaReg228","to":"1094154400","type":"store","field":"<java.util.HashMap$HashMapEntry: int hash>"},{"step":111,"from":"1094154360","to":"1094154400","type":"create","field":"arrayIdx_int:2"},{"step":112,"from":"1093732488","to":"1093447448","type":"load","field":"<android.os.Bundle: android.os.Parcel mParcelledData>"},{"step":113,"from":"1093447448","to":"1093447448.<android.os.Parcel: int mOwnObject>","type":"load","field":"<android.os.Parcel: int mOwnObject>"},{"step":114,"from":"static.<android.os.Parcel: android.os.Parcel[] sOwnedPool>","to":"1084044960","type":"load","field":"<android.os.Parcel: android.os.Parcel[] sOwnedPool>"},{"step":115,"from":"1093447448","to":"1084044960","type":"store","field":"arrayIdx_int:0"},{"step":116,"from":"1093732488","to":"sdaReg260","type":"create","field":"<android.os.Bundle: android.os.Parcel mParcelledData>"}],"parameters":[{"id":"1093732488","name":"this","klass":"android.os.Bundle"},{"id":"sdaReg0","name":"arg#1","klass":"string"}],"returns":[{"id":"1093907280","name":"return","klass":"android.os.Parcelable[]"}],"colors":{"heapLocToColor":{"sdaReg193":[32],"1084045240.<java.util.HashMap: int modCount>":[11],"sdaReg198":[25],"sdaReg195":[0, 33, 26],"sdaReg194":[0, 26],"sdaReg197":[34, 0, 26, 31],"sdaReg196":[0, 34, 35, 26],"sdaReg14":[0],"sdaReg11":[0],"sdaReg12":[3],"sdaReg10":[3],"sdaReg19":[0],"sdaReg17":[0, 6],"sdaReg16":[0, 5],"1084045240":[11],"1093718328":[3],"sdaReg170":[29],"sdaReg173":[29],"sdaReg175":[17, 16, 15],"sdaReg174":[30],"1093707992":[20],"sdaReg176":[17, 16, 15],"sdaReg179":[0, 26],"sdaReg178":[17, 16, 15],"1093705472":[13],"1093718328.<java.util.HashMap: int modCount>":[3],"static.<java.util.HashMap: java.util.Map$Entry[] EMPTY_TABLE>":[4],"1093447448":[0, 35, 26],"sdaReg182":[0, 26],"sdaReg181":[0, 26],"sdaReg180":[17, 16, 15],"sdaReg186":[0, 26],"sdaReg185":[32],"sdaReg184":[0, 35, 26, 31],"sdaReg183":[0, 26],"sdaReg187":[32],"1094128248":[35],"sdaReg60":[14],"sdaReg61":[14],"1093705416":[12],"sdaReg59":[14],"sdaReg58":[12],"sdaReg56":[11],"1083997920":[4],"sdaReg55":[11],"sdaReg54":[13],"sdaReg53":[13],"1084045240.<java.util.HashMap: int size>":[11],"sdaReg51":[12],"sdaReg50":[13],"sdaReg49":[12],"sdaReg48":[11],"sdaReg45":[12],"sdaReg47":[12],"sdaReg46":[11],"sdaReg40":[4],"sdaReg43":[11],"1093707800":[16, 15],"sdaReg42":[12],"sdaReg200":[35],"sdaReg201":[35],"1093732488":[0],"sdaReg205":[35, 36],"sdaReg39":[4],"sdaReg204":[35],"sdaReg38":[12],"sdaReg203":[35],"sdaReg37":[12],"sdaReg202":[35],"sdaReg209":[32],"sdaReg208":[32],"sdaReg207":[32],"1093707952":[19],"sdaReg30":[11],"sdaReg36":[12],"sdaReg35":[12],"sdaReg34":[12],"sdaReg8":[4],"sdaReg6":[3],"sdaReg7":[4],"sdaReg4":[3],"sdaReg5":[3],"sdaReg26":[0],"sdaReg29":[11],"sdaReg28":[0, 10],"1094154400":[39],"sdaReg3":[3],"sdaReg2":[0, 2],"sdaReg21":[0, 7],"sdaReg1":[0],"sdaReg0":[1],"sdaReg22":[0],"sdaReg24":[0, 8],"sdaReg125":[22],"1084044960":[25],"sdaReg228":[37],"sdaReg66":[14],"sdaReg67":[14],"sdaReg224":[37],"sdaReg64":[14],"sdaReg225":[37],"sdaReg65":[14],"sdaReg226":[37],"sdaReg62":[14],"sdaReg227":[37],"sdaReg63":[14],"sdaReg221":[37],"sdaReg72":[17, 16, 15],"sdaReg220":[37],"sdaReg223":[37],"sdaReg70":[14],"sdaReg222":[37],"1093759688":[22],"sdaReg120":[0],"sdaReg122":[0, 21, 26],"sdaReg121":[0],"sdaReg124":[0],"sdaReg123":[22],"1093705416.<java.util.HashMap: int size>":[12],"sdaReg116":[17, 16, 15],"sdaReg117":[0],"sdaReg114":[20],"1093718328.<java.util.HashMap: int size>":[3],"sdaReg118":[17, 16, 15],"sdaReg119":[0],"sdaReg77":[12],"sdaReg219":[9],"sdaReg78":[17, 16, 15],"sdaReg79":[18],"sdaReg217":[3],"sdaReg73":[15],"sdaReg215":[9],"sdaReg74":[15],"sdaReg216":[9],"sdaReg75":[16, 15],"sdaReg213":[32],"sdaReg76":[17, 16, 15],"sdaReg214":[32],"sdaReg81":[18],"sdaReg212":[32],"sdaReg80":[18],"sdaReg211":[32],"sdaReg83":[18],"sdaReg210":[32],"sdaReg82":[18],"1084917792":[17, 16, 15],"sdaReg113":[20],"sdaReg111":[17, 16, 15],"sdaReg108":[17, 16, 15],"sdaReg109":[20],"static.<android.os.Parcel: java.util.HashMap mCreators>":[11],"sdaReg103":[19],"sdaReg106":[12],"sdaReg86":[18],"sdaReg247":[3],"sdaReg87":[18],"sdaReg84":[18],"sdaReg249":[9],"sdaReg85":[18],"sdaReg90":[18],"sdaReg242":[38],"sdaReg93":[12],"sdaReg92":[12],"sdaReg244":[38],"sdaReg91":[12],"sdaReg101":[19],"1093447448.<android.os.Parcel: int mOwnObject>":[0, 35, 26],"sdaReg237":[3],"sdaReg96":[12],"sdaReg234":[3],"sdaReg233":[3],"1084342632":[15],"sdaReg232":[3],"sdaReg231":[37],"sdaReg269":[40],"sdaReg268":[40],"sdaReg169":[29],"1093705416.<java.util.HashMap: int modCount>":[12],"sdaReg161":[12],"sdaReg162":[29],"sdaReg163":[29],"sdaReg164":[29],"sdaReg165":[29],"sdaReg166":[29],"sdaReg167":[29],"sdaReg168":[29],"sdaReg264":[40],"1093563352":[26],"sdaReg265":[40],"sdaReg266":[40],"sdaReg267":[40],"sdaReg261":[3],"sdaReg262":[40],"sdaReg263":[40],"sdaReg160":[12],"1094074264":[32],"sdaReg258":[25],"sdaReg257":[25],"1094154360":[38],"sdaReg159":[12],"sdaReg152":[22],"sdaReg153":[0, 26],"sdaReg150":[22],"sdaReg151":[22],"sdaReg156":[11],"sdaReg157":[11],"sdaReg155":[0, 26, 28],"sdaReg255":[39],"sdaReg256":[0, 35, 26],"sdaReg254":[39],"sdaReg252":[9],"sdaReg250":[39],"static.<android.os.Parcel: android.os.Parcel[] sOwnedPool>":[25],"1093907280":[9],"1093732488.<android.os.Bundle: android.os.Parcel mParcelledData>":[0, 35, 26],"sdaReg148":[22],"sdaReg147":[22],"sdaReg149":[22],"sdaReg143":[27, 26],"sdaReg145":[22],"sdaReg146":[22],"sdaReg140":[26],"sdaReg141":[26],"sdaReg142":[26],"sdaReg139":[26],"sdaReg138":[26],"sdaReg136":[25],"sdaReg134":[0, 24, 26],"sdaReg135":[0, 21, 24],"sdaReg132":[0],"sdaReg133":[0, 23],"sdaReg270":[40],"sdaReg131":[22],"sdaReg273":[40],"sdaReg274":[41],"sdaReg277":[9],"sdaReg275":[9],"sdaReg276":[9]},"colorToColor":{"0":[34, 0, 35, 21, 25, 24, 26, 31, 15],"3":[0, 3],"4":[3, 12],"9":[39, 42],"10":[15],"11":[11],"12":[12, 13],"13":[11],"15":[20],"17":[20],"16":[20],"19":[12],"18":[20],"21":[0, 24, 26],"20":[19],"22":[9],"24":[0, 21, 26],"27":[22],"26":[34, 0, 35, 21, 22, 25, 24, 26, 31],"31":[34, 0, 35, 26],"34":[0, 35, 26, 31],"35":[34, 0, 35, 32, 25, 26, 31],"32":[9],"38":[3],"39":[38],"36":[32],"37":[39]},"colorToLabel":{"0":"this","1":"arg#1","4":"<java.util.HashMap: java.util.Map$Entry[] EMPTY_TABLE>","11":"<android.os.Parcel: java.util.HashMap mCreators>","25":"<android.os.Parcel: android.os.Parcel[] sOwnedPool>","42":"return"}}}

Generated Model
	this->return
	this-><android.os.Parcel: java.util.HashMap mCreators>
	this-><android.os.Parcel: android.os.Parcel[] sOwnedPool>

