Scanning method <java.io.InputStreamReader: void close()>

All seen event types: StoreArrayRecord, SimpleAssignmentRecord, ExitMonitorRecord, MethodReturnRecord, MethodCallRecord, EnterMonitorRecord, MethodStartRecord, LoadInstanceRecord, MethodEndRecord, IfRecord, StoreInstanceRecord, 
Ignored event types: ExitMonitorRecord, EnterMonitorRecord, IfRecord, 

JSON Encoded Analysis Data (for visualization):{"heapEdges":[{"step":0,"from":"1093256984","to":"1093611304","type":"load","field":"<java.io.Reader: java.lang.Object lock>"},{"step":1,"from":"1093256984","to":"1093286912","type":"load","field":"<java.io.InputStreamReader: java.nio.charset.CharsetDecoder decoder>"},{"step":2,"from":"1093256984","to":"1093286912","type":"load","field":"<java.io.InputStreamReader: java.nio.charset.CharsetDecoder decoder>"},{"step":3,"from":"1093286912","to":"sdaReg2","type":"create","field":"<java.nio.charset.CharsetDecoder: int status>"},{"step":4,"from":"1093286912","to":"1093286912.<java.nio.charset.CharsetDecoderICU: long converterHandle>","type":"load","field":"<java.nio.charset.CharsetDecoderICU: long converterHandle>"},{"step":5,"from":"1093286912","to":"1093287064","type":"load","field":"<java.nio.charset.CharsetDecoderICU: int[] data>"},{"step":6,"from":"1093287064","to":"sdaReg4","type":"create","field":"arrayIdx_int:0"},{"step":7,"from":"1093286912","to":"1093287064","type":"load","field":"<java.nio.charset.CharsetDecoderICU: int[] data>"},{"step":8,"from":"1093287064","to":"sdaReg5","type":"create","field":"arrayIdx_int:1"},{"step":9,"from":"1093286912","to":"1093287064","type":"load","field":"<java.nio.charset.CharsetDecoderICU: int[] data>"},{"step":10,"from":"1093287064","to":"sdaReg6","type":"create","field":"arrayIdx_int:2"},{"step":11,"from":"1093286912","to":"sdaReg7","type":"create","field":"<java.nio.charset.CharsetDecoderICU: char[] output>"},{"step":12,"from":"1093286912","to":"sdaReg8","type":"create","field":"<java.nio.charset.CharsetDecoderICU: byte[] input>"},{"step":13,"from":"1093286912","to":"sdaReg9","type":"create","field":"<java.nio.charset.CharsetDecoderICU: byte[] allocatedInput>"},{"step":14,"from":"1093286912","to":"sdaReg10","type":"create","field":"<java.nio.charset.CharsetDecoderICU: char[] allocatedOutput>"},{"step":15,"from":"1093286912","to":"sdaReg11","type":"create","field":"<java.nio.charset.CharsetDecoderICU: int ec>"},{"step":16,"from":"1093286912","to":"sdaReg12","type":"create","field":"<java.nio.charset.CharsetDecoderICU: int inEnd>"},{"step":17,"from":"1093286912","to":"sdaReg13","type":"create","field":"<java.nio.charset.CharsetDecoderICU: int outEnd>"},{"step":18,"from":"1093256984","to":"sdaReg14","type":"create","field":"<java.io.InputStreamReader: java.nio.charset.CharsetDecoder decoder>"},{"step":19,"from":"1093256984","to":"1093611304","type":"load","field":"<java.io.InputStreamReader: java.io.InputStream in>"},{"step":20,"from":"1093256984","to":"1093611304","type":"load","field":"<java.io.InputStreamReader: java.io.InputStream in>"},{"step":21,"from":"1093256984","to":"sdaReg16","type":"create","field":"<java.io.InputStreamReader: java.io.InputStream in>"}],"parameters":[{"id":"1093256984","name":"this","klass":"java.io.InputStreamReader"}],"returns":[{"id":null,"name":"return","klass":null}],"colors":{"heapLocToColor":{"1093286912":[0],"1093611304":[0],"1093286912.<java.nio.charset.CharsetDecoderICU: int[] data>":[0],"1093256984.<java.io.InputStreamReader: java.nio.charset.CharsetDecoder decoder>":[0],"1093256984.<java.io.InputStreamReader: java.io.InputStream in>":[0],"sdaReg3":[0],"1093287064":[0],"sdaReg1":[0],"1093286912.<java.nio.charset.CharsetDecoderICU: long converterHandle>":[0],"sdaReg15":[0],"1093256984":[0]},"colorToColor":{},"colorToLabel":{"0":"this","1":"return"}}}

Generated Model

