Scanning method <java.io.StringReader: void mark(int)>

All seen event types: SimpleAssignmentRecord, ExitMonitorRecord, MethodReturnRecord, MethodCallRecord, EnterMonitorRecord, MethodStartRecord, LoadInstanceRecord, MethodEndRecord, IfRecord, StoreInstanceRecord, 
Ignored event types: ExitMonitorRecord, EnterMonitorRecord, IfRecord, 

JSON Encoded Analysis Data (for visualization):{"heapEdges":[{"step":0,"from":"1093738008","to":"1093738008","type":"load","field":"<java.io.Reader: java.lang.Object lock>"},{"step":1,"from":"1093738008","to":"1093738008.<java.io.StringReader: java.lang.String str>","type":"load","field":"<java.io.StringReader: java.lang.String str>"},{"step":2,"from":"1093738008","to":"1093738008.<java.io.StringReader: int pos>","type":"load","field":"<java.io.StringReader: int pos>"},{"step":3,"from":"1093738008.<java.io.StringReader: int pos>","to":"1093738008","type":"store","field":"<java.io.StringReader: int markpos>"}],"parameters":[{"id":"1093738008","name":"this","klass":"java.io.StringReader"},{"id":"sdaReg0","name":"arg#1","klass":"int"}],"returns":[{"id":null,"name":"return","klass":null}],"colors":{"heapLocToColor":{"1093738008":[0],"1093738008.<java.io.Reader: java.lang.Object lock>":[0],"sdaReg3":[0],"sdaReg2":[0],"1093738008.<java.io.StringReader: int pos>":[0],"sdaReg1":[0],"sdaReg0":[1],"1093738008.<java.io.StringReader: java.lang.String str>":[0]},"colorToColor":{"0":[0]},"colorToLabel":{"0":"this","1":"arg#1","2":"return"}}}

Generated Model

