Scanning method <java.io.ObjectInputStream: void readHierarchy(java.lang.Object,java.io.ObjectStreamClass)>

All seen event types: StoreArrayRecord, SimpleAssignmentRecord, LoadInstanceRecord, MethodStartRecord, IfRecord, InstanceOfRecord, NewObjectRecord, StoreInstanceRecord, NewArrayRecord, LoadStaticRecord, BinaryOperationRecord, SwitchRecord, MethodCallRecord, MethodReturnRecord, ArrayLengthRecord, CastRecord, LoadArrayRecord, MethodEndRecord, 
Ignored event types: SwitchRecord, IfRecord, 

JSON Encoded Analysis Data (for visualization):{"heapEdges":[{"step":0,"from":"1093823240","to":"1093602136","type":"model"},{"step":1,"from":"1093381560","to":"1093340888","type":"load","field":"<java.io.ObjectInputStream: java.util.HashMap cachedSuperclasses>"},{"step":2,"from":"1093377416","to":"1093458440","type":"model"},{"step":3,"from":"1093340888","to":"1093458440","type":"model"},{"step":4,"from":"1093340888","to":"0","type":"model"},{"step":5,"from":"1093458440","to":"1093340888","type":"model"},{"step":6,"from":"1093458440","to":"0","type":"model"},{"step":7,"from":"1093377416","to":"1093458440","type":"model"},{"step":8,"from":"static.<libcore.util.EmptyArray: java.lang.Object[] OBJECT>","to":"1083994088","type":"load","field":"<libcore.util.EmptyArray: java.lang.Object[] OBJECT>"},{"step":9,"from":"1083994088","to":"1094821288","type":"store","field":"<java.util.ArrayList: java.lang.Object[] array>"},{"step":10,"from":"1093458440","to":"1093398240","type":"model"},{"step":11,"from":"1094821288","to":"1093458440","type":"model"},{"step":12,"from":"1093458440","to":"1094821288","type":"model"},{"step":13,"from":"1093398240","to":"1093399144","type":"model"},{"step":14,"from":"1094821288","to":"1093398240","type":"model"},{"step":15,"from":"1093398240","to":"1094821288","type":"model"},{"step":16,"from":"1093399144","to":"1083910288","type":"model"},{"step":17,"from":"1094821288","to":"1093399144","type":"model"},{"step":18,"from":"1093399144","to":"1094821288","type":"model"},{"step":19,"from":"1083910288","to":"0","type":"model"},{"step":20,"from":"1093381560","to":"1093340888","type":"load","field":"<java.io.ObjectInputStream: java.util.HashMap cachedSuperclasses>"},{"step":21,"from":"1093340888","to":"1093458440","type":"model"},{"step":22,"from":"1093340888","to":"1094821288","type":"model"},{"step":23,"from":"1093458440","to":"1093340888","type":"model"},{"step":24,"from":"1093458440","to":"1094821288","type":"model"},{"step":25,"from":"1094821288","to":"1093340888","type":"model"},{"step":26,"from":"1094821288","to":"1093458440","type":"model"},{"step":27,"from":"1094821288","to":"1094821288.<java.util.ArrayList: int size>","type":"load","field":"<java.util.ArrayList: int size>"},{"step":28,"from":"1094821288","to":"1094821288.<java.util.ArrayList: int size>","type":"load","field":"<java.util.ArrayList: int size>"},{"step":29,"from":"1094833112","to":"1093399144","type":"load","field":"arrayIdx_int:0"},{"step":30,"from":"1093602136","to":"1093602136.<java.util.ArrayList: int size>","type":"load","field":"<java.util.ArrayList: int size>"},{"step":31,"from":"1093602136","to":"1093602136.<java.util.ArrayList: int size>","type":"load","field":"<java.util.ArrayList: int size>"},{"step":32,"from":"1093602136","to":"1093666032","type":"load","field":"<java.util.ArrayList: java.lang.Object[] array>"},{"step":33,"from":"1093666032","to":"1093299576","type":"load","field":"arrayIdx_int:0"},{"step":34,"from":"1093299576","to":"1093399144","type":"model"},{"step":35,"from":"1093399144","to":"sdaReg36","type":"model"},{"step":36,"from":"1093299576","to":"sdaReg37","type":"model"},{"step":37,"from":"1093399144","to":"sdaReg39","type":"model"},{"step":38,"from":"1093299576","to":"sdaReg40","type":"model"},{"step":39,"from":"1093602136","to":"1093602136.<java.util.ArrayList: int size>","type":"load","field":"<java.util.ArrayList: int size>"},{"step":40,"from":"1093602136","to":"1093666032","type":"load","field":"<java.util.ArrayList: java.lang.Object[] array>"},{"step":41,"from":"1093666032","to":"1093299576","type":"load","field":"arrayIdx_int:0"},{"step":42,"from":"1093377416","to":"1093381560","type":"store","field":"<java.io.ObjectInputStream: java.lang.Object currentObject>"},{"step":43,"from":"1093299576","to":"1093381560","type":"store","field":"<java.io.ObjectInputStream: java.io.ObjectStreamClass currentClass>"},{"step":44,"from":"1093299576","to":"sdaReg49","type":"model"},{"step":45,"from":"1093299576","to":"1093399144","type":"model"},{"step":46,"from":"1093381560","to":"1093381560.<java.io.ObjectInputStream: boolean mustResolve>","type":"load","field":"<java.io.ObjectInputStream: boolean mustResolve>"},{"step":47,"from":"1093299576","to":"0","type":"model"},{"step":48,"from":"1093299576","to":"1094464912","type":"model"},{"step":49,"from":"1093299576","to":"1093399144","type":"model"},{"step":50,"from":"1094464912","to":"1093668624","type":"load","field":"arrayIdx_int:0"},{"step":51,"from":"1093299576","to":"1093668624","type":"model"},{"step":52,"from":"1093299576","to":"1094526808","type":"model"},{"step":53,"from":"1093668624","to":"1093299576","type":"model"},{"step":54,"from":"1093668624","to":"1094526808","type":"model"},{"step":55,"from":"1093668624","to":"1093534896","type":"load","field":"<java.io.ObjectStreamField: java.lang.Object type>"},{"step":56,"from":"1093668624","to":"1093534896","type":"load","field":"<java.io.ObjectStreamField: java.lang.Object type>"},{"step":57,"from":"1093534896","to":"1083912376","type":"model"},{"step":58,"from":"static.<java.lang.Byte: java.lang.Class TYPE>","to":"1083909112","type":"load","field":"<java.lang.Byte: java.lang.Class TYPE>"},{"step":59,"from":"static.<java.lang.Character: java.lang.Class TYPE>","to":"1083909448","type":"load","field":"<java.lang.Character: java.lang.Class TYPE>"},{"step":60,"from":"static.<java.lang.Double: java.lang.Class TYPE>","to":"1083910120","type":"load","field":"<java.lang.Double: java.lang.Class TYPE>"},{"step":61,"from":"static.<java.lang.Float: java.lang.Class TYPE>","to":"1083909952","type":"load","field":"<java.lang.Float: java.lang.Class TYPE>"},{"step":62,"from":"static.<java.lang.Integer: java.lang.Class TYPE>","to":"1083909616","type":"load","field":"<java.lang.Integer: java.lang.Class TYPE>"},{"step":63,"from":"static.<java.lang.Long: java.lang.Class TYPE>","to":"1083909784","type":"load","field":"<java.lang.Long: java.lang.Class TYPE>"},{"step":64,"from":"static.<java.lang.Short: java.lang.Class TYPE>","to":"1083909280","type":"load","field":"<java.lang.Short: java.lang.Class TYPE>"},{"step":65,"from":"static.<java.lang.Boolean: java.lang.Class TYPE>","to":"1083908944","type":"load","field":"<java.lang.Boolean: java.lang.Class TYPE>"},{"step":66,"from":"1093668624","to":"1093668624.<java.io.ObjectStreamField: boolean unshared>","type":"load","field":"<java.io.ObjectStreamField: boolean unshared>"},{"step":67,"from":"1093381560","to":"1093381896","type":"load","field":"<java.io.ObjectInputStream: java.io.InputStream primitiveData>"},{"step":68,"from":"1093381560","to":"1093340944","type":"load","field":"<java.io.ObjectInputStream: java.io.DataInputStream input>"},{"step":69,"from":"1093381560","to":"1093381560.<java.io.ObjectInputStream: boolean subclassOverridingImplementation>","type":"load","field":"<java.io.ObjectInputStream: boolean subclassOverridingImplementation>"},{"step":70,"from":"1093381560","to":"1093381560.<java.io.ObjectInputStream: int nestedLevels>","type":"load","field":"<java.io.ObjectInputStream: int nestedLevels>"},{"step":71,"from":"sdaReg79","to":"1093381560","type":"store","field":"<java.io.ObjectInputStream: int nestedLevels>"},{"step":72,"from":"1093381560","to":"1093381896","type":"load","field":"<java.io.ObjectInputStream: java.io.InputStream primitiveData>"},{"step":73,"from":"1093381560","to":"1093340944","type":"load","field":"<java.io.ObjectInputStream: java.io.DataInputStream input>"},{"step":74,"from":"1093381560","to":"1093381896","type":"load","field":"<java.io.ObjectInputStream: java.io.InputStream primitiveData>"},{"step":75,"from":"1093381896","to":"1093381896.<java.io.ByteArrayInputStream: int count>","type":"load","field":"<java.io.ByteArrayInputStream: int count>"},{"step":76,"from":"1093381896","to":"1093381896.<java.io.ByteArrayInputStream: int pos>","type":"load","field":"<java.io.ByteArrayInputStream: int pos>"},{"step":77,"from":"1093381560","to":"1093381560.<java.io.ObjectInputStream: boolean hasPushbackTC>","type":"load","field":"<java.io.ObjectInputStream: boolean hasPushbackTC>"},{"step":78,"from":"1093381560","to":"1093340944","type":"load","field":"<java.io.ObjectInputStream: java.io.DataInputStream input>"},{"step":79,"from":"1093340944","to":"1093381648","type":"load","field":"<java.io.FilterInputStream: java.io.InputStream in>"},{"step":80,"from":"1093381648","to":"1093381648.<java.io.ByteArrayInputStream: int pos>","type":"load","field":"<java.io.ByteArrayInputStream: int pos>"},{"step":81,"from":"1093381648","to":"1093381648.<java.io.ByteArrayInputStream: int count>","type":"load","field":"<java.io.ByteArrayInputStream: int count>"},{"step":82,"from":"1093381648","to":"1093381680","type":"load","field":"<java.io.ByteArrayInputStream: byte[] buf>"},{"step":83,"from":"1093381648","to":"1093381648.<java.io.ByteArrayInputStream: int pos>","type":"load","field":"<java.io.ByteArrayInputStream: int pos>"},{"step":84,"from":"sdaReg87","to":"1093381648","type":"store","field":"<java.io.ByteArrayInputStream: int pos>"},{"step":85,"from":"1093381680","to":"1093381680.arrayIdx_int:184","type":"load","field":"arrayIdx_int:184"},{"step":86,"from":"sdaReg89","to":"1093381560","type":"store","field":"<java.io.ObjectInputStream: byte pushbackTC>"},{"step":87,"from":"1093381560","to":"sdaReg91","type":"create","field":"<java.io.ObjectInputStream: boolean hasPushbackTC>"},{"step":88,"from":"1093381560","to":"1093381896","type":"load","field":"<java.io.ObjectInputStream: java.io.InputStream primitiveData>"},{"step":89,"from":"1093381896","to":"1093381896.<java.io.ByteArrayInputStream: int count>","type":"load","field":"<java.io.ByteArrayInputStream: int count>"},{"step":90,"from":"1093381896","to":"1093381896.<java.io.ByteArrayInputStream: int pos>","type":"load","field":"<java.io.ByteArrayInputStream: int pos>"},{"step":91,"from":"1093381560","to":"sdaReg95","type":"create","field":"<java.io.ObjectInputStream: boolean hasPushbackTC>"},{"step":92,"from":"1093381560","to":"1093340944","type":"load","field":"<java.io.ObjectInputStream: java.io.DataInputStream input>"},{"step":93,"from":"1093340944","to":"1093381648","type":"load","field":"<java.io.FilterInputStream: java.io.InputStream in>"},{"step":94,"from":"1093340944","to":"1093340968","type":"load","field":"<java.io.DataInputStream: byte[] scratch>"},{"step":95,"from":"1093381648","to":"1093340968","type":"model"},{"step":96,"from":"1093340944","to":"1093340968","type":"load","field":"<java.io.DataInputStream: byte[] scratch>"},{"step":97,"from":"static.<java.nio.ByteOrder: java.nio.ByteOrder BIG_ENDIAN>","to":"1084339448","type":"load","field":"<java.nio.ByteOrder: java.nio.ByteOrder BIG_ENDIAN>"},{"step":98,"from":"1093340968","to":"sdaReg101","type":"model"},{"step":99,"from":"1093340944","to":"1093381648","type":"load","field":"<java.io.FilterInputStream: java.io.InputStream in>"},{"step":100,"from":"1093381648","to":"1093454080","type":"model"},{"step":101,"from":"1093454080","to":"1093454080.arrayIdx_int:0","type":"load","field":"arrayIdx_int:0"},{"step":102,"from":"sdaReg115","to":"1094855728","type":"store","field":"arrayIdx_int:0"},{"step":103,"from":"1093454080","to":"1093454080.arrayIdx_int:1","type":"load","field":"arrayIdx_int:1"},{"step":104,"from":"sdaReg115","to":"1094855728","type":"store","field":"arrayIdx_int:1"},{"step":105,"from":"1093454080","to":"1093454080.arrayIdx_int:2","type":"load","field":"arrayIdx_int:2"},{"step":106,"from":"sdaReg115","to":"1094855728","type":"store","field":"arrayIdx_int:2"},{"step":107,"from":"1093454080","to":"1093454080.arrayIdx_int:3","type":"load","field":"arrayIdx_int:3"},{"step":108,"from":"sdaReg115","to":"1094855728","type":"store","field":"arrayIdx_int:3"},{"step":109,"from":"1094855728","to":"sdaReg116","type":"model"},{"step":110,"from":"1093381560","to":"1093381560.<java.io.ObjectInputStream: boolean enableResolve>","type":"load","field":"<java.io.ObjectInputStream: boolean enableResolve>"},{"step":111,"from":"1093381560","to":"1093381560.<java.io.ObjectInputStream: int nextHandle>","type":"load","field":"<java.io.ObjectInputStream: int nextHandle>"},{"step":112,"from":"sdaReg119","to":"1093381560","type":"store","field":"<java.io.ObjectInputStream: int nextHandle>"},{"step":113,"from":"1093381560","to":"1093341056","type":"load","field":"<java.io.ObjectInputStream: java.util.ArrayList objectsRead>"},{"step":114,"from":"1093341056","to":"1093341056.<java.util.ArrayList: int size>","type":"load","field":"<java.util.ArrayList: int size>"},{"step":115,"from":"1093381560","to":"1093341056","type":"load","field":"<java.io.ObjectInputStream: java.util.ArrayList objectsRead>"},{"step":116,"from":"1093341056","to":"1093346672","type":"load","field":"<java.util.ArrayList: java.lang.Object[] array>"},{"step":117,"from":"1093341056","to":"1093341056.<java.util.ArrayList: int size>","type":"load","field":"<java.util.ArrayList: int size>"},{"step":118,"from":"1094877728","to":"1093346672","type":"store","field":"arrayIdx_int:4"},{"step":119,"from":"sdaReg127","to":"1093341056","type":"store","field":"<java.util.ArrayList: int size>"},{"step":120,"from":"1093341056","to":"1093341056.<java.util.AbstractList: int modCount>","type":"load","field":"<java.util.AbstractList: int modCount>"},{"step":121,"from":"sdaReg128","to":"1093341056","type":"store","field":"<java.util.AbstractList: int modCount>"},{"step":122,"from":"sdaReg132","to":"1093381560","type":"store","field":"<java.io.ObjectInputStream: int nestedLevels>"},{"step":123,"from":"1093668624","to":"1093668624.<java.io.ObjectStreamField: java.lang.String name>","type":"load","field":"<java.io.ObjectStreamField: java.lang.String name>"},{"step":124,"from":"1093299576","to":"1093668624.<java.io.ObjectStreamField: java.lang.String name>","type":"model"},{"step":125,"from":"1093299576","to":"1093668624","type":"model"},{"step":126,"from":"1093668624.<java.io.ObjectStreamField: java.lang.String name>","to":"1093299576","type":"model"},{"step":127,"from":"1093668624.<java.io.ObjectStreamField: java.lang.String name>","to":"1093668624","type":"model"},{"step":128,"from":"1093668624","to":"1093534896","type":"load","field":"<java.io.ObjectStreamField: java.lang.Object type>"},{"step":129,"from":"1093668624","to":"1093534896","type":"load","field":"<java.io.ObjectStreamField: java.lang.Object type>"},{"step":130,"from":"1093534896","to":"1083912376","type":"model"},{"step":131,"from":"1094877728","to":"1083912376","type":"model"},{"step":132,"from":"1083912376","to":"sdaReg145","type":"model"},{"step":133,"from":"1083912376","to":"sdaReg145","type":"model"},{"step":134,"from":"1094526808","to":"1093377416","type":"model"},{"step":135,"from":"1094526808","to":"1094877728","type":"model"},{"step":136,"from":"1093377416","to":"1094526808","type":"model"},{"step":137,"from":"1093377416","to":"1094877728","type":"model"},{"step":138,"from":"1094877728","to":"1094526808","type":"model"},{"step":139,"from":"1094877728","to":"1093377416","type":"model"},{"step":140,"from":"1093381560","to":"sdaReg146","type":"create","field":"<java.io.ObjectInputStream: java.lang.Object currentObject>"},{"step":141,"from":"1093381560","to":"sdaReg147","type":"create","field":"<java.io.ObjectInputStream: java.io.ObjectStreamClass currentClass>"},{"step":142,"from":"1094821288","to":"1094821288.<java.util.ArrayList: int size>","type":"load","field":"<java.util.ArrayList: int size>"},{"step":143,"from":"1094833112","to":"1093398240","type":"load","field":"arrayIdx_int:1"},{"step":144,"from":"1093602136","to":"1093602136.<java.util.ArrayList: int size>","type":"load","field":"<java.util.ArrayList: int size>"},{"step":145,"from":"1093602136","to":"1093602136.<java.util.ArrayList: int size>","type":"load","field":"<java.util.ArrayList: int size>"},{"step":146,"from":"1093602136","to":"1093666032","type":"load","field":"<java.util.ArrayList: java.lang.Object[] array>"},{"step":147,"from":"1093666032","to":"1093823240","type":"load","field":"arrayIdx_int:1"},{"step":148,"from":"1093823240","to":"1093458440","type":"model"},{"step":149,"from":"1093458440","to":"sdaReg159","type":"model"},{"step":150,"from":"1093823240","to":"sdaReg160","type":"model"},{"step":151,"from":"1093398240","to":"sdaReg162","type":"model"},{"step":152,"from":"1093823240","to":"sdaReg163","type":"model"},{"step":153,"from":"1093398240","to":"1093607656","type":"model"},{"step":154,"from":"1093607656","to":"sdaReg171","type":"model"},{"step":155,"from":"1093607656","to":"sdaReg172","type":"model"},{"step":156,"from":"1094821288","to":"1094821288.<java.util.ArrayList: int size>","type":"load","field":"<java.util.ArrayList: int size>"},{"step":157,"from":"1094833112","to":"1093458440","type":"load","field":"arrayIdx_int:2"},{"step":158,"from":"1093602136","to":"1093602136.<java.util.ArrayList: int size>","type":"load","field":"<java.util.ArrayList: int size>"},{"step":159,"from":"1093602136","to":"1093602136.<java.util.ArrayList: int size>","type":"load","field":"<java.util.ArrayList: int size>"},{"step":160,"from":"1093602136","to":"1093666032","type":"load","field":"<java.util.ArrayList: java.lang.Object[] array>"},{"step":161,"from":"1093666032","to":"1093823240","type":"load","field":"arrayIdx_int:1"},{"step":162,"from":"1093823240","to":"1093458440","type":"model"},{"step":163,"from":"1093458440","to":"sdaReg184","type":"model"},{"step":164,"from":"1093823240","to":"sdaReg185","type":"model"},{"step":165,"from":"1093458440","to":"sdaReg187","type":"model"},{"step":166,"from":"1093823240","to":"sdaReg188","type":"model"},{"step":167,"from":"1093602136","to":"1093602136.<java.util.ArrayList: int size>","type":"load","field":"<java.util.ArrayList: int size>"},{"step":168,"from":"1093602136","to":"1093666032","type":"load","field":"<java.util.ArrayList: java.lang.Object[] array>"},{"step":169,"from":"1093666032","to":"1093823240","type":"load","field":"arrayIdx_int:1"},{"step":170,"from":"1093377416","to":"1093381560","type":"store","field":"<java.io.ObjectInputStream: java.lang.Object currentObject>"},{"step":171,"from":"1093823240","to":"1093381560","type":"store","field":"<java.io.ObjectInputStream: java.io.ObjectStreamClass currentClass>"},{"step":172,"from":"1093823240","to":"sdaReg195","type":"model"},{"step":173,"from":"1093823240","to":"1093458440","type":"model"},{"step":174,"from":"1093381560","to":"1093381560.<java.io.ObjectInputStream: boolean mustResolve>","type":"load","field":"<java.io.ObjectInputStream: boolean mustResolve>"},{"step":175,"from":"1093823240","to":"0","type":"model"},{"step":176,"from":"1093823240","to":"1093346744","type":"model"},{"step":177,"from":"1093823240","to":"1093458440","type":"model"},{"step":178,"from":"1093381560","to":"sdaReg212","type":"create","field":"<java.io.ObjectInputStream: java.lang.Object currentObject>"},{"step":179,"from":"1093381560","to":"sdaReg213","type":"create","field":"<java.io.ObjectInputStream: java.io.ObjectStreamClass currentClass>"}],"parameters":[{"id":"1093381560","name":"this","klass":"java.io.ObjectInputStream"},{"id":"1093377416","name":"arg#1","klass":"java.lang.Object"},{"id":"1093823240","name":"arg#2","klass":"java.io.ObjectStreamClass"}],"returns":[{"id":null,"name":"return","klass":null}],"colors":{"heapLocToColor":{"sdaReg191":[2, 3],"sdaReg190":[2, 3],"sdaReg193":[1, 2, 3, 20],"sdaReg192":[0],"sdaReg199":[0, 1, 2, 3, 4, 6, 11],"1093381560.<java.io.ObjectInputStream: int nextHandle>":[0],"1093399144":[0, 1, 2, 3, 4, 6, 8, 9, 11],"sdaReg195":[51, 2, 3],"sdaReg194":[2, 3],"1094821288":[0, 6],"sdaReg196":[51, 2, 3],"sdaReg13":[6],"sdaReg14":[6],"sdaReg11":[6],"sdaReg12":[6],"sdaReg10":[6],"1093381560.<java.io.ObjectInputStream: java.util.HashMap cachedSuperclasses>":[0],"1094877728":[2, 3, 20],"1093668624.<java.io.ObjectStreamField: java.lang.String name>":[2, 19, 3],"sdaReg19":[0, 1, 4, 5, 8, 9, 10],"sdaReg17":[0, 1, 4, 8, 9],"sdaReg18":[0, 1, 4, 8, 9, 10],"sdaReg15":[0, 1, 4, 5, 8, 9, 10],"sdaReg16":[0, 1, 4, 8],"1083909280":[28],"static.<java.lang.Boolean: java.lang.Class TYPE>":[29],"0":[0, 1, 2, 3, 4, 5, 8, 9, 10],"1093381560.<java.io.ObjectInputStream: java.io.DataInputStream input>":[0],"1093381560.<java.io.ObjectInputStream: java.io.InputStream primitiveData>":[0],"static.<java.lang.Character: java.lang.Class TYPE>":[23],"sdaReg171":[42, 43],"sdaReg170":[42],"sdaReg173":[0, 6],"sdaReg172":[42, 44],"sdaReg175":[0],"sdaReg174":[0, 1, 2, 3, 4, 6, 11],"sdaReg177":[2, 3],"sdaReg176":[0, 1, 2, 3, 4, 6, 11],"1093341056.<java.util.AbstractList: int modCount>":[0],"sdaReg179":[2, 3],"1094855728":[33],"1093381560.<java.io.ObjectInputStream: java.util.ArrayList objectsRead>":[0],"1093340888":[0],"sdaReg182":[2, 3],"sdaReg181":[2, 3],"sdaReg180":[2, 3],"sdaReg186":[47],"sdaReg185":[2, 3, 46],"sdaReg184":[0, 1, 2, 3, 4, 6, 11, 45],"sdaReg183":[0, 1, 2, 3, 4, 6, 11],"sdaReg189":[50],"sdaReg188":[2, 49, 3],"sdaReg187":[0, 1, 2, 3, 48, 4, 6, 11],"1093666032.arrayIdx_int:0":[2, 3],"1093381680.arrayIdx_int:184":[0],"1093666032.arrayIdx_int:1":[2, 3],"sdaReg60":[2, 19, 3],"1093381648.<java.io.ByteArrayInputStream: int count>":[0],"sdaReg61":[19, 2, 3],"static.<libcore.util.EmptyArray: java.lang.Object[] OBJECT>":[7],"static.<java.lang.Float: java.lang.Class TYPE>":[25],"1083909784":[27],"sdaReg59":[19, 2, 3],"sdaReg58":[2, 3],"1093381648.<java.io.ByteArrayInputStream: int pos>":[0],"sdaReg57":[1],"sdaReg56":[0],"1093398240":[0, 1, 4, 6, 8, 11],"sdaReg55":[0],"sdaReg54":[0, 1, 2, 3, 4, 5, 8, 9, 10],"sdaReg53":[0, 1, 2, 3, 4, 6, 8, 9, 11],"1093340968":[0],"static.<java.lang.Double: java.lang.Class TYPE>":[24],"sdaReg50":[2, 18, 3],"sdaReg49":[2, 3, 18],"sdaReg48":[2, 3],"sdaReg45":[2, 3],"sdaReg44":[2, 3],"sdaReg47":[1],"1083910120":[24],"sdaReg46":[0],"1093602136.<java.util.ArrayList: java.lang.Object[] array>":[2, 3],"sdaReg41":[17],"sdaReg40":[16, 2, 3],"1093381560.<java.io.ObjectInputStream: boolean hasPushbackTC>":[0],"sdaReg43":[2, 3],"1093381560.<java.io.ObjectInputStream: int nestedLevels>":[0],"static.<java.lang.Long: java.lang.Class TYPE>":[27],"sdaReg200":[0, 1, 2, 3, 4, 5, 8, 9, 10],"sdaReg201":[0],"sdaReg205":[2, 3, 52],"sdaReg204":[2, 3],"sdaReg39":[0, 1, 2, 3, 4, 6, 8, 9, 11, 15],"sdaReg203":[1, 2, 3, 20],"sdaReg38":[14],"sdaReg202":[0],"sdaReg37":[2, 3, 13],"sdaReg209":[2, 3, 52],"sdaReg208":[0, 1, 2, 3, 4, 6, 11],"sdaReg207":[2, 3, 52],"sdaReg206":[2, 3, 52],"1093607656":[42],"sdaReg32":[2, 3],"sdaReg31":[2, 3],"sdaReg36":[0, 1, 2, 3, 4, 6, 8, 9, 11, 12],"sdaReg35":[0, 1, 2, 3, 4, 6, 8, 9, 11],"sdaReg34":[2, 3],"sdaReg33":[2, 3],"1093454080":[32],"sdaReg8":[6],"sdaReg9":[6],"sdaReg6":[0, 1, 4],"sdaReg7":[6],"1093458440":[0, 1, 2, 3, 4, 6, 11],"sdaReg4":[0, 1, 4],"sdaReg5":[0],"1094464912":[2, 19, 3],"static.<java.lang.Short: java.lang.Class TYPE>":[28],"sdaReg27":[0],"sdaReg26":[0, 1, 2, 3, 4, 6, 8, 9, 11],"sdaReg29":[2, 3],"sdaReg28":[0, 1, 4, 6, 8, 9, 11],"sdaReg3":[0, 5],"sdaReg2":[0, 5],"sdaReg1":[1, 4],"1094821288.<java.util.ArrayList: int size>":[0, 6],"1083912376":[19, 2, 3, 21],"sdaReg0":[2, 3],"sdaReg20":[0, 6],"sdaReg23":[0, 6],"sdaReg25":[0, 1, 4, 6, 8, 9, 11],"sdaReg24":[0, 6],"sdaReg127":[0],"1093381648":[0],"sdaReg128":[0],"1093823240":[2, 3],"sdaReg69":[2, 19, 3],"sdaReg66":[2, 3, 20],"sdaReg67":[2, 19, 3],"1093341056":[0],"sdaReg62":[0, 1, 2, 3, 4, 6, 8, 9, 11],"1093668624.<java.io.ObjectStreamField: boolean unshared>":[2, 19, 3],"sdaReg63":[2, 19, 3],"sdaReg72":[2, 19, 3, 21],"1093454080.arrayIdx_int:0":[32],"sdaReg71":[19, 2, 3, 21],"1093454080.arrayIdx_int:1":[32],"sdaReg70":[2, 19, 3, 21],"1093340944.<java.io.FilterInputStream: java.io.InputStream in>":[0],"1093454080.arrayIdx_int:2":[32],"1093454080.arrayIdx_int:3":[32],"sdaReg120":[0],"sdaReg122":[0],"sdaReg124":[0],"sdaReg123":[0],"sdaReg116":[34],"sdaReg115":[32],"sdaReg118":[0],"sdaReg119":[0],"sdaReg79":[0],"1094833112.arrayIdx_int:0":[0, 1, 4, 6, 8, 9],"sdaReg73":[2, 19, 3],"1094833112.arrayIdx_int:1":[0, 1, 4, 6, 8],"1093602136":[2, 3],"sdaReg74":[0],"1094833112.arrayIdx_int:2":[0, 1, 2, 3, 4, 6],"sdaReg75":[0],"sdaReg81":[0],"sdaReg80":[0],"sdaReg83":[0],"1083994088":[7],"sdaReg82":[0],"1094526808":[2, 3, 20],"1093381560":[0],"1093340944.<java.io.DataInputStream: byte[] scratch>":[0],"1093381896.<java.io.ByteArrayInputStream: int pos>":[0],"sdaReg108":[32],"sdaReg109":[33],"1093340944":[0],"sdaReg103":[0],"sdaReg104":[0],"sdaReg105":[0],"sdaReg106":[32],"sdaReg86":[0],"sdaReg87":[0],"sdaReg85":[0],"sdaReg88":[0],"sdaReg89":[0],"sdaReg90":[0],"1083909616":[26],"sdaReg94":[0],"sdaReg93":[0],"sdaReg92":[0],"sdaReg100":[0],"1093602136.<java.util.ArrayList: int size>":[2, 3],"sdaReg102":[31],"sdaReg101":[31],"1093381560.<java.io.ObjectInputStream: boolean mustResolve>":[0],"1093668624":[19, 2, 3],"sdaReg97":[0],"sdaReg98":[0],"1083910288":[0, 1, 4, 8, 9, 10],"sdaReg99":[0],"1084339448":[30],"1093381680":[0],"sdaReg169":[0, 1, 4, 6, 8, 11],"1093381896.<java.io.ByteArrayInputStream: int count>":[0],"static.<java.lang.Byte: java.lang.Class TYPE>":[22],"sdaReg161":[38],"sdaReg162":[0, 1, 4, 39, 6, 8, 11],"1083909112":[22],"sdaReg163":[2, 3, 40],"sdaReg164":[41],"1093668624.<java.io.ObjectStreamField: java.lang.Object type>":[19, 2, 3],"1093666032":[2, 3],"sdaReg166":[42],"sdaReg167":[0],"sdaReg168":[1, 2, 3, 20],"1093346744":[2, 3, 52],"1093341056.<java.util.ArrayList: int size>":[0],"static.<java.nio.ByteOrder: java.nio.ByteOrder BIG_ENDIAN>":[30],"sdaReg160":[2, 3, 37],"sdaReg159":[0, 1, 2, 3, 4, 6, 36],"sdaReg158":[0, 1, 2, 3, 4, 6],"sdaReg152":[2, 3],"1093381560.<java.io.ObjectInputStream: boolean enableResolve>":[0],"sdaReg150":[0],"sdaReg151":[0, 1, 4, 6, 8, 11],"sdaReg156":[2, 3],"1093381896":[0],"sdaReg157":[2, 3],"sdaReg154":[2, 3],"sdaReg155":[2, 3],"1083909448":[23],"sdaReg148":[0, 6],"sdaReg149":[0, 1, 4, 6, 8, 11],"sdaReg143":[2, 19, 3, 21],"sdaReg144":[2, 19, 3, 21],"sdaReg145":[35, 2, 19, 3, 21],"1083909952":[25],"sdaReg140":[2, 19, 3],"sdaReg141":[2, 19, 3, 21],"sdaReg142":[19, 2, 3, 21],"1093377416":[1, 2, 3, 20],"1093299576":[2, 3],"sdaReg138":[2, 19, 3],"sdaReg137":[2, 19, 3],"sdaReg136":[2, 19, 3],"1093346672":[0],"1093534896":[2, 19, 3],"1093381560.<java.io.ObjectInputStream: boolean subclassOverridingImplementation>":[0],"static.<java.lang.Integer: java.lang.Class TYPE>":[26],"1083908944":[29],"1094833112":[11]},"colorToColor":{"0":[0, 1, 32, 4, 5, 6, 42, 31],"1":[0, 2, 3, 20, 5, 6, 42],"2":[0, 1, 35, 19, 2, 3, 21, 20],"32":[33],"3":[0, 1, 35, 19, 2, 3, 21, 20],"33":[34],"4":[0, 5, 6, 42],"6":[0, 1, 4, 6, 42],"7":[6],"8":[6, 42],"9":[6],"11":[42],"19":[35, 19, 2, 3, 21, 20],"21":[35, 19, 2, 3, 21],"20":[0, 1, 2, 3, 20]},"colorToLabel":{"0":"this","1":"arg#1","2":"arg#2","7":"<libcore.util.EmptyArray: java.lang.Object[] OBJECT>","22":"<java.lang.Byte: java.lang.Class TYPE>","23":"<java.lang.Character: java.lang.Class TYPE>","24":"<java.lang.Double: java.lang.Class TYPE>","25":"<java.lang.Float: java.lang.Class TYPE>","26":"<java.lang.Integer: java.lang.Class TYPE>","27":"<java.lang.Long: java.lang.Class TYPE>","28":"<java.lang.Short: java.lang.Class TYPE>","29":"<java.lang.Boolean: java.lang.Class TYPE>","30":"<java.nio.ByteOrder: java.nio.ByteOrder BIG_ENDIAN>","53":"return"}}}

Generated Model
	this->arg#2
	this->arg#1
	arg#2->this
	arg#2->arg#1
	arg#1->this
	arg#1->arg#2

