Scanning method <java.util.Locale: java.util.Locale getDefault()>

All seen event types: LoadStaticRecord, 
Ignored event types: 

JSON Encoded Analysis Data (for visualization):{"heapEdges":[{"step":0,"from":"static.<java.util.Locale: java.util.Locale defaultLocale>","to":"1093274352","type":"load","field":"<java.util.Locale: java.util.Locale defaultLocale>"}],"parameters":[],"returns":[{"id":"1093274352","name":"return","klass":"java.util.Locale"}],"colors":{"heapLocToColor":{"static.<java.util.Locale: java.util.Locale defaultLocale>":[0],"1093274352":[0]},"colorToColor":{"0":[1]},"colorToLabel":{"0":"<java.util.Locale: java.util.Locale defaultLocale>","1":"return"}}}

Generated Model

