Scanning method <java.util.HashMap: java.util.Iterator newKeyIterator()>

All seen event types: BinaryOperationRecord, SimpleAssignmentRecord, MethodReturnRecord, MethodCallRecord, ArrayLengthRecord, LoadInstanceRecord, MethodStartRecord, LoadArrayRecord, MethodEndRecord, IfRecord, StoreInstanceRecord, NewObjectRecord, 
Ignored event types: IfRecord, 

JSON Encoded Analysis Data (for visualization):{"heapEdges":[{"step":0,"from":"1093579272","to":"1093658216","type":"store","field":"<java.util.HashMap$KeyIterator: java.util.HashMap this$0>"},{"step":1,"from":"1093579272","to":"1093658216","type":"store","field":"<java.util.HashMap$HashIterator: java.util.HashMap this$0>"},{"step":2,"from":"1093579272","to":"1093579272.<java.util.HashMap: int modCount>","type":"load","field":"<java.util.HashMap: int modCount>"},{"step":3,"from":"1093579272.<java.util.HashMap: int modCount>","to":"1093658216","type":"store","field":"<java.util.HashMap$HashIterator: int expectedModCount>"},{"step":4,"from":"1093579272","to":"1093586464","type":"load","field":"<java.util.HashMap: java.util.HashMap$HashMapEntry[] table>"},{"step":5,"from":"1093658216","to":"1093658216.<java.util.HashMap$HashIterator: int nextIndex>","type":"load","field":"<java.util.HashMap$HashIterator: int nextIndex>"},{"step":6,"from":"1093658216","to":"1093658216.<java.util.HashMap$HashIterator: int nextIndex>","type":"load","field":"<java.util.HashMap$HashIterator: int nextIndex>"},{"step":7,"from":"sdaReg9","to":"1093658216","type":"store","field":"<java.util.HashMap$HashIterator: int nextIndex>"},{"step":8,"from":"sdaReg9","to":"1093658216","type":"store","field":"<java.util.HashMap$HashIterator: int nextIndex>"},{"step":9,"from":"1093586464","to":"1093636640","type":"load","field":"arrayIdx_int:1"},{"step":10,"from":"1093636640","to":"1093658216","type":"store","field":"<java.util.HashMap$HashIterator: java.util.HashMap$HashMapEntry nextEntry>"}],"parameters":[{"id":"1093579272","name":"this","klass":"java.util.HashMap"}],"returns":[{"id":"1093658216","name":"return","klass":"java.util.Iterator"}],"colors":{"heapLocToColor":{"1093579272":[0],"sdaReg9":[1],"sdaReg6":[1],"sdaReg4":[1],"sdaReg5":[0],"1093658216":[1],"1093658216.<java.util.HashMap$HashIterator: int nextIndex>":[1],"1093579272.<java.util.HashMap: int modCount>":[0],"sdaReg13":[1],"sdaReg11":[1],"sdaReg12":[1],"sdaReg3":[0],"1093636640":[0],"sdaReg2":[1],"1093586464":[0],"sdaReg1":[0],"sdaReg0":[1]},"colorToColor":{"0":[1],"1":[1, 2]},"colorToLabel":{"0":"this","2":"return"}}}

Generated Model
	this->return

