Scanning method <java.io.PrintWriter: void write(int)>

All seen event types: StoreArrayRecord, SimpleAssignmentRecord, ExitMonitorRecord, MethodStartRecord, LoadInstanceRecord, IfRecord, StoreInstanceRecord, NewObjectRecord, NewArrayRecord, BinaryOperationRecord, MethodCallRecord, MethodReturnRecord, EnterMonitorRecord, CastRecord, ArrayLengthRecord, MethodEndRecord, 
Ignored event types: ExitMonitorRecord, EnterMonitorRecord, IfRecord, 

JSON Encoded Analysis Data (for visualization):{"heapEdges":[{"step":0,"from":"sdaReg1","to":"1093327296","type":"store","field":"arrayIdx_int:0"},{"step":1,"from":"1093687672","to":"1093687704","type":"load","field":"<java.io.Writer: java.lang.Object lock>"},{"step":2,"from":"1093687672","to":"1093687704","type":"load","field":"<java.io.PrintWriter: java.io.Writer out>"},{"step":3,"from":"1093687672","to":"1093687704","type":"load","field":"<java.io.PrintWriter: java.io.Writer out>"},{"step":4,"from":"1093687704","to":"1093687496","type":"load","field":"<java.io.Writer: java.lang.Object lock>"},{"step":5,"from":"1093687704","to":"1093503136","type":"load","field":"<java.io.OutputStreamWriter: java.nio.charset.CharsetEncoder encoder>"},{"step":6,"from":"1093322096","to":"sdaReg30","type":"create","field":"<java.nio.Buffer: int mark>"},{"step":7,"from":"1093322096","to":"sdaReg31","type":"create","field":"<java.nio.Buffer: int position>"},{"step":8,"from":"1093322096","to":"sdaReg28","type":"create","field":"<java.nio.Buffer: int _elementSizeShift>"},{"step":9,"from":"sdaReg22","to":"1093322096","type":"store","field":"<java.nio.Buffer: int limit>"},{"step":10,"from":"sdaReg22","to":"1093322096","type":"store","field":"<java.nio.Buffer: int capacity>"},{"step":11,"from":"1093322096","to":"1093327296","type":"create","field":"<java.nio.CharArrayBuffer: char[] backingArray>"},{"step":12,"from":"1093322096","to":"sdaReg25","type":"create","field":"<java.nio.CharArrayBuffer: int offset>"},{"step":13,"from":"1093322096","to":"sdaReg4","type":"create","field":"<java.nio.Buffer: int position>"},{"step":14,"from":"sdaReg38","to":"1093322096","type":"store","field":"<java.nio.Buffer: int limit>"},{"step":15,"from":"1093687704","to":"1093503136","type":"load","field":"<java.io.OutputStreamWriter: java.nio.charset.CharsetEncoder encoder>"},{"step":16,"from":"1093687704","to":"1093687736","type":"load","field":"<java.io.OutputStreamWriter: java.nio.ByteBuffer bytes>"},{"step":17,"from":"1093503136","to":"1093322096","type":"model"},{"step":18,"from":"1093503136","to":"1093687736","type":"model"},{"step":19,"from":"1093503136","to":"1084215096","type":"model"},{"step":20,"from":"1093322096","to":"1093503136","type":"model"},{"step":21,"from":"1093322096","to":"1093687736","type":"model"},{"step":22,"from":"1093322096","to":"1084215096","type":"model"},{"step":23,"from":"1093687736","to":"1093503136","type":"model"},{"step":24,"from":"1093687736","to":"1093322096","type":"model"},{"step":25,"from":"1093687736","to":"1084215096","type":"model"},{"step":26,"from":"1084215096","to":"1084215096.<java.nio.charset.CoderResult: int type>","type":"load","field":"<java.nio.charset.CoderResult: int type>"},{"step":27,"from":"1084215096","to":"1084215096.<java.nio.charset.CoderResult: int type>","type":"load","field":"<java.nio.charset.CoderResult: int type>"},{"step":28,"from":"1084215096","to":"1084215096.<java.nio.charset.CoderResult: int type>","type":"load","field":"<java.nio.charset.CoderResult: int type>"}],"parameters":[{"id":"1093687672","name":"this","klass":"java.io.PrintWriter"},{"id":"sdaReg0","name":"arg#1","klass":"int"}],"returns":[{"id":null,"name":"return","klass":null}],"colors":{"heapLocToColor":{"1093687496":[0],"1093327296":[2],"1093687672":[0],"sdaReg39":[3],"sdaReg14":[2],"1093687704.<java.io.OutputStreamWriter: java.nio.charset.CharsetEncoder encoder>":[0],"sdaReg37":[3],"sdaReg10":[0],"1093687704":[0],"sdaReg32":[3],"sdaReg19":[2],"1084215096.<java.nio.charset.CoderResult: int type>":[0, 4],"1093322096":[0, 3],"sdaReg36":[3],"sdaReg35":[3],"sdaReg18":[3],"sdaReg34":[3],"1093687672.<java.io.PrintWriter: java.io.Writer out>":[0],"sdaReg33":[3],"sdaReg8":[2],"sdaReg7":[0],"sdaReg27":[3],"sdaReg26":[3],"sdaReg29":[3],"1093687736":[0],"1093503136":[0],"1084215096":[0, 4],"sdaReg45":[0, 4],"sdaReg3":[2],"sdaReg2":[0],"sdaReg1":[1],"sdaReg21":[2],"sdaReg0":[1],"sdaReg20":[3],"sdaReg41":[3],"sdaReg23":[3],"sdaReg40":[0],"sdaReg43":[0, 4],"sdaReg42":[0, 4],"sdaReg24":[2]},"colorToColor":{"0":[0, 3, 4],"1":[2],"2":[3],"3":[0, 4]},"colorToLabel":{"0":"this","1":"arg#1","5":"return"}}}

Generated Model
	arg#1->this

