Scanning method <java.io.RandomAccessFile: void close()>

All seen event types: SimpleAssignmentRecord, ExitMonitorRecord, MethodReturnRecord, MethodCallRecord, EnterMonitorRecord, LoadInstanceRecord, IfRecord, 
Ignored event types: ExitMonitorRecord, EnterMonitorRecord, IfRecord, 

JSON Encoded Analysis Data (for visualization):{"heapEdges":[{"step":0,"from":"1093335552","to":"1083966016","type":"load","field":"<java.io.RandomAccessFile: dalvik.system.CloseGuard guard>"},{"step":1,"from":"1093335552","to":"1093299528","type":"load","field":"<java.io.RandomAccessFile: java.io.FileDescriptor fd>"}],"parameters":[{"id":"1093335552","name":"this","klass":"java.io.RandomAccessFile"}],"returns":[{"id":null,"name":"return","klass":null}],"colors":{"heapLocToColor":{"1093335552":[0],"1083966016":[0],"1093299528":[0]},"colorToColor":{},"colorToLabel":{"0":"this","1":"return"}}}

Generated Model

