Scanning method <java.net.URL: void <init>(java.lang.String,java.lang.String,java.lang.String)>

All seen event types: StoreArrayRecord, SimpleAssignmentRecord, MethodStartRecord, LoadInstanceRecord, IfRecord, StoreInstanceRecord, NewObjectRecord, LoadStaticRecord, BinaryOperationRecord, MethodCallRecord, MethodReturnRecord, CastRecord, ArrayLengthRecord, LoadArrayRecord, MethodEndRecord, 
Ignored event types: IfRecord, 

JSON Encoded Analysis Data (for visualization):{"heapEdges":[{"step":0,"from":"1093661696","to":"sdaReg6","type":"create","field":"<java.net.URL: int port>"},{"step":1,"from":"sdaReg1","to":"sdaReg7","type":"model"},{"step":2,"from":"sdaReg0","to":"1093661696","type":"store","field":"<java.net.URL: java.lang.String protocol>"},{"step":3,"from":"sdaReg1","to":"1093661696","type":"store","field":"<java.net.URL: java.lang.String host>"},{"step":4,"from":"1093661696","to":"sdaReg4","type":"create","field":"<java.net.URL: int port>"},{"step":5,"from":"sdaReg1","to":"sdaReg8","type":"model"},{"step":6,"from":"sdaReg2","to":"sdaReg9","type":"model"},{"step":7,"from":"sdaReg2","to":"sdaReg10","type":"model"},{"step":8,"from":"sdaReg2","to":"1093662624","type":"model"},{"step":9,"from":"sdaReg2","to":"1093662624","type":"model"},{"step":10,"from":"1093662624","to":"sdaReg14","type":"model"},{"step":11,"from":"sdaReg14","to":"1093661696","type":"store","field":"<java.net.URL: java.lang.String file>"},{"step":12,"from":"sdaReg19","to":"1093661696","type":"store","field":"<java.net.URL: java.lang.String authority>"},{"step":13,"from":"1093661696","to":"sdaReg22","type":"create","field":"<java.net.URL: java.lang.String query>"},{"step":14,"from":"sdaReg23","to":"1093661696","type":"store","field":"<java.net.URL: java.lang.String path>"},{"step":15,"from":"static.<java.net.URL: java.util.Hashtable streamHandlers>","to":"1084315112","type":"load","field":"<java.net.URL: java.util.Hashtable streamHandlers>"},{"step":16,"from":"1084315112","to":"1084321912","type":"load","field":"<java.util.Hashtable: java.util.Hashtable$HashtableEntry[] table>"},{"step":17,"from":"1093471752","to":"1093298088","type":"model"},{"step":18,"from":"1093661696","to":"1093664024","type":"create","field":"<java.net.URL: java.net.URLStreamHandler streamHandler>"},{"step":19,"from":"static.<java.net.URL: java.util.Hashtable streamHandlers>","to":"1084315112","type":"load","field":"<java.net.URL: java.util.Hashtable streamHandlers>"},{"step":20,"from":"1084315112","to":"1084321912","type":"load","field":"<java.util.Hashtable: java.util.Hashtable$HashtableEntry[] table>"},{"step":21,"from":"1084315112","to":"1084315112.<java.util.Hashtable: int modCount>","type":"load","field":"<java.util.Hashtable: int modCount>"},{"step":22,"from":"sdaReg68","to":"1084315112","type":"store","field":"<java.util.Hashtable: int modCount>"},{"step":23,"from":"1084315112","to":"1084315112.<java.util.Hashtable: int size>","type":"load","field":"<java.util.Hashtable: int size>"},{"step":24,"from":"sdaReg69","to":"1084315112","type":"store","field":"<java.util.Hashtable: int size>"},{"step":25,"from":"1084315112","to":"1084315112.<java.util.Hashtable: int threshold>","type":"load","field":"<java.util.Hashtable: int threshold>"},{"step":26,"from":"1084321368","to":"1093674248","type":"store","field":"<java.util.Hashtable$HashtableEntry: java.lang.Object key>"},{"step":27,"from":"1093664024","to":"1093674248","type":"store","field":"<java.util.Hashtable$HashtableEntry: java.lang.Object value>"},{"step":28,"from":"sdaReg63","to":"1093674248","type":"store","field":"<java.util.Hashtable$HashtableEntry: int hash>"},{"step":29,"from":"1084321912","to":"1093674248","type":"create","field":"arrayIdx_int:1"}],"parameters":[{"id":"1093661696","name":"this","klass":"java.net.URL"},{"id":"sdaReg0","name":"arg#1","klass":"string"},{"id":"sdaReg1","name":"arg#2","klass":"string"},{"id":"sdaReg2","name":"arg#3","klass":"string"}],"returns":[{"id":"1093661696","name":"return","klass":"java.net.URL"}],"colors":{"heapLocToColor":{"sdaReg60":[23],"1084315112.<java.util.Hashtable: int modCount>":[13],"sdaReg61":[23],"1084315112.<java.util.Hashtable: int threshold>":[13],"sdaReg68":[13],"sdaReg69":[13],"sdaReg66":[23],"sdaReg62":[23],"sdaReg63":[23],"sdaReg72":[22],"sdaReg13":[8],"sdaReg14":[8, 9],"sdaReg70":[24],"sdaReg11":[8],"sdaReg12":[8],"sdaReg10":[3, 7],"sdaReg59":[23],"sdaReg58":[23],"sdaReg57":[23],"sdaReg56":[23],"sdaReg55":[23],"sdaReg54":[22],"sdaReg18":[11],"sdaReg52":[13],"sdaReg15":[10],"sdaReg51":[22],"sdaReg16":[0],"sdaReg50":[22],"1084315112.<java.util.Hashtable: int size>":[13],"sdaReg74":[24],"sdaReg75":[24],"sdaReg76":[0],"1084321912":[13],"sdaReg49":[22],"sdaReg48":[22],"1093471752":[17],"sdaReg45":[20],"sdaReg44":[19],"sdaReg47":[22],"sdaReg46":[21],"sdaReg41":[16],"1084315112":[13],"sdaReg43":[17, 18],"sdaReg42":[17],"static.<java.net.URL: java.util.Hashtable streamHandlers>":[13],"1084315112.<java.util.Hashtable: java.util.Hashtable$HashtableEntry[] table>":[13],"sdaReg38":[14],"1093674248":[24],"sdaReg32":[14],"sdaReg31":[14],"sdaReg30":[14],"1093662624":[8],"sdaReg35":[14],"1093664024":[22],"sdaReg34":[14],"sdaReg33":[14],"sdaReg8":[2, 5],"sdaReg9":[3, 6],"sdaReg7":[2, 4],"sdaReg5":[0],"1093661696":[0],"sdaReg27":[14],"1093298088":[17, 18],"sdaReg29":[14],"sdaReg28":[14],"sdaReg3":[0],"sdaReg2":[3],"sdaReg21":[12],"sdaReg1":[2],"sdaReg20":[12],"sdaReg0":[1],"static.<java.net.URL: java.net.URLStreamHandlerFactory streamHandlerFactory>":[15],"sdaReg25":[13],"sdaReg24":[0]},"colorToColor":{"0":[25],"1":[0],"2":[0],"3":[8],"23":[24],"22":[0, 24],"8":[0],"24":[13],"9":[0],"13":[13]},"colorToLabel":{"0":"this","1":"arg#1","2":"arg#2","3":"arg#3","13":"<java.net.URL: java.util.Hashtable streamHandlers>","15":"<java.net.URL: java.net.URLStreamHandlerFactory streamHandlerFactory>","25":"return"}}}

Generated Model
	this->return
	arg#3->this
	arg#3->return
	arg#2->this
	arg#2->return
	arg#1->this
	arg#1->return

