Scanning method <java.net.URL: void <init>(java.lang.String,java.lang.String,java.lang.String)>

All seen event types: StoreArrayRecord, SimpleAssignmentRecord, MethodStartRecord, LoadInstanceRecord, IfRecord, NewObjectRecord, StoreInstanceRecord, LoadStaticRecord, BinaryOperationRecord, MethodCallRecord, MethodReturnRecord, ArrayLengthRecord, CastRecord, LoadArrayRecord, MethodEndRecord, 
Ignored event types: IfRecord, 

JSON Encoded Analysis Data (for visualization):{"heapEdges":[{"step":0,"from":"1093645336","to":"sdaReg6","type":"create","field":"<java.net.URL: int port>"},{"step":1,"from":"sdaReg1","to":"sdaReg7","type":"model"},{"step":2,"from":"sdaReg0","to":"1093645336","type":"store","field":"<java.net.URL: java.lang.String protocol>"},{"step":3,"from":"sdaReg1","to":"1093645336","type":"store","field":"<java.net.URL: java.lang.String host>"},{"step":4,"from":"1093645336","to":"sdaReg4","type":"create","field":"<java.net.URL: int port>"},{"step":5,"from":"sdaReg1","to":"sdaReg8","type":"model"},{"step":6,"from":"sdaReg2","to":"sdaReg9","type":"model"},{"step":7,"from":"sdaReg2","to":"sdaReg10","type":"model"},{"step":8,"from":"sdaReg2","to":"sdaReg12","type":"model"},{"step":9,"from":"sdaReg12","to":"1093645336","type":"store","field":"<java.net.URL: java.lang.String file>"},{"step":10,"from":"sdaReg2","to":"sdaReg13","type":"model"},{"step":11,"from":"sdaReg2","to":"sdaReg14","type":"model"},{"step":12,"from":"sdaReg13","to":"sdaReg2","type":"model"},{"step":13,"from":"sdaReg13","to":"sdaReg14","type":"model"},{"step":14,"from":"sdaReg14","to":"1093645336","type":"store","field":"<java.net.URL: java.lang.String ref>"},{"step":15,"from":"sdaReg18","to":"1093645336","type":"store","field":"<java.net.URL: java.lang.String authority>"},{"step":16,"from":"1093645336","to":"sdaReg21","type":"create","field":"<java.net.URL: java.lang.String query>"},{"step":17,"from":"sdaReg22","to":"1093645336","type":"store","field":"<java.net.URL: java.lang.String path>"},{"step":18,"from":"static.<java.net.URL: java.util.Hashtable streamHandlers>","to":"1084315112","type":"load","field":"<java.net.URL: java.util.Hashtable streamHandlers>"},{"step":19,"from":"1084315112","to":"1084321912","type":"load","field":"<java.util.Hashtable: java.util.Hashtable$HashtableEntry[] table>"},{"step":20,"from":"1093475160","to":"1093291104","type":"model"},{"step":21,"from":"1093645336","to":"1093658248","type":"create","field":"<java.net.URL: java.net.URLStreamHandler streamHandler>"},{"step":22,"from":"static.<java.net.URL: java.util.Hashtable streamHandlers>","to":"1084315112","type":"load","field":"<java.net.URL: java.util.Hashtable streamHandlers>"},{"step":23,"from":"1084315112","to":"1084321912","type":"load","field":"<java.util.Hashtable: java.util.Hashtable$HashtableEntry[] table>"},{"step":24,"from":"1084315112","to":"1084315112.<java.util.Hashtable: int modCount>","type":"load","field":"<java.util.Hashtable: int modCount>"},{"step":25,"from":"sdaReg67","to":"1084315112","type":"store","field":"<java.util.Hashtable: int modCount>"},{"step":26,"from":"1084315112","to":"1084315112.<java.util.Hashtable: int size>","type":"load","field":"<java.util.Hashtable: int size>"},{"step":27,"from":"sdaReg68","to":"1084315112","type":"store","field":"<java.util.Hashtable: int size>"},{"step":28,"from":"1084315112","to":"1084315112.<java.util.Hashtable: int threshold>","type":"load","field":"<java.util.Hashtable: int threshold>"},{"step":29,"from":"1084321368","to":"1093668472","type":"store","field":"<java.util.Hashtable$HashtableEntry: java.lang.Object key>"},{"step":30,"from":"1093658248","to":"1093668472","type":"store","field":"<java.util.Hashtable$HashtableEntry: java.lang.Object value>"},{"step":31,"from":"sdaReg62","to":"1093668472","type":"store","field":"<java.util.Hashtable$HashtableEntry: int hash>"},{"step":32,"from":"1084321912","to":"1093668472","type":"create","field":"arrayIdx_int:1"}],"parameters":[{"id":"1093645336","name":"this","klass":"java.net.URL"},{"id":"sdaReg0","name":"arg#1","klass":"string"},{"id":"sdaReg1","name":"arg#2","klass":"string"},{"id":"sdaReg2","name":"arg#3","klass":"string"}],"returns":[{"id":"1093645336","name":"return","klass":"java.net.URL"}],"colors":{"heapLocToColor":{"sdaReg60":[23],"1084315112.<java.util.Hashtable: int modCount>":[13],"sdaReg61":[23],"1084315112.<java.util.Hashtable: int threshold>":[13],"sdaReg68":[13],"sdaReg69":[24],"1093291104":[17, 18],"sdaReg67":[13],"sdaReg65":[23],"sdaReg62":[23],"sdaReg13":[3, 8],"sdaReg71":[22],"sdaReg14":[3, 10],"sdaReg11":[8],"sdaReg12":[3, 9],"sdaReg10":[3, 7],"sdaReg59":[23],"sdaReg58":[23],"sdaReg57":[23],"sdaReg56":[23],"sdaReg19":[12],"sdaReg55":[23],"sdaReg54":[23],"sdaReg17":[11],"sdaReg53":[22],"sdaReg15":[0],"1093475160":[17],"sdaReg51":[13],"sdaReg50":[22],"1084315112.<java.util.Hashtable: int size>":[13],"sdaReg73":[24],"1093658248":[22],"sdaReg74":[24],"sdaReg75":[0],"1084321912":[13],"sdaReg49":[22],"1093645336":[0],"sdaReg48":[22],"sdaReg45":[21],"sdaReg44":[20],"sdaReg47":[22],"sdaReg46":[22],"sdaReg41":[17],"sdaReg40":[16],"1084315112":[13],"sdaReg43":[19],"sdaReg42":[17, 18],"static.<java.net.URL: java.util.Hashtable streamHandlers>":[13],"1084315112.<java.util.Hashtable: java.util.Hashtable$HashtableEntry[] table>":[13],"sdaReg37":[14],"sdaReg32":[14],"sdaReg31":[14],"sdaReg30":[14],"sdaReg34":[14],"sdaReg33":[14],"sdaReg8":[2, 5],"sdaReg9":[3, 6],"sdaReg7":[2, 4],"sdaReg5":[0],"sdaReg27":[14],"sdaReg26":[14],"1093668472":[24],"sdaReg29":[14],"sdaReg28":[14],"sdaReg3":[0],"sdaReg2":[3],"sdaReg1":[2],"sdaReg20":[12],"sdaReg0":[1],"sdaReg23":[0],"static.<java.net.URL: java.net.URLStreamHandlerFactory streamHandlerFactory>":[15],"sdaReg24":[13]},"colorToColor":{"0":[25],"1":[0],"2":[0],"3":[0, 3, 10],"23":[24],"22":[0, 24],"8":[3, 10],"24":[13],"9":[0],"10":[0],"13":[13]},"colorToLabel":{"0":"this","1":"arg#1","2":"arg#2","3":"arg#3","13":"<java.net.URL: java.util.Hashtable streamHandlers>","15":"<java.net.URL: java.net.URLStreamHandlerFactory streamHandlerFactory>","25":"return"}}}

Generated Model
	this->return
	arg#3->this
	arg#3->return
	arg#2->this
	arg#2->return
	arg#1->this
	arg#1->return

