Scanning method <java.io.BufferedReader: int fillBuf()>

All seen event types: MethodReturnRecord, MethodCallRecord, ArrayLengthRecord, LoadInstanceRecord, IfRecord, StoreInstanceRecord, 
Ignored event types: IfRecord, 

JSON Encoded Analysis Data (for visualization):{"heapEdges":[{"step":0,"from":"1093408656","to":"1093408656.<java.io.BufferedReader: int mark>","type":"load","field":"<java.io.BufferedReader: int mark>"},{"step":1,"from":"1093408656","to":"1093408696","type":"load","field":"<java.io.BufferedReader: java.io.Reader in>"},{"step":2,"from":"1093408656","to":"1093447488","type":"load","field":"<java.io.BufferedReader: char[] buf>"},{"step":3,"from":"1093408656","to":"1093447488","type":"load","field":"<java.io.BufferedReader: char[] buf>"},{"step":4,"from":"1093408696","to":"1093447488","type":"model"},{"step":5,"from":"1093408696","to":"sdaReg0","type":"model"},{"step":6,"from":"1093408696","to":"sdaReg1","type":"model"},{"step":7,"from":"1093447488","to":"1093408696","type":"model"},{"step":8,"from":"1093447488","to":"sdaReg0","type":"model"},{"step":9,"from":"1093447488","to":"sdaReg1","type":"model"},{"step":10,"from":"sdaReg0","to":"1093408696","type":"model"},{"step":11,"from":"sdaReg0","to":"1093447488","type":"model"},{"step":12,"from":"sdaReg0","to":"sdaReg1","type":"model"},{"step":13,"from":"1093408656","to":"sdaReg2","type":"create","field":"<java.io.BufferedReader: int mark>"},{"step":14,"from":"1093408656","to":"sdaReg3","type":"create","field":"<java.io.BufferedReader: int pos>"},{"step":15,"from":"sdaReg1","to":"1093408656","type":"store","field":"<java.io.BufferedReader: int end>"}],"parameters":[{"id":"1093408656","name":"this","klass":"java.io.BufferedReader"}],"returns":[{"id":"sdaReg1","name":"return","klass":"int"}],"colors":{"heapLocToColor":{"1093408656.<java.io.BufferedReader: char[] buf>":[0],"1093408696":[0],"sdaReg1":[0, 1],"sdaReg0":[0],"1093447488":[0],"1093408656":[0],"1093408656.<java.io.BufferedReader: int mark>":[0]},"colorToColor":{"0":[0, 1, 2],"1":[0, 2]},"colorToLabel":{"0":"this","2":"return"}}}

Generated Model
	this->return

