Scanning method <java.io.BufferedReader: int fillBuf()>

All seen event types: BinaryOperationRecord, SimpleAssignmentRecord, ExitMonitorRecord, MethodReturnRecord, MethodCallRecord, EnterMonitorRecord, MethodStartRecord, ArrayLengthRecord, LoadInstanceRecord, MethodEndRecord, IfRecord, 
Ignored event types: ExitMonitorRecord, EnterMonitorRecord, IfRecord, 

JSON Encoded Analysis Data (for visualization):{"heapEdges":[{"step":0,"from":"1093478240","to":"1093478240.<java.io.BufferedReader: int mark>","type":"load","field":"<java.io.BufferedReader: int mark>"},{"step":1,"from":"1093478240","to":"1093478552","type":"load","field":"<java.io.BufferedReader: java.io.Reader in>"},{"step":2,"from":"1093478240","to":"1093410840","type":"load","field":"<java.io.BufferedReader: char[] buf>"},{"step":3,"from":"1093478240","to":"1093410840","type":"load","field":"<java.io.BufferedReader: char[] buf>"},{"step":4,"from":"1093478552","to":"1093478552","type":"load","field":"<java.io.Reader: java.lang.Object lock>"},{"step":5,"from":"1093478552","to":"1093486536","type":"load","field":"<java.io.CharArrayReader: char[] buf>"},{"step":6,"from":"1093478552","to":"1093478552.<java.io.CharArrayReader: int pos>","type":"load","field":"<java.io.CharArrayReader: int pos>"},{"step":7,"from":"1093478552","to":"1093478552.<java.io.CharArrayReader: int count>","type":"load","field":"<java.io.CharArrayReader: int count>"}],"parameters":[{"id":"1093478240","name":"this","klass":"java.io.BufferedReader"}],"returns":[{"id":"sdaReg11","name":"return","klass":"int"}],"colors":{"heapLocToColor":{"1093478552.<java.io.CharArrayReader: int pos>":[0],"1093478552.<java.io.CharArrayReader: int count>":[0],"sdaReg8":[0],"sdaReg9":[0],"sdaReg7":[0],"1093478552":[0],"1093478240":[0],"1093478240.<java.io.BufferedReader: int mark>":[0],"1093478240.<java.io.BufferedReader: char[] buf>":[0],"1093478552.<java.io.Reader: java.lang.Object lock>":[0],"1093410840":[0],"1093486536":[0],"sdaReg2":[0],"sdaReg1":[0]},"colorToColor":{},"colorToLabel":{"0":"this","1":"return"}}}

Generated Model

