Scanning method <java.util.ArrayList$ArrayListIterator: void <init>(java.util.ArrayList)>

All seen event types: MethodReturnRecord, MethodCallRecord, LoadInstanceRecord, StoreInstanceRecord, 
Ignored event types: 

JSON Encoded Analysis Data (for visualization):{"heapEdges":[{"step":0,"from":"1093623672","to":"1093410984","type":"store","field":"<java.util.ArrayList$ArrayListIterator: java.util.ArrayList this$0>"},{"step":1,"from":"1093623672","to":"1093623672.<java.util.ArrayList: int size>","type":"load","field":"<java.util.ArrayList: int size>"},{"step":2,"from":"1093623672.<java.util.ArrayList: int size>","to":"1093410984","type":"store","field":"<java.util.ArrayList$ArrayListIterator: int remaining>"},{"step":3,"from":"1093410984","to":"sdaReg1","type":"create","field":"<java.util.ArrayList$ArrayListIterator: int removalIndex>"},{"step":4,"from":"1093623672","to":"1093623672.<java.util.AbstractList: int modCount>","type":"load","field":"<java.util.AbstractList: int modCount>"},{"step":5,"from":"1093623672.<java.util.AbstractList: int modCount>","to":"1093410984","type":"store","field":"<java.util.ArrayList$ArrayListIterator: int expectedModCount>"}],"parameters":[{"id":"1093410984","name":"this","klass":"java.util.ArrayList$ArrayListIterator"},{"id":"1093623672","name":"arg#1","klass":"java.util.ArrayList"}],"returns":[{"id":"1093410984","name":"return","klass":"java.util.ArrayList$ArrayListIterator"}],"colors":{"heapLocToColor":{"1093623672":[1],"1093623672.<java.util.ArrayList: int size>":[1],"sdaReg0":[0],"1093623672.<java.util.AbstractList: int modCount>":[1],"1093410984":[0]},"colorToColor":{"0":[2],"1":[0]},"colorToLabel":{"0":"this","1":"arg#1","2":"return"}}}

Generated Model
	this->return
	arg#1->this
	arg#1->return

