Scanning method <java.util.Arrays: boolean equals(java.lang.Object[],java.lang.Object[])>

All seen event types: BinaryOperationRecord, SimpleAssignmentRecord, MethodReturnRecord, MethodCallRecord, ArrayLengthRecord, LoadArrayRecord, IfRecord, 
Ignored event types: IfRecord, 

JSON Encoded Analysis Data (for visualization):{"heapEdges":[{"step":0,"from":"1093733296","to":"1084428816","type":"load","field":"arrayIdx_int:0"},{"step":1,"from":"1093733448","to":"1084428816","type":"load","field":"arrayIdx_int:0"},{"step":2,"from":"1093733296","to":"1084693312","type":"load","field":"arrayIdx_int:1"},{"step":3,"from":"1093733448","to":"1084693312","type":"load","field":"arrayIdx_int:1"},{"step":4,"from":"1093733296","to":"1085657080","type":"load","field":"arrayIdx_int:2"},{"step":5,"from":"1093733448","to":"1085657080","type":"load","field":"arrayIdx_int:2"},{"step":6,"from":"1093733296","to":"1084422296","type":"load","field":"arrayIdx_int:3"},{"step":7,"from":"1093733448","to":"1084422296","type":"load","field":"arrayIdx_int:3"},{"step":8,"from":"1093733296","to":"1093725248","type":"load","field":"arrayIdx_int:4"},{"step":9,"from":"1093733448","to":"1093725248","type":"load","field":"arrayIdx_int:4"},{"step":10,"from":"1093733296","to":"1086109464","type":"load","field":"arrayIdx_int:5"},{"step":11,"from":"1093733448","to":"1086109464","type":"load","field":"arrayIdx_int:5"}],"parameters":[{"id":"1093733296","name":"arg#0","klass":"java.lang.Object[]"},{"id":"1093733448","name":"arg#1","klass":"java.lang.Object[]"}],"returns":[{"id":null,"name":"return","klass":"boolean"}],"colors":{"heapLocToColor":{"1093733448.arrayIdx_int:5":[0],"1093733448.arrayIdx_int:4":[0],"sdaReg8":[4],"1093733448.arrayIdx_int:3":[0],"1093733448.arrayIdx_int:2":[0],"sdaReg6":[3],"sdaReg4":[2],"1086109464":[0, 1],"1085657080":[0, 1],"1084422296":[0, 1],"sdaReg14":[7],"sdaReg12":[6],"1093733448":[1],"sdaReg10":[5],"1093725248":[0, 1],"1084693312":[0, 1],"1093733296":[0],"1093733448.arrayIdx_int:0":[0],"1084428816":[0, 1],"1093733448.arrayIdx_int:1":[0]},"colorToColor":{},"colorToLabel":{"0":"arg#0","1":"arg#1","8":"return"}}}

Generated Model

