Scanning method <java.util.ArrayList: boolean equals(java.lang.Object)>

All seen event types: BinaryOperationRecord, SimpleAssignmentRecord, MethodReturnRecord, MethodCallRecord, MethodStartRecord, LoadInstanceRecord, CastRecord, LoadArrayRecord, MethodEndRecord, IfRecord, InstanceOfRecord, 
Ignored event types: IfRecord, 

JSON Encoded Analysis Data (for visualization):{"heapEdges":[{"step":0,"from":"1093396464","to":"1093396464.<java.util.ArrayList: int size>","type":"load","field":"<java.util.ArrayList: int size>"},{"step":1,"from":"1093369392","to":"1093369392.<java.util.ArrayList: int size>","type":"load","field":"<java.util.ArrayList: int size>"},{"step":2,"from":"1093396464","to":"1093682728","type":"load","field":"<java.util.ArrayList: java.lang.Object[] array>"},{"step":3,"from":"1093682728","to":"1093666592","type":"load","field":"arrayIdx_int:0"},{"step":4,"from":"1093369392","to":"1093369392.<java.util.ArrayList: int size>","type":"load","field":"<java.util.ArrayList: int size>"},{"step":5,"from":"1093369392","to":"1093622096","type":"load","field":"<java.util.ArrayList: java.lang.Object[] array>"},{"step":6,"from":"1093622096","to":"1093666592","type":"load","field":"arrayIdx_int:0"},{"step":7,"from":"1093682728","to":"1093570968","type":"load","field":"arrayIdx_int:1"},{"step":8,"from":"1093369392","to":"1093369392.<java.util.ArrayList: int size>","type":"load","field":"<java.util.ArrayList: int size>"},{"step":9,"from":"1093369392","to":"1093622096","type":"load","field":"<java.util.ArrayList: java.lang.Object[] array>"},{"step":10,"from":"1093622096","to":"1093570968","type":"load","field":"arrayIdx_int:1"},{"step":11,"from":"1093682728","to":"1093617112","type":"load","field":"arrayIdx_int:2"},{"step":12,"from":"1093369392","to":"1093369392.<java.util.ArrayList: int size>","type":"load","field":"<java.util.ArrayList: int size>"},{"step":13,"from":"1093369392","to":"1093622096","type":"load","field":"<java.util.ArrayList: java.lang.Object[] array>"},{"step":14,"from":"1093622096","to":"1093617112","type":"load","field":"arrayIdx_int:2"},{"step":15,"from":"1093682728","to":"1093542800","type":"load","field":"arrayIdx_int:3"},{"step":16,"from":"1093369392","to":"1093369392.<java.util.ArrayList: int size>","type":"load","field":"<java.util.ArrayList: int size>"},{"step":17,"from":"1093369392","to":"1093622096","type":"load","field":"<java.util.ArrayList: java.lang.Object[] array>"},{"step":18,"from":"1093622096","to":"1093542800","type":"load","field":"arrayIdx_int:3"},{"step":19,"from":"1093682728","to":"1093546792","type":"load","field":"arrayIdx_int:4"},{"step":20,"from":"1093369392","to":"1093369392.<java.util.ArrayList: int size>","type":"load","field":"<java.util.ArrayList: int size>"},{"step":21,"from":"1093369392","to":"1093622096","type":"load","field":"<java.util.ArrayList: java.lang.Object[] array>"},{"step":22,"from":"1093622096","to":"1093546792","type":"load","field":"arrayIdx_int:4"},{"step":23,"from":"1093682728","to":"1093552560","type":"load","field":"arrayIdx_int:5"},{"step":24,"from":"1093369392","to":"1093369392.<java.util.ArrayList: int size>","type":"load","field":"<java.util.ArrayList: int size>"},{"step":25,"from":"1093369392","to":"1093622096","type":"load","field":"<java.util.ArrayList: java.lang.Object[] array>"},{"step":26,"from":"1093622096","to":"1093552560","type":"load","field":"arrayIdx_int:5"},{"step":27,"from":"1093682728","to":"1093562768","type":"load","field":"arrayIdx_int:6"},{"step":28,"from":"1093369392","to":"1093369392.<java.util.ArrayList: int size>","type":"load","field":"<java.util.ArrayList: int size>"},{"step":29,"from":"1093369392","to":"1093622096","type":"load","field":"<java.util.ArrayList: java.lang.Object[] array>"},{"step":30,"from":"1093622096","to":"1093562768","type":"load","field":"arrayIdx_int:6"},{"step":31,"from":"1093682728","to":"1093312672","type":"load","field":"arrayIdx_int:7"},{"step":32,"from":"1093369392","to":"1093369392.<java.util.ArrayList: int size>","type":"load","field":"<java.util.ArrayList: int size>"},{"step":33,"from":"1093369392","to":"1093622096","type":"load","field":"<java.util.ArrayList: java.lang.Object[] array>"},{"step":34,"from":"1093622096","to":"1093312672","type":"load","field":"arrayIdx_int:7"},{"step":35,"from":"1093682728","to":"1093345248","type":"load","field":"arrayIdx_int:8"},{"step":36,"from":"1093369392","to":"1093369392.<java.util.ArrayList: int size>","type":"load","field":"<java.util.ArrayList: int size>"},{"step":37,"from":"1093369392","to":"1093622096","type":"load","field":"<java.util.ArrayList: java.lang.Object[] array>"},{"step":38,"from":"1093622096","to":"1093345248","type":"load","field":"arrayIdx_int:8"},{"step":39,"from":"1093682728","to":"1093465344","type":"load","field":"arrayIdx_int:9"},{"step":40,"from":"1093369392","to":"1093369392.<java.util.ArrayList: int size>","type":"load","field":"<java.util.ArrayList: int size>"},{"step":41,"from":"1093369392","to":"1093622096","type":"load","field":"<java.util.ArrayList: java.lang.Object[] array>"},{"step":42,"from":"1093622096","to":"1093465344","type":"load","field":"arrayIdx_int:9"},{"step":43,"from":"1093682728","to":"1093466912","type":"load","field":"arrayIdx_int:10"},{"step":44,"from":"1093369392","to":"1093369392.<java.util.ArrayList: int size>","type":"load","field":"<java.util.ArrayList: int size>"},{"step":45,"from":"1093369392","to":"1093622096","type":"load","field":"<java.util.ArrayList: java.lang.Object[] array>"},{"step":46,"from":"1093622096","to":"1093466912","type":"load","field":"arrayIdx_int:10"},{"step":47,"from":"1093682728","to":"1093468472","type":"load","field":"arrayIdx_int:11"},{"step":48,"from":"1093369392","to":"1093369392.<java.util.ArrayList: int size>","type":"load","field":"<java.util.ArrayList: int size>"},{"step":49,"from":"1093369392","to":"1093622096","type":"load","field":"<java.util.ArrayList: java.lang.Object[] array>"},{"step":50,"from":"1093622096","to":"1093468472","type":"load","field":"arrayIdx_int:11"},{"step":51,"from":"1093682728","to":"1093471128","type":"load","field":"arrayIdx_int:12"},{"step":52,"from":"1093369392","to":"1093369392.<java.util.ArrayList: int size>","type":"load","field":"<java.util.ArrayList: int size>"},{"step":53,"from":"1093369392","to":"1093622096","type":"load","field":"<java.util.ArrayList: java.lang.Object[] array>"},{"step":54,"from":"1093622096","to":"1093471128","type":"load","field":"arrayIdx_int:12"},{"step":55,"from":"1093682728","to":"1093473232","type":"load","field":"arrayIdx_int:13"},{"step":56,"from":"1093369392","to":"1093369392.<java.util.ArrayList: int size>","type":"load","field":"<java.util.ArrayList: int size>"},{"step":57,"from":"1093369392","to":"1093622096","type":"load","field":"<java.util.ArrayList: java.lang.Object[] array>"},{"step":58,"from":"1093622096","to":"1093473232","type":"load","field":"arrayIdx_int:13"},{"step":59,"from":"1093682728","to":"1093475376","type":"load","field":"arrayIdx_int:14"},{"step":60,"from":"1093369392","to":"1093369392.<java.util.ArrayList: int size>","type":"load","field":"<java.util.ArrayList: int size>"},{"step":61,"from":"1093369392","to":"1093622096","type":"load","field":"<java.util.ArrayList: java.lang.Object[] array>"},{"step":62,"from":"1093622096","to":"1093475376","type":"load","field":"arrayIdx_int:14"},{"step":63,"from":"1093682728","to":"1093475904","type":"load","field":"arrayIdx_int:15"},{"step":64,"from":"1093369392","to":"1093369392.<java.util.ArrayList: int size>","type":"load","field":"<java.util.ArrayList: int size>"},{"step":65,"from":"1093369392","to":"1093622096","type":"load","field":"<java.util.ArrayList: java.lang.Object[] array>"},{"step":66,"from":"1093622096","to":"1093475904","type":"load","field":"arrayIdx_int:15"},{"step":67,"from":"1093682728","to":"1093476448","type":"load","field":"arrayIdx_int:16"},{"step":68,"from":"1093369392","to":"1093369392.<java.util.ArrayList: int size>","type":"load","field":"<java.util.ArrayList: int size>"},{"step":69,"from":"1093369392","to":"1093622096","type":"load","field":"<java.util.ArrayList: java.lang.Object[] array>"},{"step":70,"from":"1093622096","to":"1093476448","type":"load","field":"arrayIdx_int:16"},{"step":71,"from":"1093682728","to":"1093476984","type":"load","field":"arrayIdx_int:17"},{"step":72,"from":"1093369392","to":"1093369392.<java.util.ArrayList: int size>","type":"load","field":"<java.util.ArrayList: int size>"},{"step":73,"from":"1093369392","to":"1093622096","type":"load","field":"<java.util.ArrayList: java.lang.Object[] array>"},{"step":74,"from":"1093622096","to":"1093476984","type":"load","field":"arrayIdx_int:17"},{"step":75,"from":"1093682728","to":"1093327832","type":"load","field":"arrayIdx_int:18"},{"step":76,"from":"1093369392","to":"1093369392.<java.util.ArrayList: int size>","type":"load","field":"<java.util.ArrayList: int size>"},{"step":77,"from":"1093369392","to":"1093622096","type":"load","field":"<java.util.ArrayList: java.lang.Object[] array>"},{"step":78,"from":"1093622096","to":"1093327832","type":"load","field":"arrayIdx_int:18"},{"step":79,"from":"1093682728","to":"1093349544","type":"load","field":"arrayIdx_int:19"},{"step":80,"from":"1093369392","to":"1093369392.<java.util.ArrayList: int size>","type":"load","field":"<java.util.ArrayList: int size>"},{"step":81,"from":"1093369392","to":"1093622096","type":"load","field":"<java.util.ArrayList: java.lang.Object[] array>"},{"step":82,"from":"1093622096","to":"1093349544","type":"load","field":"arrayIdx_int:19"},{"step":83,"from":"1093682728","to":"1093458824","type":"load","field":"arrayIdx_int:20"},{"step":84,"from":"1093369392","to":"1093369392.<java.util.ArrayList: int size>","type":"load","field":"<java.util.ArrayList: int size>"},{"step":85,"from":"1093369392","to":"1093622096","type":"load","field":"<java.util.ArrayList: java.lang.Object[] array>"},{"step":86,"from":"1093622096","to":"1093458824","type":"load","field":"arrayIdx_int:20"},{"step":87,"from":"1093682728","to":"1093470064","type":"load","field":"arrayIdx_int:21"},{"step":88,"from":"1093369392","to":"1093369392.<java.util.ArrayList: int size>","type":"load","field":"<java.util.ArrayList: int size>"},{"step":89,"from":"1093369392","to":"1093622096","type":"load","field":"<java.util.ArrayList: java.lang.Object[] array>"},{"step":90,"from":"1093622096","to":"1093470064","type":"load","field":"arrayIdx_int:21"},{"step":91,"from":"1093682728","to":"1093472704","type":"load","field":"arrayIdx_int:22"},{"step":92,"from":"1093369392","to":"1093369392.<java.util.ArrayList: int size>","type":"load","field":"<java.util.ArrayList: int size>"},{"step":93,"from":"1093369392","to":"1093622096","type":"load","field":"<java.util.ArrayList: java.lang.Object[] array>"},{"step":94,"from":"1093622096","to":"1093472704","type":"load","field":"arrayIdx_int:22"},{"step":95,"from":"1093682728","to":"1093314784","type":"load","field":"arrayIdx_int:23"},{"step":96,"from":"1093369392","to":"1093369392.<java.util.ArrayList: int size>","type":"load","field":"<java.util.ArrayList: int size>"},{"step":97,"from":"1093369392","to":"1093622096","type":"load","field":"<java.util.ArrayList: java.lang.Object[] array>"},{"step":98,"from":"1093622096","to":"1093314784","type":"load","field":"arrayIdx_int:23"},{"step":99,"from":"1093682728","to":"1093324784","type":"load","field":"arrayIdx_int:24"},{"step":100,"from":"1093369392","to":"1093369392.<java.util.ArrayList: int size>","type":"load","field":"<java.util.ArrayList: int size>"},{"step":101,"from":"1093369392","to":"1093622096","type":"load","field":"<java.util.ArrayList: java.lang.Object[] array>"},{"step":102,"from":"1093622096","to":"1093324784","type":"load","field":"arrayIdx_int:24"},{"step":103,"from":"1093682728","to":"1093331840","type":"load","field":"arrayIdx_int:25"},{"step":104,"from":"1093369392","to":"1093369392.<java.util.ArrayList: int size>","type":"load","field":"<java.util.ArrayList: int size>"},{"step":105,"from":"1093369392","to":"1093622096","type":"load","field":"<java.util.ArrayList: java.lang.Object[] array>"},{"step":106,"from":"1093622096","to":"1093331840","type":"load","field":"arrayIdx_int:25"},{"step":107,"from":"1093682728","to":"1093335832","type":"load","field":"arrayIdx_int:26"},{"step":108,"from":"1093369392","to":"1093369392.<java.util.ArrayList: int size>","type":"load","field":"<java.util.ArrayList: int size>"},{"step":109,"from":"1093369392","to":"1093622096","type":"load","field":"<java.util.ArrayList: java.lang.Object[] array>"},{"step":110,"from":"1093622096","to":"1093335832","type":"load","field":"arrayIdx_int:26"},{"step":111,"from":"1093682728","to":"1093464840","type":"load","field":"arrayIdx_int:27"},{"step":112,"from":"1093369392","to":"1093369392.<java.util.ArrayList: int size>","type":"load","field":"<java.util.ArrayList: int size>"},{"step":113,"from":"1093369392","to":"1093622096","type":"load","field":"<java.util.ArrayList: java.lang.Object[] array>"},{"step":114,"from":"1093622096","to":"1093464840","type":"load","field":"arrayIdx_int:27"},{"step":115,"from":"1093682728","to":"1093352528","type":"load","field":"arrayIdx_int:28"},{"step":116,"from":"1093369392","to":"1093369392.<java.util.ArrayList: int size>","type":"load","field":"<java.util.ArrayList: int size>"},{"step":117,"from":"1093369392","to":"1093622096","type":"load","field":"<java.util.ArrayList: java.lang.Object[] array>"},{"step":118,"from":"1093622096","to":"1093352528","type":"load","field":"arrayIdx_int:28"},{"step":119,"from":"1093682728","to":"1093315256","type":"load","field":"arrayIdx_int:29"},{"step":120,"from":"1093369392","to":"1093369392.<java.util.ArrayList: int size>","type":"load","field":"<java.util.ArrayList: int size>"},{"step":121,"from":"1093369392","to":"1093622096","type":"load","field":"<java.util.ArrayList: java.lang.Object[] array>"},{"step":122,"from":"1093622096","to":"1093315256","type":"load","field":"arrayIdx_int:29"},{"step":123,"from":"1093682728","to":"1093317480","type":"load","field":"arrayIdx_int:30"},{"step":124,"from":"1093369392","to":"1093369392.<java.util.ArrayList: int size>","type":"load","field":"<java.util.ArrayList: int size>"},{"step":125,"from":"1093369392","to":"1093622096","type":"load","field":"<java.util.ArrayList: java.lang.Object[] array>"},{"step":126,"from":"1093622096","to":"1093317480","type":"load","field":"arrayIdx_int:30"},{"step":127,"from":"1093682728","to":"1093318376","type":"load","field":"arrayIdx_int:31"},{"step":128,"from":"1093369392","to":"1093369392.<java.util.ArrayList: int size>","type":"load","field":"<java.util.ArrayList: int size>"},{"step":129,"from":"1093369392","to":"1093622096","type":"load","field":"<java.util.ArrayList: java.lang.Object[] array>"},{"step":130,"from":"1093622096","to":"1093318376","type":"load","field":"arrayIdx_int:31"},{"step":131,"from":"1093682728","to":"1093333352","type":"load","field":"arrayIdx_int:32"},{"step":132,"from":"1093369392","to":"1093369392.<java.util.ArrayList: int size>","type":"load","field":"<java.util.ArrayList: int size>"},{"step":133,"from":"1093369392","to":"1093622096","type":"load","field":"<java.util.ArrayList: java.lang.Object[] array>"},{"step":134,"from":"1093622096","to":"1093333352","type":"load","field":"arrayIdx_int:32"},{"step":135,"from":"1093682728","to":"1093443776","type":"load","field":"arrayIdx_int:33"},{"step":136,"from":"1093369392","to":"1093369392.<java.util.ArrayList: int size>","type":"load","field":"<java.util.ArrayList: int size>"},{"step":137,"from":"1093369392","to":"1093622096","type":"load","field":"<java.util.ArrayList: java.lang.Object[] array>"},{"step":138,"from":"1093622096","to":"1093443776","type":"load","field":"arrayIdx_int:33"},{"step":139,"from":"1093682728","to":"1093356568","type":"load","field":"arrayIdx_int:34"},{"step":140,"from":"1093369392","to":"1093369392.<java.util.ArrayList: int size>","type":"load","field":"<java.util.ArrayList: int size>"},{"step":141,"from":"1093369392","to":"1093622096","type":"load","field":"<java.util.ArrayList: java.lang.Object[] array>"},{"step":142,"from":"1093622096","to":"1093356568","type":"load","field":"arrayIdx_int:34"},{"step":143,"from":"1093682728","to":"1093272128","type":"load","field":"arrayIdx_int:35"},{"step":144,"from":"1093369392","to":"1093369392.<java.util.ArrayList: int size>","type":"load","field":"<java.util.ArrayList: int size>"},{"step":145,"from":"1093369392","to":"1093622096","type":"load","field":"<java.util.ArrayList: java.lang.Object[] array>"},{"step":146,"from":"1093622096","to":"1093272128","type":"load","field":"arrayIdx_int:35"},{"step":147,"from":"1093682728","to":"1093358544","type":"load","field":"arrayIdx_int:36"},{"step":148,"from":"1093369392","to":"1093369392.<java.util.ArrayList: int size>","type":"load","field":"<java.util.ArrayList: int size>"},{"step":149,"from":"1093369392","to":"1093622096","type":"load","field":"<java.util.ArrayList: java.lang.Object[] array>"},{"step":150,"from":"1093622096","to":"1093358544","type":"load","field":"arrayIdx_int:36"},{"step":151,"from":"1093682728","to":"1093359736","type":"load","field":"arrayIdx_int:37"},{"step":152,"from":"1093369392","to":"1093369392.<java.util.ArrayList: int size>","type":"load","field":"<java.util.ArrayList: int size>"},{"step":153,"from":"1093369392","to":"1093622096","type":"load","field":"<java.util.ArrayList: java.lang.Object[] array>"},{"step":154,"from":"1093622096","to":"1093359736","type":"load","field":"arrayIdx_int:37"},{"step":155,"from":"1093682728","to":"1093372696","type":"load","field":"arrayIdx_int:38"},{"step":156,"from":"1093369392","to":"1093369392.<java.util.ArrayList: int size>","type":"load","field":"<java.util.ArrayList: int size>"},{"step":157,"from":"1093369392","to":"1093622096","type":"load","field":"<java.util.ArrayList: java.lang.Object[] array>"},{"step":158,"from":"1093622096","to":"1093372696","type":"load","field":"arrayIdx_int:38"},{"step":159,"from":"1093682728","to":"1093428200","type":"load","field":"arrayIdx_int:39"},{"step":160,"from":"1093369392","to":"1093369392.<java.util.ArrayList: int size>","type":"load","field":"<java.util.ArrayList: int size>"},{"step":161,"from":"1093369392","to":"1093622096","type":"load","field":"<java.util.ArrayList: java.lang.Object[] array>"},{"step":162,"from":"1093622096","to":"1093428200","type":"load","field":"arrayIdx_int:39"},{"step":163,"from":"1093682728","to":"1093428592","type":"load","field":"arrayIdx_int:40"},{"step":164,"from":"1093369392","to":"1093369392.<java.util.ArrayList: int size>","type":"load","field":"<java.util.ArrayList: int size>"},{"step":165,"from":"1093369392","to":"1093622096","type":"load","field":"<java.util.ArrayList: java.lang.Object[] array>"},{"step":166,"from":"1093622096","to":"1093428592","type":"load","field":"arrayIdx_int:40"},{"step":167,"from":"1093682728","to":"1093485488","type":"load","field":"arrayIdx_int:41"},{"step":168,"from":"1093369392","to":"1093369392.<java.util.ArrayList: int size>","type":"load","field":"<java.util.ArrayList: int size>"},{"step":169,"from":"1093369392","to":"1093622096","type":"load","field":"<java.util.ArrayList: java.lang.Object[] array>"},{"step":170,"from":"1093622096","to":"1093485488","type":"load","field":"arrayIdx_int:41"},{"step":171,"from":"1093682728","to":"1093484688","type":"load","field":"arrayIdx_int:42"},{"step":172,"from":"1093369392","to":"1093369392.<java.util.ArrayList: int size>","type":"load","field":"<java.util.ArrayList: int size>"},{"step":173,"from":"1093369392","to":"1093622096","type":"load","field":"<java.util.ArrayList: java.lang.Object[] array>"},{"step":174,"from":"1093622096","to":"1093484688","type":"load","field":"arrayIdx_int:42"},{"step":175,"from":"1093682728","to":"1093485880","type":"load","field":"arrayIdx_int:43"},{"step":176,"from":"1093369392","to":"1093369392.<java.util.ArrayList: int size>","type":"load","field":"<java.util.ArrayList: int size>"},{"step":177,"from":"1093369392","to":"1093622096","type":"load","field":"<java.util.ArrayList: java.lang.Object[] array>"},{"step":178,"from":"1093622096","to":"1093485880","type":"load","field":"arrayIdx_int:43"},{"step":179,"from":"1093682728","to":"1093380888","type":"load","field":"arrayIdx_int:44"},{"step":180,"from":"1093369392","to":"1093369392.<java.util.ArrayList: int size>","type":"load","field":"<java.util.ArrayList: int size>"},{"step":181,"from":"1093369392","to":"1093622096","type":"load","field":"<java.util.ArrayList: java.lang.Object[] array>"},{"step":182,"from":"1093622096","to":"1093380888","type":"load","field":"arrayIdx_int:44"},{"step":183,"from":"1093682728","to":"1093508016","type":"load","field":"arrayIdx_int:45"},{"step":184,"from":"1093369392","to":"1093369392.<java.util.ArrayList: int size>","type":"load","field":"<java.util.ArrayList: int size>"},{"step":185,"from":"1093369392","to":"1093622096","type":"load","field":"<java.util.ArrayList: java.lang.Object[] array>"},{"step":186,"from":"1093622096","to":"1093508016","type":"load","field":"arrayIdx_int:45"},{"step":187,"from":"1093682728","to":"1093514224","type":"load","field":"arrayIdx_int:46"},{"step":188,"from":"1093369392","to":"1093369392.<java.util.ArrayList: int size>","type":"load","field":"<java.util.ArrayList: int size>"},{"step":189,"from":"1093369392","to":"1093622096","type":"load","field":"<java.util.ArrayList: java.lang.Object[] array>"},{"step":190,"from":"1093622096","to":"1093514224","type":"load","field":"arrayIdx_int:46"},{"step":191,"from":"1093682728","to":"1093286408","type":"load","field":"arrayIdx_int:47"},{"step":192,"from":"1093369392","to":"1093369392.<java.util.ArrayList: int size>","type":"load","field":"<java.util.ArrayList: int size>"},{"step":193,"from":"1093369392","to":"1093622096","type":"load","field":"<java.util.ArrayList: java.lang.Object[] array>"},{"step":194,"from":"1093622096","to":"1093286408","type":"load","field":"arrayIdx_int:47"},{"step":195,"from":"1093682728","to":"1093300840","type":"load","field":"arrayIdx_int:48"},{"step":196,"from":"1093369392","to":"1093369392.<java.util.ArrayList: int size>","type":"load","field":"<java.util.ArrayList: int size>"},{"step":197,"from":"1093369392","to":"1093622096","type":"load","field":"<java.util.ArrayList: java.lang.Object[] array>"},{"step":198,"from":"1093622096","to":"1093300840","type":"load","field":"arrayIdx_int:48"},{"step":199,"from":"1093682728","to":"1093367464","type":"load","field":"arrayIdx_int:49"},{"step":200,"from":"1093369392","to":"1093369392.<java.util.ArrayList: int size>","type":"load","field":"<java.util.ArrayList: int size>"},{"step":201,"from":"1093369392","to":"1093622096","type":"load","field":"<java.util.ArrayList: java.lang.Object[] array>"},{"step":202,"from":"1093622096","to":"1093367464","type":"load","field":"arrayIdx_int:49"},{"step":203,"from":"1093682728","to":"1093370032","type":"load","field":"arrayIdx_int:50"},{"step":204,"from":"1093369392","to":"1093369392.<java.util.ArrayList: int size>","type":"load","field":"<java.util.ArrayList: int size>"},{"step":205,"from":"1093369392","to":"1093622096","type":"load","field":"<java.util.ArrayList: java.lang.Object[] array>"},{"step":206,"from":"1093622096","to":"1093370032","type":"load","field":"arrayIdx_int:50"},{"step":207,"from":"1093682728","to":"1093372328","type":"load","field":"arrayIdx_int:51"},{"step":208,"from":"1093369392","to":"1093369392.<java.util.ArrayList: int size>","type":"load","field":"<java.util.ArrayList: int size>"},{"step":209,"from":"1093369392","to":"1093622096","type":"load","field":"<java.util.ArrayList: java.lang.Object[] array>"},{"step":210,"from":"1093622096","to":"1093372328","type":"load","field":"arrayIdx_int:51"},{"step":211,"from":"1093682728","to":"1093384392","type":"load","field":"arrayIdx_int:52"},{"step":212,"from":"1093369392","to":"1093369392.<java.util.ArrayList: int size>","type":"load","field":"<java.util.ArrayList: int size>"},{"step":213,"from":"1093369392","to":"1093622096","type":"load","field":"<java.util.ArrayList: java.lang.Object[] array>"},{"step":214,"from":"1093622096","to":"1093384392","type":"load","field":"arrayIdx_int:52"},{"step":215,"from":"1093682728","to":"1093389984","type":"load","field":"arrayIdx_int:53"},{"step":216,"from":"1093369392","to":"1093369392.<java.util.ArrayList: int size>","type":"load","field":"<java.util.ArrayList: int size>"},{"step":217,"from":"1093369392","to":"1093622096","type":"load","field":"<java.util.ArrayList: java.lang.Object[] array>"},{"step":218,"from":"1093622096","to":"1093389984","type":"load","field":"arrayIdx_int:53"},{"step":219,"from":"1093682728","to":"1093391072","type":"load","field":"arrayIdx_int:54"},{"step":220,"from":"1093369392","to":"1093369392.<java.util.ArrayList: int size>","type":"load","field":"<java.util.ArrayList: int size>"},{"step":221,"from":"1093369392","to":"1093622096","type":"load","field":"<java.util.ArrayList: java.lang.Object[] array>"},{"step":222,"from":"1093622096","to":"1093391072","type":"load","field":"arrayIdx_int:54"},{"step":223,"from":"1093682728","to":"1093392504","type":"load","field":"arrayIdx_int:55"},{"step":224,"from":"1093369392","to":"1093369392.<java.util.ArrayList: int size>","type":"load","field":"<java.util.ArrayList: int size>"},{"step":225,"from":"1093369392","to":"1093622096","type":"load","field":"<java.util.ArrayList: java.lang.Object[] array>"},{"step":226,"from":"1093622096","to":"1093392504","type":"load","field":"arrayIdx_int:55"},{"step":227,"from":"1093682728","to":"1093399176","type":"load","field":"arrayIdx_int:56"},{"step":228,"from":"1093369392","to":"1093369392.<java.util.ArrayList: int size>","type":"load","field":"<java.util.ArrayList: int size>"},{"step":229,"from":"1093369392","to":"1093622096","type":"load","field":"<java.util.ArrayList: java.lang.Object[] array>"},{"step":230,"from":"1093622096","to":"1093399176","type":"load","field":"arrayIdx_int:56"},{"step":231,"from":"1093682728","to":"1093417088","type":"load","field":"arrayIdx_int:57"},{"step":232,"from":"1093369392","to":"1093369392.<java.util.ArrayList: int size>","type":"load","field":"<java.util.ArrayList: int size>"},{"step":233,"from":"1093369392","to":"1093622096","type":"load","field":"<java.util.ArrayList: java.lang.Object[] array>"},{"step":234,"from":"1093622096","to":"1093417088","type":"load","field":"arrayIdx_int:57"},{"step":235,"from":"1093682728","to":"1093509768","type":"load","field":"arrayIdx_int:58"},{"step":236,"from":"1093369392","to":"1093369392.<java.util.ArrayList: int size>","type":"load","field":"<java.util.ArrayList: int size>"},{"step":237,"from":"1093369392","to":"1093622096","type":"load","field":"<java.util.ArrayList: java.lang.Object[] array>"},{"step":238,"from":"1093622096","to":"1093509768","type":"load","field":"arrayIdx_int:58"},{"step":239,"from":"1093682728","to":"1093510816","type":"load","field":"arrayIdx_int:59"},{"step":240,"from":"1093369392","to":"1093369392.<java.util.ArrayList: int size>","type":"load","field":"<java.util.ArrayList: int size>"},{"step":241,"from":"1093369392","to":"1093622096","type":"load","field":"<java.util.ArrayList: java.lang.Object[] array>"},{"step":242,"from":"1093622096","to":"1093510816","type":"load","field":"arrayIdx_int:59"},{"step":243,"from":"1093682728","to":"1093521024","type":"load","field":"arrayIdx_int:60"},{"step":244,"from":"1093369392","to":"1093369392.<java.util.ArrayList: int size>","type":"load","field":"<java.util.ArrayList: int size>"},{"step":245,"from":"1093369392","to":"1093622096","type":"load","field":"<java.util.ArrayList: java.lang.Object[] array>"},{"step":246,"from":"1093622096","to":"1093521024","type":"load","field":"arrayIdx_int:60"},{"step":247,"from":"1093682728","to":"1093527032","type":"load","field":"arrayIdx_int:61"},{"step":248,"from":"1093369392","to":"1093369392.<java.util.ArrayList: int size>","type":"load","field":"<java.util.ArrayList: int size>"},{"step":249,"from":"1093369392","to":"1093622096","type":"load","field":"<java.util.ArrayList: java.lang.Object[] array>"},{"step":250,"from":"1093622096","to":"1093527032","type":"load","field":"arrayIdx_int:61"},{"step":251,"from":"1093682728","to":"1093285368","type":"load","field":"arrayIdx_int:62"},{"step":252,"from":"1093369392","to":"1093369392.<java.util.ArrayList: int size>","type":"load","field":"<java.util.ArrayList: int size>"},{"step":253,"from":"1093369392","to":"1093622096","type":"load","field":"<java.util.ArrayList: java.lang.Object[] array>"},{"step":254,"from":"1093622096","to":"1093285368","type":"load","field":"arrayIdx_int:62"},{"step":255,"from":"1093682728","to":"1093293128","type":"load","field":"arrayIdx_int:63"},{"step":256,"from":"1093369392","to":"1093369392.<java.util.ArrayList: int size>","type":"load","field":"<java.util.ArrayList: int size>"},{"step":257,"from":"1093369392","to":"1093622096","type":"load","field":"<java.util.ArrayList: java.lang.Object[] array>"},{"step":258,"from":"1093622096","to":"1093293128","type":"load","field":"arrayIdx_int:63"},{"step":259,"from":"1093682728","to":"1093295608","type":"load","field":"arrayIdx_int:64"},{"step":260,"from":"1093369392","to":"1093369392.<java.util.ArrayList: int size>","type":"load","field":"<java.util.ArrayList: int size>"},{"step":261,"from":"1093369392","to":"1093622096","type":"load","field":"<java.util.ArrayList: java.lang.Object[] array>"},{"step":262,"from":"1093622096","to":"1093295608","type":"load","field":"arrayIdx_int:64"},{"step":263,"from":"1093682728","to":"1093375696","type":"load","field":"arrayIdx_int:65"},{"step":264,"from":"1093369392","to":"1093369392.<java.util.ArrayList: int size>","type":"load","field":"<java.util.ArrayList: int size>"},{"step":265,"from":"1093369392","to":"1093622096","type":"load","field":"<java.util.ArrayList: java.lang.Object[] array>"},{"step":266,"from":"1093622096","to":"1093375696","type":"load","field":"arrayIdx_int:65"},{"step":267,"from":"1093682728","to":"1093376680","type":"load","field":"arrayIdx_int:66"},{"step":268,"from":"1093369392","to":"1093369392.<java.util.ArrayList: int size>","type":"load","field":"<java.util.ArrayList: int size>"},{"step":269,"from":"1093369392","to":"1093622096","type":"load","field":"<java.util.ArrayList: java.lang.Object[] array>"},{"step":270,"from":"1093622096","to":"1093376680","type":"load","field":"arrayIdx_int:66"},{"step":271,"from":"1093682728","to":"1093382640","type":"load","field":"arrayIdx_int:67"},{"step":272,"from":"1093369392","to":"1093369392.<java.util.ArrayList: int size>","type":"load","field":"<java.util.ArrayList: int size>"},{"step":273,"from":"1093369392","to":"1093622096","type":"load","field":"<java.util.ArrayList: java.lang.Object[] array>"},{"step":274,"from":"1093622096","to":"1093382640","type":"load","field":"arrayIdx_int:67"},{"step":275,"from":"1093682728","to":"1093387312","type":"load","field":"arrayIdx_int:68"},{"step":276,"from":"1093369392","to":"1093369392.<java.util.ArrayList: int size>","type":"load","field":"<java.util.ArrayList: int size>"},{"step":277,"from":"1093369392","to":"1093622096","type":"load","field":"<java.util.ArrayList: java.lang.Object[] array>"},{"step":278,"from":"1093622096","to":"1093387312","type":"load","field":"arrayIdx_int:68"},{"step":279,"from":"1093682728","to":"1093388608","type":"load","field":"arrayIdx_int:69"},{"step":280,"from":"1093369392","to":"1093369392.<java.util.ArrayList: int size>","type":"load","field":"<java.util.ArrayList: int size>"},{"step":281,"from":"1093369392","to":"1093622096","type":"load","field":"<java.util.ArrayList: java.lang.Object[] array>"},{"step":282,"from":"1093622096","to":"1093388608","type":"load","field":"arrayIdx_int:69"},{"step":283,"from":"1093682728","to":"1093404736","type":"load","field":"arrayIdx_int:70"},{"step":284,"from":"1093369392","to":"1093369392.<java.util.ArrayList: int size>","type":"load","field":"<java.util.ArrayList: int size>"},{"step":285,"from":"1093369392","to":"1093622096","type":"load","field":"<java.util.ArrayList: java.lang.Object[] array>"},{"step":286,"from":"1093622096","to":"1093404736","type":"load","field":"arrayIdx_int:70"},{"step":287,"from":"1093682728","to":"1093418032","type":"load","field":"arrayIdx_int:71"},{"step":288,"from":"1093369392","to":"1093369392.<java.util.ArrayList: int size>","type":"load","field":"<java.util.ArrayList: int size>"},{"step":289,"from":"1093369392","to":"1093622096","type":"load","field":"<java.util.ArrayList: java.lang.Object[] array>"},{"step":290,"from":"1093622096","to":"1093418032","type":"load","field":"arrayIdx_int:71"},{"step":291,"from":"1093682728","to":"1093426264","type":"load","field":"arrayIdx_int:72"},{"step":292,"from":"1093369392","to":"1093369392.<java.util.ArrayList: int size>","type":"load","field":"<java.util.ArrayList: int size>"},{"step":293,"from":"1093369392","to":"1093622096","type":"load","field":"<java.util.ArrayList: java.lang.Object[] array>"},{"step":294,"from":"1093622096","to":"1093426264","type":"load","field":"arrayIdx_int:72"},{"step":295,"from":"1093682728","to":"1093496944","type":"load","field":"arrayIdx_int:73"},{"step":296,"from":"1093369392","to":"1093369392.<java.util.ArrayList: int size>","type":"load","field":"<java.util.ArrayList: int size>"},{"step":297,"from":"1093369392","to":"1093622096","type":"load","field":"<java.util.ArrayList: java.lang.Object[] array>"},{"step":298,"from":"1093622096","to":"1093496944","type":"load","field":"arrayIdx_int:73"},{"step":299,"from":"1093682728","to":"1093504872","type":"load","field":"arrayIdx_int:74"},{"step":300,"from":"1093369392","to":"1093369392.<java.util.ArrayList: int size>","type":"load","field":"<java.util.ArrayList: int size>"},{"step":301,"from":"1093369392","to":"1093622096","type":"load","field":"<java.util.ArrayList: java.lang.Object[] array>"},{"step":302,"from":"1093622096","to":"1093504872","type":"load","field":"arrayIdx_int:74"},{"step":303,"from":"1093682728","to":"1093505200","type":"load","field":"arrayIdx_int:75"},{"step":304,"from":"1093369392","to":"1093369392.<java.util.ArrayList: int size>","type":"load","field":"<java.util.ArrayList: int size>"},{"step":305,"from":"1093369392","to":"1093622096","type":"load","field":"<java.util.ArrayList: java.lang.Object[] array>"},{"step":306,"from":"1093622096","to":"1093505200","type":"load","field":"arrayIdx_int:75"},{"step":307,"from":"1093682728","to":"1093506184","type":"load","field":"arrayIdx_int:76"},{"step":308,"from":"1093369392","to":"1093369392.<java.util.ArrayList: int size>","type":"load","field":"<java.util.ArrayList: int size>"},{"step":309,"from":"1093369392","to":"1093622096","type":"load","field":"<java.util.ArrayList: java.lang.Object[] array>"},{"step":310,"from":"1093622096","to":"1093506184","type":"load","field":"arrayIdx_int:76"},{"step":311,"from":"1093682728","to":"1093505856","type":"load","field":"arrayIdx_int:77"},{"step":312,"from":"1093369392","to":"1093369392.<java.util.ArrayList: int size>","type":"load","field":"<java.util.ArrayList: int size>"},{"step":313,"from":"1093369392","to":"1093622096","type":"load","field":"<java.util.ArrayList: java.lang.Object[] array>"},{"step":314,"from":"1093622096","to":"1093505856","type":"load","field":"arrayIdx_int:77"},{"step":315,"from":"1093682728","to":"1093511160","type":"load","field":"arrayIdx_int:78"},{"step":316,"from":"1093369392","to":"1093369392.<java.util.ArrayList: int size>","type":"load","field":"<java.util.ArrayList: int size>"},{"step":317,"from":"1093369392","to":"1093622096","type":"load","field":"<java.util.ArrayList: java.lang.Object[] array>"},{"step":318,"from":"1093622096","to":"1093511160","type":"load","field":"arrayIdx_int:78"},{"step":319,"from":"1093682728","to":"1093516808","type":"load","field":"arrayIdx_int:79"},{"step":320,"from":"1093369392","to":"1093369392.<java.util.ArrayList: int size>","type":"load","field":"<java.util.ArrayList: int size>"},{"step":321,"from":"1093369392","to":"1093622096","type":"load","field":"<java.util.ArrayList: java.lang.Object[] array>"},{"step":322,"from":"1093622096","to":"1093516808","type":"load","field":"arrayIdx_int:79"},{"step":323,"from":"1093682728","to":"1093531288","type":"load","field":"arrayIdx_int:80"},{"step":324,"from":"1093369392","to":"1093369392.<java.util.ArrayList: int size>","type":"load","field":"<java.util.ArrayList: int size>"},{"step":325,"from":"1093369392","to":"1093622096","type":"load","field":"<java.util.ArrayList: java.lang.Object[] array>"},{"step":326,"from":"1093622096","to":"1093531288","type":"load","field":"arrayIdx_int:80"},{"step":327,"from":"1093682728","to":"1093532272","type":"load","field":"arrayIdx_int:81"},{"step":328,"from":"1093369392","to":"1093369392.<java.util.ArrayList: int size>","type":"load","field":"<java.util.ArrayList: int size>"},{"step":329,"from":"1093369392","to":"1093622096","type":"load","field":"<java.util.ArrayList: java.lang.Object[] array>"},{"step":330,"from":"1093622096","to":"1093532272","type":"load","field":"arrayIdx_int:81"},{"step":331,"from":"1093682728","to":"1093531944","type":"load","field":"arrayIdx_int:82"},{"step":332,"from":"1093369392","to":"1093369392.<java.util.ArrayList: int size>","type":"load","field":"<java.util.ArrayList: int size>"},{"step":333,"from":"1093369392","to":"1093622096","type":"load","field":"<java.util.ArrayList: java.lang.Object[] array>"},{"step":334,"from":"1093622096","to":"1093531944","type":"load","field":"arrayIdx_int:82"},{"step":335,"from":"1093682728","to":"1093288904","type":"load","field":"arrayIdx_int:83"},{"step":336,"from":"1093369392","to":"1093369392.<java.util.ArrayList: int size>","type":"load","field":"<java.util.ArrayList: int size>"},{"step":337,"from":"1093369392","to":"1093622096","type":"load","field":"<java.util.ArrayList: java.lang.Object[] array>"},{"step":338,"from":"1093622096","to":"1093288904","type":"load","field":"arrayIdx_int:83"},{"step":339,"from":"1093682728","to":"1093294680","type":"load","field":"arrayIdx_int:84"},{"step":340,"from":"1093369392","to":"1093369392.<java.util.ArrayList: int size>","type":"load","field":"<java.util.ArrayList: int size>"},{"step":341,"from":"1093369392","to":"1093622096","type":"load","field":"<java.util.ArrayList: java.lang.Object[] array>"},{"step":342,"from":"1093622096","to":"1093294680","type":"load","field":"arrayIdx_int:84"},{"step":343,"from":"1093682728","to":"1093295920","type":"load","field":"arrayIdx_int:85"},{"step":344,"from":"1093369392","to":"1093369392.<java.util.ArrayList: int size>","type":"load","field":"<java.util.ArrayList: int size>"},{"step":345,"from":"1093369392","to":"1093622096","type":"load","field":"<java.util.ArrayList: java.lang.Object[] array>"},{"step":346,"from":"1093622096","to":"1093295920","type":"load","field":"arrayIdx_int:85"},{"step":347,"from":"1093682728","to":"1093294976","type":"load","field":"arrayIdx_int:86"},{"step":348,"from":"1093369392","to":"1093369392.<java.util.ArrayList: int size>","type":"load","field":"<java.util.ArrayList: int size>"},{"step":349,"from":"1093369392","to":"1093622096","type":"load","field":"<java.util.ArrayList: java.lang.Object[] array>"},{"step":350,"from":"1093622096","to":"1093294976","type":"load","field":"arrayIdx_int:86"},{"step":351,"from":"1093682728","to":"1093367792","type":"load","field":"arrayIdx_int:87"},{"step":352,"from":"1093369392","to":"1093369392.<java.util.ArrayList: int size>","type":"load","field":"<java.util.ArrayList: int size>"},{"step":353,"from":"1093369392","to":"1093622096","type":"load","field":"<java.util.ArrayList: java.lang.Object[] array>"},{"step":354,"from":"1093622096","to":"1093367792","type":"load","field":"arrayIdx_int:87"},{"step":355,"from":"1093682728","to":"1093372008","type":"load","field":"arrayIdx_int:88"},{"step":356,"from":"1093369392","to":"1093369392.<java.util.ArrayList: int size>","type":"load","field":"<java.util.ArrayList: int size>"},{"step":357,"from":"1093369392","to":"1093622096","type":"load","field":"<java.util.ArrayList: java.lang.Object[] array>"},{"step":358,"from":"1093622096","to":"1093372008","type":"load","field":"arrayIdx_int:88"},{"step":359,"from":"1093682728","to":"1093386360","type":"load","field":"arrayIdx_int:89"},{"step":360,"from":"1093369392","to":"1093369392.<java.util.ArrayList: int size>","type":"load","field":"<java.util.ArrayList: int size>"},{"step":361,"from":"1093369392","to":"1093622096","type":"load","field":"<java.util.ArrayList: java.lang.Object[] array>"},{"step":362,"from":"1093622096","to":"1093386360","type":"load","field":"arrayIdx_int:89"},{"step":363,"from":"1093682728","to":"1093385376","type":"load","field":"arrayIdx_int:90"},{"step":364,"from":"1093369392","to":"1093369392.<java.util.ArrayList: int size>","type":"load","field":"<java.util.ArrayList: int size>"},{"step":365,"from":"1093369392","to":"1093622096","type":"load","field":"<java.util.ArrayList: java.lang.Object[] array>"},{"step":366,"from":"1093622096","to":"1093385376","type":"load","field":"arrayIdx_int:90"},{"step":367,"from":"1093682728","to":"1093400216","type":"load","field":"arrayIdx_int:91"},{"step":368,"from":"1093369392","to":"1093369392.<java.util.ArrayList: int size>","type":"load","field":"<java.util.ArrayList: int size>"},{"step":369,"from":"1093369392","to":"1093622096","type":"load","field":"<java.util.ArrayList: java.lang.Object[] array>"},{"step":370,"from":"1093622096","to":"1093400216","type":"load","field":"arrayIdx_int:91"},{"step":371,"from":"1093682728","to":"1093417424","type":"load","field":"arrayIdx_int:92"},{"step":372,"from":"1093369392","to":"1093369392.<java.util.ArrayList: int size>","type":"load","field":"<java.util.ArrayList: int size>"},{"step":373,"from":"1093369392","to":"1093622096","type":"load","field":"<java.util.ArrayList: java.lang.Object[] array>"},{"step":374,"from":"1093622096","to":"1093417424","type":"load","field":"arrayIdx_int:92"},{"step":375,"from":"1093682728","to":"1093421960","type":"load","field":"arrayIdx_int:93"},{"step":376,"from":"1093369392","to":"1093369392.<java.util.ArrayList: int size>","type":"load","field":"<java.util.ArrayList: int size>"},{"step":377,"from":"1093369392","to":"1093622096","type":"load","field":"<java.util.ArrayList: java.lang.Object[] array>"},{"step":378,"from":"1093622096","to":"1093421960","type":"load","field":"arrayIdx_int:93"},{"step":379,"from":"1093682728","to":"1093424736","type":"load","field":"arrayIdx_int:94"},{"step":380,"from":"1093369392","to":"1093369392.<java.util.ArrayList: int size>","type":"load","field":"<java.util.ArrayList: int size>"},{"step":381,"from":"1093369392","to":"1093622096","type":"load","field":"<java.util.ArrayList: java.lang.Object[] array>"},{"step":382,"from":"1093622096","to":"1093424736","type":"load","field":"arrayIdx_int:94"},{"step":383,"from":"1093682728","to":"1093513896","type":"load","field":"arrayIdx_int:95"},{"step":384,"from":"1093369392","to":"1093369392.<java.util.ArrayList: int size>","type":"load","field":"<java.util.ArrayList: int size>"},{"step":385,"from":"1093369392","to":"1093622096","type":"load","field":"<java.util.ArrayList: java.lang.Object[] array>"},{"step":386,"from":"1093622096","to":"1093513896","type":"load","field":"arrayIdx_int:95"},{"step":387,"from":"1093682728","to":"1093261920","type":"load","field":"arrayIdx_int:96"},{"step":388,"from":"1093369392","to":"1093369392.<java.util.ArrayList: int size>","type":"load","field":"<java.util.ArrayList: int size>"},{"step":389,"from":"1093369392","to":"1093622096","type":"load","field":"<java.util.ArrayList: java.lang.Object[] array>"},{"step":390,"from":"1093622096","to":"1093261920","type":"load","field":"arrayIdx_int:96"},{"step":391,"from":"1093682728","to":"1093270832","type":"load","field":"arrayIdx_int:97"},{"step":392,"from":"1093369392","to":"1093369392.<java.util.ArrayList: int size>","type":"load","field":"<java.util.ArrayList: int size>"},{"step":393,"from":"1093369392","to":"1093622096","type":"load","field":"<java.util.ArrayList: java.lang.Object[] array>"},{"step":394,"from":"1093622096","to":"1093270832","type":"load","field":"arrayIdx_int:97"},{"step":395,"from":"1093682728","to":"1093290720","type":"load","field":"arrayIdx_int:98"},{"step":396,"from":"1093369392","to":"1093369392.<java.util.ArrayList: int size>","type":"load","field":"<java.util.ArrayList: int size>"},{"step":397,"from":"1093369392","to":"1093622096","type":"load","field":"<java.util.ArrayList: java.lang.Object[] array>"},{"step":398,"from":"1093622096","to":"1093290720","type":"load","field":"arrayIdx_int:98"},{"step":399,"from":"1093682728","to":"1093411896","type":"load","field":"arrayIdx_int:99"},{"step":400,"from":"1093369392","to":"1093369392.<java.util.ArrayList: int size>","type":"load","field":"<java.util.ArrayList: int size>"},{"step":401,"from":"1093369392","to":"1093622096","type":"load","field":"<java.util.ArrayList: java.lang.Object[] array>"},{"step":402,"from":"1093622096","to":"1093411896","type":"load","field":"arrayIdx_int:99"}],"parameters":[{"id":"1093396464","name":"this","klass":"java.util.ArrayList"},{"id":"1093369392","name":"arg#1","klass":"java.lang.Object"}],"returns":[{"id":null,"name":"return","klass":"boolean"}],"colors":{"heapLocToColor":{"sdaReg294":[0, 1],"sdaReg191":[1],"sdaReg293":[1],"sdaReg190":[63],"sdaReg296":[1],"1093285368":[0, 1],"sdaReg193":[64],"sdaReg295":[98],"sdaReg192":[0, 1],"sdaReg298":[99],"sdaReg297":[0, 1],"1093270832":[0, 1],"sdaReg299":[1],"sdaReg199":[66],"sdaReg198":[0, 1],"sdaReg290":[1],"sdaReg195":[0, 1],"sdaReg194":[1],"sdaReg292":[97],"sdaReg197":[1],"sdaReg291":[0, 1],"sdaReg196":[65],"1093418032":[0, 1],"1093443776":[0, 1],"1093531288":[0, 1],"1093372328":[0, 1],"1093484688":[0, 1],"1093300840":[0, 1],"1093421960":[0, 1],"sdaReg171":[0, 1],"sdaReg170":[1],"sdaReg173":[1],"sdaReg172":[57],"sdaReg175":[58],"sdaReg174":[0, 1],"sdaReg177":[0, 1],"sdaReg176":[1],"sdaReg179":[1],"1093424736":[0, 1],"sdaReg178":[59],"sdaReg182":[1],"sdaReg181":[60],"1093294680":[0, 1],"sdaReg180":[0, 1],"sdaReg186":[0, 1],"sdaReg185":[1],"sdaReg184":[61],"sdaReg183":[0, 1],"1093531944":[0, 1],"sdaReg189":[0, 1],"sdaReg188":[1],"sdaReg187":[62],"1093682728":[0],"1093312672":[0, 1],"1093372696":[0, 1],"1093369392.<java.util.ArrayList: java.lang.Object[] array>":[1],"1093510816":[0, 1],"1093476448":[0, 1],"1093358544":[0, 1],"1093384392":[0, 1],"1093327832":[0, 1],"1093400216":[0, 1],"1093404736":[0, 1],"1093318376":[0, 1],"1093367464":[0, 1],"1093476984":[0, 1],"1093272128":[0, 1],"1093471128":[0, 1],"1093293128":[0, 1],"sdaReg68":[1],"sdaReg69":[0, 1],"sdaReg66":[0, 1],"sdaReg67":[22],"sdaReg64":[21],"sdaReg65":[1],"sdaReg62":[1],"sdaReg63":[0, 1],"sdaReg72":[0, 1],"sdaReg71":[1],"sdaReg70":[23],"1093382640":[0, 1],"1093504872":[0, 1],"1093546792":[0, 1],"sdaReg77":[1],"sdaReg78":[0, 1],"sdaReg79":[26],"sdaReg73":[24],"sdaReg74":[1],"sdaReg75":[0, 1],"sdaReg76":[25],"sdaReg81":[0, 1],"sdaReg80":[1],"sdaReg83":[1],"1093290720":[0, 1],"sdaReg82":[27],"1093396464":[0],"1093324784":[0, 1],"1093622096.arrayIdx_int:14":[0],"1093622096.arrayIdx_int:13":[0],"1093622096.arrayIdx_int:12":[0],"1093622096.arrayIdx_int:11":[0],"1093622096.arrayIdx_int:18":[0],"1093622096.arrayIdx_int:17":[0],"1093622096.arrayIdx_int:16":[0],"1093622096.arrayIdx_int:15":[0],"sdaReg86":[1],"1093288904":[0, 1],"sdaReg87":[0, 1],"sdaReg84":[0, 1],"sdaReg85":[28],"1093622096.arrayIdx_int:10":[0],"sdaReg88":[29],"sdaReg89":[1],"sdaReg90":[0, 1],"sdaReg94":[31],"sdaReg93":[0, 1],"sdaReg92":[1],"1093465344":[0, 1],"sdaReg91":[30],"1093372008":[0, 1],"1093622096.arrayIdx_int:19":[0],"1093458824":[0, 1],"1093570968":[0, 1],"sdaReg95":[1],"sdaReg96":[0, 1],"sdaReg97":[32],"sdaReg98":[1],"sdaReg99":[0, 1],"1093295608":[0, 1],"1093475904":[0, 1],"1093505200":[0, 1],"1093367792":[0, 1],"1093417088":[0, 1],"1093399176":[0, 1],"1093475376":[0, 1],"1093622096":[1],"1093417424":[0, 1],"1093389984":[0, 1],"1093376680":[0, 1],"1093666592":[0, 1],"1093464840":[0, 1],"1093542800":[0, 1],"1093622096.arrayIdx_int:48":[0],"1093622096.arrayIdx_int:49":[0],"1093622096.arrayIdx_int:46":[0],"1093622096.arrayIdx_int:47":[0],"1093622096.arrayIdx_int:44":[0],"1093622096.arrayIdx_int:45":[0],"1093622096.arrayIdx_int:42":[0],"1093622096.arrayIdx_int:43":[0],"1093622096.arrayIdx_int:40":[0],"1093622096.arrayIdx_int:41":[0],"sdaReg13":[4],"sdaReg14":[1],"sdaReg11":[1],"sdaReg12":[0, 1],"1093532272":[0, 1],"sdaReg10":[3],"sdaReg19":[6],"sdaReg17":[1],"sdaReg18":[0, 1],"sdaReg15":[0, 1],"sdaReg16":[5],"1093622096.arrayIdx_int:59":[0],"1093392504":[0, 1],"1093622096.arrayIdx_int:55":[0],"1093622096.arrayIdx_int:56":[0],"1093622096.arrayIdx_int:57":[0],"1093622096.arrayIdx_int:58":[0],"1093622096.arrayIdx_int:51":[0],"1093622096.arrayIdx_int:52":[0],"1093622096.arrayIdx_int:53":[0],"1093622096.arrayIdx_int:54":[0],"1093428200":[0, 1],"1093622096.arrayIdx_int:50":[0],"1093286408":[0, 1],"1093388608":[0, 1],"1093385376":[0, 1],"1093622096.arrayIdx_int:24":[0],"1093295920":[0, 1],"1093622096.arrayIdx_int:25":[0],"1093622096.arrayIdx_int:22":[0],"1093622096.arrayIdx_int:23":[0],"1093622096.arrayIdx_int:28":[0],"1093622096.arrayIdx_int:29":[0],"1093622096.arrayIdx_int:26":[0],"1093622096.arrayIdx_int:27":[0],"sdaReg304":[101],"1093622096.arrayIdx_int:20":[0],"sdaReg303":[0, 1],"1093622096.arrayIdx_int:21":[0],"sdaReg302":[1],"sdaReg301":[100],"sdaReg300":[0, 1],"1093356568":[0, 1],"1093622096.arrayIdx_int:33":[0],"1093622096.arrayIdx_int:34":[0],"1093622096.arrayIdx_int:35":[0],"1093622096.arrayIdx_int:36":[0],"1093622096.arrayIdx_int:37":[0],"1093622096.arrayIdx_int:38":[0],"1093622096.arrayIdx_int:39":[0],"1093369392":[1],"1093622096.arrayIdx_int:30":[0],"1093622096.arrayIdx_int:31":[0],"1093380888":[0, 1],"1093622096.arrayIdx_int:32":[0],"1093352528":[0, 1],"1093622096.arrayIdx_int:87":[0],"sdaReg60":[0, 1],"1093622096.arrayIdx_int:86":[0],"sdaReg61":[20],"1093622096.arrayIdx_int:85":[0],"1093622096.arrayIdx_int:84":[0],"1093622096.arrayIdx_int:83":[0],"1093349544":[0, 1],"1093617112":[0, 1],"1093622096.arrayIdx_int:82":[0],"1093622096.arrayIdx_int:81":[0],"1093622096.arrayIdx_int:80":[0],"1093622096.arrayIdx_int:89":[0],"1093511160":[0, 1],"1093622096.arrayIdx_int:88":[0],"1093506184":[0, 1],"1093370032":[0, 1],"sdaReg59":[1],"sdaReg58":[19],"1093622096.arrayIdx_int:90":[0],"sdaReg57":[0, 1],"sdaReg56":[1],"sdaReg55":[18],"sdaReg54":[0, 1],"sdaReg53":[1],"sdaReg52":[17],"sdaReg51":[0, 1],"1093622096.arrayIdx_int:96":[0],"1093622096.arrayIdx_int:95":[0],"1093622096.arrayIdx_int:98":[0],"1093622096.arrayIdx_int:97":[0],"sdaReg50":[1],"1093622096.arrayIdx_int:92":[0],"1093622096.arrayIdx_int:91":[0],"1093622096.arrayIdx_int:94":[0],"1093622096.arrayIdx_int:93":[0],"1093622096.arrayIdx_int:99":[0],"1093514224":[0, 1],"sdaReg49":[16],"sdaReg48":[0, 1],"sdaReg45":[0, 1],"sdaReg44":[1],"sdaReg47":[1],"sdaReg46":[15],"sdaReg41":[1],"sdaReg40":[13],"sdaReg43":[14],"sdaReg42":[0, 1],"1093622096.arrayIdx_int:61":[0],"1093622096.arrayIdx_int:60":[0],"1093622096.arrayIdx_int:65":[0],"1093622096.arrayIdx_int:64":[0],"1093622096.arrayIdx_int:63":[0],"1093622096.arrayIdx_int:62":[0],"1093622096.arrayIdx_int:69":[0],"1093622096.arrayIdx_int:68":[0],"1093315256":[0, 1],"1093622096.arrayIdx_int:67":[0],"1093622096.arrayIdx_int:66":[0],"sdaReg200":[1],"sdaReg201":[0, 1],"sdaReg205":[68],"sdaReg39":[0, 1],"sdaReg204":[0, 1],"sdaReg38":[1],"sdaReg203":[1],"sdaReg37":[12],"sdaReg202":[67],"sdaReg209":[1],"sdaReg208":[69],"1093505856":[0, 1],"sdaReg207":[0, 1],"sdaReg206":[1],"sdaReg32":[1],"sdaReg31":[10],"sdaReg30":[0, 1],"sdaReg36":[0, 1],"sdaReg35":[1],"sdaReg34":[11],"sdaReg33":[0, 1],"1093622096.arrayIdx_int:70":[0],"sdaReg8":[1],"1093622096.arrayIdx_int:72":[0],"sdaReg9":[0, 1],"1093622096.arrayIdx_int:71":[0],"sdaReg6":[0, 1],"1093622096.arrayIdx_int:74":[0],"sdaReg7":[2],"1093622096.arrayIdx_int:73":[0],"1093622096.arrayIdx_int:76":[0],"1093622096.arrayIdx_int:75":[0],"sdaReg5":[1],"1093622096.arrayIdx_int:78":[0],"1093466912":[0, 1],"1093622096.arrayIdx_int:77":[0],"1093622096.arrayIdx_int:79":[0],"sdaReg27":[0, 1],"sdaReg26":[1],"sdaReg29":[1],"sdaReg28":[9],"1093335832":[0, 1],"sdaReg2":[1],"1093345248":[0, 1],"sdaReg21":[0, 1],"sdaReg20":[1],"1093369392.<java.util.ArrayList: int size>":[1],"sdaReg23":[1],"sdaReg22":[7],"sdaReg25":[8],"sdaReg24":[0, 1],"sdaReg125":[1],"sdaReg126":[0, 1],"1093622096.arrayIdx_int:8":[0],"sdaReg127":[42],"1093527032":[0, 1],"1093622096.arrayIdx_int:9":[0],"sdaReg128":[1],"sdaReg129":[0, 1],"sdaReg228":[0, 1],"sdaReg229":[76],"sdaReg224":[1],"sdaReg225":[0, 1],"1093470064":[0, 1],"sdaReg226":[75],"sdaReg227":[1],"1093473232":[0, 1],"sdaReg221":[1],"sdaReg220":[73],"sdaReg223":[74],"sdaReg222":[0, 1],"1093622096.arrayIdx_int:3":[0],"1093622096.arrayIdx_int:2":[0],"1093622096.arrayIdx_int:1":[0],"sdaReg120":[0, 1],"1093513896":[0, 1],"1093622096.arrayIdx_int:0":[0],"1093622096.arrayIdx_int:7":[0],"sdaReg122":[1],"1093622096.arrayIdx_int:6":[0],"sdaReg121":[40],"1093622096.arrayIdx_int:5":[0],"sdaReg124":[41],"1093622096.arrayIdx_int:4":[0],"sdaReg123":[0, 1],"sdaReg116":[1],"sdaReg117":[0, 1],"sdaReg114":[0, 1],"1093314784":[0, 1],"sdaReg115":[38],"sdaReg118":[39],"sdaReg119":[1],"sdaReg219":[0, 1],"sdaReg217":[72],"sdaReg218":[1],"sdaReg215":[1],"sdaReg216":[0, 1],"sdaReg213":[0, 1],"sdaReg214":[71],"sdaReg212":[1],"sdaReg211":[70],"sdaReg210":[0, 1],"sdaReg113":[1],"sdaReg112":[37],"sdaReg111":[0, 1],"sdaReg110":[1],"sdaReg107":[1],"sdaReg108":[0, 1],"sdaReg109":[36],"sdaReg103":[34],"sdaReg104":[1],"sdaReg105":[0, 1],"sdaReg106":[35],"sdaReg246":[0, 1],"sdaReg247":[82],"sdaReg248":[1],"sdaReg249":[0, 1],"1093359736":[0, 1],"sdaReg241":[80],"1093428592":[0, 1],"sdaReg240":[0, 1],"sdaReg243":[0, 1],"sdaReg242":[1],"1093411896":[0, 1],"sdaReg245":[1],"sdaReg244":[81],"1093485488":[0, 1],"sdaReg100":[33],"1093294976":[0, 1],"sdaReg102":[0, 1],"sdaReg101":[1],"1093391072":[0, 1],"1093485880":[0, 1],"1093468472":[0, 1],"1093261920":[0, 1],"sdaReg237":[0, 1],"sdaReg238":[79],"sdaReg235":[78],"sdaReg236":[1],"sdaReg239":[1],"sdaReg230":[1],"sdaReg234":[0, 1],"sdaReg233":[1],"sdaReg232":[77],"sdaReg231":[0, 1],"1093387312":[0, 1],"sdaReg269":[1],"sdaReg268":[89],"1093508016":[0, 1],"1093496944":[0, 1],"sdaReg169":[56],"1093317480":[0, 1],"sdaReg161":[1],"sdaReg162":[0, 1],"sdaReg163":[54],"sdaReg164":[1],"sdaReg165":[0, 1],"sdaReg166":[55],"sdaReg167":[1],"sdaReg168":[0, 1],"sdaReg264":[0, 1],"sdaReg265":[88],"sdaReg266":[1],"sdaReg267":[0, 1],"sdaReg260":[1],"sdaReg261":[0, 1],"sdaReg262":[87],"sdaReg263":[1],"sdaReg160":[53],"sdaReg259":[86],"1093516808":[0, 1],"sdaReg258":[0, 1],"sdaReg257":[1],"1093375696":[0, 1],"sdaReg159":[0, 1],"sdaReg158":[1],"1093472704":[0, 1],"sdaReg152":[1],"sdaReg153":[0, 1],"sdaReg150":[0, 1],"1093396464.<java.util.ArrayList: int size>":[0],"sdaReg151":[50],"sdaReg156":[0, 1],"sdaReg157":[52],"sdaReg154":[51],"sdaReg155":[1],"sdaReg255":[0, 1],"sdaReg256":[85],"1093552560":[0, 1],"sdaReg253":[84],"sdaReg254":[1],"sdaReg251":[1],"sdaReg252":[0, 1],"sdaReg250":[83],"1093562768":[0, 1],"sdaReg148":[49],"1093426264":[0, 1],"sdaReg147":[0, 1],"sdaReg149":[1],"sdaReg143":[1],"sdaReg144":[0, 1],"sdaReg145":[48],"sdaReg146":[1],"1093521024":[0, 1],"sdaReg140":[1],"1093509768":[0, 1],"sdaReg280":[93],"sdaReg141":[0, 1],"sdaReg281":[1],"sdaReg142":[47],"sdaReg282":[0, 1],"sdaReg283":[94],"sdaReg284":[1],"1093386360":[0, 1],"sdaReg285":[0, 1],"sdaReg286":[95],"sdaReg287":[1],"sdaReg288":[0, 1],"sdaReg289":[96],"1093333352":[0, 1],"sdaReg279":[0, 1],"1093331840":[0, 1],"sdaReg139":[46],"sdaReg138":[0, 1],"sdaReg137":[1],"sdaReg136":[45],"sdaReg134":[1],"sdaReg135":[0, 1],"sdaReg132":[0, 1],"sdaReg133":[44],"sdaReg130":[43],"sdaReg270":[0, 1],"sdaReg131":[1],"sdaReg273":[0, 1],"sdaReg274":[91],"sdaReg271":[90],"sdaReg272":[1],"sdaReg277":[92],"sdaReg278":[1],"sdaReg275":[1],"sdaReg276":[0, 1]},"colorToColor":{},"colorToLabel":{"0":"this","1":"arg#1","102":"return"}}}

Generated Model

