Scanning method <java.io.FileOutputStream: void close()>

All seen event types: SimpleAssignmentRecord, ExitMonitorRecord, LoadInstanceRecord, MethodStartRecord, IfRecord, StoreInstanceRecord, InstanceOfRecord, NewObjectRecord, MethodCallRecord, MethodReturnRecord, EnterMonitorRecord, CastRecord, MethodEndRecord, 
Ignored event types: ExitMonitorRecord, EnterMonitorRecord, IfRecord, 

JSON Encoded Analysis Data (for visualization):{"heapEdges":[{"step":0,"from":"1093512168","to":"1083966016","type":"load","field":"<java.io.FileOutputStream: dalvik.system.CloseGuard guard>"},{"step":1,"from":"1093512168","to":"1093512240","type":"load","field":"<java.io.FileOutputStream: java.nio.channels.FileChannel channel>"},{"step":2,"from":"1093512168","to":"1093512240","type":"load","field":"<java.io.FileOutputStream: java.nio.channels.FileChannel channel>"},{"step":3,"from":"1093512240","to":"1093512240.<java.nio.channels.spi.AbstractInterruptibleChannel: boolean closed>","type":"load","field":"<java.nio.channels.spi.AbstractInterruptibleChannel: boolean closed>"},{"step":4,"from":"1093512240","to":"1093512240.<java.nio.channels.spi.AbstractInterruptibleChannel: boolean closed>","type":"load","field":"<java.nio.channels.spi.AbstractInterruptibleChannel: boolean closed>"},{"step":5,"from":"1093512240","to":"sdaReg3","type":"create","field":"<java.nio.channels.spi.AbstractInterruptibleChannel: boolean closed>"},{"step":6,"from":"1093512240","to":"1093512168","type":"load","field":"<java.nio.FileChannelImpl: java.lang.Object stream>"},{"step":7,"from":"1093512240","to":"1093512168","type":"load","field":"<java.nio.FileChannelImpl: java.lang.Object stream>"},{"step":8,"from":"1093512168","to":"1083966016","type":"load","field":"<java.io.FileOutputStream: dalvik.system.CloseGuard guard>"},{"step":9,"from":"1093512168","to":"1093512240","type":"load","field":"<java.io.FileOutputStream: java.nio.channels.FileChannel channel>"},{"step":10,"from":"1093512168","to":"1093512240","type":"load","field":"<java.io.FileOutputStream: java.nio.channels.FileChannel channel>"},{"step":11,"from":"1093512168","to":"1093512168.<java.io.FileOutputStream: boolean shouldClose>","type":"load","field":"<java.io.FileOutputStream: boolean shouldClose>"},{"step":12,"from":"1093512168","to":"1093246080","type":"create","field":"<java.io.FileOutputStream: java.io.FileDescriptor fd>"},{"step":13,"from":"1093512168","to":"1093512168.<java.io.FileOutputStream: boolean shouldClose>","type":"load","field":"<java.io.FileOutputStream: boolean shouldClose>"},{"step":14,"from":"1093512168","to":"1093298896","type":"create","field":"<java.io.FileOutputStream: java.io.FileDescriptor fd>"}],"parameters":[{"id":"1093512168","name":"this","klass":"java.io.FileOutputStream"}],"returns":[{"id":null,"name":"return","klass":null}],"colors":{"heapLocToColor":{"1093512168.<java.io.FileOutputStream: java.nio.channels.FileChannel channel>":[0],"1093512240.<java.nio.FileChannelImpl: java.lang.Object stream>":[0],"sdaReg8":[0],"1093246080":[1],"sdaReg9":[0],"sdaReg6":[0],"sdaReg7":[0],"sdaReg4":[0],"1093298896":[2],"1093512168":[0],"sdaReg11":[2],"sdaReg10":[1],"1093512168.<java.io.FileOutputStream: dalvik.system.CloseGuard guard>":[0],"1093512240.<java.nio.channels.spi.AbstractInterruptibleChannel: boolean closed>":[0],"1093512240":[0],"sdaReg2":[0],"sdaReg1":[0],"1093512168.<java.io.FileOutputStream: boolean shouldClose>":[0],"1083966016":[0]},"colorToColor":{"1":[0],"2":[0]},"colorToLabel":{"0":"this","3":"return"}}}

Generated Model

