Scanning method <java.net.URL: void <init>(java.net.URL,java.lang.String)>

All seen event types: StoreArrayRecord, SimpleAssignmentRecord, MethodStartRecord, LoadInstanceRecord, IfRecord, NewObjectRecord, StoreInstanceRecord, LoadStaticRecord, BinaryOperationRecord, SwitchRecord, MethodCallRecord, MethodReturnRecord, ArrayLengthRecord, CastRecord, LoadArrayRecord, MethodEndRecord, 
Ignored event types: SwitchRecord, IfRecord, 

JSON Encoded Analysis Data (for visualization):{"heapEdges":[{"step":0,"from":"1093487696","to":"sdaReg4","type":"create","field":"<java.net.URL: int port>"},{"step":1,"from":"sdaReg0","to":"sdaReg5","type":"model"},{"step":2,"from":"sdaReg5","to":"sdaReg6","type":"model"},{"step":3,"from":"sdaReg5","to":"sdaReg8","type":"model"},{"step":4,"from":"sdaReg5","to":"sdaReg10","type":"model"},{"step":5,"from":"sdaReg5","to":"sdaReg12","type":"model"},{"step":6,"from":"sdaReg5","to":"sdaReg14","type":"model"},{"step":7,"from":"sdaReg5","to":"sdaReg16","type":"model"},{"step":8,"from":"sdaReg5","to":"sdaReg18","type":"model"},{"step":9,"from":"static.<java.util.Locale: java.util.Locale US>","to":"1084317688","type":"load","field":"<java.util.Locale: java.util.Locale US>"},{"step":10,"from":"sdaReg18","to":"1084317688","type":"model"},{"step":11,"from":"sdaReg18","to":"sdaReg19","type":"model"},{"step":12,"from":"1084317688","to":"sdaReg18","type":"model"},{"step":13,"from":"1084317688","to":"sdaReg19","type":"model"},{"step":14,"from":"sdaReg19","to":"1093487696","type":"store","field":"<java.net.URL: java.lang.String protocol>"},{"step":15,"from":"1093675688","to":"1093675688.<java.net.URL: java.lang.String protocol>","type":"load","field":"<java.net.URL: java.lang.String protocol>"},{"step":16,"from":"static.<java.net.URL: java.util.Hashtable streamHandlers>","to":"1084315112","type":"load","field":"<java.net.URL: java.util.Hashtable streamHandlers>"},{"step":17,"from":"1084315112","to":"1084321912","type":"load","field":"<java.util.Hashtable: java.util.Hashtable$HashtableEntry[] table>"},{"step":18,"from":"1093464976","to":"1093270936","type":"model"},{"step":19,"from":"1093487696","to":"1093572920","type":"create","field":"<java.net.URL: java.net.URLStreamHandler streamHandler>"},{"step":20,"from":"static.<java.net.URL: java.util.Hashtable streamHandlers>","to":"1084315112","type":"load","field":"<java.net.URL: java.util.Hashtable streamHandlers>"},{"step":21,"from":"1084315112","to":"1084321912","type":"load","field":"<java.util.Hashtable: java.util.Hashtable$HashtableEntry[] table>"},{"step":22,"from":"1084315112","to":"1084315112.<java.util.Hashtable: int modCount>","type":"load","field":"<java.util.Hashtable: int modCount>"},{"step":23,"from":"sdaReg69","to":"1084315112","type":"store","field":"<java.util.Hashtable: int modCount>"},{"step":24,"from":"1084315112","to":"1084315112.<java.util.Hashtable: int size>","type":"load","field":"<java.util.Hashtable: int size>"},{"step":25,"from":"sdaReg70","to":"1084315112","type":"store","field":"<java.util.Hashtable: int size>"},{"step":26,"from":"1084315112","to":"1084315112.<java.util.Hashtable: int threshold>","type":"load","field":"<java.util.Hashtable: int threshold>"},{"step":27,"from":"1093540344","to":"1093658112","type":"store","field":"<java.util.Hashtable$HashtableEntry: java.lang.Object key>"},{"step":28,"from":"1093572920","to":"1093658112","type":"store","field":"<java.util.Hashtable$HashtableEntry: java.lang.Object value>"},{"step":29,"from":"sdaReg64","to":"1093658112","type":"store","field":"<java.util.Hashtable$HashtableEntry: int hash>"},{"step":30,"from":"1084321912","to":"1093658112","type":"create","field":"arrayIdx_int:0"},{"step":31,"from":"sdaReg5","to":"sdaReg22","type":"model"},{"step":32,"from":"sdaReg5","to":"sdaReg81","type":"model"},{"step":33,"from":"sdaReg22","to":"sdaReg5","type":"model"},{"step":34,"from":"sdaReg22","to":"sdaReg81","type":"model"},{"step":35,"from":"1093487696","to":"1093487696.<java.net.URL: java.lang.String authority>","type":"load","field":"<java.net.URL: java.lang.String authority>"},{"step":36,"from":"1093487696","to":"1093487696.<java.net.URL: java.lang.String userInfo>","type":"load","field":"<java.net.URL: java.lang.String userInfo>"},{"step":37,"from":"1093487696","to":"1093487696.<java.net.URL: java.lang.String host>","type":"load","field":"<java.net.URL: java.lang.String host>"},{"step":38,"from":"1093487696","to":"1093487696.<java.net.URL: java.lang.String path>","type":"load","field":"<java.net.URL: java.lang.String path>"},{"step":39,"from":"1093487696","to":"1093487696.<java.net.URL: java.lang.String query>","type":"load","field":"<java.net.URL: java.lang.String query>"},{"step":40,"from":"1093487696","to":"1093487696.<java.net.URL: java.lang.String ref>","type":"load","field":"<java.net.URL: java.lang.String ref>"},{"step":41,"from":"sdaReg5","to":"sdaReg92","type":"model"},{"step":42,"from":"sdaReg5","to":"sdaReg95","type":"model"},{"step":43,"from":"sdaReg93","to":"sdaReg95","type":"model"},{"step":44,"from":"sdaReg93","to":"sdaReg96","type":"model"},{"step":45,"from":"sdaReg95","to":"sdaReg93","type":"model"},{"step":46,"from":"sdaReg95","to":"sdaReg96","type":"model"},{"step":47,"from":"sdaReg5","to":"sdaReg97","type":"model"},{"step":48,"from":"sdaReg97","to":"sdaReg98","type":"model"},{"step":49,"from":"1093487696.<java.net.URL: java.lang.String host>","to":"1093487696","type":"store","field":"<java.net.URL: java.lang.String host>"},{"step":50,"from":"sdaReg104","to":"1093487696","type":"store","field":"<java.net.URL: java.lang.String file>"},{"step":51,"from":"sdaReg87","to":"1093487696","type":"store","field":"<java.net.URL: int port>"},{"step":52,"from":"1093487696.<java.net.URL: java.lang.String ref>","to":"1093487696","type":"store","field":"<java.net.URL: java.lang.String ref>"},{"step":53,"from":"1093487696","to":"sdaReg106","type":"create","field":"<java.net.URL: int hashCode>"},{"step":54,"from":"1093487696","to":"sdaReg112","type":"create","field":"<java.net.URL: java.lang.String userInfo>"},{"step":55,"from":"1093487696","to":"sdaReg115","type":"create","field":"<java.net.URL: java.lang.String query>"},{"step":56,"from":"sdaReg116","to":"1093487696","type":"store","field":"<java.net.URL: java.lang.String path>"},{"step":57,"from":"1093487696.<java.net.URL: java.lang.String authority>","to":"1093487696","type":"store","field":"<java.net.URL: java.lang.String authority>"},{"step":58,"from":"1093487696.<java.net.URL: java.lang.String userInfo>","to":"1093487696","type":"store","field":"<java.net.URL: java.lang.String userInfo>"},{"step":59,"from":"sdaReg97","to":"1093487696","type":"store","field":"<java.net.URL: java.lang.String path>"},{"step":60,"from":"1093487696.<java.net.URL: java.lang.String query>","to":"1093487696","type":"store","field":"<java.net.URL: java.lang.String query>"}],"parameters":[{"id":"1093487696","name":"this","klass":"java.net.URL"},{"id":"1093675688","name":"arg#1","klass":"java.net.URL"},{"id":"sdaReg0","name":"arg#2","klass":"string"}],"returns":[{"id":"1093487696","name":"return","klass":"java.net.URL"}],"colors":{"heapLocToColor":{"1084315112.<java.util.Hashtable: int modCount>":[15],"1093270936":[19, 20],"1093487696.<java.net.URL: java.lang.String query>":[0],"sdaReg69":[15],"sdaReg67":[26],"sdaReg64":[26],"sdaReg62":[26],"sdaReg63":[26],"sdaReg14":[2, 3, 8],"sdaReg71":[27],"sdaReg70":[15],"sdaReg12":[2, 3, 7],"sdaReg10":[2, 3, 6],"1093487696.<java.net.URL: java.lang.String path>":[0],"sdaReg19":[2, 3, 10, 12],"sdaReg18":[2, 3, 10],"sdaReg16":[2, 3, 9],"sdaReg117":[0],"sdaReg114":[37],"sdaReg77":[28],"1084315112.<java.util.Hashtable: int size>":[15],"sdaReg78":[25],"sdaReg79":[0],"sdaReg73":[25],"sdaReg75":[27],"sdaReg76":[27],"sdaReg81":[2, 3, 29],"1084321912":[15],"sdaReg83":[0],"sdaReg82":[2, 3, 13],"sdaReg113":[37],"sdaReg111":[36],"1084315112":[15],"sdaReg110":[36],"sdaReg107":[0],"static.<java.net.URL: java.util.Hashtable streamHandlers>":[15],"sdaReg109":[35],"sdaReg103":[0],"sdaReg104":[2, 33, 3],"sdaReg105":[0],"sdaReg86":[0],"sdaReg84":[0],"sdaReg85":[0],"sdaReg88":[0],"sdaReg89":[0],"sdaReg90":[0],"1084315112.<java.util.Hashtable: java.util.Hashtable$HashtableEntry[] table>":[15],"1093658112":[27],"sdaReg94":[2, 3, 13],"sdaReg92":[2, 3, 30],"sdaReg91":[2, 3, 28, 13],"sdaReg102":[0],"sdaReg101":[25],"sdaReg95":[2, 3, 31],"sdaReg96":[32],"sdaReg97":[2, 3, 33],"1093464976":[19],"sdaReg98":[34, 2, 33, 3],"sdaReg99":[0],"1093487696.<java.net.URL: java.lang.String ref>":[0],"static.<java.net.URL: java.net.URLStreamHandlerFactory streamHandlerFactory>":[17],"sdaReg60":[26],"sdaReg61":[26],"1093487696.<java.net.URL: java.lang.String host>":[0],"1084315112.<java.util.Hashtable: int threshold>":[15],"1093487696.<java.net.URL: java.lang.String authority>":[0],"sdaReg59":[26],"sdaReg58":[26],"sdaReg57":[26],"sdaReg56":[26],"sdaReg55":[25],"sdaReg53":[15],"sdaReg52":[25],"sdaReg51":[25],"1093675688":[1],"sdaReg50":[25],"1084317688":[2, 3, 10, 11],"sdaReg49":[25],"sdaReg48":[25],"sdaReg45":[22],"sdaReg44":[21],"sdaReg47":[24],"sdaReg46":[23],"sdaReg41":[18],"sdaReg43":[19, 20],"1093675688.<java.net.URL: java.lang.String protocol>":[1],"sdaReg42":[19],"1093487696":[0],"sdaReg38":[16],"sdaReg32":[16],"sdaReg31":[16],"sdaReg30":[16],"sdaReg35":[16],"sdaReg34":[16],"sdaReg33":[16],"sdaReg8":[2, 3, 5],"sdaReg6":[2, 3, 4],"sdaReg5":[2, 3],"sdaReg27":[16],"sdaReg29":[16],"sdaReg28":[16],"static.<java.util.Locale: java.util.Locale US>":[11],"1093572920":[25],"sdaReg3":[0],"sdaReg2":[1],"sdaReg1":[0],"sdaReg21":[13],"sdaReg0":[2],"sdaReg20":[13],"sdaReg23":[14],"sdaReg22":[2, 3, 13],"1093487696.<java.net.URL: java.lang.String userInfo>":[0],"sdaReg25":[15],"sdaReg24":[0]},"colorToColor":{"0":[0, 38],"2":[0, 32, 2, 3, 10, 29, 12],"3":[0, 32, 2, 3, 10, 29, 12],"33":[0],"10":[0, 2, 3, 10, 12],"11":[2, 3, 10, 12],"12":[0],"13":[2, 3, 29],"15":[15],"25":[0, 27],"27":[15],"26":[27],"31":[32]},"colorToLabel":{"0":"this","1":"arg#1","2":"arg#2","11":"<java.util.Locale: java.util.Locale US>","15":"<java.net.URL: java.util.Hashtable streamHandlers>","17":"<java.net.URL: java.net.URLStreamHandlerFactory streamHandlerFactory>","38":"return"}}}

Generated Model
	this->return
	arg#2->this
	arg#2->return

