Scanning method <java.net.URL: void <init>(java.net.URL,java.lang.String)>

All seen event types: BinaryOperationRecord, SimpleAssignmentRecord, SwitchRecord, MethodReturnRecord, MethodCallRecord, LoadInstanceRecord, MethodStartRecord, MethodEndRecord, IfRecord, NewObjectRecord, StoreInstanceRecord, 
Ignored event types: SwitchRecord, IfRecord, 

JSON Encoded Analysis Data (for visualization):{"heapEdges":[{"step":0,"from":"1093647280","to":"sdaReg4","type":"create","field":"<java.net.URL: int port>"},{"step":1,"from":"sdaReg0","to":"sdaReg5","type":"model"},{"step":2,"from":"sdaReg5","to":"sdaReg6","type":"model"},{"step":3,"from":"1093647280","to":"sdaReg7","type":"create","field":"<java.net.URL: java.lang.String protocol>"},{"step":4,"from":"1093618472","to":"1093618472.<java.net.URL: java.lang.String protocol>","type":"load","field":"<java.net.URL: java.lang.String protocol>"},{"step":5,"from":"1093618472","to":"1093618472.<java.net.URL: java.lang.String host>","type":"load","field":"<java.net.URL: java.lang.String host>"},{"step":6,"from":"1093618472","to":"1093618472.<java.net.URL: int port>","type":"load","field":"<java.net.URL: int port>"},{"step":7,"from":"1093618472","to":"1093618472.<java.net.URL: java.lang.String authority>","type":"load","field":"<java.net.URL: java.lang.String authority>"},{"step":8,"from":"1093618472","to":"1093618472.<java.net.URL: java.lang.String userInfo>","type":"load","field":"<java.net.URL: java.lang.String userInfo>"},{"step":9,"from":"1093618472","to":"1093618472.<java.net.URL: java.lang.String path>","type":"load","field":"<java.net.URL: java.lang.String path>"},{"step":10,"from":"1093618472","to":"1093618472.<java.net.URL: java.lang.String query>","type":"load","field":"<java.net.URL: java.lang.String query>"},{"step":11,"from":"1093618472","to":"1093618472.<java.net.URL: java.lang.String ref>","type":"load","field":"<java.net.URL: java.lang.String ref>"},{"step":12,"from":"1093618472.<java.net.URL: java.lang.String query>","to":"sdaReg19","type":"model"},{"step":13,"from":"sdaReg18","to":"1093648808","type":"model"},{"step":14,"from":"sdaReg18","to":"1093648808","type":"model"},{"step":15,"from":"1093618472.<java.net.URL: java.lang.String query>","to":"1093648808","type":"model"},{"step":16,"from":"1093618472.<java.net.URL: java.lang.String query>","to":"1093648808","type":"model"},{"step":17,"from":"1093648808","to":"sdaReg24","type":"model"},{"step":18,"from":"1093618472.<java.net.URL: java.lang.String protocol>","to":"1093647280","type":"store","field":"<java.net.URL: java.lang.String protocol>"},{"step":19,"from":"1093618472.<java.net.URL: java.lang.String host>","to":"1093647280","type":"store","field":"<java.net.URL: java.lang.String host>"},{"step":20,"from":"sdaReg24","to":"1093647280","type":"store","field":"<java.net.URL: java.lang.String file>"},{"step":21,"from":"1093618472.<java.net.URL: int port>","to":"1093647280","type":"store","field":"<java.net.URL: int port>"},{"step":22,"from":"1093618472.<java.net.URL: java.lang.String ref>","to":"1093647280","type":"store","field":"<java.net.URL: java.lang.String ref>"},{"step":23,"from":"1093647280","to":"sdaReg26","type":"create","field":"<java.net.URL: int hashCode>"},{"step":24,"from":"sdaReg30","to":"1093647280","type":"store","field":"<java.net.URL: java.lang.String authority>"},{"step":25,"from":"1093647280","to":"sdaReg33","type":"create","field":"<java.net.URL: java.lang.String userInfo>"},{"step":26,"from":"sdaReg36","to":"sdaReg37","type":"model"},{"step":27,"from":"sdaReg37","to":"1093647280","type":"store","field":"<java.net.URL: java.lang.String query>"},{"step":28,"from":"sdaReg38","to":"1093647280","type":"store","field":"<java.net.URL: java.lang.String path>"},{"step":29,"from":"1093618472.<java.net.URL: java.lang.String authority>","to":"1093647280","type":"store","field":"<java.net.URL: java.lang.String authority>"},{"step":30,"from":"1093618472.<java.net.URL: java.lang.String userInfo>","to":"1093647280","type":"store","field":"<java.net.URL: java.lang.String userInfo>"},{"step":31,"from":"1093618472.<java.net.URL: java.lang.String path>","to":"1093647280","type":"store","field":"<java.net.URL: java.lang.String path>"},{"step":32,"from":"1093618472.<java.net.URL: java.lang.String query>","to":"1093647280","type":"store","field":"<java.net.URL: java.lang.String query>"},{"step":33,"from":"1093618472","to":"1093620368","type":"load","field":"<java.net.URL: java.net.URLStreamHandler streamHandler>"},{"step":34,"from":"1093620368","to":"1093647280","type":"store","field":"<java.net.URL: java.net.URLStreamHandler streamHandler>"},{"step":35,"from":"sdaReg5","to":"sdaReg9","type":"model"},{"step":36,"from":"sdaReg5","to":"sdaReg43","type":"model"},{"step":37,"from":"sdaReg9","to":"sdaReg5","type":"model"},{"step":38,"from":"sdaReg9","to":"sdaReg43","type":"model"},{"step":39,"from":"sdaReg5","to":"sdaReg60","type":"model"},{"step":40,"from":"sdaReg5","to":"sdaReg63","type":"model"},{"step":41,"from":"sdaReg61","to":"sdaReg63","type":"model"},{"step":42,"from":"sdaReg61","to":"sdaReg64","type":"model"},{"step":43,"from":"sdaReg63","to":"sdaReg61","type":"model"},{"step":44,"from":"sdaReg63","to":"sdaReg64","type":"model"},{"step":45,"from":"sdaReg5","to":"sdaReg65","type":"model"},{"step":46,"from":"sdaReg61","to":"sdaReg65","type":"model"},{"step":47,"from":"sdaReg61","to":"sdaReg66","type":"model"},{"step":48,"from":"sdaReg65","to":"sdaReg61","type":"model"},{"step":49,"from":"sdaReg65","to":"sdaReg66","type":"model"},{"step":50,"from":"sdaReg5","to":"sdaReg67","type":"model"},{"step":51,"from":"sdaReg61","to":"sdaReg67","type":"model"},{"step":52,"from":"sdaReg61","to":"sdaReg68","type":"model"},{"step":53,"from":"sdaReg67","to":"sdaReg61","type":"model"},{"step":54,"from":"sdaReg67","to":"sdaReg68","type":"model"},{"step":55,"from":"sdaReg5","to":"sdaReg69","type":"model"},{"step":56,"from":"sdaReg61","to":"sdaReg69","type":"model"},{"step":57,"from":"sdaReg61","to":"sdaReg70","type":"model"},{"step":58,"from":"sdaReg69","to":"sdaReg61","type":"model"},{"step":59,"from":"sdaReg69","to":"sdaReg70","type":"model"},{"step":60,"from":"sdaReg5","to":"sdaReg71","type":"model"},{"step":61,"from":"sdaReg71","to":"sdaReg72","type":"model"},{"step":62,"from":"sdaReg71","to":"sdaReg79","type":"model"},{"step":63,"from":"sdaReg71","to":"sdaReg85","type":"model"},{"step":64,"from":"sdaReg71","to":"sdaReg88","type":"model"},{"step":65,"from":"sdaReg71","to":"sdaReg74","type":"model"},{"step":66,"from":"sdaReg71","to":"sdaReg89","type":"model"},{"step":67,"from":"sdaReg74","to":"sdaReg71","type":"model"},{"step":68,"from":"sdaReg74","to":"sdaReg89","type":"model"},{"step":69,"from":"sdaReg71","to":"sdaReg91","type":"model"},{"step":70,"from":"sdaReg91","to":"1093662072","type":"model"},{"step":71,"from":"sdaReg91","to":"1093662072","type":"model"},{"step":72,"from":"sdaReg71","to":"sdaReg80","type":"model"},{"step":73,"from":"sdaReg71","to":"sdaReg93","type":"model"},{"step":74,"from":"sdaReg80","to":"sdaReg71","type":"model"},{"step":75,"from":"sdaReg80","to":"sdaReg93","type":"model"},{"step":76,"from":"sdaReg93","to":"1093662072","type":"model"},{"step":77,"from":"sdaReg93","to":"1093662072","type":"model"},{"step":78,"from":"1093662072","to":"sdaReg95","type":"model"},{"step":79,"from":"sdaReg95","to":"sdaReg98","type":"model"},{"step":80,"from":"sdaReg95","to":"sdaReg74","type":"model"},{"step":81,"from":"sdaReg95","to":"sdaReg101","type":"model"},{"step":82,"from":"sdaReg74","to":"sdaReg95","type":"model"},{"step":83,"from":"sdaReg74","to":"sdaReg101","type":"model"},{"step":84,"from":"sdaReg46","to":"sdaReg103","type":"model"},{"step":85,"from":"sdaReg95","to":"sdaReg104","type":"model"},{"step":86,"from":"sdaReg95","to":"sdaReg105","type":"model"},{"step":87,"from":"sdaReg50","to":"1093647280","type":"store","field":"<java.net.URL: java.lang.String host>"},{"step":88,"from":"sdaReg111","to":"1093647280","type":"store","field":"<java.net.URL: java.lang.String file>"},{"step":89,"from":"sdaReg52","to":"1093647280","type":"store","field":"<java.net.URL: int port>"},{"step":90,"from":"sdaReg58","to":"1093647280","type":"store","field":"<java.net.URL: java.lang.String ref>"},{"step":91,"from":"1093647280","to":"sdaReg113","type":"create","field":"<java.net.URL: int hashCode>"},{"step":92,"from":"sdaReg117","to":"1093647280","type":"store","field":"<java.net.URL: java.lang.String authority>"},{"step":93,"from":"1093647280","to":"sdaReg120","type":"create","field":"<java.net.URL: java.lang.String userInfo>"},{"step":94,"from":"1093647280","to":"sdaReg123","type":"create","field":"<java.net.URL: java.lang.String query>"},{"step":95,"from":"sdaReg124","to":"1093647280","type":"store","field":"<java.net.URL: java.lang.String path>"},{"step":96,"from":"sdaReg46","to":"1093647280","type":"store","field":"<java.net.URL: java.lang.String authority>"},{"step":97,"from":"sdaReg48","to":"1093647280","type":"store","field":"<java.net.URL: java.lang.String userInfo>"},{"step":98,"from":"sdaReg95","to":"1093647280","type":"store","field":"<java.net.URL: java.lang.String path>"},{"step":99,"from":"sdaReg56","to":"1093647280","type":"store","field":"<java.net.URL: java.lang.String query>"}],"parameters":[{"id":"1093647280","name":"this","klass":"java.net.URL"},{"id":"1093618472","name":"arg#1","klass":"java.net.URL"},{"id":"sdaReg0","name":"arg#2","klass":"string"}],"returns":[{"id":"1093647280","name":"return","klass":"java.net.URL"}],"colors":{"heapLocToColor":{"sdaReg125":[0],"sdaReg68":[21],"sdaReg69":[2, 3, 22],"sdaReg66":[19],"1093618472.<java.net.URL: java.lang.String userInfo>":[1],"sdaReg67":[2, 3, 20],"sdaReg64":[17],"sdaReg65":[2, 3, 18],"sdaReg62":[2, 3],"sdaReg63":[16, 2, 3],"sdaReg13":[1],"sdaReg72":[2, 3, 25, 24],"sdaReg14":[1],"sdaReg71":[2, 3, 24],"sdaReg11":[1],"sdaReg70":[23],"sdaReg12":[1],"sdaReg10":[1],"sdaReg19":[1, 5],"sdaReg122":[52],"sdaReg17":[0],"sdaReg121":[52],"sdaReg18":[1],"1093618472.<java.net.URL: java.lang.String path>":[1],"sdaReg15":[1],"sdaReg16":[1],"sdaReg116":[50],"sdaReg114":[0],"1093618472":[1],"sdaReg118":[51],"sdaReg119":[51],"sdaReg77":[26],"sdaReg78":[27],"sdaReg79":[2, 3, 24, 28],"1093648808":[6],"sdaReg74":[2, 3, 39, 36, 24],"sdaReg76":[2, 3, 24],"sdaReg81":[2, 3, 24],"sdaReg80":[2, 3, 24],"sdaReg83":[29],"sdaReg82":[2, 3, 39, 36, 24],"sdaReg112":[0],"sdaReg111":[39, 36],"sdaReg110":[0],"sdaReg108":[1],"sdaReg109":[0],"sdaReg103":[47],"sdaReg104":[48, 39, 36],"sdaReg105":[49, 39, 36],"sdaReg106":[0],"sdaReg86":[32],"sdaReg87":[33],"sdaReg84":[30],"sdaReg85":[2, 3, 24, 31],"sdaReg88":[34, 2, 3, 24],"sdaReg89":[35, 2, 3, 24],"sdaReg90":[36],"sdaReg94":[36],"1093618472.<java.net.URL: java.lang.String query>":[1],"sdaReg93":[2, 3, 38, 24],"sdaReg92":[36],"sdaReg91":[2, 3, 37, 24],"sdaReg100":[44],"sdaReg102":[46],"sdaReg101":[39, 36, 45],"sdaReg95":[39, 36],"sdaReg96":[40],"sdaReg97":[41],"sdaReg98":[39, 36, 42],"sdaReg99":[43],"sdaReg60":[2, 3, 15],"1093618472.<java.net.URL: java.lang.String authority>":[1],"1093618472.<java.net.URL: java.lang.String ref>":[1],"1093647280":[0],"sdaReg59":[2, 3, 13],"sdaReg57":[0],"sdaReg55":[0],"sdaReg53":[0],"sdaReg51":[0],"1093618472.<java.net.URL: java.lang.String host>":[1],"sdaReg49":[0],"sdaReg45":[0],"sdaReg44":[2, 3],"sdaReg47":[0],"sdaReg41":[0],"sdaReg40":[1],"sdaReg43":[2, 3, 14],"sdaReg39":[13],"sdaReg38":[12],"sdaReg37":[11],"sdaReg32":[9],"sdaReg31":[9],"1093662072":[36],"sdaReg36":[10],"sdaReg35":[10],"sdaReg34":[10],"1093620368":[1],"sdaReg9":[2, 3],"sdaReg6":[2, 3, 4],"sdaReg5":[2, 3],"sdaReg27":[0],"sdaReg29":[8],"1093618472.<java.net.URL: int port>":[1],"sdaReg3":[0],"sdaReg2":[1],"sdaReg21":[6],"sdaReg1":[0],"sdaReg20":[6],"sdaReg0":[2],"sdaReg23":[6],"sdaReg22":[6],"sdaReg25":[0],"sdaReg24":[6, 7],"1093618472.<java.net.URL: java.lang.String protocol>":[1]},"colorToColor":{"0":[53],"1":[0, 6],"2":[35, 2, 3, 38, 39, 36, 14, 45, 17, 19, 21, 23, 24],"3":[35, 2, 3, 38, 39, 36, 14, 45, 17, 19, 21, 23, 24],"38":[36],"39":[0, 39, 36, 45],"36":[0, 39, 36, 45],"6":[0],"37":[36],"7":[0],"10":[11],"11":[0],"12":[0],"16":[17],"18":[19],"20":[21],"22":[23],"24":[35, 2, 3, 38, 39, 36, 24, 45]},"colorToLabel":{"0":"this","1":"arg#1","2":"arg#2","53":"return"}}}

Generated Model
	this->return
	arg#2->this
	arg#2->return
	arg#1->this
	arg#1->return

