Scanning method <java.net.URL: void <init>(java.net.URL,java.lang.String)>

All seen event types: BinaryOperationRecord, SimpleAssignmentRecord, SwitchRecord, MethodReturnRecord, MethodCallRecord, LoadInstanceRecord, MethodStartRecord, MethodEndRecord, IfRecord, NewObjectRecord, StoreInstanceRecord, 
Ignored event types: SwitchRecord, IfRecord, 

JSON Encoded Analysis Data (for visualization):{"heapEdges":[{"step":0,"from":"1093791912","to":"sdaReg4","type":"create","field":"<java.net.URL: int port>"},{"step":1,"from":"sdaReg0","to":"sdaReg5","type":"model"},{"step":2,"from":"sdaReg5","to":"sdaReg6","type":"model"},{"step":3,"from":"1093791912","to":"sdaReg7","type":"create","field":"<java.net.URL: java.lang.String protocol>"},{"step":4,"from":"1093666160","to":"1093666160.<java.net.URL: java.lang.String protocol>","type":"load","field":"<java.net.URL: java.lang.String protocol>"},{"step":5,"from":"1093666160","to":"1093666160.<java.net.URL: java.lang.String host>","type":"load","field":"<java.net.URL: java.lang.String host>"},{"step":6,"from":"1093666160","to":"1093666160.<java.net.URL: int port>","type":"load","field":"<java.net.URL: int port>"},{"step":7,"from":"1093666160","to":"1093666160.<java.net.URL: java.lang.String authority>","type":"load","field":"<java.net.URL: java.lang.String authority>"},{"step":8,"from":"1093666160","to":"1093666160.<java.net.URL: java.lang.String userInfo>","type":"load","field":"<java.net.URL: java.lang.String userInfo>"},{"step":9,"from":"1093666160","to":"1093666160.<java.net.URL: java.lang.String path>","type":"load","field":"<java.net.URL: java.lang.String path>"},{"step":10,"from":"1093666160","to":"1093666160.<java.net.URL: java.lang.String query>","type":"load","field":"<java.net.URL: java.lang.String query>"},{"step":11,"from":"1093666160","to":"1093666160.<java.net.URL: java.lang.String ref>","type":"load","field":"<java.net.URL: java.lang.String ref>"},{"step":12,"from":"1093666160.<java.net.URL: java.lang.String query>","to":"sdaReg19","type":"model"},{"step":13,"from":"sdaReg18","to":"1093823856","type":"model"},{"step":14,"from":"sdaReg18","to":"1093823856","type":"model"},{"step":15,"from":"1093666160.<java.net.URL: java.lang.String query>","to":"1093823856","type":"model"},{"step":16,"from":"1093666160.<java.net.URL: java.lang.String query>","to":"1093823856","type":"model"},{"step":17,"from":"1093823856","to":"sdaReg24","type":"model"},{"step":18,"from":"1093666160.<java.net.URL: java.lang.String protocol>","to":"1093791912","type":"store","field":"<java.net.URL: java.lang.String protocol>"},{"step":19,"from":"1093666160.<java.net.URL: java.lang.String host>","to":"1093791912","type":"store","field":"<java.net.URL: java.lang.String host>"},{"step":20,"from":"sdaReg24","to":"1093791912","type":"store","field":"<java.net.URL: java.lang.String file>"},{"step":21,"from":"1093666160.<java.net.URL: int port>","to":"1093791912","type":"store","field":"<java.net.URL: int port>"},{"step":22,"from":"1093666160.<java.net.URL: java.lang.String ref>","to":"1093791912","type":"store","field":"<java.net.URL: java.lang.String ref>"},{"step":23,"from":"1093791912","to":"sdaReg26","type":"create","field":"<java.net.URL: int hashCode>"},{"step":24,"from":"sdaReg30","to":"1093791912","type":"store","field":"<java.net.URL: java.lang.String authority>"},{"step":25,"from":"1093791912","to":"sdaReg33","type":"create","field":"<java.net.URL: java.lang.String userInfo>"},{"step":26,"from":"sdaReg36","to":"sdaReg37","type":"model"},{"step":27,"from":"sdaReg37","to":"1093791912","type":"store","field":"<java.net.URL: java.lang.String query>"},{"step":28,"from":"sdaReg38","to":"1093791912","type":"store","field":"<java.net.URL: java.lang.String path>"},{"step":29,"from":"1093666160.<java.net.URL: java.lang.String authority>","to":"1093791912","type":"store","field":"<java.net.URL: java.lang.String authority>"},{"step":30,"from":"1093666160.<java.net.URL: java.lang.String userInfo>","to":"1093791912","type":"store","field":"<java.net.URL: java.lang.String userInfo>"},{"step":31,"from":"1093666160.<java.net.URL: java.lang.String path>","to":"1093791912","type":"store","field":"<java.net.URL: java.lang.String path>"},{"step":32,"from":"1093666160.<java.net.URL: java.lang.String query>","to":"1093791912","type":"store","field":"<java.net.URL: java.lang.String query>"},{"step":33,"from":"1093666160","to":"1093688464","type":"load","field":"<java.net.URL: java.net.URLStreamHandler streamHandler>"},{"step":34,"from":"1093688464","to":"1093791912","type":"store","field":"<java.net.URL: java.net.URLStreamHandler streamHandler>"},{"step":35,"from":"sdaReg5","to":"sdaReg9","type":"model"},{"step":36,"from":"sdaReg5","to":"sdaReg43","type":"model"},{"step":37,"from":"sdaReg9","to":"sdaReg5","type":"model"},{"step":38,"from":"sdaReg9","to":"sdaReg43","type":"model"},{"step":39,"from":"sdaReg5","to":"sdaReg60","type":"model"},{"step":40,"from":"sdaReg5","to":"sdaReg63","type":"model"},{"step":41,"from":"sdaReg61","to":"sdaReg63","type":"model"},{"step":42,"from":"sdaReg61","to":"sdaReg64","type":"model"},{"step":43,"from":"sdaReg63","to":"sdaReg61","type":"model"},{"step":44,"from":"sdaReg63","to":"sdaReg64","type":"model"},{"step":45,"from":"sdaReg5","to":"sdaReg65","type":"model"},{"step":46,"from":"sdaReg61","to":"sdaReg65","type":"model"},{"step":47,"from":"sdaReg61","to":"sdaReg66","type":"model"},{"step":48,"from":"sdaReg65","to":"sdaReg61","type":"model"},{"step":49,"from":"sdaReg65","to":"sdaReg66","type":"model"},{"step":50,"from":"sdaReg5","to":"sdaReg67","type":"model"},{"step":51,"from":"sdaReg61","to":"sdaReg67","type":"model"},{"step":52,"from":"sdaReg61","to":"sdaReg68","type":"model"},{"step":53,"from":"sdaReg67","to":"sdaReg61","type":"model"},{"step":54,"from":"sdaReg67","to":"sdaReg68","type":"model"},{"step":55,"from":"sdaReg5","to":"sdaReg69","type":"model"},{"step":56,"from":"sdaReg61","to":"sdaReg69","type":"model"},{"step":57,"from":"sdaReg61","to":"sdaReg70","type":"model"},{"step":58,"from":"sdaReg69","to":"sdaReg61","type":"model"},{"step":59,"from":"sdaReg69","to":"sdaReg70","type":"model"},{"step":60,"from":"sdaReg5","to":"sdaReg71","type":"model"},{"step":61,"from":"sdaReg61","to":"sdaReg71","type":"model"},{"step":62,"from":"sdaReg61","to":"sdaReg72","type":"model"},{"step":63,"from":"sdaReg71","to":"sdaReg61","type":"model"},{"step":64,"from":"sdaReg71","to":"sdaReg72","type":"model"},{"step":65,"from":"sdaReg5","to":"sdaReg73","type":"model"},{"step":66,"from":"sdaReg61","to":"sdaReg73","type":"model"},{"step":67,"from":"sdaReg61","to":"sdaReg74","type":"model"},{"step":68,"from":"sdaReg73","to":"sdaReg61","type":"model"},{"step":69,"from":"sdaReg73","to":"sdaReg74","type":"model"},{"step":70,"from":"sdaReg5","to":"sdaReg75","type":"model"},{"step":71,"from":"sdaReg75","to":"sdaReg76","type":"model"},{"step":72,"from":"sdaReg54","to":"sdaReg78","type":"model"},{"step":73,"from":"sdaReg54","to":"sdaReg80","type":"model"},{"step":74,"from":"sdaReg80","to":"1093561360","type":"model"},{"step":75,"from":"sdaReg80","to":"1093561360","type":"model"},{"step":76,"from":"sdaReg75","to":"1093561360","type":"model"},{"step":77,"from":"sdaReg75","to":"1093561360","type":"model"},{"step":78,"from":"1093561360","to":"sdaReg83","type":"model"},{"step":79,"from":"sdaReg83","to":"sdaReg90","type":"model"},{"step":80,"from":"sdaReg83","to":"sdaReg96","type":"model"},{"step":81,"from":"sdaReg83","to":"sdaReg99","type":"model"},{"step":82,"from":"sdaReg83","to":"sdaReg85","type":"model"},{"step":83,"from":"sdaReg83","to":"sdaReg100","type":"model"},{"step":84,"from":"sdaReg85","to":"sdaReg83","type":"model"},{"step":85,"from":"sdaReg85","to":"sdaReg100","type":"model"},{"step":86,"from":"sdaReg83","to":"sdaReg103","type":"model"},{"step":87,"from":"sdaReg83","to":"sdaReg106","type":"model"},{"step":88,"from":"sdaReg83","to":"sdaReg85","type":"model"},{"step":89,"from":"sdaReg83","to":"sdaReg107","type":"model"},{"step":90,"from":"sdaReg85","to":"sdaReg83","type":"model"},{"step":91,"from":"sdaReg85","to":"sdaReg107","type":"model"},{"step":92,"from":"sdaReg83","to":"sdaReg110","type":"model"},{"step":93,"from":"sdaReg83","to":"sdaReg113","type":"model"},{"step":94,"from":"sdaReg83","to":"sdaReg85","type":"model"},{"step":95,"from":"sdaReg83","to":"sdaReg114","type":"model"},{"step":96,"from":"sdaReg85","to":"sdaReg83","type":"model"},{"step":97,"from":"sdaReg85","to":"sdaReg114","type":"model"},{"step":98,"from":"sdaReg83","to":"sdaReg117","type":"model"},{"step":99,"from":"sdaReg83","to":"sdaReg120","type":"model"},{"step":100,"from":"sdaReg83","to":"sdaReg123","type":"model"},{"step":101,"from":"sdaReg83","to":"sdaReg85","type":"model"},{"step":102,"from":"sdaReg83","to":"sdaReg124","type":"model"},{"step":103,"from":"sdaReg85","to":"sdaReg83","type":"model"},{"step":104,"from":"sdaReg85","to":"sdaReg124","type":"model"},{"step":105,"from":"sdaReg83","to":"sdaReg125","type":"model"},{"step":106,"from":"sdaReg83","to":"sdaReg126","type":"model"},{"step":107,"from":"sdaReg125","to":"sdaReg83","type":"model"},{"step":108,"from":"sdaReg125","to":"sdaReg126","type":"model"},{"step":109,"from":"sdaReg83","to":"sdaReg129","type":"model"},{"step":110,"from":"sdaReg129","to":"1093306320","type":"model"},{"step":111,"from":"sdaReg129","to":"1093306320","type":"model"},{"step":112,"from":"sdaReg83","to":"sdaReg91","type":"model"},{"step":113,"from":"sdaReg83","to":"sdaReg131","type":"model"},{"step":114,"from":"sdaReg91","to":"sdaReg83","type":"model"},{"step":115,"from":"sdaReg91","to":"sdaReg131","type":"model"},{"step":116,"from":"sdaReg131","to":"1093306320","type":"model"},{"step":117,"from":"sdaReg131","to":"1093306320","type":"model"},{"step":118,"from":"1093306320","to":"sdaReg133","type":"model"},{"step":119,"from":"sdaReg133","to":"sdaReg136","type":"model"},{"step":120,"from":"sdaReg133","to":"sdaReg85","type":"model"},{"step":121,"from":"sdaReg133","to":"sdaReg139","type":"model"},{"step":122,"from":"sdaReg85","to":"sdaReg133","type":"model"},{"step":123,"from":"sdaReg85","to":"sdaReg139","type":"model"},{"step":124,"from":"sdaReg46","to":"sdaReg141","type":"model"},{"step":125,"from":"sdaReg133","to":"sdaReg142","type":"model"},{"step":126,"from":"sdaReg133","to":"sdaReg143","type":"model"},{"step":127,"from":"sdaReg50","to":"1093791912","type":"store","field":"<java.net.URL: java.lang.String host>"},{"step":128,"from":"sdaReg149","to":"1093791912","type":"store","field":"<java.net.URL: java.lang.String file>"},{"step":129,"from":"sdaReg52","to":"1093791912","type":"store","field":"<java.net.URL: int port>"},{"step":130,"from":"sdaReg58","to":"1093791912","type":"store","field":"<java.net.URL: java.lang.String ref>"},{"step":131,"from":"1093791912","to":"sdaReg151","type":"create","field":"<java.net.URL: int hashCode>"},{"step":132,"from":"sdaReg155","to":"1093791912","type":"store","field":"<java.net.URL: java.lang.String authority>"},{"step":133,"from":"1093791912","to":"sdaReg158","type":"create","field":"<java.net.URL: java.lang.String userInfo>"},{"step":134,"from":"1093791912","to":"sdaReg161","type":"create","field":"<java.net.URL: java.lang.String query>"},{"step":135,"from":"sdaReg162","to":"1093791912","type":"store","field":"<java.net.URL: java.lang.String path>"},{"step":136,"from":"sdaReg46","to":"1093791912","type":"store","field":"<java.net.URL: java.lang.String authority>"},{"step":137,"from":"sdaReg48","to":"1093791912","type":"store","field":"<java.net.URL: java.lang.String userInfo>"},{"step":138,"from":"sdaReg133","to":"1093791912","type":"store","field":"<java.net.URL: java.lang.String path>"},{"step":139,"from":"sdaReg56","to":"1093791912","type":"store","field":"<java.net.URL: java.lang.String query>"}],"parameters":[{"id":"1093791912","name":"this","klass":"java.net.URL"},{"id":"1093666160","name":"arg#1","klass":"java.net.URL"},{"id":"sdaReg0","name":"arg#2","klass":"string"}],"returns":[{"id":"1093791912","name":"return","klass":"java.net.URL"}],"colors":{"heapLocToColor":{"sdaReg125":[33, 30],"sdaReg126":[68, 33, 30],"sdaReg127":[68, 33, 30],"sdaReg128":[69],"sdaReg129":[70, 33, 30],"sdaReg68":[21],"sdaReg69":[2, 3, 22],"sdaReg66":[19],"sdaReg67":[2, 3, 20],"sdaReg64":[17],"1093791912":[0],"sdaReg65":[2, 3, 18],"sdaReg62":[2, 3],"sdaReg63":[16, 2, 3],"sdaReg13":[1],"sdaReg72":[25],"sdaReg14":[1],"sdaReg71":[2, 3, 24],"sdaReg11":[1],"sdaReg70":[23],"sdaReg12":[1],"sdaReg10":[1],"1093666160.<java.net.URL: java.lang.String userInfo>":[1],"sdaReg120":[33, 63, 30],"sdaReg19":[1, 5],"sdaReg122":[65],"sdaReg17":[0],"sdaReg121":[64],"sdaReg18":[1],"sdaReg124":[33, 67, 30],"sdaReg15":[1],"sdaReg123":[33, 66, 30],"sdaReg16":[1],"sdaReg116":[59],"sdaReg117":[33, 30, 60],"sdaReg114":[33, 57, 30],"sdaReg115":[58],"sdaReg118":[61],"sdaReg119":[62],"sdaReg77":[30],"sdaReg78":[31],"sdaReg79":[31],"sdaReg73":[2, 3, 26],"sdaReg74":[27],"sdaReg75":[2, 3, 28],"sdaReg76":[2, 3, 29, 28],"sdaReg81":[30],"sdaReg80":[32],"sdaReg83":[33, 30],"sdaReg82":[30],"sdaReg113":[33, 56, 30],"sdaReg112":[55],"sdaReg111":[54],"sdaReg110":[33, 53, 30],"sdaReg107":[50, 33, 30],"sdaReg108":[51],"sdaReg109":[52],"sdaReg103":[33, 46, 30],"sdaReg104":[47],"sdaReg105":[48],"sdaReg106":[49, 33, 30],"sdaReg87":[68, 33, 30],"sdaReg85":[68, 69, 33, 72, 30],"1093666160.<java.net.URL: java.lang.String ref>":[1],"sdaReg88":[34],"sdaReg89":[35],"sdaReg90":[33, 36, 30],"sdaReg94":[37],"sdaReg93":[68, 69, 33, 72, 30],"sdaReg92":[68, 33, 30],"sdaReg91":[68, 33, 30],"sdaReg100":[33, 43, 30],"sdaReg102":[45],"sdaReg101":[44],"sdaReg95":[38],"sdaReg96":[33, 39, 30],"sdaReg97":[40],"sdaReg98":[41],"sdaReg99":[33, 42, 30],"1093666160.<java.net.URL: java.lang.String query>":[1],"1093666160.<java.net.URL: java.lang.String protocol>":[1],"1093688464":[1],"sdaReg60":[2, 3, 15],"sdaReg163":[0],"sdaReg59":[2, 3, 13],"sdaReg57":[0],"sdaReg55":[0],"sdaReg53":[0],"sdaReg160":[85],"sdaReg51":[0],"1093306320":[69],"sdaReg159":[85],"sdaReg152":[0],"sdaReg150":[0],"sdaReg156":[84],"sdaReg49":[0],"sdaReg157":[84],"sdaReg154":[83],"sdaReg45":[0],"sdaReg44":[2, 3],"sdaReg47":[0],"sdaReg41":[0],"sdaReg40":[1],"sdaReg43":[2, 3, 14],"sdaReg148":[0],"sdaReg147":[0],"1093666160.<java.net.URL: java.lang.String authority>":[1],"1093666160.<java.net.URL: java.lang.String path>":[1],"sdaReg149":[69, 72],"sdaReg143":[69, 82, 72],"sdaReg144":[0],"sdaReg39":[13],"sdaReg38":[12],"sdaReg146":[1],"sdaReg37":[11],"sdaReg140":[79],"sdaReg141":[80],"sdaReg142":[69, 81, 72],"sdaReg32":[9],"sdaReg31":[9],"sdaReg36":[10],"sdaReg35":[10],"sdaReg34":[10],"sdaReg9":[2, 3],"1093666160":[1],"sdaReg6":[2, 3, 4],"1093666160.<java.net.URL: int port>":[1],"sdaReg5":[2, 3],"1093666160.<java.net.URL: java.lang.String host>":[1],"sdaReg139":[69, 78, 72],"sdaReg138":[77],"sdaReg137":[76],"sdaReg136":[69, 72, 75],"sdaReg134":[73],"sdaReg27":[0],"sdaReg135":[74],"sdaReg132":[69],"sdaReg29":[8],"sdaReg133":[69, 72],"sdaReg130":[69],"1093561360":[30],"sdaReg131":[33, 71, 30],"sdaReg3":[0],"sdaReg2":[1],"sdaReg21":[6],"sdaReg1":[0],"sdaReg20":[6],"sdaReg0":[2],"sdaReg23":[6],"1093823856":[6],"sdaReg22":[6],"sdaReg25":[0],"sdaReg24":[6, 7]},"colorToColor":{"0":[86],"68":[69, 78, 72],"69":[0, 69, 78, 72],"1":[0, 6],"70":[69],"32":[30],"2":[17, 19, 2, 3, 21, 23, 25, 27, 14, 30],"71":[69],"33":[68, 69, 50, 71, 33, 67, 43, 78, 57, 72, 30],"3":[17, 19, 2, 3, 21, 23, 25, 27, 14, 30],"6":[0],"7":[0],"10":[11],"11":[0],"72":[0, 69, 78, 72],"12":[0],"16":[17],"18":[19],"20":[21],"22":[23],"24":[25],"26":[27],"28":[30],"30":[68, 69, 50, 71, 33, 67, 43, 78, 57, 72, 30]},"colorToLabel":{"0":"this","1":"arg#1","2":"arg#2","86":"return"}}}

Generated Model
	this->return
	arg#2->this
	arg#2->return
	arg#1->this
	arg#1->return

