Scanning method <java.util.HashMap: java.util.Set keySet()>

All seen event types: SimpleAssignmentRecord, LoadInstanceRecord, IfRecord, 
Ignored event types: IfRecord, 

JSON Encoded Analysis Data (for visualization):{"heapEdges":[{"step":0,"from":"1093556000","to":"1093647456","type":"load","field":"<java.util.HashMap: java.util.Set keySet>"}],"parameters":[{"id":"1093556000","name":"this","klass":"java.util.HashMap"}],"returns":[{"id":"1093647456","name":"return","klass":"java.util.Set"}],"colors":{"heapLocToColor":{"1093556000":[0],"1093647456":[0]},"colorToColor":{"0":[1]},"colorToLabel":{"0":"this","1":"return"}}}

Generated Model
	this->return

