Scanning method <java.io.InputStreamReader: boolean isOpen()>

All seen event types: SimpleAssignmentRecord, LoadInstanceRecord, IfRecord, 
Ignored event types: IfRecord, 

JSON Encoded Analysis Data (for visualization):{"heapEdges":[{"step":0,"from":"1093628760","to":"1093627856","type":"load","field":"<java.io.InputStreamReader: java.io.InputStream in>"}],"parameters":[{"id":"1093628760","name":"this","klass":"java.io.InputStreamReader"}],"returns":[{"id":"sdaReg0","name":"return","klass":"boolean"}],"colors":{"heapLocToColor":{"1093628760":[0],"1093627856":[0]},"colorToColor":{},"colorToLabel":{"0":"this","1":"return"}}}

Generated Model

