Scanning method <android.os.Bundle: java.lang.Byte getByte(java.lang.String,byte)>

All seen event types: BinaryOperationRecord, MethodReturnRecord, MethodCallRecord, CastRecord, ArrayLengthRecord, LoadInstanceRecord, MethodStartRecord, LoadArrayRecord, MethodEndRecord, IfRecord, 
Ignored event types: IfRecord, 

JSON Encoded Analysis Data (for visualization):{"heapEdges":[{"step":0,"from":"1093511080","to":"1093796400","type":"load","field":"<android.os.Bundle: java.util.Map mMap>"},{"step":1,"from":"1093796400","to":"1093803840","type":"load","field":"<java.util.HashMap: java.util.HashMap$HashMapEntry[] table>"},{"step":2,"from":"1093803840","to":"1093803880","type":"load","field":"arrayIdx_int:2"},{"step":3,"from":"1093803880","to":"1093926896","type":"load","field":"<java.util.HashMap$HashMapEntry: java.lang.Object key>"},{"step":4,"from":"1093803880","to":"1093803880.<java.util.HashMap$HashMapEntry: int hash>","type":"load","field":"<java.util.HashMap$HashMapEntry: int hash>"},{"step":5,"from":"1093803880","to":"1085840752","type":"load","field":"<java.util.HashMap$HashMapEntry: java.lang.Object value>"}],"parameters":[{"id":"1093511080","name":"this","klass":"android.os.Bundle"},{"id":"sdaReg0","name":"arg#1","klass":"string"},{"id":"sdaReg1","name":"arg#2","klass":"byte"}],"returns":[{"id":"1085840752","name":"return","klass":"java.lang.Byte"}],"colors":{"heapLocToColor":{"1093803880":[0],"sdaReg8":[3],"sdaReg9":[3],"sdaReg6":[3],"sdaReg7":[3],"sdaReg4":[3],"1093926896":[0],"sdaReg5":[3],"1093796400":[0],"1093803880.<java.util.HashMap$HashMapEntry: int hash>":[0],"1085840752":[0],"sdaReg11":[3],"sdaReg12":[3],"sdaReg10":[3],"1093803840":[0],"sdaReg3":[0],"sdaReg2":[0],"sdaReg1":[2],"sdaReg0":[1],"sdaReg17":[0],"sdaReg18":[0],"sdaReg15":[3],"sdaReg16":[4],"1093511080":[0]},"colorToColor":{"0":[5]},"colorToLabel":{"0":"this","1":"arg#1","2":"arg#2","5":"return"}}}

Generated Model
	this->return

