Scanning method <java.util.Vector: java.lang.Object clone()>

All seen event types: MethodReturnRecord, MethodCallRecord, LoadInstanceRecord, CastRecord, StoreInstanceRecord, 
Ignored event types: 

JSON Encoded Analysis Data (for visualization):{"heapEdges":[{"step":0,"from":"1093411224","to":"1093772216","type":"model"},{"step":1,"from":"1093411224","to":"1093406768","type":"load","field":"<java.util.Vector: java.lang.Object[] elementData>"},{"step":2,"from":"1093406768","to":"1093772248","type":"model"},{"step":3,"from":"1093772216","to":"1093772248","type":"create","field":"<java.util.Vector: java.lang.Object[] elementData>"}],"parameters":[{"id":"1093411224","name":"this","klass":"java.util.Vector"}],"returns":[{"id":"1093772216","name":"return","klass":"java.lang.Object"}],"colors":{"heapLocToColor":{"1093406768":[0],"1093772248":[0, 2],"sdaReg3":[0, 2],"1093411224":[0],"sdaReg2":[0, 2],"sdaReg1":[0, 1],"sdaReg0":[0, 1],"1093772216":[0, 1]},"colorToColor":{"0":[0, 1, 3],"1":[3],"2":[0, 1]},"colorToLabel":{"0":"this","3":"return"}}}

Generated Model
	this->return

