this->return
arg#2->this
arg#2->return
arg#2->arg#1
arg#2-><android.os.Parcel: android.os.Parcel[] sOwnedPool>
arg#1->this
arg#1->return
arg#1->arg#2
arg#1-><android.os.Parcel: android.os.Parcel[] sOwnedPool>

