Scanning method <java.io.PrintStream: void close()>

All seen event types: SimpleAssignmentRecord, ExitMonitorRecord, MethodReturnRecord, MethodCallRecord, EnterMonitorRecord, LoadInstanceRecord, MethodStartRecord, MethodEndRecord, IfRecord, StoreInstanceRecord, 
Ignored event types: ExitMonitorRecord, EnterMonitorRecord, IfRecord, 

JSON Encoded Analysis Data (for visualization):{"heapEdges":[{"step":0,"from":"1093665504","to":"1093674016","type":"load","field":"<java.io.FilterOutputStream: java.io.OutputStream out>"},{"step":1,"from":"1093665504","to":"1093674016","type":"load","field":"<java.io.FilterOutputStream: java.io.OutputStream out>"},{"step":2,"from":"1093665504","to":"1093674016","type":"load","field":"<java.io.FilterOutputStream: java.io.OutputStream out>"},{"step":3,"from":"1093665504","to":"1093674016","type":"load","field":"<java.io.FilterOutputStream: java.io.OutputStream out>"},{"step":4,"from":"1093674016","to":"1083966016","type":"load","field":"<java.io.FileOutputStream: dalvik.system.CloseGuard guard>"},{"step":5,"from":"1093674016","to":"1093674016.<java.io.FileOutputStream: boolean shouldClose>","type":"load","field":"<java.io.FileOutputStream: boolean shouldClose>"},{"step":6,"from":"1093674016","to":"1093674184","type":"load","field":"<java.io.FileOutputStream: java.io.FileDescriptor fd>"},{"step":7,"from":"1093665504","to":"sdaReg3","type":"create","field":"<java.io.FilterOutputStream: java.io.OutputStream out>"}],"parameters":[{"id":"1093665504","name":"this","klass":"java.io.PrintStream"}],"returns":[{"id":null,"name":"return","klass":null}],"colors":{"heapLocToColor":{"1093674184":[0],"sdaReg2":[0],"sdaReg1":[0],"sdaReg0":[0],"1093674016.<java.io.FileOutputStream: boolean shouldClose>":[0],"1083966016":[0],"1093665504.<java.io.FilterOutputStream: java.io.OutputStream out>":[0],"1093674016":[0],"1093665504":[0]},"colorToColor":{},"colorToLabel":{"0":"this","1":"return"}}}

Generated Model

