Scanning method <java.io.PrintStream: void close()>

All seen event types: MethodReturnRecord, MethodCallRecord, LoadInstanceRecord, MethodStartRecord, MethodEndRecord, IfRecord, StoreInstanceRecord, 
Ignored event types: IfRecord, 

JSON Encoded Analysis Data (for visualization):{"heapEdges":[{"step":0,"from":"1093511112","to":"1093510936","type":"load","field":"<java.io.FilterOutputStream: java.io.OutputStream out>"},{"step":1,"from":"1093511112","to":"1093510936","type":"load","field":"<java.io.FilterOutputStream: java.io.OutputStream out>"},{"step":2,"from":"1093511112","to":"1093510936","type":"load","field":"<java.io.FilterOutputStream: java.io.OutputStream out>"},{"step":3,"from":"1093511112","to":"1093510936","type":"load","field":"<java.io.FilterOutputStream: java.io.OutputStream out>"},{"step":4,"from":"1093511112","to":"sdaReg2","type":"create","field":"<java.io.FilterOutputStream: java.io.OutputStream out>"}],"parameters":[{"id":"1093511112","name":"this","klass":"java.io.PrintStream"}],"returns":[{"id":null,"name":"return","klass":null}],"colors":{"heapLocToColor":{"1093511112":[0],"1093510936":[0],"sdaReg1":[0],"sdaReg0":[0],"1093511112.<java.io.FilterOutputStream: java.io.OutputStream out>":[0]},"colorToColor":{},"colorToLabel":{"0":"this","1":"return"}}}

Generated Model

