Scanning method <java.io.InputStreamReader: int read()>

All seen event types: StoreArrayRecord, SimpleAssignmentRecord, ExitMonitorRecord, LoadInstanceRecord, MethodStartRecord, IfRecord, NewObjectRecord, StoreInstanceRecord, LoadStaticRecord, NewArrayRecord, BinaryOperationRecord, MethodCallRecord, MethodReturnRecord, EnterMonitorRecord, ArrayLengthRecord, LoadArrayRecord, MethodEndRecord, 
Ignored event types: ExitMonitorRecord, EnterMonitorRecord, IfRecord, 

JSON Encoded Analysis Data (for visualization):{"heapEdges":[{"step":0,"from":"1093292448","to":"1093288392","type":"load","field":"<java.io.Reader: java.lang.Object lock>"},{"step":1,"from":"1093292448","to":"1093288392","type":"load","field":"<java.io.InputStreamReader: java.io.InputStream in>"},{"step":2,"from":"1093292448","to":"1093288392","type":"load","field":"<java.io.Reader: java.lang.Object lock>"},{"step":3,"from":"1093292448","to":"1093288392","type":"load","field":"<java.io.InputStreamReader: java.io.InputStream in>"},{"step":4,"from":"1093510704","to":"sdaReg29","type":"create","field":"<java.nio.Buffer: int mark>"},{"step":5,"from":"1093510704","to":"sdaReg30","type":"create","field":"<java.nio.Buffer: int position>"},{"step":6,"from":"1093510704","to":"sdaReg27","type":"create","field":"<java.nio.Buffer: int _elementSizeShift>"},{"step":7,"from":"sdaReg21","to":"1093510704","type":"store","field":"<java.nio.Buffer: int limit>"},{"step":8,"from":"sdaReg21","to":"1093510704","type":"store","field":"<java.nio.Buffer: int capacity>"},{"step":9,"from":"1093510704","to":"1093510680","type":"create","field":"<java.nio.CharArrayBuffer: char[] backingArray>"},{"step":10,"from":"1093510704","to":"sdaReg24","type":"create","field":"<java.nio.CharArrayBuffer: int offset>"},{"step":11,"from":"1093510704","to":"sdaReg5","type":"create","field":"<java.nio.Buffer: int position>"},{"step":12,"from":"sdaReg37","to":"1093510704","type":"store","field":"<java.nio.Buffer: int limit>"},{"step":13,"from":"static.<java.nio.charset.CoderResult: java.nio.charset.CoderResult UNDERFLOW>","to":"1084215096","type":"load","field":"<java.nio.charset.CoderResult: java.nio.charset.CoderResult UNDERFLOW>"},{"step":14,"from":"1093292448","to":"1093288424","type":"load","field":"<java.io.InputStreamReader: java.nio.ByteBuffer bytes>"},{"step":15,"from":"1093288424","to":"1093288424.<java.nio.Buffer: int position>","type":"load","field":"<java.nio.Buffer: int position>"},{"step":16,"from":"1093288424","to":"1093288424.<java.nio.Buffer: int limit>","type":"load","field":"<java.nio.Buffer: int limit>"},{"step":17,"from":"1093292448","to":"1093288392","type":"load","field":"<java.io.InputStreamReader: java.io.InputStream in>"},{"step":18,"from":"1093288392","to":"1093288392.<java.io.ByteArrayInputStream: int count>","type":"load","field":"<java.io.ByteArrayInputStream: int count>"},{"step":19,"from":"1093288392","to":"1093288392.<java.io.ByteArrayInputStream: int pos>","type":"load","field":"<java.io.ByteArrayInputStream: int pos>"},{"step":20,"from":"1093292448","to":"1093288424","type":"load","field":"<java.io.InputStreamReader: java.nio.ByteBuffer bytes>"},{"step":21,"from":"1093288424","to":"1093288424.<java.nio.Buffer: int capacity>","type":"load","field":"<java.nio.Buffer: int capacity>"},{"step":22,"from":"1093292448","to":"1093288424","type":"load","field":"<java.io.InputStreamReader: java.nio.ByteBuffer bytes>"},{"step":23,"from":"1093288424","to":"1093288424.<java.nio.Buffer: int limit>","type":"load","field":"<java.nio.Buffer: int limit>"},{"step":24,"from":"1093292448","to":"1093288424","type":"load","field":"<java.io.InputStreamReader: java.nio.ByteBuffer bytes>"},{"step":25,"from":"1093288424","to":"1093288424.<java.nio.HeapByteBuffer: int offset>","type":"load","field":"<java.nio.HeapByteBuffer: int offset>"},{"step":26,"from":"1093292448","to":"1093288424","type":"load","field":"<java.io.InputStreamReader: java.nio.ByteBuffer bytes>"},{"step":27,"from":"1093288424","to":"1093288424.<java.nio.Buffer: int limit>","type":"load","field":"<java.nio.Buffer: int limit>"},{"step":28,"from":"1093292448","to":"1093288392","type":"load","field":"<java.io.InputStreamReader: java.io.InputStream in>"},{"step":29,"from":"1093292448","to":"1093288424","type":"load","field":"<java.io.InputStreamReader: java.nio.ByteBuffer bytes>"},{"step":30,"from":"1093288424","to":"1093422424","type":"load","field":"<java.nio.HeapByteBuffer: byte[] backingArray>"},{"step":31,"from":"1093288392","to":"1093288392.<java.io.ByteArrayInputStream: int pos>","type":"load","field":"<java.io.ByteArrayInputStream: int pos>"},{"step":32,"from":"1093288392","to":"1093288392.<java.io.ByteArrayInputStream: int count>","type":"load","field":"<java.io.ByteArrayInputStream: int count>"},{"step":33,"from":"1093288392","to":"1093288392.<java.io.ByteArrayInputStream: int count>","type":"load","field":"<java.io.ByteArrayInputStream: int count>"},{"step":34,"from":"1093288392","to":"1093288392.<java.io.ByteArrayInputStream: int pos>","type":"load","field":"<java.io.ByteArrayInputStream: int pos>"},{"step":35,"from":"1093288392","to":"1093288392.<java.io.ByteArrayInputStream: int count>","type":"load","field":"<java.io.ByteArrayInputStream: int count>"},{"step":36,"from":"1093288392","to":"1093288392.<java.io.ByteArrayInputStream: int pos>","type":"load","field":"<java.io.ByteArrayInputStream: int pos>"},{"step":37,"from":"1093288392","to":"1093292248","type":"load","field":"<java.io.ByteArrayInputStream: byte[] buf>"},{"step":38,"from":"1093288392","to":"1093288392.<java.io.ByteArrayInputStream: int pos>","type":"load","field":"<java.io.ByteArrayInputStream: int pos>"},{"step":39,"from":"1093292248","to":"1093422424","type":"model"},{"step":40,"from":"1093288392","to":"1093288392.<java.io.ByteArrayInputStream: int pos>","type":"load","field":"<java.io.ByteArrayInputStream: int pos>"},{"step":41,"from":"sdaReg66","to":"1093288392","type":"store","field":"<java.io.ByteArrayInputStream: int pos>"},{"step":42,"from":"1093292448","to":"1093288424","type":"load","field":"<java.io.InputStreamReader: java.nio.ByteBuffer bytes>"},{"step":43,"from":"1093292448","to":"1093288424","type":"load","field":"<java.io.InputStreamReader: java.nio.ByteBuffer bytes>"},{"step":44,"from":"1093288424","to":"1093288424.<java.nio.Buffer: int limit>","type":"load","field":"<java.nio.Buffer: int limit>"},{"step":45,"from":"1093288424","to":"1093288424.<java.nio.Buffer: int capacity>","type":"load","field":"<java.nio.Buffer: int capacity>"},{"step":46,"from":"sdaReg68","to":"1093288424","type":"store","field":"<java.nio.Buffer: int limit>"},{"step":47,"from":"1093288424","to":"1093288424.<java.nio.Buffer: int position>","type":"load","field":"<java.nio.Buffer: int position>"},{"step":48,"from":"1093288424","to":"1093288424.<java.nio.Buffer: int mark>","type":"load","field":"<java.nio.Buffer: int mark>"},{"step":49,"from":"1093292448","to":"1093283544","type":"load","field":"<java.io.InputStreamReader: java.nio.charset.CharsetDecoder decoder>"},{"step":50,"from":"1093292448","to":"1093288424","type":"load","field":"<java.io.InputStreamReader: java.nio.ByteBuffer bytes>"},{"step":51,"from":"1093283544","to":"1093283544.<java.nio.charset.CharsetDecoder: int status>","type":"load","field":"<java.nio.charset.CharsetDecoder: int status>"},{"step":52,"from":"1093283544","to":"1093283544.<java.nio.charset.CharsetDecoder: int status>","type":"load","field":"<java.nio.charset.CharsetDecoder: int status>"},{"step":53,"from":"1093288424","to":"1093288424.<java.nio.Buffer: int position>","type":"load","field":"<java.nio.Buffer: int position>"},{"step":54,"from":"1093283544","to":"1093283696","type":"load","field":"<java.nio.charset.CharsetDecoderICU: int[] data>"},{"step":55,"from":"1093288424","to":"1093422424","type":"load","field":"<java.nio.HeapByteBuffer: byte[] backingArray>"},{"step":56,"from":"1093422424","to":"1093283544","type":"store","field":"<java.nio.charset.CharsetDecoderICU: byte[] input>"},{"step":57,"from":"1093288424","to":"1093288424.<java.nio.HeapByteBuffer: int offset>","type":"load","field":"<java.nio.HeapByteBuffer: int offset>"},{"step":58,"from":"sdaReg96","to":"1093283544","type":"store","field":"<java.nio.charset.CharsetDecoderICU: int inEnd>"},{"step":59,"from":"1093288424","to":"1093288424.<java.nio.HeapByteBuffer: int offset>","type":"load","field":"<java.nio.HeapByteBuffer: int offset>"},{"step":60,"from":"1093288424","to":"1093288424.<java.nio.Buffer: int position>","type":"load","field":"<java.nio.Buffer: int position>"},{"step":61,"from":"sdaReg100","to":"1093283696","type":"store","field":"arrayIdx_int:0"},{"step":62,"from":"1093283544","to":"1093283696","type":"load","field":"<java.nio.charset.CharsetDecoderICU: int[] data>"},{"step":63,"from":"1093510680","to":"1093283544","type":"store","field":"<java.nio.charset.CharsetDecoderICU: char[] output>"},{"step":64,"from":"sdaReg115","to":"1093283544","type":"store","field":"<java.nio.charset.CharsetDecoderICU: int outEnd>"},{"step":65,"from":"sdaReg121","to":"1093283696","type":"store","field":"arrayIdx_int:1"},{"step":66,"from":"1093283544","to":"1093283544.<java.nio.charset.CharsetDecoderICU: long converterHandle>","type":"load","field":"<java.nio.charset.CharsetDecoderICU: long converterHandle>"},{"step":67,"from":"1093283544","to":"1093283696","type":"load","field":"<java.nio.charset.CharsetDecoderICU: int[] data>"},{"step":68,"from":"1093422424","to":"1093510680","type":"model"},{"step":69,"from":"sdaReg122","to":"1093283544","type":"store","field":"<java.nio.charset.CharsetDecoderICU: int ec>"},{"step":70,"from":"static.<java.nio.charset.CoderResult: java.nio.charset.CoderResult OVERFLOW>","to":"1084347232","type":"load","field":"<java.nio.charset.CoderResult: java.nio.charset.CoderResult OVERFLOW>"},{"step":71,"from":"1093288424","to":"1093288424.<java.nio.Buffer: int position>","type":"load","field":"<java.nio.Buffer: int position>"},{"step":72,"from":"1093283544","to":"1093283696","type":"load","field":"<java.nio.charset.CharsetDecoderICU: int[] data>"},{"step":73,"from":"sdaReg126","to":"1093288424","type":"store","field":"<java.nio.Buffer: int position>"},{"step":74,"from":"1093288424","to":"1093288424.<java.nio.Buffer: int mark>","type":"load","field":"<java.nio.Buffer: int mark>"},{"step":75,"from":"1093283544","to":"sdaReg129","type":"create","field":"<java.nio.charset.CharsetDecoderICU: byte[] input>"},{"step":76,"from":"1093283544","to":"1093283696","type":"load","field":"<java.nio.charset.CharsetDecoderICU: int[] data>"},{"step":77,"from":"sdaReg141","to":"1093510704","type":"store","field":"<java.nio.Buffer: int position>"},{"step":78,"from":"1093283544","to":"sdaReg144","type":"create","field":"<java.nio.charset.CharsetDecoderICU: char[] output>"},{"step":79,"from":"1084347232","to":"1084347232.<java.nio.charset.CoderResult: int type>","type":"load","field":"<java.nio.charset.CoderResult: int type>"},{"step":80,"from":"1084347232","to":"1084347232.<java.nio.charset.CoderResult: int type>","type":"load","field":"<java.nio.charset.CoderResult: int type>"},{"step":81,"from":"1084347232","to":"1084347232.<java.nio.charset.CoderResult: int type>","type":"load","field":"<java.nio.charset.CoderResult: int type>"},{"step":82,"from":"static.<java.nio.charset.CoderResult: java.nio.charset.CoderResult UNDERFLOW>","to":"1084215096","type":"load","field":"<java.nio.charset.CoderResult: java.nio.charset.CoderResult UNDERFLOW>"},{"step":83,"from":"1084347232","to":"1084347232.<java.nio.charset.CoderResult: int type>","type":"load","field":"<java.nio.charset.CoderResult: int type>"},{"step":84,"from":"1084347232","to":"1084347232.<java.nio.charset.CoderResult: int type>","type":"load","field":"<java.nio.charset.CoderResult: int type>"},{"step":85,"from":"1093510680","to":"1093510680.arrayIdx_int:0","type":"load","field":"arrayIdx_int:0"}],"parameters":[{"id":"1093292448","name":"this","klass":"java.io.InputStreamReader"}],"returns":[{"id":"1093510680.arrayIdx_int:0","name":"return","klass":"int"}],"colors":{"heapLocToColor":{"sdaReg125":[0],"sdaReg126":[0],"1093288424.<java.nio.Buffer: int capacity>":[0],"sdaReg127":[0],"sdaReg128":[0],"sdaReg68":[0],"1093288392.<java.io.ByteArrayInputStream: int count>":[0],"1093288424.<java.nio.Buffer: int limit>":[0],"sdaReg69":[0],"sdaReg66":[0],"sdaReg67":[0],"1093283696":[0],"sdaReg64":[0],"sdaReg65":[0],"sdaReg62":[0],"sdaReg63":[0],"sdaReg13":[1],"sdaReg72":[0],"sdaReg70":[0],"1093283544.<java.nio.charset.CharsetDecoderICU: int[] data>":[0],"sdaReg19":[2],"sdaReg122":[4],"sdaReg17":[2],"sdaReg18":[1],"sdaReg124":[0],"sdaReg123":[0],"sdaReg116":[2],"sdaReg117":[2],"static.<java.nio.charset.CoderResult: java.nio.charset.CoderResult OVERFLOW>":[5],"sdaReg119":[2],"sdaReg78":[0],"sdaReg79":[0],"1084347232.<java.nio.charset.CoderResult: int type>":[5],"sdaReg73":[0],"sdaReg74":[2],"sdaReg81":[0],"sdaReg80":[2],"sdaReg83":[0],"1084215096":[3],"sdaReg113":[2],"sdaReg111":[2],"sdaReg110":[2],"sdaReg107":[2],"sdaReg108":[1],"sdaReg109":[1],"1093288424.<java.nio.Buffer: int mark>":[0],"sdaReg103":[2],"sdaReg104":[2],"1093288424":[0],"sdaReg106":[2],"sdaReg86":[0],"sdaReg84":[0],"sdaReg85":[0],"sdaReg88":[0],"sdaReg89":[0],"sdaReg90":[0],"sdaReg94":[0],"1093288424.<java.nio.Buffer: int position>":[0],"sdaReg93":[0],"sdaReg92":[0],"sdaReg91":[0],"sdaReg100":[0],"sdaReg102":[2],"sdaReg101":[0],"1093292448.<java.io.InputStreamReader: java.nio.ByteBuffer bytes>":[0],"sdaReg96":[0],"1093283544.<java.nio.charset.CharsetDecoder: int status>":[0],"sdaReg97":[0],"sdaReg98":[0],"sdaReg99":[0],"1093288424.<java.nio.HeapByteBuffer: byte[] backingArray>":[0],"1093288392.<java.io.ByteArrayInputStream: int pos>":[0],"1093288392":[0],"1093283544.<java.nio.charset.CharsetDecoderICU: long converterHandle>":[0],"1093292448.<java.io.InputStreamReader: java.io.InputStream in>":[0],"sdaReg61":[0],"1084347232":[5],"1093283544":[0],"sdaReg59":[0],"sdaReg58":[0],"sdaReg57":[0],"sdaReg56":[0],"sdaReg55":[0],"sdaReg54":[0],"sdaReg53":[0],"sdaReg52":[0],"sdaReg160":[2],"sdaReg51":[0],"sdaReg50":[0],"1093510680":[1],"1093288424.<java.nio.HeapByteBuffer: int offset>":[0],"sdaReg153":[5],"sdaReg150":[5],"sdaReg151":[5],"sdaReg49":[0],"sdaReg157":[2],"sdaReg48":[0],"sdaReg155":[5],"sdaReg45":[0],"sdaReg47":[0],"sdaReg46":[0],"sdaReg43":[2],"sdaReg148":[5],"static.<java.nio.charset.CoderResult: java.nio.charset.CoderResult UNDERFLOW>":[3],"sdaReg143":[2],"sdaReg39":[0],"sdaReg145":[5],"sdaReg38":[2],"sdaReg146":[5],"1093510680.arrayIdx_int:0":[1],"1093510704":[2],"sdaReg142":[2],"sdaReg32":[2],"sdaReg31":[2],"sdaReg36":[2],"sdaReg35":[2],"sdaReg34":[2],"sdaReg33":[2],"1093292448.<java.io.Reader: java.lang.Object lock>":[0],"sdaReg8":[0],"sdaReg7":[0],"sdaReg4":[1],"1093422424":[0],"sdaReg139":[2],"sdaReg138":[2],"sdaReg135":[2],"sdaReg26":[2],"sdaReg132":[2],"sdaReg133":[2],"sdaReg28":[2],"sdaReg130":[0],"1093292448":[0],"sdaReg131":[2],"sdaReg3":[0],"1093292248":[0],"sdaReg1":[0],"sdaReg20":[1],"sdaReg23":[1],"sdaReg22":[2],"sdaReg25":[2]},"colorToColor":{"0":[0, 1],"1":[0, 2, 6],"4":[0]},"colorToLabel":{"0":"this","3":"<java.nio.charset.CoderResult: java.nio.charset.CoderResult UNDERFLOW>","5":"<java.nio.charset.CoderResult: java.nio.charset.CoderResult OVERFLOW>","6":"return"}}}

Generated Model
	this->return

