Scanning method <java.util.ArrayList$ArrayListIterator: java.lang.Object next()>

All seen event types: BinaryOperationRecord, LoadInstanceRecord, LoadArrayRecord, IfRecord, StoreInstanceRecord, 
Ignored event types: IfRecord, 

JSON Encoded Analysis Data (for visualization):{"heapEdges":[{"step":0,"from":"1093315256","to":"1093677000","type":"load","field":"<java.util.ArrayList$ArrayListIterator: java.util.ArrayList this$0>"},{"step":1,"from":"1093315256","to":"1093315256.<java.util.ArrayList$ArrayListIterator: int remaining>","type":"load","field":"<java.util.ArrayList$ArrayListIterator: int remaining>"},{"step":2,"from":"1093677000","to":"1093677000.<java.util.AbstractList: int modCount>","type":"load","field":"<java.util.AbstractList: int modCount>"},{"step":3,"from":"1093315256","to":"1093315256.<java.util.ArrayList$ArrayListIterator: int expectedModCount>","type":"load","field":"<java.util.ArrayList$ArrayListIterator: int expectedModCount>"},{"step":4,"from":"sdaReg0","to":"1093315256","type":"store","field":"<java.util.ArrayList$ArrayListIterator: int remaining>"},{"step":5,"from":"1093677000","to":"1093504840","type":"load","field":"<java.util.ArrayList: java.lang.Object[] array>"},{"step":6,"from":"1093677000","to":"1093677000.<java.util.ArrayList: int size>","type":"load","field":"<java.util.ArrayList: int size>"},{"step":7,"from":"sdaReg1","to":"1093315256","type":"store","field":"<java.util.ArrayList$ArrayListIterator: int removalIndex>"},{"step":8,"from":"1093504840","to":"1093581576","type":"load","field":"arrayIdx_int:0"}],"parameters":[{"id":"1093315256","name":"this","klass":"java.util.ArrayList$ArrayListIterator"}],"returns":[{"id":"1093581576","name":"return","klass":"java.lang.Object"}],"colors":{"heapLocToColor":{"1093315256.<java.util.ArrayList$ArrayListIterator: int remaining>":[0],"1093677000":[0],"1093677000.<java.util.ArrayList: int size>":[0],"1093315256.<java.util.ArrayList$ArrayListIterator: int expectedModCount>":[0],"sdaReg1":[0],"1093315256":[0],"sdaReg0":[0],"1093581576":[0],"1093677000.<java.util.AbstractList: int modCount>":[0],"1093504840":[0]},"colorToColor":{"0":[0, 1]},"colorToLabel":{"0":"this","1":"return"}}}

Generated Model
	this->return

