Scanning method <java.io.FilterWriter: void <init>(java.io.Writer)>

All seen event types: MethodReturnRecord, MethodCallRecord, MethodStartRecord, MethodEndRecord, IfRecord, StoreInstanceRecord, 
Ignored event types: IfRecord, 

JSON Encoded Analysis Data (for visualization):{"heapEdges":[{"step":0,"from":"1093770888","to":"1093257360","type":"store","field":"<java.io.Writer: java.lang.Object lock>"},{"step":1,"from":"1093770888","to":"1093257360","type":"store","field":"<java.io.FilterWriter: java.io.Writer out>"}],"parameters":[{"id":"1093257360","name":"this","klass":"java.io.FilterWriter"},{"id":"1093770888","name":"arg#1","klass":"java.io.Writer"}],"returns":[{"id":"1093257360","name":"return","klass":"java.io.FilterWriter"}],"colors":{"heapLocToColor":{"1093257360":[0],"sdaReg3":[0],"sdaReg2":[0],"1093770888":[1],"sdaReg1":[1],"sdaReg0":[0]},"colorToColor":{"0":[2],"1":[0]},"colorToLabel":{"0":"this","1":"arg#1","2":"return"}}}

Generated Model
	this->return
	arg#1->this
	arg#1->return

