Scanning method <java.util.Formatter$FormatSpecifierParser: java.util.Formatter$FormatToken parseFormatToken(int)>

All seen event types: BinaryOperationRecord, SimpleAssignmentRecord, SwitchRecord, MethodReturnRecord, MethodCallRecord, LoadInstanceRecord, MethodStartRecord, IfRecord, MethodEndRecord, NewObjectRecord, StoreInstanceRecord, 
Ignored event types: SwitchRecord, IfRecord, 

JSON Encoded Analysis Data (for visualization):{"heapEdges":[{"step":0,"from":"sdaReg0","to":"1093397904","type":"store","field":"<java.util.Formatter$FormatSpecifierParser: int startIndex>"},{"step":1,"from":"sdaReg0","to":"1093397904","type":"store","field":"<java.util.Formatter$FormatSpecifierParser: int i>"},{"step":2,"from":"1093366032","to":"sdaReg4","type":"create","field":"<java.util.Formatter$FormatToken: int argIndex>"},{"step":3,"from":"1093366032","to":"sdaReg5","type":"create","field":"<java.util.Formatter$FormatToken: char conversionType>"},{"step":4,"from":"1093366032","to":"sdaReg6","type":"create","field":"<java.util.Formatter$FormatToken: int precision>"},{"step":5,"from":"1093366032","to":"sdaReg7","type":"create","field":"<java.util.Formatter$FormatToken: int width>"},{"step":6,"from":"1093397904","to":"1093397904.<java.util.Formatter$FormatSpecifierParser: int length>","type":"load","field":"<java.util.Formatter$FormatSpecifierParser: int length>"},{"step":7,"from":"1093397904","to":"1093397904.<java.util.Formatter$FormatSpecifierParser: java.lang.String format>","type":"load","field":"<java.util.Formatter$FormatSpecifierParser: java.lang.String format>"},{"step":8,"from":"1093397904.<java.util.Formatter$FormatSpecifierParser: java.lang.String format>","to":"sdaReg13","type":"model"},{"step":9,"from":"1093397904","to":"1093397904.<java.util.Formatter$FormatSpecifierParser: int length>","type":"load","field":"<java.util.Formatter$FormatSpecifierParser: int length>"},{"step":10,"from":"1093397904","to":"1093397904.<java.util.Formatter$FormatSpecifierParser: java.lang.String format>","type":"load","field":"<java.util.Formatter$FormatSpecifierParser: java.lang.String format>"},{"step":11,"from":"1093397904.<java.util.Formatter$FormatSpecifierParser: java.lang.String format>","to":"sdaReg16","type":"model"},{"step":12,"from":"1093397904","to":"1093397904.<java.util.Formatter$FormatSpecifierParser: int length>","type":"load","field":"<java.util.Formatter$FormatSpecifierParser: int length>"},{"step":13,"from":"1093397904","to":"1093397904.<java.util.Formatter$FormatSpecifierParser: java.lang.String format>","type":"load","field":"<java.util.Formatter$FormatSpecifierParser: java.lang.String format>"},{"step":14,"from":"1093397904.<java.util.Formatter$FormatSpecifierParser: java.lang.String format>","to":"sdaReg21","type":"model"},{"step":15,"from":"1093397904","to":"1093397904.<java.util.Formatter$FormatSpecifierParser: int length>","type":"load","field":"<java.util.Formatter$FormatSpecifierParser: int length>"},{"step":16,"from":"1093397904","to":"1093397904.<java.util.Formatter$FormatSpecifierParser: java.lang.String format>","type":"load","field":"<java.util.Formatter$FormatSpecifierParser: java.lang.String format>"},{"step":17,"from":"sdaReg26","to":"1093397904","type":"store","field":"<java.util.Formatter$FormatSpecifierParser: int i>"},{"step":18,"from":"1093397904.<java.util.Formatter$FormatSpecifierParser: java.lang.String format>","to":"sdaReg27","type":"model"},{"step":19,"from":"sdaReg27","to":"1093366032","type":"store","field":"<java.util.Formatter$FormatToken: char conversionType>"}],"parameters":[{"id":"1093397904","name":"this","klass":"java.util.Formatter$FormatSpecifierParser"},{"id":"sdaReg0","name":"arg#1","klass":"int"}],"returns":[{"id":"1093366032","name":"return","klass":"java.util.Formatter$FormatToken"}],"colors":{"heapLocToColor":{"1093397904":[0],"sdaReg13":[0, 3],"sdaReg14":[4],"1093397904.<java.util.Formatter$FormatSpecifierParser: java.lang.String format>":[0],"sdaReg11":[2],"sdaReg12":[0],"sdaReg10":[0],"sdaReg30":[2],"sdaReg17":[2],"sdaReg15":[0],"sdaReg16":[0, 5],"sdaReg8":[2],"sdaReg9":[2],"1093397904.<java.util.Formatter$FormatSpecifierParser: int length>":[0],"sdaReg27":[0, 8],"sdaReg29":[2],"sdaReg28":[2],"sdaReg3":[2],"sdaReg2":[2],"sdaReg1":[2],"sdaReg21":[0, 6],"sdaReg0":[1],"sdaReg20":[0],"1093366032":[2],"sdaReg23":[0],"sdaReg22":[7],"sdaReg25":[0],"sdaReg24":[2]},"colorToColor":{"0":[2],"1":[0],"2":[9],"8":[2]},"colorToLabel":{"0":"this","1":"arg#1","9":"return"}}}

Generated Model
	this->return
	arg#1->this
	arg#1->return

