Scanning method <java.util.AbstractList$FullListIterator: int previousIndex()>

All seen event types: LoadInstanceRecord, 
Ignored event types: 

JSON Encoded Analysis Data (for visualization):{"heapEdges":[{"step":0,"from":"1093246536","to":"1093246536.<java.util.AbstractList$SimpleListIterator: int pos>","type":"load","field":"<java.util.AbstractList$SimpleListIterator: int pos>"}],"parameters":[{"id":"1093246536","name":"this","klass":"java.util.AbstractList$FullListIterator"}],"returns":[{"id":"1093246536.<java.util.AbstractList$SimpleListIterator: int pos>","name":"return","klass":"int"}],"colors":{"heapLocToColor":{"1093246536":[0],"1093246536.<java.util.AbstractList$SimpleListIterator: int pos>":[0]},"colorToColor":{"0":[1]},"colorToLabel":{"0":"this","1":"return"}}}

Generated Model
	this->return

