Scanning method <java.net.URI: java.lang.String toString()>

All seen event types: LoadInstanceRecord, IfRecord, 
Ignored event types: IfRecord, 

JSON Encoded Analysis Data (for visualization):{"heapEdges":[{"step":0,"from":"1093295576","to":"1093295576.<java.net.URI: java.lang.String string>","type":"load","field":"<java.net.URI: java.lang.String string>"},{"step":1,"from":"1093295576","to":"1093295576.<java.net.URI: java.lang.String string>","type":"load","field":"<java.net.URI: java.lang.String string>"}],"parameters":[{"id":"1093295576","name":"this","klass":"java.net.URI"}],"returns":[{"id":"1093295576.<java.net.URI: java.lang.String string>","name":"return","klass":"string"}],"colors":{"heapLocToColor":{"1093295576":[0],"1093295576.<java.net.URI: java.lang.String string>":[0]},"colorToColor":{"0":[1]},"colorToLabel":{"0":"this","1":"return"}}}

Generated Model
	this->return

