Scanning method <android.os.Bundle: void clear()>

All seen event types: BinaryOperationRecord, StoreArrayRecord, SimpleAssignmentRecord, MethodReturnRecord, MethodCallRecord, ArrayLengthRecord, LoadInstanceRecord, MethodStartRecord, MethodEndRecord, IfRecord, StoreInstanceRecord, 
Ignored event types: IfRecord, 

JSON Encoded Analysis Data (for visualization):{"heapEdges":[{"step":0,"from":"1094001456","to":"1094008424","type":"load","field":"<android.os.Bundle: java.util.Map mMap>"},{"step":1,"from":"1094008424","to":"1094008424.<java.util.HashMap: int size>","type":"load","field":"<java.util.HashMap: int size>"},{"step":2,"from":"1094008424","to":"1093669200","type":"load","field":"<java.util.HashMap: java.util.HashMap$HashMapEntry[] table>"},{"step":3,"from":"1094008424","to":"sdaReg9","type":"create","field":"<java.util.HashMap: java.util.HashMap$HashMapEntry entryForNullKey>"},{"step":4,"from":"1094008424","to":"1094008424.<java.util.HashMap: int modCount>","type":"load","field":"<java.util.HashMap: int modCount>"},{"step":5,"from":"sdaReg10","to":"1094008424","type":"store","field":"<java.util.HashMap: int modCount>"},{"step":6,"from":"1094008424","to":"sdaReg11","type":"create","field":"<java.util.HashMap: int size>"},{"step":7,"from":"1094001456","to":"sdaReg12","type":"create","field":"<android.os.Bundle: boolean mHasFds>"},{"step":8,"from":"1094001456","to":"sdaReg13","type":"create","field":"<android.os.Bundle: boolean mFdsKnown>"}],"parameters":[{"id":"1094001456","name":"this","klass":"android.os.Bundle"}],"returns":[{"id":null,"name":"return","klass":null}],"colors":{"heapLocToColor":{"1094008424":[0],"1094001456":[0],"1094008424.<java.util.HashMap: int modCount>":[0],"1093669200":[0],"1094008424.<java.util.HashMap: int size>":[0],"sdaReg10":[0],"sdaReg2":[0],"sdaReg1":[0],"sdaReg0":[0]},"colorToColor":{"0":[0]},"colorToLabel":{"0":"this","1":"return"}}}

Generated Model

