Scanning method <java.util.Formatter: java.lang.String toString()>

All seen event types: MethodReturnRecord, MethodCallRecord, LoadInstanceRecord, MethodStartRecord, MethodEndRecord, IfRecord, 
Ignored event types: IfRecord, 

JSON Encoded Analysis Data (for visualization):{"heapEdges":[{"step":0,"from":"1093424392","to":"1093424392.<java.util.Formatter: boolean closed>","type":"load","field":"<java.util.Formatter: boolean closed>"},{"step":1,"from":"1093424392","to":"1093550664","type":"load","field":"<java.util.Formatter: java.lang.Appendable out>"},{"step":2,"from":"1093550664","to":"sdaReg1","type":"model"}],"parameters":[{"id":"1093424392","name":"this","klass":"java.util.Formatter"}],"returns":[{"id":"sdaReg1","name":"return","klass":"string"}],"colors":{"heapLocToColor":{"1093424392.<java.util.Formatter: boolean closed>":[0],"1093424392":[0],"1093550664":[0],"sdaReg1":[0, 1],"sdaReg0":[0]},"colorToColor":{"0":[2],"1":[2]},"colorToLabel":{"0":"this","2":"return"}}}

Generated Model
	this->return

