Scanning method <java.io.PrintWriter: void <init>(java.lang.String,java.lang.String)>

All seen event types: SimpleAssignmentRecord, ExitMonitorRecord, LoadInstanceRecord, MethodStartRecord, IfRecord, NewObjectRecord, StoreInstanceRecord, NewArrayRecord, LoadStaticRecord, BinaryOperationRecord, MethodCallRecord, MethodReturnRecord, EnterMonitorRecord, CastRecord, ArrayLengthRecord, LoadArrayRecord, MethodEndRecord, 
Ignored event types: ExitMonitorRecord, EnterMonitorRecord, IfRecord, 

JSON Encoded Analysis Data (for visualization):{"heapEdges":[{"step":0,"from":"1093250184","to":"sdaReg0","type":"model"},{"step":1,"from":"sdaReg0","to":"1093250184","type":"model"},{"step":2,"from":"sdaReg0","to":"1093250184","type":"model"},{"step":3,"from":"1093523712","to":"1093250184","type":"model"},{"step":4,"from":"1093250184","to":"1093523712","type":"model"},{"step":5,"from":"1093250184","to":"1093523712","type":"model"},{"step":6,"from":"1093287832","to":"1093523712","type":"create","field":"<java.io.Writer: java.lang.Object lock>"},{"step":7,"from":"1093300992","to":"sdaReg25","type":"create","field":"<java.nio.Buffer: int mark>"},{"step":8,"from":"1093300992","to":"sdaReg26","type":"create","field":"<java.nio.Buffer: int position>"},{"step":9,"from":"1093300992","to":"sdaReg22","type":"create","field":"<java.nio.Buffer: int _elementSizeShift>"},{"step":10,"from":"1093300992","to":"sdaReg12","type":"create","field":"<java.nio.Buffer: int limit>"},{"step":11,"from":"sdaReg12","to":"1093300992","type":"store","field":"<java.nio.Buffer: int capacity>"},{"step":12,"from":"static.<java.nio.ByteOrder: java.nio.ByteOrder BIG_ENDIAN>","to":"1084339448","type":"load","field":"<java.nio.ByteOrder: java.nio.ByteOrder BIG_ENDIAN>"},{"step":13,"from":"1084339448","to":"1093300992","type":"store","field":"<java.nio.ByteBuffer: java.nio.ByteOrder order>"},{"step":14,"from":"1093300992","to":"1093231152","type":"create","field":"<java.nio.HeapByteBuffer: byte[] backingArray>"},{"step":15,"from":"1093300992","to":"sdaReg17","type":"create","field":"<java.nio.HeapByteBuffer: int offset>"},{"step":16,"from":"1093287832","to":"1093300992","type":"create","field":"<java.io.OutputStreamWriter: java.nio.ByteBuffer bytes>"},{"step":17,"from":"1093523712","to":"1093287832","type":"store","field":"<java.io.OutputStreamWriter: java.io.OutputStream out>"},{"step":18,"from":"static.<java.nio.charset.Charset: java.util.HashMap CACHED_CHARSETS>","to":"1084324784","type":"load","field":"<java.nio.charset.Charset: java.util.HashMap CACHED_CHARSETS>"},{"step":19,"from":"static.<java.nio.charset.Charset: java.util.HashMap CACHED_CHARSETS>","to":"1084324784","type":"load","field":"<java.nio.charset.Charset: java.util.HashMap CACHED_CHARSETS>"},{"step":20,"from":"1084324784","to":"1084332560","type":"load","field":"<java.util.HashMap: java.util.HashMap$HashMapEntry[] table>"},{"step":21,"from":"1084332560","to":"1084332840","type":"load","field":"arrayIdx_int:33"},{"step":22,"from":"1084332840","to":"1084331016","type":"load","field":"<java.util.HashMap$HashMapEntry: java.lang.Object key>"},{"step":23,"from":"1084332840","to":"1084332840.<java.util.HashMap$HashMapEntry: int hash>","type":"load","field":"<java.util.HashMap$HashMapEntry: int hash>"},{"step":24,"from":"1084332840","to":"1084326792","type":"load","field":"<java.util.HashMap$HashMapEntry: java.util.HashMap$HashMapEntry next>"},{"step":25,"from":"1084326792","to":"1084324840","type":"load","field":"<java.util.HashMap$HashMapEntry: java.lang.Object key>"},{"step":26,"from":"1084326792","to":"1084325896","type":"load","field":"<java.util.HashMap$HashMapEntry: java.lang.Object value>"},{"step":27,"from":"1084325896","to":"1084325896.<java.nio.charset.CharsetICU: java.lang.String icuCanonicalName>","type":"load","field":"<java.nio.charset.CharsetICU: java.lang.String icuCanonicalName>"},{"step":28,"from":"1084325896.<java.nio.charset.CharsetICU: java.lang.String icuCanonicalName>","to":"sdaReg56","type":"model"},{"step":29,"from":"sdaReg56","to":"sdaReg57","type":"model"},{"step":30,"from":"sdaReg56","to":"sdaReg58","type":"model"},{"step":31,"from":"static.<java.nio.charset.CharsetEncoderICU: java.util.Map DEFAULT_REPLACEMENTS>","to":"1085689080","type":"load","field":"<java.nio.charset.CharsetEncoderICU: java.util.Map DEFAULT_REPLACEMENTS>"},{"step":32,"from":"1085689080","to":"1085689160","type":"load","field":"<java.util.HashMap: java.util.HashMap$HashMapEntry[] table>"},{"step":33,"from":"1085689160","to":"1085689200","type":"load","field":"arrayIdx_int:1"},{"step":34,"from":"1085689200","to":"1083986640","type":"load","field":"<java.util.HashMap$HashMapEntry: java.lang.Object key>"},{"step":35,"from":"1085689200","to":"1085689200.<java.util.HashMap$HashMapEntry: int hash>","type":"load","field":"<java.util.HashMap$HashMapEntry: int hash>"},{"step":36,"from":"1085689200","to":"1085689136","type":"load","field":"<java.util.HashMap$HashMapEntry: java.lang.Object value>"},{"step":37,"from":"1085689136","to":"1093288744","type":"model"},{"step":38,"from":"1093282864","to":"1084325896","type":"model"},{"step":39,"from":"1093282864","to":"sdaReg57","type":"model"},{"step":40,"from":"1093282864","to":"sdaReg59","type":"model"},{"step":41,"from":"1093282864","to":"1093288744","type":"model"},{"step":42,"from":"1084325896","to":"1093282864","type":"model"},{"step":43,"from":"1084325896","to":"sdaReg57","type":"model"},{"step":44,"from":"1084325896","to":"sdaReg59","type":"model"},{"step":45,"from":"1084325896","to":"1093288744","type":"model"},{"step":46,"from":"1084325896","to":"1093282864","type":"model"},{"step":47,"from":"sdaReg57","to":"1093282864","type":"model"},{"step":48,"from":"sdaReg57","to":"1084325896","type":"model"},{"step":49,"from":"sdaReg57","to":"sdaReg59","type":"model"},{"step":50,"from":"sdaReg57","to":"1093288744","type":"model"},{"step":51,"from":"sdaReg57","to":"1093282864","type":"model"},{"step":52,"from":"sdaReg59","to":"1093282864","type":"model"},{"step":53,"from":"sdaReg59","to":"1084325896","type":"model"},{"step":54,"from":"sdaReg59","to":"sdaReg57","type":"model"},{"step":55,"from":"sdaReg59","to":"1093288744","type":"model"},{"step":56,"from":"sdaReg59","to":"1093282864","type":"model"},{"step":57,"from":"1093288744","to":"1093282864","type":"model"},{"step":58,"from":"1093288744","to":"1084325896","type":"model"},{"step":59,"from":"1093288744","to":"sdaReg57","type":"model"},{"step":60,"from":"1093288744","to":"sdaReg59","type":"model"},{"step":61,"from":"1093288744","to":"1093282864","type":"model"},{"step":62,"from":"1093282864","to":"1093282952","type":"create","field":"<java.nio.charset.CharsetEncoderICU: int[] data>"},{"step":63,"from":"1093282864","to":"sdaReg83","type":"create","field":"<java.nio.charset.CharsetEncoderICU: long converterHandle>"},{"step":64,"from":"1093282864","to":"sdaReg84","type":"create","field":"<java.nio.charset.CharsetEncoderICU: char[] input>"},{"step":65,"from":"1093282864","to":"sdaReg85","type":"create","field":"<java.nio.charset.CharsetEncoderICU: byte[] output>"},{"step":66,"from":"1093282864","to":"sdaReg86","type":"create","field":"<java.nio.charset.CharsetEncoderICU: char[] allocatedInput>"},{"step":67,"from":"1093282864","to":"sdaReg87","type":"create","field":"<java.nio.charset.CharsetEncoderICU: byte[] allocatedOutput>"},{"step":68,"from":"sdaReg56","to":"1093282864","type":"store","field":"<java.nio.charset.CharsetEncoderICU: long converterHandle>"},{"step":69,"from":"1093282864","to":"1084336272","type":"load","field":"<java.nio.charset.CharsetEncoder: java.nio.charset.CodingErrorAction malformedInputAction>"},{"step":70,"from":"static.<java.nio.charset.CodingErrorAction: java.nio.charset.CodingErrorAction REPORT>","to":"1084336272","type":"load","field":"<java.nio.charset.CodingErrorAction: java.nio.charset.CodingErrorAction REPORT>"},{"step":71,"from":"1093282864","to":"1084336272","type":"load","field":"<java.nio.charset.CharsetEncoder: java.nio.charset.CodingErrorAction unmappableCharacterAction>"},{"step":72,"from":"static.<java.nio.charset.CodingErrorAction: java.nio.charset.CodingErrorAction REPORT>","to":"1084336272","type":"load","field":"<java.nio.charset.CodingErrorAction: java.nio.charset.CodingErrorAction REPORT>"},{"step":73,"from":"1093282864","to":"1093288744","type":"load","field":"<java.nio.charset.CharsetEncoder: byte[] replacementBytes>"},{"step":74,"from":"sdaReg89","to":"sdaReg94","type":"model"},{"step":75,"from":"sdaReg89","to":"sdaReg98","type":"model"},{"step":76,"from":"sdaReg89","to":"1093288744","type":"model"},{"step":77,"from":"sdaReg89","to":"sdaReg101","type":"model"},{"step":78,"from":"sdaReg94","to":"sdaReg89","type":"model"},{"step":79,"from":"sdaReg94","to":"sdaReg98","type":"model"},{"step":80,"from":"sdaReg94","to":"1093288744","type":"model"},{"step":81,"from":"sdaReg94","to":"sdaReg101","type":"model"},{"step":82,"from":"sdaReg98","to":"sdaReg89","type":"model"},{"step":83,"from":"sdaReg98","to":"sdaReg94","type":"model"},{"step":84,"from":"sdaReg98","to":"1093288744","type":"model"},{"step":85,"from":"sdaReg98","to":"sdaReg101","type":"model"},{"step":86,"from":"1093288744","to":"sdaReg89","type":"model"},{"step":87,"from":"1093288744","to":"sdaReg94","type":"model"},{"step":88,"from":"1093288744","to":"sdaReg98","type":"model"},{"step":89,"from":"1093288744","to":"sdaReg101","type":"model"},{"step":90,"from":"sdaReg101","to":"1093282864","type":"store","field":"<java.nio.charset.CharsetEncoderICU: int ec>"},{"step":91,"from":"1093287832","to":"1093282864","type":"create","field":"<java.io.OutputStreamWriter: java.nio.charset.CharsetEncoder encoder>"},{"step":92,"from":"static.<java.nio.charset.CodingErrorAction: java.nio.charset.CodingErrorAction REPLACE>","to":"1084051696","type":"load","field":"<java.nio.charset.CodingErrorAction: java.nio.charset.CodingErrorAction REPLACE>"},{"step":93,"from":"1084051696","to":"1093282864","type":"store","field":"<java.nio.charset.CharsetEncoder: java.nio.charset.CodingErrorAction malformedInputAction>"},{"step":94,"from":"static.<java.nio.charset.CodingErrorAction: java.nio.charset.CodingErrorAction REPORT>","to":"1084336272","type":"load","field":"<java.nio.charset.CodingErrorAction: java.nio.charset.CodingErrorAction REPORT>"},{"step":95,"from":"static.<java.nio.charset.CodingErrorAction: java.nio.charset.CodingErrorAction IGNORE>","to":"1084016976","type":"load","field":"<java.nio.charset.CodingErrorAction: java.nio.charset.CodingErrorAction IGNORE>"},{"step":96,"from":"static.<java.nio.charset.CodingErrorAction: java.nio.charset.CodingErrorAction REPLACE>","to":"1084051696","type":"load","field":"<java.nio.charset.CodingErrorAction: java.nio.charset.CodingErrorAction REPLACE>"},{"step":97,"from":"1093282864","to":"1084336272","type":"load","field":"<java.nio.charset.CharsetEncoder: java.nio.charset.CodingErrorAction unmappableCharacterAction>"},{"step":98,"from":"static.<java.nio.charset.CodingErrorAction: java.nio.charset.CodingErrorAction REPORT>","to":"1084336272","type":"load","field":"<java.nio.charset.CodingErrorAction: java.nio.charset.CodingErrorAction REPORT>"},{"step":99,"from":"1093282864","to":"1093288744","type":"load","field":"<java.nio.charset.CharsetEncoder: byte[] replacementBytes>"},{"step":100,"from":"sdaReg115","to":"sdaReg120","type":"model"},{"step":101,"from":"sdaReg115","to":"sdaReg124","type":"model"},{"step":102,"from":"sdaReg115","to":"1093288744","type":"model"},{"step":103,"from":"sdaReg115","to":"sdaReg127","type":"model"},{"step":104,"from":"sdaReg120","to":"sdaReg115","type":"model"},{"step":105,"from":"sdaReg120","to":"sdaReg124","type":"model"},{"step":106,"from":"sdaReg120","to":"1093288744","type":"model"},{"step":107,"from":"sdaReg120","to":"sdaReg127","type":"model"},{"step":108,"from":"sdaReg124","to":"sdaReg115","type":"model"},{"step":109,"from":"sdaReg124","to":"sdaReg120","type":"model"},{"step":110,"from":"sdaReg124","to":"1093288744","type":"model"},{"step":111,"from":"sdaReg124","to":"sdaReg127","type":"model"},{"step":112,"from":"1093288744","to":"sdaReg115","type":"model"},{"step":113,"from":"1093288744","to":"sdaReg120","type":"model"},{"step":114,"from":"1093288744","to":"sdaReg124","type":"model"},{"step":115,"from":"1093288744","to":"sdaReg127","type":"model"},{"step":116,"from":"sdaReg127","to":"1093282864","type":"store","field":"<java.nio.charset.CharsetEncoderICU: int ec>"},{"step":117,"from":"static.<java.nio.charset.CodingErrorAction: java.nio.charset.CodingErrorAction REPLACE>","to":"1084051696","type":"load","field":"<java.nio.charset.CodingErrorAction: java.nio.charset.CodingErrorAction REPLACE>"},{"step":118,"from":"1084051696","to":"1093282864","type":"store","field":"<java.nio.charset.CharsetEncoder: java.nio.charset.CodingErrorAction unmappableCharacterAction>"},{"step":119,"from":"static.<java.nio.charset.CodingErrorAction: java.nio.charset.CodingErrorAction REPORT>","to":"1084336272","type":"load","field":"<java.nio.charset.CodingErrorAction: java.nio.charset.CodingErrorAction REPORT>"},{"step":120,"from":"static.<java.nio.charset.CodingErrorAction: java.nio.charset.CodingErrorAction IGNORE>","to":"1084016976","type":"load","field":"<java.nio.charset.CodingErrorAction: java.nio.charset.CodingErrorAction IGNORE>"},{"step":121,"from":"static.<java.nio.charset.CodingErrorAction: java.nio.charset.CodingErrorAction REPLACE>","to":"1084051696","type":"load","field":"<java.nio.charset.CodingErrorAction: java.nio.charset.CodingErrorAction REPLACE>"},{"step":122,"from":"static.<java.nio.charset.CodingErrorAction: java.nio.charset.CodingErrorAction REPORT>","to":"1084336272","type":"load","field":"<java.nio.charset.CodingErrorAction: java.nio.charset.CodingErrorAction REPORT>"},{"step":123,"from":"static.<java.nio.charset.CodingErrorAction: java.nio.charset.CodingErrorAction IGNORE>","to":"1084016976","type":"load","field":"<java.nio.charset.CodingErrorAction: java.nio.charset.CodingErrorAction IGNORE>"},{"step":124,"from":"static.<java.nio.charset.CodingErrorAction: java.nio.charset.CodingErrorAction REPLACE>","to":"1084051696","type":"load","field":"<java.nio.charset.CodingErrorAction: java.nio.charset.CodingErrorAction REPLACE>"},{"step":125,"from":"1093282864","to":"1093288744","type":"load","field":"<java.nio.charset.CharsetEncoder: byte[] replacementBytes>"},{"step":126,"from":"sdaReg135","to":"sdaReg140","type":"model"},{"step":127,"from":"sdaReg135","to":"sdaReg144","type":"model"},{"step":128,"from":"sdaReg135","to":"1093288744","type":"model"},{"step":129,"from":"sdaReg135","to":"sdaReg147","type":"model"},{"step":130,"from":"sdaReg140","to":"sdaReg135","type":"model"},{"step":131,"from":"sdaReg140","to":"sdaReg144","type":"model"},{"step":132,"from":"sdaReg140","to":"1093288744","type":"model"},{"step":133,"from":"sdaReg140","to":"sdaReg147","type":"model"},{"step":134,"from":"sdaReg144","to":"sdaReg135","type":"model"},{"step":135,"from":"sdaReg144","to":"sdaReg140","type":"model"},{"step":136,"from":"sdaReg144","to":"1093288744","type":"model"},{"step":137,"from":"sdaReg144","to":"sdaReg147","type":"model"},{"step":138,"from":"1093288744","to":"sdaReg135","type":"model"},{"step":139,"from":"1093288744","to":"sdaReg140","type":"model"},{"step":140,"from":"1093288744","to":"sdaReg144","type":"model"},{"step":141,"from":"1093288744","to":"sdaReg147","type":"model"},{"step":142,"from":"sdaReg147","to":"1093282864","type":"store","field":"<java.nio.charset.CharsetEncoderICU: int ec>"},{"step":143,"from":"1093301816","to":"1093287832","type":"model"},{"step":144,"from":"1093287832","to":"1093301816","type":"model"},{"step":145,"from":"1093287832","to":"1093301816","type":"model"}],"parameters":[{"id":"1093301816","name":"this","klass":"java.io.PrintWriter"},{"id":"sdaReg0","name":"arg#1","klass":"string"},{"id":"sdaReg1","name":"arg#2","klass":"string"}],"returns":[{"id":"1093301816","name":"return","klass":"java.io.PrintWriter"}],"colors":{"heapLocToColor":{"sdaReg125":[18],"1084331016":[9],"sdaReg126":[17, 18, 14],"sdaReg127":[24],"sdaReg68":[15],"sdaReg69":[15],"sdaReg66":[15],"1085689200":[14],"1084324784":[9],"sdaReg67":[15],"sdaReg64":[15],"sdaReg65":[15],"sdaReg62":[15],"1093282864.<java.nio.charset.CharsetEncoder: byte[] replacementBytes>":[17, 18, 14],"sdaReg63":[15],"sdaReg13":[6],"sdaReg72":[15],"sdaReg14":[6],"sdaReg11":[3],"static.<java.nio.charset.CharsetEncoderICU: java.util.Map DEFAULT_REPLACEMENTS>":[14],"sdaReg10":[3],"sdaReg19":[6],"sdaReg122":[18, 20],"sdaReg121":[18],"sdaReg18":[6],"sdaReg15":[6],"sdaReg123":[18, 20],"sdaReg16":[7],"1085689200.<java.util.HashMap$HashMapEntry: int hash>":[14],"sdaReg116":[18],"sdaReg117":[18],"sdaReg114":[18],"sdaReg118":[22],"sdaReg119":[22],"sdaReg77":[17, 14],"sdaReg78":[17, 14],"sdaReg79":[18],"1085689080":[14],"sdaReg73":[16],"sdaReg74":[14],"sdaReg75":[14],"sdaReg76":[17, 14],"sdaReg81":[17, 14],"sdaReg80":[9],"sdaReg82":[18],"1093282864":[18],"1085689136":[14],"sdaReg113":[22],"sdaReg112":[18],"sdaReg111":[22],"sdaReg110":[18],"sdaReg107":[11],"sdaReg108":[18],"sdaReg109":[18],"sdaReg104":[18],"sdaReg105":[18],"sdaReg106":[18],"sdaReg88":[18],"sdaReg90":[18],"sdaReg93":[18],"sdaReg92":[18],"sdaReg91":[18],"1085689160":[14],"sdaReg100":[17, 18, 14],"1084051696":[22],"static.<java.nio.charset.CodingErrorAction: java.nio.charset.CodingErrorAction REPLACE>":[22],"sdaReg101":[21],"1093250184":[4, 5],"sdaReg95":[18],"sdaReg96":[18, 20],"sdaReg97":[18, 20],"1093288744":[17, 18, 14],"sdaReg99":[18],"1093300992":[6],"1084339448":[8],"1084326792":[9],"1084324840":[9],"1084016976":[23],"sdaReg60":[14],"sdaReg61":[15],"1083986640":[14],"sdaReg59":[18, 13],"sdaReg58":[13],"sdaReg57":[18, 12],"sdaReg56":[11],"static.<java.nio.ByteOrder: java.nio.ByteOrder BIG_ENDIAN>":[8],"sdaReg54":[9],"sdaReg53":[9],"sdaReg52":[9],"sdaReg51":[9],"sdaReg50":[9],"1084332840":[9],"1093282864.<java.nio.charset.CharsetEncoder: java.nio.charset.CodingErrorAction unmappableCharacterAction>":[18, 20],"sdaReg150":[3],"static.<java.nio.charset.CodingErrorAction: java.nio.charset.CodingErrorAction IGNORE>":[23],"sdaReg151":[0],"sdaReg49":[10],"1093523712":[4],"sdaReg45":[10],"static.<java.nio.charset.CodingErrorAction: java.nio.charset.CodingErrorAction REPORT>":[18, 20],"sdaReg44":[10],"1084336272":[18, 20],"1084325896.<java.nio.charset.CharsetICU: java.lang.String icuCanonicalName>":[9],"sdaReg46":[10],"sdaReg41":[10],"sdaReg40":[10],"sdaReg43":[10],"sdaReg42":[10],"sdaReg147":[25],"sdaReg143":[22],"sdaReg39":[10],"sdaReg145":[18],"sdaReg38":[10],"sdaReg146":[17, 18, 14],"sdaReg37":[9],"1093301816":[0],"1093231152":[7],"sdaReg141":[18],"1093282952":[19],"sdaReg142":[22],"sdaReg32":[6],"1093287832":[0, 3],"1084332560":[9],"sdaReg36":[9],"sdaReg35":[6],"sdaReg34":[6],"sdaReg33":[6],"sdaReg8":[3],"sdaReg9":[4],"sdaReg6":[3],"sdaReg7":[4],"sdaReg4":[5],"sdaReg5":[4],"1084325896":[18, 9],"sdaReg139":[22],"sdaReg138":[22],"static.<java.nio.charset.Charset: java.util.HashMap CACHED_CHARSETS>":[9],"sdaReg137":[18],"sdaReg136":[18],"sdaReg134":[18],"sdaReg27":[6],"sdaReg132":[18],"sdaReg29":[6],"sdaReg133":[22],"sdaReg28":[6],"sdaReg130":[18],"sdaReg131":[22],"1084332840.<java.util.HashMap$HashMapEntry: int hash>":[9],"sdaReg3":[5],"sdaReg2":[5],"sdaReg1":[2],"sdaReg21":[6],"sdaReg0":[1, 5],"sdaReg24":[6]},"colorToColor":{"0":[0, 26],"1":[5],"3":[0],"4":[3, 4],"5":[4, 5],"6":[3],"7":[6],"8":[6],"9":[17, 18, 11, 12, 13, 14],"11":[18, 12, 13],"12":[17, 18, 9, 13, 14],"13":[17, 18, 9, 12, 14],"14":[18, 21, 25, 24, 9, 12, 13],"17":[18, 21, 25, 24, 9, 12, 13],"19":[18],"18":[17, 3, 18, 21, 25, 24, 9, 12, 13, 14],"21":[18],"22":[18],"25":[18],"24":[18]},"colorToLabel":{"0":"this","1":"arg#1","2":"arg#2","8":"<java.nio.ByteOrder: java.nio.ByteOrder BIG_ENDIAN>","9":"<java.nio.charset.Charset: java.util.HashMap CACHED_CHARSETS>","14":"<java.nio.charset.CharsetEncoderICU: java.util.Map DEFAULT_REPLACEMENTS>","20":"<java.nio.charset.CodingErrorAction: java.nio.charset.CodingErrorAction REPORT>","22":"<java.nio.charset.CodingErrorAction: java.nio.charset.CodingErrorAction REPLACE>","23":"<java.nio.charset.CodingErrorAction: java.nio.charset.CodingErrorAction IGNORE>","26":"return"}}}

Generated Model
	this->return
	arg#1->this
	arg#1->return

