Scanning method <android.os.Message: java.lang.Runnable getCallback()>

All seen event types: LoadInstanceRecord, 
Ignored event types: 

JSON Encoded Analysis Data (for visualization):{"heapEdges":[{"step":0,"from":"1093454480","to":"1093581312","type":"load","field":"<android.os.Message: java.lang.Runnable callback>"}],"parameters":[{"id":"1093454480","name":"this","klass":"android.os.Message"}],"returns":[{"id":"1093581312","name":"return","klass":"java.lang.Runnable"}],"colors":{"heapLocToColor":{"1093581312":[0],"1093454480":[0]},"colorToColor":{"0":[1]},"colorToLabel":{"0":"this","1":"return"}}}

Generated Model
	this->return

