Scanning method <java.net.URL: void <init>(java.lang.String,java.lang.String,int,java.lang.String,java.net.URLStreamHandler)>

All seen event types: SimpleAssignmentRecord, MethodStartRecord, LoadInstanceRecord, IfRecord, StoreInstanceRecord, LoadStaticRecord, BinaryOperationRecord, MethodCallRecord, MethodReturnRecord, ArrayLengthRecord, CastRecord, LoadArrayRecord, MethodEndRecord, 
Ignored event types: IfRecord, 

JSON Encoded Analysis Data (for visualization):{"heapEdges":[{"step":0,"from":"1093621416","to":"sdaReg5","type":"create","field":"<java.net.URL: int port>"},{"step":1,"from":"sdaReg1","to":"sdaReg6","type":"model"},{"step":2,"from":"sdaReg0","to":"1093621416","type":"store","field":"<java.net.URL: java.lang.String protocol>"},{"step":3,"from":"sdaReg1","to":"1093621416","type":"store","field":"<java.net.URL: java.lang.String host>"},{"step":4,"from":"sdaReg2","to":"1093621416","type":"store","field":"<java.net.URL: int port>"},{"step":5,"from":"sdaReg1","to":"sdaReg7","type":"model"},{"step":6,"from":"sdaReg3","to":"1093621416","type":"store","field":"<java.net.URL: java.lang.String file>"},{"step":7,"from":"1093621416","to":"sdaReg14","type":"create","field":"<java.net.URL: java.lang.String query>"},{"step":8,"from":"sdaReg15","to":"1093621416","type":"store","field":"<java.net.URL: java.lang.String path>"},{"step":9,"from":"static.<java.net.URL: java.util.Hashtable streamHandlers>","to":"1084315112","type":"load","field":"<java.net.URL: java.util.Hashtable streamHandlers>"},{"step":10,"from":"1084315112","to":"1084321912","type":"load","field":"<java.util.Hashtable: java.util.Hashtable$HashtableEntry[] table>"},{"step":11,"from":"1084321912","to":"1084322344","type":"load","field":"arrayIdx_int:2"},{"step":12,"from":"1084322344","to":"1084322128","type":"load","field":"<java.util.Hashtable$HashtableEntry: java.lang.Object key>"},{"step":13,"from":"1084322344","to":"1084322344.<java.util.Hashtable$HashtableEntry: int hash>","type":"load","field":"<java.util.Hashtable$HashtableEntry: int hash>"},{"step":14,"from":"1084322344","to":"1084322328","type":"load","field":"<java.util.Hashtable$HashtableEntry: java.lang.Object value>"},{"step":15,"from":"1084322328","to":"1093621416","type":"store","field":"<java.net.URL: java.net.URLStreamHandler streamHandler>"}],"parameters":[{"id":"1093621416","name":"this","klass":"java.net.URL"},{"id":"sdaReg0","name":"arg#1","klass":"string"},{"id":"sdaReg1","name":"arg#2","klass":"string"},{"id":"sdaReg2","name":"arg#3","klass":"int"},{"id":"sdaReg3","name":"arg#4","klass":"string"},{"id":"0","name":"arg#5","klass":"java.net.URLStreamHandler"}],"returns":[{"id":"1093621416","name":"return","klass":"java.net.URL"}],"colors":{"heapLocToColor":{"static.<java.net.URL: java.util.Hashtable streamHandlers>":[11],"1093621416":[0],"sdaReg13":[10],"sdaReg11":[9],"sdaReg12":[10],"sdaReg32":[11],"sdaReg31":[13],"sdaReg30":[12],"sdaReg19":[12],"1084322128":[11],"sdaReg17":[11],"1084322328":[11],"sdaReg33":[11],"sdaReg16":[0],"sdaReg8":[8],"sdaReg9":[0],"1084322344":[11],"sdaReg6":[2, 6],"sdaReg7":[2, 7],"sdaReg4":[0],"sdaReg27":[12],"1084321912":[11],"sdaReg26":[12],"0":[5],"sdaReg3":[4],"sdaReg2":[3],"1084322344.<java.util.Hashtable$HashtableEntry: int hash>":[11],"sdaReg1":[2],"sdaReg21":[12],"sdaReg0":[1],"sdaReg20":[12],"sdaReg23":[12],"sdaReg22":[12],"1084315112":[11],"sdaReg25":[12],"sdaReg24":[12]},"colorToColor":{"0":[14],"1":[0],"2":[0],"3":[0],"4":[0],"11":[0]},"colorToLabel":{"0":"this","1":"arg#1","2":"arg#2","3":"arg#3","4":"arg#4","5":"arg#5","11":"<java.net.URL: java.util.Hashtable streamHandlers>","14":"return"}}}

Generated Model
	this->return
	arg#4->this
	arg#4->return
	arg#3->this
	arg#3->return
	arg#2->this
	arg#2->return
	arg#1->this
	arg#1->return

