Scanning method <java.net.URL: void <init>(java.lang.String,java.lang.String,int,java.lang.String,java.net.URLStreamHandler)>

All seen event types: SimpleAssignmentRecord, MethodStartRecord, LoadInstanceRecord, IfRecord, StoreInstanceRecord, LoadStaticRecord, BinaryOperationRecord, MethodCallRecord, MethodReturnRecord, ArrayLengthRecord, CastRecord, LoadArrayRecord, MethodEndRecord, 
Ignored event types: IfRecord, 

JSON Encoded Analysis Data (for visualization):{"heapEdges":[{"step":0,"from":"1093651520","to":"sdaReg5","type":"create","field":"<java.net.URL: int port>"},{"step":1,"from":"sdaReg0","to":"1093651520","type":"store","field":"<java.net.URL: java.lang.String protocol>"},{"step":2,"from":"sdaReg1","to":"1093651520","type":"store","field":"<java.net.URL: java.lang.String host>"},{"step":3,"from":"sdaReg2","to":"1093651520","type":"store","field":"<java.net.URL: int port>"},{"step":4,"from":"sdaReg3","to":"1093651520","type":"store","field":"<java.net.URL: java.lang.String file>"},{"step":5,"from":"1093651520","to":"sdaReg11","type":"create","field":"<java.net.URL: java.lang.String query>"},{"step":6,"from":"sdaReg12","to":"1093651520","type":"store","field":"<java.net.URL: java.lang.String path>"},{"step":7,"from":"static.<java.net.URL: java.util.Hashtable streamHandlers>","to":"1084315112","type":"load","field":"<java.net.URL: java.util.Hashtable streamHandlers>"},{"step":8,"from":"1084315112","to":"1084321912","type":"load","field":"<java.util.Hashtable: java.util.Hashtable$HashtableEntry[] table>"},{"step":9,"from":"1084321912","to":"1084322344","type":"load","field":"arrayIdx_int:2"},{"step":10,"from":"1084322344","to":"1084322128","type":"load","field":"<java.util.Hashtable$HashtableEntry: java.lang.Object key>"},{"step":11,"from":"1084322344","to":"1084322344.<java.util.Hashtable$HashtableEntry: int hash>","type":"load","field":"<java.util.Hashtable$HashtableEntry: int hash>"},{"step":12,"from":"1084322344","to":"1084321952","type":"load","field":"<java.util.Hashtable$HashtableEntry: java.util.Hashtable$HashtableEntry next>"},{"step":13,"from":"1084321952","to":"1084315376","type":"load","field":"<java.util.Hashtable$HashtableEntry: java.lang.Object key>"},{"step":14,"from":"1084321952","to":"1084321952.<java.util.Hashtable$HashtableEntry: int hash>","type":"load","field":"<java.util.Hashtable$HashtableEntry: int hash>"},{"step":15,"from":"1084321952","to":"1084321896","type":"load","field":"<java.util.Hashtable$HashtableEntry: java.lang.Object value>"},{"step":16,"from":"1084321896","to":"1093651520","type":"store","field":"<java.net.URL: java.net.URLStreamHandler streamHandler>"}],"parameters":[{"id":"1093651520","name":"this","klass":"java.net.URL"},{"id":"sdaReg0","name":"arg#1","klass":"string"},{"id":"sdaReg1","name":"arg#2","klass":"string"},{"id":"sdaReg2","name":"arg#3","klass":"int"},{"id":"sdaReg3","name":"arg#4","klass":"string"},{"id":"0","name":"arg#5","klass":"java.net.URLStreamHandler"}],"returns":[{"id":"1093651520","name":"return","klass":"java.net.URL"}],"colors":{"heapLocToColor":{"static.<java.net.URL: java.util.Hashtable streamHandlers>":[8],"1084321952":[8],"1084315376":[8],"1093651520":[0],"sdaReg13":[0],"sdaReg14":[8],"sdaReg10":[7],"1084321952.<java.util.Hashtable$HashtableEntry: int hash>":[8],"sdaReg30":[8],"sdaReg19":[9],"1084322128":[8],"sdaReg17":[9],"sdaReg18":[9],"sdaReg16":[9],"sdaReg9":[7],"1084321896":[8],"1084322344":[8],"sdaReg6":[6],"sdaReg7":[0],"sdaReg4":[0],"sdaReg27":[9],"1084321912":[8],"sdaReg29":[8],"sdaReg28":[10],"0":[5],"sdaReg3":[4],"sdaReg2":[3],"1084322344.<java.util.Hashtable$HashtableEntry: int hash>":[8],"sdaReg1":[2],"sdaReg21":[9],"sdaReg0":[1],"sdaReg20":[9],"sdaReg23":[9],"sdaReg22":[9],"1084315112":[8],"sdaReg24":[9]},"colorToColor":{"0":[11],"1":[0],"2":[0],"3":[0],"4":[0],"8":[0]},"colorToLabel":{"0":"this","1":"arg#1","2":"arg#2","3":"arg#3","4":"arg#4","5":"arg#5","8":"<java.net.URL: java.util.Hashtable streamHandlers>","11":"return"}}}

Generated Model
	this->return
	arg#4->this
	arg#4->return
	arg#3->this
	arg#3->return
	arg#2->this
	arg#2->return
	arg#1->this
	arg#1->return

