Scanning method <java.util.HashMap$EntrySet: java.util.Iterator iterator()>

All seen event types: BinaryOperationRecord, SimpleAssignmentRecord, MethodReturnRecord, MethodCallRecord, ArrayLengthRecord, MethodStartRecord, LoadInstanceRecord, LoadArrayRecord, MethodEndRecord, IfRecord, StoreInstanceRecord, NewObjectRecord, 
Ignored event types: IfRecord, 

JSON Encoded Analysis Data (for visualization):{"heapEdges":[{"step":0,"from":"1093420928","to":"1093578512","type":"load","field":"<java.util.HashMap$EntrySet: java.util.HashMap this$0>"},{"step":1,"from":"1093578512","to":"1093388136","type":"store","field":"<java.util.HashMap$EntryIterator: java.util.HashMap this$0>"},{"step":2,"from":"1093578512","to":"1093388136","type":"store","field":"<java.util.HashMap$HashIterator: java.util.HashMap this$0>"},{"step":3,"from":"1093578512","to":"1093578512.<java.util.HashMap: int modCount>","type":"load","field":"<java.util.HashMap: int modCount>"},{"step":4,"from":"1093578512.<java.util.HashMap: int modCount>","to":"1093388136","type":"store","field":"<java.util.HashMap$HashIterator: int expectedModCount>"},{"step":5,"from":"1093578512","to":"1083997920","type":"load","field":"<java.util.HashMap: java.util.HashMap$HashMapEntry[] table>"},{"step":6,"from":"1093388136","to":"1093388136.<java.util.HashMap$HashIterator: int nextIndex>","type":"load","field":"<java.util.HashMap$HashIterator: int nextIndex>"},{"step":7,"from":"1093388136","to":"1093388136.<java.util.HashMap$HashIterator: int nextIndex>","type":"load","field":"<java.util.HashMap$HashIterator: int nextIndex>"},{"step":8,"from":"sdaReg10","to":"1093388136","type":"store","field":"<java.util.HashMap$HashIterator: int nextIndex>"},{"step":9,"from":"sdaReg10","to":"1093388136","type":"store","field":"<java.util.HashMap$HashIterator: int nextIndex>"}],"parameters":[{"id":"1093420928","name":"this","klass":"java.util.HashMap$EntrySet"}],"returns":[{"id":"1093388136","name":"return","klass":"java.util.Iterator"}],"colors":{"heapLocToColor":{"1093578512.<java.util.HashMap: int modCount>":[0],"1093578512":[0],"1093420928":[0],"sdaReg6":[0],"sdaReg7":[1],"sdaReg4":[0],"sdaReg5":[1],"sdaReg13":[1],"1093388136":[1],"sdaReg14":[1],"sdaReg10":[1],"1093388136.<java.util.HashMap$HashIterator: int nextIndex>":[1],"sdaReg3":[1],"sdaReg2":[0],"sdaReg1":[1],"1083997920":[0],"sdaReg0":[0],"sdaReg15":[1],"sdaReg16":[1]},"colorToColor":{"0":[1],"1":[1, 2]},"colorToLabel":{"0":"this","2":"return"}}}

Generated Model
	this->return

