Scanning method <java.util.TreeMap: java.util.TreeMap$Node find(java.lang.Object,java.util.TreeMap$Relation)>

All seen event types: SimpleAssignmentRecord, LoadInstanceRecord, MethodStartRecord, IfRecord, NewObjectRecord, StoreInstanceRecord, LoadStaticRecord, BinaryOperationRecord, MethodCallRecord, MethodReturnRecord, SwitchRecord, CastRecord, LoadArrayRecord, MethodEndRecord, 
Ignored event types: SwitchRecord, IfRecord, 

JSON Encoded Analysis Data (for visualization):{"heapEdges":[{"step":0,"from":"1093233072","to":"1093260488","type":"load","field":"<java.util.TreeMap: java.util.TreeMap$Node root>"},{"step":1,"from":"1093233072","to":"1083970648","type":"load","field":"<java.util.TreeMap: java.util.Comparator comparator>"},{"step":2,"from":"static.<java.util.TreeMap: java.util.Comparator NATURAL_ORDER>","to":"1083970648","type":"load","field":"<java.util.TreeMap: java.util.Comparator NATURAL_ORDER>"},{"step":3,"from":"1093233072","to":"1093260488","type":"load","field":"<java.util.TreeMap: java.util.TreeMap$Node root>"},{"step":4,"from":"1093260488","to":"1093852672","type":"load","field":"<java.util.TreeMap$Node: java.lang.Object key>"},{"step":5,"from":"1094032064","to":"1093852672","type":"model"},{"step":6,"from":"1094032064","to":"sdaReg2","type":"model"},{"step":7,"from":"1093852672","to":"1094032064","type":"model"},{"step":8,"from":"1093852672","to":"sdaReg2","type":"model"},{"step":9,"from":"1093260488","to":"1095430504","type":"load","field":"<java.util.TreeMap$Node: java.util.TreeMap$Node right>"},{"step":10,"from":"1095430504","to":"1094178736","type":"load","field":"<java.util.TreeMap$Node: java.lang.Object key>"},{"step":11,"from":"1094032064","to":"1094178736","type":"model"},{"step":12,"from":"1094032064","to":"sdaReg5","type":"model"},{"step":13,"from":"1094178736","to":"1094032064","type":"model"},{"step":14,"from":"1094178736","to":"sdaReg5","type":"model"},{"step":15,"from":"static.<java.util.TreeMap$2: int[] $SwitchMap$java$util$TreeMap$Relation>","to":"1085752200","type":"load","field":"<java.util.TreeMap$2: int[] $SwitchMap$java$util$TreeMap$Relation>"},{"step":16,"from":"1085707192","to":"sdaReg6","type":"model"},{"step":17,"from":"1085752200","to":"1085752200.arrayIdx_int:3","type":"load","field":"arrayIdx_int:3"},{"step":18,"from":"1095430504","to":"1094753824","type":"store","field":"<java.util.TreeMap$Node: java.util.TreeMap$Node parent>"},{"step":19,"from":"1094032064","to":"1094753824","type":"store","field":"<java.util.TreeMap$Node: java.lang.Object key>"},{"step":20,"from":"1094753824","to":"sdaReg11","type":"create","field":"<java.util.TreeMap$Node: int height>"},{"step":21,"from":"1095430504","to":"1094753824","type":"create","field":"<java.util.TreeMap$Node: java.util.TreeMap$Node right>"},{"step":22,"from":"1093233072","to":"1093233072.<java.util.TreeMap: int size>","type":"load","field":"<java.util.TreeMap: int size>"},{"step":23,"from":"sdaReg14","to":"1093233072","type":"store","field":"<java.util.TreeMap: int size>"},{"step":24,"from":"1093233072","to":"1093233072.<java.util.TreeMap: int modCount>","type":"load","field":"<java.util.TreeMap: int modCount>"},{"step":25,"from":"sdaReg15","to":"1093233072","type":"store","field":"<java.util.TreeMap: int modCount>"},{"step":26,"from":"static.<java.util.TreeMap: boolean $assertionsDisabled>","to":"static.<java.util.TreeMap: boolean $assertionsDisabled>","type":"load","field":"<java.util.TreeMap: boolean $assertionsDisabled>"},{"step":27,"from":"sdaReg21","to":"sdaReg22","type":"model"},{"step":28,"from":"sdaReg21","to":"sdaReg24","type":"model"},{"step":29,"from":"sdaReg22","to":"sdaReg21","type":"model"},{"step":30,"from":"sdaReg22","to":"sdaReg24","type":"model"},{"step":31,"from":"sdaReg25","to":"1095430504","type":"store","field":"<java.util.TreeMap$Node: int height>"},{"step":32,"from":"1095430504","to":"1093260488","type":"load","field":"<java.util.TreeMap$Node: java.util.TreeMap$Node parent>"},{"step":33,"from":"1093260488","to":"1095430504","type":"load","field":"<java.util.TreeMap$Node: java.util.TreeMap$Node right>"},{"step":34,"from":"1093260488","to":"1095430504","type":"load","field":"<java.util.TreeMap$Node: java.util.TreeMap$Node right>"},{"step":35,"from":"1093260488","to":"sdaReg35","type":"create","field":"<java.util.TreeMap$Node: java.util.TreeMap$Node parent>"},{"step":36,"from":"1095430504","to":"1093233072","type":"store","field":"<java.util.TreeMap: java.util.TreeMap$Node root>"},{"step":37,"from":"1093260488","to":"1095430504","type":"store","field":"<java.util.TreeMap$Node: java.util.TreeMap$Node left>"},{"step":38,"from":"1095430504","to":"1093260488","type":"store","field":"<java.util.TreeMap$Node: java.util.TreeMap$Node parent>"},{"step":39,"from":"sdaReg36","to":"sdaReg37","type":"model"},{"step":40,"from":"sdaReg36","to":"sdaReg38","type":"model"},{"step":41,"from":"sdaReg37","to":"sdaReg36","type":"model"},{"step":42,"from":"sdaReg37","to":"sdaReg38","type":"model"},{"step":43,"from":"sdaReg39","to":"1093260488","type":"store","field":"<java.util.TreeMap$Node: int height>"},{"step":44,"from":"sdaReg41","to":"1095430504","type":"store","field":"<java.util.TreeMap$Node: int height>"}],"parameters":[{"id":"1093233072","name":"this","klass":"java.util.TreeMap"},{"id":"1094032064","name":"arg#1","klass":"java.lang.Object"},{"id":"1085707192","name":"arg#2","klass":"java.util.TreeMap$Relation"}],"returns":[{"id":"1094753824","name":"return","klass":"java.util.TreeMap$Node"}],"colors":{"heapLocToColor":{"1095430504.<java.util.TreeMap$Node: java.util.TreeMap$Node parent>":[0],"1093233072.<java.util.TreeMap: java.util.TreeMap$Node root>":[0],"static.<java.util.TreeMap: java.util.Comparator NATURAL_ORDER>":[0, 3],"1085752200.arrayIdx_int:3":[6],"sdaReg13":[8],"1093233072.<java.util.TreeMap: int size>":[0],"sdaReg39":[11],"sdaReg14":[0],"sdaReg38":[11],"1094178736":[0, 1],"sdaReg12":[8],"sdaReg10":[8],"1093260488.<java.util.TreeMap$Node: java.util.TreeMap$Node right>":[0],"sdaReg32":[0],"sdaReg31":[0],"1085707192":[2],"sdaReg30":[0],"sdaReg19":[0],"sdaReg17":[0],"sdaReg34":[0],"sdaReg15":[0],"sdaReg33":[0],"sdaReg16":[0],"1094032064":[1],"sdaReg8":[0],"sdaReg9":[1],"sdaReg6":[2, 7],"sdaReg7":[8],"1085752200":[6],"sdaReg5":[1, 5],"1093233072.<java.util.TreeMap: int modCount>":[0],"1093233072":[0],"1093852672":[0, 1],"1095430504":[0],"static.<java.util.TreeMap$2: int[] $SwitchMap$java$util$TreeMap$Relation>":[6],"static.<java.util.TreeMap: boolean $assertionsDisabled>":[9],"1094753824":[8],"sdaReg3":[1, 4, 5],"sdaReg2":[1, 4],"sdaReg41":[12],"sdaReg40":[12],"sdaReg25":[10],"sdaReg24":[10],"1083970648":[0, 3],"1093260488":[0]},"colorToColor":{"0":[0, 1, 4, 5, 8],"1":[1, 4, 5, 8],"8":[0, 13],"10":[0],"11":[0],"12":[0]},"colorToLabel":{"0":"this","1":"arg#1","2":"arg#2","3":"<java.util.TreeMap: java.util.Comparator NATURAL_ORDER>","6":"<java.util.TreeMap$2: int[] $SwitchMap$java$util$TreeMap$Relation>","9":"<java.util.TreeMap: boolean $assertionsDisabled>","13":"return"}}}

Generated Model
	this->return
	this->arg#1
	arg#1->this
	arg#1->return

