Scanning method <java.util.TreeMap: java.util.TreeMap$Node find(java.lang.Object,java.util.TreeMap$Relation)>

All seen event types: SimpleAssignmentRecord, LoadInstanceRecord, MethodStartRecord, IfRecord, NewObjectRecord, StoreInstanceRecord, LoadStaticRecord, BinaryOperationRecord, MethodCallRecord, MethodReturnRecord, SwitchRecord, CastRecord, LoadArrayRecord, MethodEndRecord, 
Ignored event types: SwitchRecord, IfRecord, 

JSON Encoded Analysis Data (for visualization):{"heapEdges":[{"step":0,"from":"1093233072","to":"1093447784","type":"load","field":"<java.util.TreeMap: java.util.TreeMap$Node root>"},{"step":1,"from":"1093233072","to":"1083970648","type":"load","field":"<java.util.TreeMap: java.util.Comparator comparator>"},{"step":2,"from":"static.<java.util.TreeMap: java.util.Comparator NATURAL_ORDER>","to":"1083970648","type":"load","field":"<java.util.TreeMap: java.util.Comparator NATURAL_ORDER>"},{"step":3,"from":"1093233072","to":"1093447784","type":"load","field":"<java.util.TreeMap: java.util.TreeMap$Node root>"},{"step":4,"from":"1093447784","to":"1093229088","type":"load","field":"<java.util.TreeMap$Node: java.lang.Object key>"},{"step":5,"from":"1093319400","to":"1093229088","type":"model"},{"step":6,"from":"1093319400","to":"sdaReg2","type":"model"},{"step":7,"from":"1093229088","to":"1093319400","type":"model"},{"step":8,"from":"1093229088","to":"sdaReg2","type":"model"},{"step":9,"from":"1093447784","to":"1093533024","type":"load","field":"<java.util.TreeMap$Node: java.util.TreeMap$Node right>"},{"step":10,"from":"1093533024","to":"1093342360","type":"load","field":"<java.util.TreeMap$Node: java.lang.Object key>"},{"step":11,"from":"1093319400","to":"1093342360","type":"model"},{"step":12,"from":"1093319400","to":"sdaReg5","type":"model"},{"step":13,"from":"1093342360","to":"1093319400","type":"model"},{"step":14,"from":"1093342360","to":"sdaReg5","type":"model"},{"step":15,"from":"1093533024","to":"1094090032","type":"load","field":"<java.util.TreeMap$Node: java.util.TreeMap$Node right>"},{"step":16,"from":"1094090032","to":"1093474640","type":"load","field":"<java.util.TreeMap$Node: java.lang.Object key>"},{"step":17,"from":"1093319400","to":"1093474640","type":"model"},{"step":18,"from":"1093319400","to":"sdaReg6","type":"model"},{"step":19,"from":"1093474640","to":"1093319400","type":"model"},{"step":20,"from":"1093474640","to":"sdaReg6","type":"model"},{"step":21,"from":"1094090032","to":"1093684784","type":"load","field":"<java.util.TreeMap$Node: java.util.TreeMap$Node right>"},{"step":22,"from":"1093684784","to":"1093571344","type":"load","field":"<java.util.TreeMap$Node: java.lang.Object key>"},{"step":23,"from":"1093319400","to":"1093571344","type":"model"},{"step":24,"from":"1093319400","to":"sdaReg7","type":"model"},{"step":25,"from":"1093571344","to":"1093319400","type":"model"},{"step":26,"from":"1093571344","to":"sdaReg7","type":"model"},{"step":27,"from":"1093684784","to":"1093544664","type":"load","field":"<java.util.TreeMap$Node: java.util.TreeMap$Node right>"},{"step":28,"from":"1093544664","to":"1093594080","type":"load","field":"<java.util.TreeMap$Node: java.lang.Object key>"},{"step":29,"from":"1093319400","to":"1093594080","type":"model"},{"step":30,"from":"1093319400","to":"sdaReg8","type":"model"},{"step":31,"from":"1093594080","to":"1093319400","type":"model"},{"step":32,"from":"1093594080","to":"sdaReg8","type":"model"},{"step":33,"from":"static.<java.util.TreeMap$2: int[] $SwitchMap$java$util$TreeMap$Relation>","to":"1085752200","type":"load","field":"<java.util.TreeMap$2: int[] $SwitchMap$java$util$TreeMap$Relation>"},{"step":34,"from":"1085707192","to":"sdaReg9","type":"model"},{"step":35,"from":"1085752200","to":"1085752200.arrayIdx_int:3","type":"load","field":"arrayIdx_int:3"},{"step":36,"from":"1093544664","to":"1093544704","type":"store","field":"<java.util.TreeMap$Node: java.util.TreeMap$Node parent>"},{"step":37,"from":"1093319400","to":"1093544704","type":"store","field":"<java.util.TreeMap$Node: java.lang.Object key>"},{"step":38,"from":"1093544704","to":"sdaReg14","type":"create","field":"<java.util.TreeMap$Node: int height>"},{"step":39,"from":"1093544664","to":"1093544704","type":"create","field":"<java.util.TreeMap$Node: java.util.TreeMap$Node right>"},{"step":40,"from":"1093233072","to":"1093233072.<java.util.TreeMap: int size>","type":"load","field":"<java.util.TreeMap: int size>"},{"step":41,"from":"sdaReg17","to":"1093233072","type":"store","field":"<java.util.TreeMap: int size>"},{"step":42,"from":"1093233072","to":"1093233072.<java.util.TreeMap: int modCount>","type":"load","field":"<java.util.TreeMap: int modCount>"},{"step":43,"from":"sdaReg18","to":"1093233072","type":"store","field":"<java.util.TreeMap: int modCount>"},{"step":44,"from":"static.<java.util.TreeMap: boolean $assertionsDisabled>","to":"static.<java.util.TreeMap: boolean $assertionsDisabled>","type":"load","field":"<java.util.TreeMap: boolean $assertionsDisabled>"},{"step":45,"from":"sdaReg24","to":"sdaReg25","type":"model"},{"step":46,"from":"sdaReg24","to":"sdaReg27","type":"model"},{"step":47,"from":"sdaReg25","to":"sdaReg24","type":"model"},{"step":48,"from":"sdaReg25","to":"sdaReg27","type":"model"},{"step":49,"from":"sdaReg28","to":"1093544664","type":"store","field":"<java.util.TreeMap$Node: int height>"},{"step":50,"from":"1093544664","to":"1093684784","type":"load","field":"<java.util.TreeMap$Node: java.util.TreeMap$Node parent>"},{"step":51,"from":"1093684784","to":"1093544664","type":"load","field":"<java.util.TreeMap$Node: java.util.TreeMap$Node right>"},{"step":52,"from":"1093684784","to":"1093544664","type":"load","field":"<java.util.TreeMap$Node: java.util.TreeMap$Node right>"},{"step":53,"from":"1093684784","to":"1094090032","type":"load","field":"<java.util.TreeMap$Node: java.util.TreeMap$Node parent>"},{"step":54,"from":"1093684784","to":"sdaReg38","type":"create","field":"<java.util.TreeMap$Node: java.util.TreeMap$Node parent>"},{"step":55,"from":"1094090032","to":"1093544664","type":"store","field":"<java.util.TreeMap$Node: java.util.TreeMap$Node parent>"},{"step":56,"from":"1094090032","to":"1094089992","type":"load","field":"<java.util.TreeMap$Node: java.util.TreeMap$Node left>"},{"step":57,"from":"static.<java.util.TreeMap: boolean $assertionsDisabled>","to":"static.<java.util.TreeMap: boolean $assertionsDisabled>","type":"load","field":"<java.util.TreeMap: boolean $assertionsDisabled>"},{"step":58,"from":"1093544664","to":"1094090032","type":"store","field":"<java.util.TreeMap$Node: java.util.TreeMap$Node right>"},{"step":59,"from":"1093684784","to":"1093544664","type":"store","field":"<java.util.TreeMap$Node: java.util.TreeMap$Node left>"},{"step":60,"from":"1093544664","to":"1093684784","type":"store","field":"<java.util.TreeMap$Node: java.util.TreeMap$Node parent>"},{"step":61,"from":"sdaReg39","to":"sdaReg40","type":"model"},{"step":62,"from":"sdaReg39","to":"sdaReg41","type":"model"},{"step":63,"from":"sdaReg40","to":"sdaReg39","type":"model"},{"step":64,"from":"sdaReg40","to":"sdaReg41","type":"model"},{"step":65,"from":"sdaReg42","to":"1093684784","type":"store","field":"<java.util.TreeMap$Node: int height>"},{"step":66,"from":"sdaReg44","to":"1093544664","type":"store","field":"<java.util.TreeMap$Node: int height>"}],"parameters":[{"id":"1093233072","name":"this","klass":"java.util.TreeMap"},{"id":"1093319400","name":"arg#1","klass":"java.lang.Object"},{"id":"1085707192","name":"arg#2","klass":"java.util.TreeMap$Relation"}],"returns":[{"id":"1093544704","name":"return","klass":"java.util.TreeMap$Node"}],"colors":{"heapLocToColor":{"1093571344":[0, 1],"sdaReg13":[11],"1093233072.<java.util.TreeMap: int size>":[0],"sdaReg11":[0],"sdaReg12":[1],"sdaReg10":[11],"1085707192":[2],"sdaReg19":[0],"sdaReg17":[0],"sdaReg18":[0],"1094089992":[0],"sdaReg15":[11],"sdaReg16":[11],"1094090032":[0],"1085752200":[9],"1093544664":[0],"1093233072":[0],"static.<java.util.TreeMap$2: int[] $SwitchMap$java$util$TreeMap$Relation>":[9],"static.<java.util.TreeMap: boolean $assertionsDisabled>":[12],"sdaReg44":[15],"sdaReg41":[14],"sdaReg43":[15],"1093544664.<java.util.TreeMap$Node: java.util.TreeMap$Node parent>":[0],"sdaReg42":[14],"1083970648":[0, 3],"1093342360":[0, 1],"1093544704":[11],"1093233072.<java.util.TreeMap: java.util.TreeMap$Node root>":[0],"1093684784.<java.util.TreeMap$Node: java.util.TreeMap$Node parent>":[0],"static.<java.util.TreeMap: java.util.Comparator NATURAL_ORDER>":[0, 3],"1093447784":[0],"1085752200.arrayIdx_int:3":[9],"sdaReg37":[0],"1093474640":[0, 1],"sdaReg36":[0],"sdaReg35":[0],"sdaReg34":[0],"sdaReg33":[0],"sdaReg8":[1, 8],"sdaReg9":[2, 10],"sdaReg6":[1, 6],"sdaReg7":[1, 7],"sdaReg5":[1, 5],"1093233072.<java.util.TreeMap: int modCount>":[0],"sdaReg27":[13],"1093684784.<java.util.TreeMap$Node: java.util.TreeMap$Node right>":[0],"1093319400":[1],"1093229088":[0, 1],"1093594080":[0, 1],"sdaReg28":[13],"sdaReg3":[1, 4, 5, 6, 7, 8],"sdaReg2":[1, 4],"1093684784":[0],"1093533024":[0],"sdaReg20":[0],"sdaReg22":[0]},"colorToColor":{"0":[0, 1, 4, 5, 6, 7, 8, 11],"1":[1, 4, 5, 6, 7, 8, 11],"11":[0, 16],"13":[0],"14":[0],"15":[0]},"colorToLabel":{"0":"this","1":"arg#1","2":"arg#2","3":"<java.util.TreeMap: java.util.Comparator NATURAL_ORDER>","9":"<java.util.TreeMap$2: int[] $SwitchMap$java$util$TreeMap$Relation>","12":"<java.util.TreeMap: boolean $assertionsDisabled>","16":"return"}}}

Generated Model
	this->return
	this->arg#1
	arg#1->this
	arg#1->return

