Scanning method <java.util.TreeMap: java.util.TreeMap$Node find(java.lang.Object,java.util.TreeMap$Relation)>

All seen event types: SimpleAssignmentRecord, LoadInstanceRecord, MethodStartRecord, IfRecord, NewObjectRecord, StoreInstanceRecord, LoadStaticRecord, BinaryOperationRecord, MethodCallRecord, MethodReturnRecord, SwitchRecord, CastRecord, LoadArrayRecord, MethodEndRecord, 
Ignored event types: SwitchRecord, IfRecord, 

JSON Encoded Analysis Data (for visualization):{"heapEdges":[{"step":0,"from":"1093233072","to":"1095430504","type":"load","field":"<java.util.TreeMap: java.util.TreeMap$Node root>"},{"step":1,"from":"1093233072","to":"1083970648","type":"load","field":"<java.util.TreeMap: java.util.Comparator comparator>"},{"step":2,"from":"static.<java.util.TreeMap: java.util.Comparator NATURAL_ORDER>","to":"1083970648","type":"load","field":"<java.util.TreeMap: java.util.Comparator NATURAL_ORDER>"},{"step":3,"from":"1093233072","to":"1095430504","type":"load","field":"<java.util.TreeMap: java.util.TreeMap$Node root>"},{"step":4,"from":"1095430504","to":"1094178736","type":"load","field":"<java.util.TreeMap$Node: java.lang.Object key>"},{"step":5,"from":"1093854368","to":"1094178736","type":"model"},{"step":6,"from":"1093854368","to":"sdaReg2","type":"model"},{"step":7,"from":"1094178736","to":"1093854368","type":"model"},{"step":8,"from":"1094178736","to":"sdaReg2","type":"model"},{"step":9,"from":"1095430504","to":"1094753824","type":"load","field":"<java.util.TreeMap$Node: java.util.TreeMap$Node right>"},{"step":10,"from":"1094753824","to":"1094032064","type":"load","field":"<java.util.TreeMap$Node: java.lang.Object key>"},{"step":11,"from":"1093854368","to":"1094032064","type":"model"},{"step":12,"from":"1093854368","to":"sdaReg5","type":"model"},{"step":13,"from":"1094032064","to":"1093854368","type":"model"},{"step":14,"from":"1094032064","to":"sdaReg5","type":"model"},{"step":15,"from":"1094753824","to":"1094753864","type":"load","field":"<java.util.TreeMap$Node: java.util.TreeMap$Node right>"},{"step":16,"from":"1094753864","to":"1094193096","type":"load","field":"<java.util.TreeMap$Node: java.lang.Object key>"},{"step":17,"from":"1093854368","to":"1094193096","type":"model"},{"step":18,"from":"1093854368","to":"sdaReg6","type":"model"},{"step":19,"from":"1094193096","to":"1093854368","type":"model"},{"step":20,"from":"1094193096","to":"sdaReg6","type":"model"},{"step":21,"from":"static.<java.util.TreeMap$2: int[] $SwitchMap$java$util$TreeMap$Relation>","to":"1085752200","type":"load","field":"<java.util.TreeMap$2: int[] $SwitchMap$java$util$TreeMap$Relation>"},{"step":22,"from":"1085707192","to":"sdaReg7","type":"model"},{"step":23,"from":"1085752200","to":"1085752200.arrayIdx_int:3","type":"load","field":"arrayIdx_int:3"},{"step":24,"from":"1094753864","to":"1094753904","type":"store","field":"<java.util.TreeMap$Node: java.util.TreeMap$Node parent>"},{"step":25,"from":"1093854368","to":"1094753904","type":"store","field":"<java.util.TreeMap$Node: java.lang.Object key>"},{"step":26,"from":"1094753904","to":"sdaReg12","type":"create","field":"<java.util.TreeMap$Node: int height>"},{"step":27,"from":"1094753864","to":"1094753904","type":"create","field":"<java.util.TreeMap$Node: java.util.TreeMap$Node right>"},{"step":28,"from":"1093233072","to":"1093233072.<java.util.TreeMap: int size>","type":"load","field":"<java.util.TreeMap: int size>"},{"step":29,"from":"sdaReg15","to":"1093233072","type":"store","field":"<java.util.TreeMap: int size>"},{"step":30,"from":"1093233072","to":"1093233072.<java.util.TreeMap: int modCount>","type":"load","field":"<java.util.TreeMap: int modCount>"},{"step":31,"from":"sdaReg16","to":"1093233072","type":"store","field":"<java.util.TreeMap: int modCount>"},{"step":32,"from":"static.<java.util.TreeMap: boolean $assertionsDisabled>","to":"static.<java.util.TreeMap: boolean $assertionsDisabled>","type":"load","field":"<java.util.TreeMap: boolean $assertionsDisabled>"},{"step":33,"from":"sdaReg22","to":"sdaReg23","type":"model"},{"step":34,"from":"sdaReg22","to":"sdaReg25","type":"model"},{"step":35,"from":"sdaReg23","to":"sdaReg22","type":"model"},{"step":36,"from":"sdaReg23","to":"sdaReg25","type":"model"},{"step":37,"from":"sdaReg26","to":"1094753864","type":"store","field":"<java.util.TreeMap$Node: int height>"},{"step":38,"from":"1094753864","to":"1094753824","type":"load","field":"<java.util.TreeMap$Node: java.util.TreeMap$Node parent>"},{"step":39,"from":"1094753824","to":"1094753864","type":"load","field":"<java.util.TreeMap$Node: java.util.TreeMap$Node right>"},{"step":40,"from":"1094753824","to":"1094753864","type":"load","field":"<java.util.TreeMap$Node: java.util.TreeMap$Node right>"},{"step":41,"from":"1094753824","to":"1095430504","type":"load","field":"<java.util.TreeMap$Node: java.util.TreeMap$Node parent>"},{"step":42,"from":"1094753824","to":"sdaReg36","type":"create","field":"<java.util.TreeMap$Node: java.util.TreeMap$Node parent>"},{"step":43,"from":"1095430504","to":"1094753864","type":"store","field":"<java.util.TreeMap$Node: java.util.TreeMap$Node parent>"},{"step":44,"from":"1095430504","to":"1093260488","type":"load","field":"<java.util.TreeMap$Node: java.util.TreeMap$Node left>"},{"step":45,"from":"static.<java.util.TreeMap: boolean $assertionsDisabled>","to":"static.<java.util.TreeMap: boolean $assertionsDisabled>","type":"load","field":"<java.util.TreeMap: boolean $assertionsDisabled>"},{"step":46,"from":"1094753864","to":"1095430504","type":"store","field":"<java.util.TreeMap$Node: java.util.TreeMap$Node right>"},{"step":47,"from":"1094753824","to":"1094753864","type":"store","field":"<java.util.TreeMap$Node: java.util.TreeMap$Node left>"},{"step":48,"from":"1094753864","to":"1094753824","type":"store","field":"<java.util.TreeMap$Node: java.util.TreeMap$Node parent>"},{"step":49,"from":"sdaReg37","to":"sdaReg38","type":"model"},{"step":50,"from":"sdaReg37","to":"sdaReg39","type":"model"},{"step":51,"from":"sdaReg38","to":"sdaReg37","type":"model"},{"step":52,"from":"sdaReg38","to":"sdaReg39","type":"model"},{"step":53,"from":"sdaReg40","to":"1094753824","type":"store","field":"<java.util.TreeMap$Node: int height>"},{"step":54,"from":"sdaReg42","to":"1094753864","type":"store","field":"<java.util.TreeMap$Node: int height>"}],"parameters":[{"id":"1093233072","name":"this","klass":"java.util.TreeMap"},{"id":"1093854368","name":"arg#1","klass":"java.lang.Object"},{"id":"1085707192","name":"arg#2","klass":"java.util.TreeMap$Relation"}],"returns":[{"id":"1094753904","name":"return","klass":"java.util.TreeMap$Node"}],"colors":{"heapLocToColor":{"1094753824.<java.util.TreeMap$Node: java.util.TreeMap$Node right>":[0],"1094753824.<java.util.TreeMap$Node: java.util.TreeMap$Node parent>":[0],"sdaReg13":[9],"1093233072.<java.util.TreeMap: int size>":[0],"sdaReg14":[9],"sdaReg11":[9],"sdaReg10":[1],"1085707192":[2],"sdaReg17":[0],"sdaReg18":[0],"sdaReg15":[0],"sdaReg16":[0],"1085752200":[7],"1094753864.<java.util.TreeMap$Node: java.util.TreeMap$Node parent>":[0],"1093233072":[0],"1094753904":[9],"static.<java.util.TreeMap$2: int[] $SwitchMap$java$util$TreeMap$Relation>":[7],"1094753824":[0],"static.<java.util.TreeMap: boolean $assertionsDisabled>":[10],"1094753864":[0],"sdaReg41":[13],"sdaReg40":[12],"sdaReg42":[13],"1083970648":[0, 3],"1093260488":[0],"1093233072.<java.util.TreeMap: java.util.TreeMap$Node root>":[0],"static.<java.util.TreeMap: java.util.Comparator NATURAL_ORDER>":[0, 3],"1085752200.arrayIdx_int:3":[7],"sdaReg39":[12],"1094178736":[0, 1],"sdaReg32":[0],"sdaReg31":[0],"sdaReg35":[0],"sdaReg34":[0],"sdaReg33":[0],"sdaReg8":[9],"1094032064":[0, 1],"sdaReg9":[0],"sdaReg6":[1, 6],"sdaReg7":[2, 8],"sdaReg5":[1, 5],"1094193096":[0, 1],"1093233072.<java.util.TreeMap: int modCount>":[0],"1095430504":[0],"sdaReg26":[11],"sdaReg3":[1, 4, 5, 6],"sdaReg2":[1, 4],"1093854368":[1],"sdaReg20":[0],"sdaReg25":[11]},"colorToColor":{"0":[0, 1, 4, 5, 6, 9],"1":[1, 4, 5, 6, 9],"9":[0, 14],"11":[0],"12":[0],"13":[0]},"colorToLabel":{"0":"this","1":"arg#1","2":"arg#2","3":"<java.util.TreeMap: java.util.Comparator NATURAL_ORDER>","7":"<java.util.TreeMap$2: int[] $SwitchMap$java$util$TreeMap$Relation>","10":"<java.util.TreeMap: boolean $assertionsDisabled>","14":"return"}}}

Generated Model
	this->return
	this->arg#1
	arg#1->this
	arg#1->return

