Scanning method <java.util.TreeMap: java.util.TreeMap$Node find(java.lang.Object,java.util.TreeMap$Relation)>

All seen event types: SimpleAssignmentRecord, LoadInstanceRecord, MethodStartRecord, IfRecord, NewObjectRecord, StoreInstanceRecord, LoadStaticRecord, BinaryOperationRecord, MethodCallRecord, MethodReturnRecord, SwitchRecord, CastRecord, LoadArrayRecord, MethodEndRecord, 
Ignored event types: SwitchRecord, IfRecord, 

JSON Encoded Analysis Data (for visualization):{"heapEdges":[{"step":0,"from":"1093233072","to":"1096265440","type":"load","field":"<java.util.TreeMap: java.util.TreeMap$Node root>"},{"step":1,"from":"1093233072","to":"1083970648","type":"load","field":"<java.util.TreeMap: java.util.Comparator comparator>"},{"step":2,"from":"static.<java.util.TreeMap: java.util.Comparator NATURAL_ORDER>","to":"1083970648","type":"load","field":"<java.util.TreeMap: java.util.Comparator NATURAL_ORDER>"},{"step":3,"from":"1093233072","to":"1096265440","type":"load","field":"<java.util.TreeMap: java.util.TreeMap$Node root>"},{"step":4,"from":"1096265440","to":"1093351976","type":"load","field":"<java.util.TreeMap$Node: java.lang.Object key>"},{"step":5,"from":"1093522768","to":"1093351976","type":"model"},{"step":6,"from":"1093522768","to":"sdaReg2","type":"model"},{"step":7,"from":"1093351976","to":"1093522768","type":"model"},{"step":8,"from":"1093351976","to":"sdaReg2","type":"model"},{"step":9,"from":"1096265440","to":"1093944824","type":"load","field":"<java.util.TreeMap$Node: java.util.TreeMap$Node right>"},{"step":10,"from":"1093944824","to":"1093356456","type":"load","field":"<java.util.TreeMap$Node: java.lang.Object key>"},{"step":11,"from":"1093522768","to":"1093356456","type":"model"},{"step":12,"from":"1093522768","to":"sdaReg5","type":"model"},{"step":13,"from":"1093356456","to":"1093522768","type":"model"},{"step":14,"from":"1093356456","to":"sdaReg5","type":"model"},{"step":15,"from":"1093944824","to":"1095193432","type":"load","field":"<java.util.TreeMap$Node: java.util.TreeMap$Node right>"},{"step":16,"from":"1095193432","to":"1093284216","type":"load","field":"<java.util.TreeMap$Node: java.lang.Object key>"},{"step":17,"from":"1093522768","to":"1093284216","type":"model"},{"step":18,"from":"1093522768","to":"sdaReg6","type":"model"},{"step":19,"from":"1093284216","to":"1093522768","type":"model"},{"step":20,"from":"1093284216","to":"sdaReg6","type":"model"},{"step":21,"from":"1095193432","to":"1094845544","type":"load","field":"<java.util.TreeMap$Node: java.util.TreeMap$Node right>"},{"step":22,"from":"1094845544","to":"1093349608","type":"load","field":"<java.util.TreeMap$Node: java.lang.Object key>"},{"step":23,"from":"1093522768","to":"1093349608","type":"model"},{"step":24,"from":"1093522768","to":"sdaReg7","type":"model"},{"step":25,"from":"1093349608","to":"1093522768","type":"model"},{"step":26,"from":"1093349608","to":"sdaReg7","type":"model"},{"step":27,"from":"1094845544","to":"1094588128","type":"load","field":"<java.util.TreeMap$Node: java.util.TreeMap$Node right>"},{"step":28,"from":"1094588128","to":"1093514912","type":"load","field":"<java.util.TreeMap$Node: java.lang.Object key>"},{"step":29,"from":"1093522768","to":"1093514912","type":"model"},{"step":30,"from":"1093522768","to":"sdaReg8","type":"model"},{"step":31,"from":"1093514912","to":"1093522768","type":"model"},{"step":32,"from":"1093514912","to":"sdaReg8","type":"model"},{"step":33,"from":"1094588128","to":"1096549600","type":"load","field":"<java.util.TreeMap$Node: java.util.TreeMap$Node right>"},{"step":34,"from":"1096549600","to":"1093517776","type":"load","field":"<java.util.TreeMap$Node: java.lang.Object key>"},{"step":35,"from":"1093522768","to":"1093517776","type":"model"},{"step":36,"from":"1093522768","to":"sdaReg9","type":"model"},{"step":37,"from":"1093517776","to":"1093522768","type":"model"},{"step":38,"from":"1093517776","to":"sdaReg9","type":"model"},{"step":39,"from":"static.<java.util.TreeMap$2: int[] $SwitchMap$java$util$TreeMap$Relation>","to":"1085752200","type":"load","field":"<java.util.TreeMap$2: int[] $SwitchMap$java$util$TreeMap$Relation>"},{"step":40,"from":"1085707192","to":"sdaReg10","type":"model"},{"step":41,"from":"1085752200","to":"1085752200.arrayIdx_int:3","type":"load","field":"arrayIdx_int:3"},{"step":42,"from":"1096549600","to":"1096549640","type":"store","field":"<java.util.TreeMap$Node: java.util.TreeMap$Node parent>"},{"step":43,"from":"1093522768","to":"1096549640","type":"store","field":"<java.util.TreeMap$Node: java.lang.Object key>"},{"step":44,"from":"1096549640","to":"sdaReg15","type":"create","field":"<java.util.TreeMap$Node: int height>"},{"step":45,"from":"1096549600","to":"1096549640","type":"create","field":"<java.util.TreeMap$Node: java.util.TreeMap$Node right>"},{"step":46,"from":"1093233072","to":"1093233072.<java.util.TreeMap: int size>","type":"load","field":"<java.util.TreeMap: int size>"},{"step":47,"from":"sdaReg18","to":"1093233072","type":"store","field":"<java.util.TreeMap: int size>"},{"step":48,"from":"1093233072","to":"1093233072.<java.util.TreeMap: int modCount>","type":"load","field":"<java.util.TreeMap: int modCount>"},{"step":49,"from":"sdaReg19","to":"1093233072","type":"store","field":"<java.util.TreeMap: int modCount>"},{"step":50,"from":"static.<java.util.TreeMap: boolean $assertionsDisabled>","to":"static.<java.util.TreeMap: boolean $assertionsDisabled>","type":"load","field":"<java.util.TreeMap: boolean $assertionsDisabled>"},{"step":51,"from":"sdaReg25","to":"sdaReg26","type":"model"},{"step":52,"from":"sdaReg25","to":"sdaReg28","type":"model"},{"step":53,"from":"sdaReg26","to":"sdaReg25","type":"model"},{"step":54,"from":"sdaReg26","to":"sdaReg28","type":"model"},{"step":55,"from":"sdaReg29","to":"1096549600","type":"store","field":"<java.util.TreeMap$Node: int height>"},{"step":56,"from":"1096549600","to":"1094588128","type":"load","field":"<java.util.TreeMap$Node: java.util.TreeMap$Node parent>"},{"step":57,"from":"1094588128","to":"1094845584","type":"load","field":"<java.util.TreeMap$Node: java.util.TreeMap$Node left>"},{"step":58,"from":"1094588128","to":"1096549600","type":"load","field":"<java.util.TreeMap$Node: java.util.TreeMap$Node right>"},{"step":59,"from":"1094845584","to":"1094845584.<java.util.TreeMap$Node: int height>","type":"load","field":"<java.util.TreeMap$Node: int height>"},{"step":60,"from":"static.<java.util.TreeMap: boolean $assertionsDisabled>","to":"static.<java.util.TreeMap: boolean $assertionsDisabled>","type":"load","field":"<java.util.TreeMap: boolean $assertionsDisabled>"},{"step":61,"from":"sdaReg25","to":"sdaReg26","type":"model"},{"step":62,"from":"sdaReg25","to":"sdaReg30","type":"model"},{"step":63,"from":"sdaReg26","to":"sdaReg25","type":"model"},{"step":64,"from":"sdaReg26","to":"sdaReg30","type":"model"},{"step":65,"from":"sdaReg29","to":"1094588128","type":"store","field":"<java.util.TreeMap$Node: int height>"},{"step":66,"from":"1094588128","to":"1094845544","type":"load","field":"<java.util.TreeMap$Node: java.util.TreeMap$Node parent>"},{"step":67,"from":"1094845544","to":"1094845464","type":"load","field":"<java.util.TreeMap$Node: java.util.TreeMap$Node left>"},{"step":68,"from":"1094845544","to":"1094588128","type":"load","field":"<java.util.TreeMap$Node: java.util.TreeMap$Node right>"},{"step":69,"from":"1094845464","to":"1094845464.<java.util.TreeMap$Node: int height>","type":"load","field":"<java.util.TreeMap$Node: int height>"},{"step":70,"from":"static.<java.util.TreeMap: boolean $assertionsDisabled>","to":"static.<java.util.TreeMap: boolean $assertionsDisabled>","type":"load","field":"<java.util.TreeMap: boolean $assertionsDisabled>"},{"step":71,"from":"sdaReg25","to":"sdaReg26","type":"model"},{"step":72,"from":"sdaReg25","to":"sdaReg31","type":"model"},{"step":73,"from":"sdaReg26","to":"sdaReg25","type":"model"},{"step":74,"from":"sdaReg26","to":"sdaReg31","type":"model"},{"step":75,"from":"sdaReg29","to":"1094845544","type":"store","field":"<java.util.TreeMap$Node: int height>"},{"step":76,"from":"1094845544","to":"1095193432","type":"load","field":"<java.util.TreeMap$Node: java.util.TreeMap$Node parent>"},{"step":77,"from":"1095193432","to":"1093278784","type":"load","field":"<java.util.TreeMap$Node: java.util.TreeMap$Node left>"},{"step":78,"from":"1095193432","to":"1094845544","type":"load","field":"<java.util.TreeMap$Node: java.util.TreeMap$Node right>"},{"step":79,"from":"1093278784","to":"1093278784.<java.util.TreeMap$Node: int height>","type":"load","field":"<java.util.TreeMap$Node: int height>"},{"step":80,"from":"1094845544","to":"1094845464","type":"load","field":"<java.util.TreeMap$Node: java.util.TreeMap$Node left>"},{"step":81,"from":"1094845544","to":"1094588128","type":"load","field":"<java.util.TreeMap$Node: java.util.TreeMap$Node right>"},{"step":82,"from":"1094845464","to":"1094845464.<java.util.TreeMap$Node: int height>","type":"load","field":"<java.util.TreeMap$Node: int height>"},{"step":83,"from":"1095193432","to":"1093278784","type":"load","field":"<java.util.TreeMap$Node: java.util.TreeMap$Node left>"},{"step":84,"from":"1095193432","to":"1094845544","type":"load","field":"<java.util.TreeMap$Node: java.util.TreeMap$Node right>"},{"step":85,"from":"1094845544","to":"1094845464","type":"load","field":"<java.util.TreeMap$Node: java.util.TreeMap$Node left>"},{"step":86,"from":"1094845544","to":"1094588128","type":"load","field":"<java.util.TreeMap$Node: java.util.TreeMap$Node right>"},{"step":87,"from":"1094845464","to":"1095193432","type":"store","field":"<java.util.TreeMap$Node: java.util.TreeMap$Node right>"},{"step":88,"from":"1095193432","to":"1094845464","type":"store","field":"<java.util.TreeMap$Node: java.util.TreeMap$Node parent>"},{"step":89,"from":"1095193432","to":"1093944824","type":"load","field":"<java.util.TreeMap$Node: java.util.TreeMap$Node parent>"},{"step":90,"from":"1095193432","to":"sdaReg40","type":"create","field":"<java.util.TreeMap$Node: java.util.TreeMap$Node parent>"},{"step":91,"from":"1093944824","to":"1094845544","type":"store","field":"<java.util.TreeMap$Node: java.util.TreeMap$Node parent>"},{"step":92,"from":"1093944824","to":"1095116944","type":"load","field":"<java.util.TreeMap$Node: java.util.TreeMap$Node left>"},{"step":93,"from":"static.<java.util.TreeMap: boolean $assertionsDisabled>","to":"static.<java.util.TreeMap: boolean $assertionsDisabled>","type":"load","field":"<java.util.TreeMap: boolean $assertionsDisabled>"},{"step":94,"from":"1094845544","to":"1093944824","type":"store","field":"<java.util.TreeMap$Node: java.util.TreeMap$Node right>"},{"step":95,"from":"1095193432","to":"1094845544","type":"store","field":"<java.util.TreeMap$Node: java.util.TreeMap$Node left>"},{"step":96,"from":"1094845544","to":"1095193432","type":"store","field":"<java.util.TreeMap$Node: java.util.TreeMap$Node parent>"},{"step":97,"from":"1093278784","to":"1093278784.<java.util.TreeMap$Node: int height>","type":"load","field":"<java.util.TreeMap$Node: int height>"},{"step":98,"from":"1094845464","to":"1094845464.<java.util.TreeMap$Node: int height>","type":"load","field":"<java.util.TreeMap$Node: int height>"},{"step":99,"from":"1093278784.<java.util.TreeMap$Node: int height>","to":"1094845464.<java.util.TreeMap$Node: int height>","type":"model"},{"step":100,"from":"1093278784.<java.util.TreeMap$Node: int height>","to":"sdaReg41","type":"model"},{"step":101,"from":"1094845464.<java.util.TreeMap$Node: int height>","to":"1093278784.<java.util.TreeMap$Node: int height>","type":"model"},{"step":102,"from":"1094845464.<java.util.TreeMap$Node: int height>","to":"sdaReg41","type":"model"},{"step":103,"from":"sdaReg42","to":"1095193432","type":"store","field":"<java.util.TreeMap$Node: int height>"},{"step":104,"from":"sdaReg44","to":"1094845544","type":"store","field":"<java.util.TreeMap$Node: int height>"}],"parameters":[{"id":"1093233072","name":"this","klass":"java.util.TreeMap"},{"id":"1093522768","name":"arg#1","klass":"java.lang.Object"},{"id":"1085707192","name":"arg#2","klass":"java.util.TreeMap$Relation"}],"returns":[{"id":"1096549640","name":"return","klass":"java.util.TreeMap$Node"}],"colors":{"heapLocToColor":{"1093349608":[0, 1],"1094845584":[0],"1095193432.<java.util.TreeMap$Node: java.util.TreeMap$Node left>":[0],"1094845544":[0],"sdaReg13":[1],"1093233072.<java.util.TreeMap: int size>":[0],"sdaReg14":[12],"sdaReg11":[12],"sdaReg12":[0],"sdaReg10":[2, 11],"1093514912":[0, 1],"1095193432":[0],"1085707192":[2],"sdaReg19":[0],"sdaReg17":[12],"sdaReg18":[0],"sdaReg16":[12],"1093278784":[0],"1085752200":[10],"1094588128.<java.util.TreeMap$Node: java.util.TreeMap$Node right>":[0],"1095193432.<java.util.TreeMap$Node: java.util.TreeMap$Node parent>":[0],"1093233072":[0],"1095116944":[0],"static.<java.util.TreeMap$2: int[] $SwitchMap$java$util$TreeMap$Relation>":[10],"1095193432.<java.util.TreeMap$Node: java.util.TreeMap$Node right>":[0],"static.<java.util.TreeMap: boolean $assertionsDisabled>":[13],"sdaReg44":[18],"sdaReg41":[17],"sdaReg43":[18],"1094845584.<java.util.TreeMap$Node: int height>":[0],"sdaReg42":[17],"1083970648":[0, 3],"1093351976":[0, 1],"1093517776":[0, 1],"1093233072.<java.util.TreeMap: java.util.TreeMap$Node root>":[0],"static.<java.util.TreeMap: java.util.Comparator NATURAL_ORDER>":[0, 3],"1094845464":[0],"1093356456":[0, 1],"1085752200.arrayIdx_int:3":[10],"sdaReg39":[0],"sdaReg38":[0],"sdaReg37":[0],"1094845544.<java.util.TreeMap$Node: java.util.TreeMap$Node right>":[0],"1094845544.<java.util.TreeMap$Node: java.util.TreeMap$Node parent>":[0],"sdaReg31":[16],"sdaReg30":[15],"1093522768":[1],"sdaReg36":[0],"sdaReg35":[0],"sdaReg34":[0],"sdaReg33":[0],"sdaReg8":[1, 8],"1096265440":[0],"sdaReg9":[1, 9],"sdaReg6":[1, 6],"sdaReg7":[1, 7],"1094845544.<java.util.TreeMap$Node: java.util.TreeMap$Node left>":[0],"sdaReg5":[1, 5],"1096549640":[12],"1093284216":[0, 1],"1093233072.<java.util.TreeMap: int modCount>":[0],"1096549600":[0],"1093278784.<java.util.TreeMap$Node: int height>":[0],"sdaReg27":[0],"1094588128.<java.util.TreeMap$Node: java.util.TreeMap$Node parent>":[0],"sdaReg29":[16, 14, 15],"1096549600.<java.util.TreeMap$Node: java.util.TreeMap$Node parent>":[0],"sdaReg28":[14],"1093944824":[0],"sdaReg3":[1, 4, 5, 6, 7, 8, 9],"sdaReg2":[1, 4],"sdaReg21":[0],"1094845464.<java.util.TreeMap$Node: int height>":[0],"sdaReg20":[0],"sdaReg23":[0],"sdaReg25":[0],"1094588128":[0]},"colorToColor":{"17":[0],"0":[17, 0, 16, 1, 4, 5, 6, 7, 8, 9, 12, 15],"16":[0],"1":[1, 4, 5, 6, 7, 8, 9, 12],"18":[0],"12":[0, 19],"14":[0],"15":[0]},"colorToLabel":{"0":"this","1":"arg#1","2":"arg#2","3":"<java.util.TreeMap: java.util.Comparator NATURAL_ORDER>","10":"<java.util.TreeMap$2: int[] $SwitchMap$java$util$TreeMap$Relation>","13":"<java.util.TreeMap: boolean $assertionsDisabled>","19":"return"}}}

Generated Model
	this->return
	this->arg#1
	arg#1->this
	arg#1->return

