Scanning method <java.util.TreeMap: java.util.TreeMap$Node find(java.lang.Object,java.util.TreeMap$Relation)>

All seen event types: SimpleAssignmentRecord, LoadInstanceRecord, MethodStartRecord, IfRecord, NewObjectRecord, StoreInstanceRecord, LoadStaticRecord, BinaryOperationRecord, MethodCallRecord, MethodReturnRecord, SwitchRecord, CastRecord, LoadArrayRecord, MethodEndRecord, 
Ignored event types: SwitchRecord, IfRecord, 

JSON Encoded Analysis Data (for visualization):{"heapEdges":[{"step":0,"from":"1093233072","to":"1094753864","type":"load","field":"<java.util.TreeMap: java.util.TreeMap$Node root>"},{"step":1,"from":"1093233072","to":"1083970648","type":"load","field":"<java.util.TreeMap: java.util.Comparator comparator>"},{"step":2,"from":"static.<java.util.TreeMap: java.util.Comparator NATURAL_ORDER>","to":"1083970648","type":"load","field":"<java.util.TreeMap: java.util.Comparator NATURAL_ORDER>"},{"step":3,"from":"1093233072","to":"1094753864","type":"load","field":"<java.util.TreeMap: java.util.TreeMap$Node root>"},{"step":4,"from":"1094753864","to":"1094193096","type":"load","field":"<java.util.TreeMap$Node: java.lang.Object key>"},{"step":5,"from":"1094295272","to":"1094193096","type":"model"},{"step":6,"from":"1094295272","to":"sdaReg2","type":"model"},{"step":7,"from":"1094193096","to":"1094295272","type":"model"},{"step":8,"from":"1094193096","to":"sdaReg2","type":"model"},{"step":9,"from":"1094753864","to":"1093686520","type":"load","field":"<java.util.TreeMap$Node: java.util.TreeMap$Node right>"},{"step":10,"from":"1093686520","to":"1093571160","type":"load","field":"<java.util.TreeMap$Node: java.lang.Object key>"},{"step":11,"from":"1094295272","to":"1093571160","type":"model"},{"step":12,"from":"1094295272","to":"sdaReg5","type":"model"},{"step":13,"from":"1093571160","to":"1094295272","type":"model"},{"step":14,"from":"1093571160","to":"sdaReg5","type":"model"},{"step":15,"from":"1093686520","to":"1093685344","type":"load","field":"<java.util.TreeMap$Node: java.util.TreeMap$Node right>"},{"step":16,"from":"1093685344","to":"1093259736","type":"load","field":"<java.util.TreeMap$Node: java.lang.Object key>"},{"step":17,"from":"1094295272","to":"1093259736","type":"model"},{"step":18,"from":"1094295272","to":"sdaReg6","type":"model"},{"step":19,"from":"1093259736","to":"1094295272","type":"model"},{"step":20,"from":"1093259736","to":"sdaReg6","type":"model"},{"step":21,"from":"1093685344","to":"1093447784","type":"load","field":"<java.util.TreeMap$Node: java.util.TreeMap$Node right>"},{"step":22,"from":"1093447784","to":"1093229088","type":"load","field":"<java.util.TreeMap$Node: java.lang.Object key>"},{"step":23,"from":"1094295272","to":"1093229088","type":"model"},{"step":24,"from":"1094295272","to":"sdaReg7","type":"model"},{"step":25,"from":"1093229088","to":"1094295272","type":"model"},{"step":26,"from":"1093229088","to":"sdaReg7","type":"model"},{"step":27,"from":"static.<java.util.TreeMap$2: int[] $SwitchMap$java$util$TreeMap$Relation>","to":"1085752200","type":"load","field":"<java.util.TreeMap$2: int[] $SwitchMap$java$util$TreeMap$Relation>"},{"step":28,"from":"1085707192","to":"sdaReg8","type":"model"},{"step":29,"from":"1085752200","to":"1085752200.arrayIdx_int:3","type":"load","field":"arrayIdx_int:3"},{"step":30,"from":"1093447784","to":"1095218184","type":"store","field":"<java.util.TreeMap$Node: java.util.TreeMap$Node parent>"},{"step":31,"from":"1094295272","to":"1095218184","type":"store","field":"<java.util.TreeMap$Node: java.lang.Object key>"},{"step":32,"from":"1095218184","to":"sdaReg13","type":"create","field":"<java.util.TreeMap$Node: int height>"},{"step":33,"from":"1093447784","to":"1095218184","type":"create","field":"<java.util.TreeMap$Node: java.util.TreeMap$Node right>"},{"step":34,"from":"1093233072","to":"1093233072.<java.util.TreeMap: int size>","type":"load","field":"<java.util.TreeMap: int size>"},{"step":35,"from":"sdaReg16","to":"1093233072","type":"store","field":"<java.util.TreeMap: int size>"},{"step":36,"from":"1093233072","to":"1093233072.<java.util.TreeMap: int modCount>","type":"load","field":"<java.util.TreeMap: int modCount>"},{"step":37,"from":"sdaReg17","to":"1093233072","type":"store","field":"<java.util.TreeMap: int modCount>"},{"step":38,"from":"static.<java.util.TreeMap: boolean $assertionsDisabled>","to":"static.<java.util.TreeMap: boolean $assertionsDisabled>","type":"load","field":"<java.util.TreeMap: boolean $assertionsDisabled>"},{"step":39,"from":"sdaReg23","to":"sdaReg24","type":"model"},{"step":40,"from":"sdaReg23","to":"sdaReg26","type":"model"},{"step":41,"from":"sdaReg24","to":"sdaReg23","type":"model"},{"step":42,"from":"sdaReg24","to":"sdaReg26","type":"model"},{"step":43,"from":"sdaReg27","to":"1093447784","type":"store","field":"<java.util.TreeMap$Node: int height>"},{"step":44,"from":"1093447784","to":"1093685344","type":"load","field":"<java.util.TreeMap$Node: java.util.TreeMap$Node parent>"},{"step":45,"from":"1093685344","to":"1093447784","type":"load","field":"<java.util.TreeMap$Node: java.util.TreeMap$Node right>"},{"step":46,"from":"1093685344","to":"1093447784","type":"load","field":"<java.util.TreeMap$Node: java.util.TreeMap$Node right>"},{"step":47,"from":"1093685344","to":"1093686520","type":"load","field":"<java.util.TreeMap$Node: java.util.TreeMap$Node parent>"},{"step":48,"from":"1093685344","to":"sdaReg37","type":"create","field":"<java.util.TreeMap$Node: java.util.TreeMap$Node parent>"},{"step":49,"from":"1093686520","to":"1093447784","type":"store","field":"<java.util.TreeMap$Node: java.util.TreeMap$Node parent>"},{"step":50,"from":"1093686520","to":"1094753904","type":"load","field":"<java.util.TreeMap$Node: java.util.TreeMap$Node left>"},{"step":51,"from":"static.<java.util.TreeMap: boolean $assertionsDisabled>","to":"static.<java.util.TreeMap: boolean $assertionsDisabled>","type":"load","field":"<java.util.TreeMap: boolean $assertionsDisabled>"},{"step":52,"from":"1093447784","to":"1093686520","type":"store","field":"<java.util.TreeMap$Node: java.util.TreeMap$Node right>"},{"step":53,"from":"1093685344","to":"1093447784","type":"store","field":"<java.util.TreeMap$Node: java.util.TreeMap$Node left>"},{"step":54,"from":"1093447784","to":"1093685344","type":"store","field":"<java.util.TreeMap$Node: java.util.TreeMap$Node parent>"},{"step":55,"from":"sdaReg38","to":"sdaReg39","type":"model"},{"step":56,"from":"sdaReg38","to":"sdaReg40","type":"model"},{"step":57,"from":"sdaReg39","to":"sdaReg38","type":"model"},{"step":58,"from":"sdaReg39","to":"sdaReg40","type":"model"},{"step":59,"from":"sdaReg41","to":"1093685344","type":"store","field":"<java.util.TreeMap$Node: int height>"},{"step":60,"from":"sdaReg43","to":"1093447784","type":"store","field":"<java.util.TreeMap$Node: int height>"}],"parameters":[{"id":"1093233072","name":"this","klass":"java.util.TreeMap"},{"id":"1094295272","name":"arg#1","klass":"java.lang.Object"},{"id":"1085707192","name":"arg#2","klass":"java.util.TreeMap$Relation"}],"returns":[{"id":"1095218184","name":"return","klass":"java.util.TreeMap$Node"}],"colors":{"heapLocToColor":{"1094295272":[1],"1093233072.<java.util.TreeMap: int size>":[0],"sdaReg14":[10],"sdaReg11":[1],"sdaReg12":[10],"sdaReg10":[0],"1085707192":[2],"sdaReg19":[0],"sdaReg17":[0],"sdaReg18":[0],"sdaReg15":[10],"sdaReg16":[0],"1085752200":[8],"1093233072":[0],"1094753904":[0],"static.<java.util.TreeMap$2: int[] $SwitchMap$java$util$TreeMap$Relation>":[8],"static.<java.util.TreeMap: boolean $assertionsDisabled>":[11],"1094753864":[0],"sdaReg41":[13],"sdaReg40":[13],"sdaReg43":[14],"sdaReg42":[14],"1083970648":[0, 3],"1093686520":[0],"1093233072.<java.util.TreeMap: java.util.TreeMap$Node root>":[0],"static.<java.util.TreeMap: java.util.Comparator NATURAL_ORDER>":[0, 3],"1093447784":[0],"1085752200.arrayIdx_int:3":[8],"1093685344.<java.util.TreeMap$Node: java.util.TreeMap$Node right>":[0],"1093685344.<java.util.TreeMap$Node: java.util.TreeMap$Node parent>":[0],"1093447784.<java.util.TreeMap$Node: java.util.TreeMap$Node parent>":[0],"sdaReg32":[0],"sdaReg36":[0],"sdaReg35":[0],"sdaReg34":[0],"sdaReg33":[0],"1093571160":[0, 1],"sdaReg8":[2, 9],"sdaReg9":[10],"1093685344":[0],"sdaReg6":[1, 6],"sdaReg7":[1, 7],"sdaReg5":[1, 5],"1093259736":[0, 1],"1094193096":[0, 1],"1093233072.<java.util.TreeMap: int modCount>":[0],"sdaReg27":[12],"1093229088":[0, 1],"sdaReg26":[12],"1095218184":[10],"sdaReg3":[1, 4, 5, 6, 7],"sdaReg2":[1, 4],"sdaReg21":[0]},"colorToColor":{"0":[0, 1, 4, 5, 6, 7, 10],"1":[1, 4, 5, 6, 7, 10],"10":[0, 15],"12":[0],"13":[0],"14":[0]},"colorToLabel":{"0":"this","1":"arg#1","2":"arg#2","3":"<java.util.TreeMap: java.util.Comparator NATURAL_ORDER>","8":"<java.util.TreeMap$2: int[] $SwitchMap$java$util$TreeMap$Relation>","11":"<java.util.TreeMap: boolean $assertionsDisabled>","15":"return"}}}

Generated Model
	this->return
	this->arg#1
	arg#1->this
	arg#1->return

