Scanning method <android.os.Bundle: java.lang.Object clone()>

All seen event types: StoreArrayRecord, SimpleAssignmentRecord, MethodStartRecord, LoadInstanceRecord, IfRecord, NewObjectRecord, StoreInstanceRecord, NewArrayRecord, BinaryOperationRecord, MethodCallRecord, MethodReturnRecord, CastRecord, ArrayLengthRecord, LoadArrayRecord, MethodEndRecord, 
Ignored event types: IfRecord, 

JSON Encoded Analysis Data (for visualization):{"heapEdges":[{"step":0,"from":"1094071360","to":"sdaReg3","type":"create","field":"<android.os.Bundle: java.util.Map mMap>"},{"step":1,"from":"1094071360","to":"sdaReg4","type":"create","field":"<android.os.Bundle: android.os.Parcel mParcelledData>"},{"step":2,"from":"1094071360","to":"sdaReg5","type":"create","field":"<android.os.Bundle: boolean mHasFds>"},{"step":3,"from":"1094071360","to":"sdaReg6","type":"create","field":"<android.os.Bundle: boolean mFdsKnown>"},{"step":4,"from":"1094071360","to":"sdaReg7","type":"create","field":"<android.os.Bundle: boolean mAllowFds>"},{"step":5,"from":"1094071360","to":"sdaReg8","type":"create","field":"<android.os.Bundle: android.os.Parcel mParcelledData>"},{"step":6,"from":"1093768904","to":"1093851944","type":"load","field":"<android.os.Bundle: java.util.Map mMap>"},{"step":7,"from":"1093768904","to":"1093851944","type":"load","field":"<android.os.Bundle: java.util.Map mMap>"},{"step":8,"from":"1093851944","to":"1093851944.<java.util.HashMap: int size>","type":"load","field":"<java.util.HashMap: int size>"},{"step":9,"from":"1094080064","to":"1094080120","type":"create","field":"<java.util.HashMap: java.util.HashMap$HashMapEntry[] table>"},{"step":10,"from":"sdaReg25","to":"1094080064","type":"store","field":"<java.util.HashMap: int threshold>"},{"step":11,"from":"1093851944","to":"1093766920","type":"store","field":"<java.util.HashMap$EntrySet: java.util.HashMap this$0>"},{"step":12,"from":"1093851944","to":"1093766920","type":"create","field":"<java.util.HashMap: java.util.Set entrySet>"},{"step":13,"from":"1093851944","to":"1094100320","type":"store","field":"<java.util.HashMap$EntryIterator: java.util.HashMap this$0>"},{"step":14,"from":"1093851944","to":"1094100320","type":"store","field":"<java.util.HashMap$HashIterator: java.util.HashMap this$0>"},{"step":15,"from":"1093851944","to":"1093851944.<java.util.HashMap: int modCount>","type":"load","field":"<java.util.HashMap: int modCount>"},{"step":16,"from":"1093851944.<java.util.HashMap: int modCount>","to":"1094100320","type":"store","field":"<java.util.HashMap$HashIterator: int expectedModCount>"},{"step":17,"from":"1093851944","to":"1094036120","type":"load","field":"<java.util.HashMap: java.util.HashMap$HashMapEntry[] table>"},{"step":18,"from":"1094100320","to":"1094100320.<java.util.HashMap$HashIterator: int nextIndex>","type":"load","field":"<java.util.HashMap$HashIterator: int nextIndex>"},{"step":19,"from":"1094100320","to":"1094100320.<java.util.HashMap$HashIterator: int nextIndex>","type":"load","field":"<java.util.HashMap$HashIterator: int nextIndex>"},{"step":20,"from":"sdaReg54","to":"1094100320","type":"store","field":"<java.util.HashMap$HashIterator: int nextIndex>"},{"step":21,"from":"sdaReg54","to":"1094100320","type":"store","field":"<java.util.HashMap$HashIterator: int nextIndex>"},{"step":22,"from":"1094036120","to":"1094036160","type":"load","field":"arrayIdx_int:1"},{"step":23,"from":"1094036160","to":"1094100320","type":"store","field":"<java.util.HashMap$HashIterator: java.util.HashMap$HashMapEntry nextEntry>"},{"step":24,"from":"1093851944","to":"1093851944.<java.util.HashMap: int modCount>","type":"load","field":"<java.util.HashMap: int modCount>"},{"step":25,"from":"1093851944","to":"1094036120","type":"load","field":"<java.util.HashMap: java.util.HashMap$HashMapEntry[] table>"},{"step":26,"from":"sdaReg67","to":"1094100320","type":"store","field":"<java.util.HashMap$HashIterator: int nextIndex>"},{"step":27,"from":"sdaReg67","to":"1094100320","type":"store","field":"<java.util.HashMap$HashIterator: int nextIndex>"},{"step":28,"from":"1094036120","to":"1094063200","type":"load","field":"arrayIdx_int:3"},{"step":29,"from":"1094063200","to":"1094100320","type":"store","field":"<java.util.HashMap$HashIterator: java.util.HashMap$HashMapEntry nextEntry>"},{"step":30,"from":"1094036160","to":"1094100320","type":"store","field":"<java.util.HashMap$HashIterator: java.util.HashMap$HashMapEntry lastEntryReturned>"},{"step":31,"from":"1094036160","to":"1093539280","type":"load","field":"<java.util.HashMap$HashMapEntry: java.lang.Object key>"},{"step":32,"from":"1094036160","to":"1085837760","type":"load","field":"<java.util.HashMap$HashMapEntry: java.lang.Object value>"},{"step":33,"from":"1093539280","to":"1093939016","type":"store","field":"<java.util.HashMap$HashMapEntry: java.lang.Object key>"},{"step":34,"from":"1085837760","to":"1093939016","type":"store","field":"<java.util.HashMap$HashMapEntry: java.lang.Object value>"},{"step":35,"from":"sdaReg88","to":"1093939016","type":"store","field":"<java.util.HashMap$HashMapEntry: int hash>"},{"step":36,"from":"1094080120","to":"1093939016","type":"create","field":"arrayIdx_int:1"},{"step":37,"from":"1094080064","to":"1094080064.<java.util.HashMap: int size>","type":"load","field":"<java.util.HashMap: int size>"},{"step":38,"from":"sdaReg104","to":"1094080064","type":"store","field":"<java.util.HashMap: int size>"},{"step":39,"from":"1093851944","to":"1093851944.<java.util.HashMap: int modCount>","type":"load","field":"<java.util.HashMap: int modCount>"},{"step":40,"from":"1093851944","to":"1094036120","type":"load","field":"<java.util.HashMap: java.util.HashMap$HashMapEntry[] table>"},{"step":41,"from":"1094063200","to":"1094100320","type":"store","field":"<java.util.HashMap$HashIterator: java.util.HashMap$HashMapEntry lastEntryReturned>"},{"step":42,"from":"1094063200","to":"1093539352","type":"load","field":"<java.util.HashMap$HashMapEntry: java.lang.Object key>"},{"step":43,"from":"1094063200","to":"1083977248","type":"load","field":"<java.util.HashMap$HashMapEntry: java.lang.Object value>"},{"step":44,"from":"1093539352","to":"1093939392","type":"store","field":"<java.util.HashMap$HashMapEntry: java.lang.Object key>"},{"step":45,"from":"1083977248","to":"1093939392","type":"store","field":"<java.util.HashMap$HashMapEntry: java.lang.Object value>"},{"step":46,"from":"sdaReg129","to":"1093939392","type":"store","field":"<java.util.HashMap$HashMapEntry: int hash>"},{"step":47,"from":"1094080120","to":"1093939392","type":"create","field":"arrayIdx_int:3"},{"step":48,"from":"sdaReg145","to":"1094080064","type":"store","field":"<java.util.HashMap: int size>"},{"step":49,"from":"1094071360","to":"1094080064","type":"create","field":"<android.os.Bundle: java.util.Map mMap>"},{"step":50,"from":"1093768904","to":"1093768904.<android.os.Bundle: boolean mHasFds>","type":"load","field":"<android.os.Bundle: boolean mHasFds>"},{"step":51,"from":"1093768904.<android.os.Bundle: boolean mHasFds>","to":"1094071360","type":"store","field":"<android.os.Bundle: boolean mHasFds>"},{"step":52,"from":"1093768904","to":"1093768904.<android.os.Bundle: boolean mFdsKnown>","type":"load","field":"<android.os.Bundle: boolean mFdsKnown>"},{"step":53,"from":"1093768904.<android.os.Bundle: boolean mFdsKnown>","to":"1094071360","type":"store","field":"<android.os.Bundle: boolean mFdsKnown>"},{"step":54,"from":"1093768904","to":"1083999984","type":"load","field":"<android.os.Bundle: java.lang.ClassLoader mClassLoader>"},{"step":55,"from":"1083999984","to":"1094071360","type":"store","field":"<android.os.Bundle: java.lang.ClassLoader mClassLoader>"}],"parameters":[{"id":"1093768904","name":"this","klass":"android.os.Bundle"}],"returns":[{"id":"1094071360","name":"return","klass":"java.lang.Object"}],"colors":{"heapLocToColor":{"sdaReg125":[8],"sdaReg126":[8],"sdaReg127":[8],"sdaReg128":[8],"sdaReg129":[8],"sdaReg69":[0],"sdaReg64":[5],"sdaReg65":[5],"1094080120":[3],"sdaReg63":[5],"sdaReg13":[0],"sdaReg72":[0],"sdaReg14":[0],"sdaReg71":[0],"sdaReg11":[0],"sdaReg70":[0],"sdaReg12":[0],"1093766920":[4],"sdaReg10":[0],"sdaReg120":[0],"sdaReg19":[2],"sdaReg122":[8],"sdaReg17":[2],"sdaReg121":[8],"sdaReg18":[2],"sdaReg124":[8],"sdaReg15":[0],"sdaReg123":[8],"sdaReg16":[2],"sdaReg116":[0],"sdaReg117":[0],"1093851944":[0],"sdaReg114":[0],"sdaReg115":[0],"sdaReg118":[2],"sdaReg119":[0],"sdaReg77":[2],"sdaReg78":[0],"sdaReg79":[0],"1094100320.<java.util.HashMap$HashIterator: int nextIndex>":[5],"sdaReg73":[0],"1093539352":[0],"sdaReg74":[0],"sdaReg75":[0],"sdaReg76":[0],"sdaReg81":[6],"1085837760":[0],"sdaReg80":[6],"sdaReg83":[6],"sdaReg82":[6],"1094080064":[2],"sdaReg113":[0],"sdaReg112":[0],"sdaReg111":[0],"sdaReg107":[5],"sdaReg108":[5],"sdaReg109":[5],"sdaReg103":[7],"sdaReg104":[2],"sdaReg105":[5],"sdaReg86":[6],"sdaReg87":[6],"1093939016":[7],"sdaReg84":[6],"sdaReg85":[6],"1093768904.<android.os.Bundle: boolean mFdsKnown>":[0],"sdaReg88":[6],"sdaReg94":[0],"1093939392":[9],"sdaReg93":[2],"sdaReg91":[6],"1093768904":[0],"1093768904.<android.os.Bundle: boolean mHasFds>":[0],"sdaReg102":[7],"sdaReg101":[7],"sdaReg95":[0],"sdaReg97":[7],"sdaReg98":[0],"sdaReg99":[0],"1093539280":[0],"1094036120":[0],"1093851944.<java.util.HashMap: int modCount>":[0],"sdaReg60":[5],"sdaReg61":[5],"1094100320":[5],"sdaReg59":[5],"sdaReg58":[5],"sdaReg57":[5],"sdaReg56":[5],"sdaReg54":[5],"1094063200":[0],"sdaReg51":[5],"sdaReg50":[0],"1094071360":[1],"1083977248":[0],"1093851944.<java.util.HashMap: int size>":[0],"sdaReg49":[5],"1094080064.<java.util.HashMap: int size>":[2],"sdaReg48":[0],"1093851944.<java.util.HashMap: java.util.HashMap$HashMapEntry[] table>":[0],"sdaReg45":[5],"sdaReg44":[0],"sdaReg47":[5],"sdaReg46":[0],"sdaReg41":[4],"sdaReg40":[4],"sdaReg43":[4],"sdaReg42":[4],"1093768904.<android.os.Bundle: java.util.Map mMap>":[0],"sdaReg148":[2],"sdaReg149":[1],"sdaReg143":[9],"sdaReg144":[9],"sdaReg39":[4],"sdaReg38":[4],"sdaReg146":[5],"sdaReg37":[4],"sdaReg140":[0],"sdaReg142":[9],"sdaReg32":[4],"1083999984":[0],"sdaReg31":[0],"sdaReg30":[4],"sdaReg36":[4],"sdaReg35":[4],"sdaReg34":[4],"sdaReg33":[0],"sdaReg9":[2],"sdaReg139":[0],"sdaReg138":[9],"sdaReg136":[0],"sdaReg134":[2],"sdaReg27":[2],"1094036160":[0],"sdaReg135":[0],"sdaReg26":[2],"sdaReg132":[8],"sdaReg29":[0],"sdaReg28":[0],"sdaReg2":[1],"sdaReg1":[0],"sdaReg21":[2],"sdaReg0":[1]},"colorToColor":{"0":[1, 4, 5, 7, 9],"1":[10],"2":[1, 2],"3":[2],"4":[0],"5":[5],"6":[7],"7":[3],"8":[9],"9":[3]},"colorToLabel":{"0":"this","10":"return"}}}

Generated Model
	this->return

