Scanning method <java.util.ArrayList: boolean addAll(java.util.Collection)>

All seen event types: NewArrayRecord, BinaryOperationRecord, SimpleAssignmentRecord, MethodReturnRecord, MethodCallRecord, ArrayLengthRecord, LoadInstanceRecord, MethodStartRecord, IfRecord, MethodEndRecord, StoreInstanceRecord, 
Ignored event types: IfRecord, 

JSON Encoded Analysis Data (for visualization):{"heapEdges":[{"step":0,"from":"1093639040","to":"1093639040.<java.util.ArrayList: int size>","type":"load","field":"<java.util.ArrayList: int size>"},{"step":1,"from":"1093639040","to":"1093639064","type":"load","field":"<java.util.ArrayList: java.lang.Object[] array>"},{"step":2,"from":"1093639064","to":"1093639264","type":"model"},{"step":3,"from":"1093582432","to":"1083994088","type":"load","field":"<java.util.ArrayList: java.lang.Object[] array>"},{"step":4,"from":"1093582432","to":"1093582432.<java.util.ArrayList: int size>","type":"load","field":"<java.util.ArrayList: int size>"},{"step":5,"from":"1083994088","to":"1093639288","type":"model"},{"step":6,"from":"1093582432","to":"1093639288","type":"create","field":"<java.util.ArrayList: java.lang.Object[] array>"},{"step":7,"from":"1093639264","to":"1093639288","type":"model"},{"step":8,"from":"sdaReg3","to":"1093582432","type":"store","field":"<java.util.ArrayList: int size>"},{"step":9,"from":"1093582432","to":"1093582432.<java.util.AbstractList: int modCount>","type":"load","field":"<java.util.AbstractList: int modCount>"},{"step":10,"from":"sdaReg9","to":"1093582432","type":"store","field":"<java.util.AbstractList: int modCount>"}],"parameters":[{"id":"1093582432","name":"this","klass":"java.util.ArrayList"},{"id":"1093639040","name":"arg#1","klass":"java.util.Collection"}],"returns":[{"id":null,"name":"return","klass":"boolean"}],"colors":{"heapLocToColor":{"sdaReg8":[0],"sdaReg9":[0],"1093639288":[3],"1093582432.<java.util.AbstractList: int modCount>":[0],"1093639264":[2],"sdaReg5":[0],"1093639064":[1],"1083994088":[0],"1093582432":[0],"1093639040":[1],"1093582432.<java.util.ArrayList: int size>":[0],"sdaReg3":[0],"sdaReg1":[2],"sdaReg0":[1],"1093639040.<java.util.ArrayList: int size>":[1]},"colorToColor":{"0":[0, 3],"1":[2],"2":[3],"3":[0]},"colorToLabel":{"0":"this","1":"arg#1","4":"return"}}}

Generated Model
	arg#1->this

