Scanning method <java.util.ArrayList: boolean addAll(java.util.Collection)>

All seen event types: NewArrayRecord, BinaryOperationRecord, SimpleAssignmentRecord, MethodReturnRecord, MethodCallRecord, ArrayLengthRecord, LoadInstanceRecord, MethodStartRecord, IfRecord, MethodEndRecord, StoreInstanceRecord, 
Ignored event types: IfRecord, 

JSON Encoded Analysis Data (for visualization):{"heapEdges":[{"step":0,"from":"1093619128","to":"1093619128.<java.util.ArrayList: int size>","type":"load","field":"<java.util.ArrayList: int size>"},{"step":1,"from":"1093619128","to":"1093619152","type":"load","field":"<java.util.ArrayList: java.lang.Object[] array>"},{"step":2,"from":"1093619152","to":"1093619352","type":"model"},{"step":3,"from":"1093562520","to":"1083994088","type":"load","field":"<java.util.ArrayList: java.lang.Object[] array>"},{"step":4,"from":"1093562520","to":"1093562520.<java.util.ArrayList: int size>","type":"load","field":"<java.util.ArrayList: int size>"},{"step":5,"from":"1083994088","to":"1093619376","type":"model"},{"step":6,"from":"1093562520","to":"1093619376","type":"create","field":"<java.util.ArrayList: java.lang.Object[] array>"},{"step":7,"from":"1093619352","to":"1093619376","type":"model"},{"step":8,"from":"sdaReg3","to":"1093562520","type":"store","field":"<java.util.ArrayList: int size>"},{"step":9,"from":"1093562520","to":"1093562520.<java.util.AbstractList: int modCount>","type":"load","field":"<java.util.AbstractList: int modCount>"},{"step":10,"from":"sdaReg9","to":"1093562520","type":"store","field":"<java.util.AbstractList: int modCount>"}],"parameters":[{"id":"1093562520","name":"this","klass":"java.util.ArrayList"},{"id":"1093619128","name":"arg#1","klass":"java.util.Collection"}],"returns":[{"id":null,"name":"return","klass":"boolean"}],"colors":{"heapLocToColor":{"1093562520":[0],"1093562520.<java.util.ArrayList: int size>":[0],"sdaReg8":[0],"sdaReg9":[0],"1093619376":[3],"1093562520.<java.util.AbstractList: int modCount>":[0],"1093619352":[2],"sdaReg5":[0],"1093619128":[1],"1093619128.<java.util.ArrayList: int size>":[1],"1083994088":[0],"sdaReg3":[0],"sdaReg1":[2],"sdaReg0":[1],"1093619152":[1]},"colorToColor":{"0":[0, 3],"1":[2],"2":[3],"3":[0]},"colorToLabel":{"0":"this","1":"arg#1","4":"return"}}}

Generated Model
	arg#1->this

