Scanning method <java.io.ObjectInputStream: java.lang.String readLine()>

All seen event types: SimpleAssignmentRecord, LoadInstanceRecord, MethodStartRecord, IfRecord, NewObjectRecord, StoreInstanceRecord, NewArrayRecord, BinaryOperationRecord, MethodCallRecord, MethodReturnRecord, SwitchRecord, ArrayLengthRecord, CastRecord, LoadArrayRecord, MethodEndRecord, 
Ignored event types: SwitchRecord, IfRecord, 

JSON Encoded Analysis Data (for visualization):{"heapEdges":[{"step":0,"from":"1093516800","to":"1093557792","type":"load","field":"<java.io.ObjectInputStream: java.io.DataInputStream primitiveTypes>"},{"step":1,"from":"1093557792","to":"1093516800","type":"load","field":"<java.io.FilterInputStream: java.io.InputStream in>"},{"step":2,"from":"1093516800","to":"1093517080","type":"load","field":"<java.io.ObjectInputStream: java.io.InputStream primitiveData>"},{"step":3,"from":"1093516800","to":"1093516712","type":"load","field":"<java.io.ObjectInputStream: java.io.DataInputStream input>"},{"step":4,"from":"1093516800","to":"1093517080","type":"load","field":"<java.io.ObjectInputStream: java.io.InputStream primitiveData>"},{"step":5,"from":"1093517080","to":"1093517080.<java.io.ByteArrayInputStream: int count>","type":"load","field":"<java.io.ByteArrayInputStream: int count>"},{"step":6,"from":"1093517080","to":"1093517080.<java.io.ByteArrayInputStream: int pos>","type":"load","field":"<java.io.ByteArrayInputStream: int pos>"},{"step":7,"from":"1093516800","to":"1093516800.<java.io.ObjectInputStream: boolean hasPushbackTC>","type":"load","field":"<java.io.ObjectInputStream: boolean hasPushbackTC>"},{"step":8,"from":"1093516800","to":"1093516712","type":"load","field":"<java.io.ObjectInputStream: java.io.DataInputStream input>"},{"step":9,"from":"1093516712","to":"1093517000","type":"load","field":"<java.io.FilterInputStream: java.io.InputStream in>"},{"step":10,"from":"1093517000","to":"1093517000.<java.io.ByteArrayInputStream: int pos>","type":"load","field":"<java.io.ByteArrayInputStream: int pos>"},{"step":11,"from":"1093517000","to":"1093517000.<java.io.ByteArrayInputStream: int count>","type":"load","field":"<java.io.ByteArrayInputStream: int count>"},{"step":12,"from":"1093517000","to":"1093517032","type":"load","field":"<java.io.ByteArrayInputStream: byte[] buf>"},{"step":13,"from":"1093517000","to":"1093517000.<java.io.ByteArrayInputStream: int pos>","type":"load","field":"<java.io.ByteArrayInputStream: int pos>"},{"step":14,"from":"sdaReg11","to":"1093517000","type":"store","field":"<java.io.ByteArrayInputStream: int pos>"},{"step":15,"from":"1093517032","to":"1093517032.arrayIdx_int:4","type":"load","field":"arrayIdx_int:4"},{"step":16,"from":"sdaReg13","to":"1093516800","type":"store","field":"<java.io.ObjectInputStream: byte pushbackTC>"},{"step":17,"from":"1093516800","to":"1093516712","type":"load","field":"<java.io.ObjectInputStream: java.io.DataInputStream input>"},{"step":18,"from":"1093516712","to":"1093517000","type":"load","field":"<java.io.FilterInputStream: java.io.InputStream in>"},{"step":19,"from":"1093517000","to":"1093517000.<java.io.ByteArrayInputStream: int count>","type":"load","field":"<java.io.ByteArrayInputStream: int count>"},{"step":20,"from":"1093517000","to":"1093517032","type":"load","field":"<java.io.ByteArrayInputStream: byte[] buf>"},{"step":21,"from":"sdaReg17","to":"1093517000","type":"store","field":"<java.io.ByteArrayInputStream: int pos>"},{"step":22,"from":"1093517032","to":"1093517032.arrayIdx_int:5","type":"load","field":"arrayIdx_int:5"},{"step":23,"from":"1093516800","to":"1093516712","type":"load","field":"<java.io.ObjectInputStream: java.io.DataInputStream input>"},{"step":24,"from":"1093516712","to":"1093517000","type":"load","field":"<java.io.FilterInputStream: java.io.InputStream in>"},{"step":25,"from":"1093517000","to":"1093628456","type":"model"},{"step":26,"from":"1093628424","to":"sdaReg33","type":"create","field":"<java.io.ByteArrayInputStream: int mark>"},{"step":27,"from":"1093628424","to":"1093628456","type":"create","field":"<java.io.ByteArrayInputStream: byte[] buf>"},{"step":28,"from":"sdaReg34","to":"1093628424","type":"store","field":"<java.io.ByteArrayInputStream: int count>"},{"step":29,"from":"1093516800","to":"1093628424","type":"create","field":"<java.io.ObjectInputStream: java.io.InputStream primitiveData>"},{"step":30,"from":"1093628424","to":"1093628424.<java.io.ByteArrayInputStream: int pos>","type":"load","field":"<java.io.ByteArrayInputStream: int pos>"},{"step":31,"from":"1093628424","to":"1093628424.<java.io.ByteArrayInputStream: int pos>","type":"load","field":"<java.io.ByteArrayInputStream: int pos>"},{"step":32,"from":"sdaReg37","to":"1093628424","type":"store","field":"<java.io.ByteArrayInputStream: int pos>"},{"step":33,"from":"1093628456","to":"1093628456.arrayIdx_int:0","type":"load","field":"arrayIdx_int:0"},{"step":34,"from":"sdaReg39","to":"1093616704","type":"model"},{"step":35,"from":"1093557792","to":"1093516800","type":"load","field":"<java.io.FilterInputStream: java.io.InputStream in>"},{"step":36,"from":"1093516800","to":"1093516712","type":"load","field":"<java.io.ObjectInputStream: java.io.DataInputStream input>"},{"step":37,"from":"sdaReg45","to":"1093628424","type":"store","field":"<java.io.ByteArrayInputStream: int pos>"},{"step":38,"from":"1093628456","to":"1093628456.arrayIdx_int:1","type":"load","field":"arrayIdx_int:1"},{"step":39,"from":"sdaReg39","to":"1093616704","type":"model"},{"step":40,"from":"1093557792","to":"1093516800","type":"load","field":"<java.io.FilterInputStream: java.io.InputStream in>"},{"step":41,"from":"1093516800","to":"1093516712","type":"load","field":"<java.io.ObjectInputStream: java.io.DataInputStream input>"},{"step":42,"from":"sdaReg52","to":"1093628424","type":"store","field":"<java.io.ByteArrayInputStream: int pos>"},{"step":43,"from":"1093628456","to":"1093628456.arrayIdx_int:2","type":"load","field":"arrayIdx_int:2"},{"step":44,"from":"sdaReg39","to":"1093616704","type":"model"},{"step":45,"from":"1093557792","to":"1093516800","type":"load","field":"<java.io.FilterInputStream: java.io.InputStream in>"},{"step":46,"from":"1093516800","to":"1093516712","type":"load","field":"<java.io.ObjectInputStream: java.io.DataInputStream input>"},{"step":47,"from":"sdaReg59","to":"1093628424","type":"store","field":"<java.io.ByteArrayInputStream: int pos>"},{"step":48,"from":"1093628456","to":"1093628456.arrayIdx_int:3","type":"load","field":"arrayIdx_int:3"},{"step":49,"from":"sdaReg39","to":"1093616704","type":"model"},{"step":50,"from":"1093557792","to":"1093516800","type":"load","field":"<java.io.FilterInputStream: java.io.InputStream in>"},{"step":51,"from":"1093516800","to":"1093516712","type":"load","field":"<java.io.ObjectInputStream: java.io.DataInputStream input>"},{"step":52,"from":"sdaReg66","to":"1093628424","type":"store","field":"<java.io.ByteArrayInputStream: int pos>"},{"step":53,"from":"1093628456","to":"1093628456.arrayIdx_int:4","type":"load","field":"arrayIdx_int:4"},{"step":54,"from":"sdaReg39","to":"1093616704","type":"model"},{"step":55,"from":"1093557792","to":"1093516800","type":"load","field":"<java.io.FilterInputStream: java.io.InputStream in>"},{"step":56,"from":"1093516800","to":"1093516712","type":"load","field":"<java.io.ObjectInputStream: java.io.DataInputStream input>"},{"step":57,"from":"sdaReg73","to":"1093628424","type":"store","field":"<java.io.ByteArrayInputStream: int pos>"},{"step":58,"from":"1093628456","to":"1093628456.arrayIdx_int:5","type":"load","field":"arrayIdx_int:5"},{"step":59,"from":"sdaReg39","to":"1093616704","type":"model"},{"step":60,"from":"1093557792","to":"1093516800","type":"load","field":"<java.io.FilterInputStream: java.io.InputStream in>"},{"step":61,"from":"1093516800","to":"1093516712","type":"load","field":"<java.io.ObjectInputStream: java.io.DataInputStream input>"},{"step":62,"from":"sdaReg80","to":"1093628424","type":"store","field":"<java.io.ByteArrayInputStream: int pos>"},{"step":63,"from":"1093628456","to":"1093628456.arrayIdx_int:6","type":"load","field":"arrayIdx_int:6"},{"step":64,"from":"sdaReg39","to":"1093616704","type":"model"},{"step":65,"from":"1093557792","to":"1093516800","type":"load","field":"<java.io.FilterInputStream: java.io.InputStream in>"},{"step":66,"from":"1093516800","to":"1093516712","type":"load","field":"<java.io.ObjectInputStream: java.io.DataInputStream input>"},{"step":67,"from":"sdaReg87","to":"1093628424","type":"store","field":"<java.io.ByteArrayInputStream: int pos>"},{"step":68,"from":"1093628456","to":"1093628456.arrayIdx_int:7","type":"load","field":"arrayIdx_int:7"},{"step":69,"from":"sdaReg39","to":"1093616704","type":"model"},{"step":70,"from":"1093557792","to":"1093516800","type":"load","field":"<java.io.FilterInputStream: java.io.InputStream in>"},{"step":71,"from":"1093516800","to":"1093516712","type":"load","field":"<java.io.ObjectInputStream: java.io.DataInputStream input>"},{"step":72,"from":"sdaReg94","to":"1093628424","type":"store","field":"<java.io.ByteArrayInputStream: int pos>"},{"step":73,"from":"1093628456","to":"1093628456.arrayIdx_int:8","type":"load","field":"arrayIdx_int:8"},{"step":74,"from":"sdaReg39","to":"1093616704","type":"model"},{"step":75,"from":"1093557792","to":"1093516800","type":"load","field":"<java.io.FilterInputStream: java.io.InputStream in>"},{"step":76,"from":"1093516800","to":"1093516712","type":"load","field":"<java.io.ObjectInputStream: java.io.DataInputStream input>"},{"step":77,"from":"sdaReg101","to":"1093628424","type":"store","field":"<java.io.ByteArrayInputStream: int pos>"},{"step":78,"from":"1093628456","to":"1093628456.arrayIdx_int:9","type":"load","field":"arrayIdx_int:9"},{"step":79,"from":"sdaReg39","to":"1093616704","type":"model"},{"step":80,"from":"1093557792","to":"1093516800","type":"load","field":"<java.io.FilterInputStream: java.io.InputStream in>"},{"step":81,"from":"1093516800","to":"1093516712","type":"load","field":"<java.io.ObjectInputStream: java.io.DataInputStream input>"},{"step":82,"from":"sdaReg108","to":"1093628424","type":"store","field":"<java.io.ByteArrayInputStream: int pos>"},{"step":83,"from":"1093628456","to":"1093628456.arrayIdx_int:10","type":"load","field":"arrayIdx_int:10"},{"step":84,"from":"1093616704","to":"sdaReg110","type":"model"}],"parameters":[{"id":"1093516800","name":"this","klass":"java.io.ObjectInputStream"}],"returns":[{"id":"sdaReg110","name":"return","klass":"string"}],"colors":{"heapLocToColor":{"1093517080":[0],"1093616704":[1],"sdaReg68":[0],"sdaReg69":[0],"1093628424":[2],"sdaReg67":[3],"sdaReg65":[2],"1093516800.<java.io.ObjectInputStream: java.io.DataInputStream input>":[0],"sdaReg62":[0],"sdaReg63":[2],"sdaReg13":[0],"sdaReg72":[2],"sdaReg14":[0],"sdaReg11":[0],"sdaReg70":[2],"sdaReg12":[0],"1093516712.<java.io.FilterInputStream: java.io.InputStream in>":[0],"sdaReg10":[0],"sdaReg19":[0],"sdaReg18":[0],"sdaReg15":[0],"1093517000.<java.io.ByteArrayInputStream: int count>":[0],"sdaReg16":[0],"sdaReg77":[2],"1093517080.<java.io.ByteArrayInputStream: int count>":[0],"sdaReg79":[2],"sdaReg74":[3],"sdaReg75":[0],"sdaReg76":[0],"sdaReg81":[3],"sdaReg83":[0],"sdaReg82":[0],"1093557792.<java.io.FilterInputStream: java.io.InputStream in>":[0],"1093517000":[0],"sdaReg110":[1, 4],"sdaReg107":[2],"sdaReg109":[3],"sdaReg103":[0],"sdaReg104":[0],"sdaReg105":[2],"sdaReg86":[2],"sdaReg84":[2],"1093517080.<java.io.ByteArrayInputStream: int pos>":[0],"sdaReg88":[3],"sdaReg89":[0],"sdaReg90":[0],"sdaReg93":[2],"sdaReg91":[2],"sdaReg100":[2],"sdaReg102":[3],"1093516800.<java.io.ObjectInputStream: boolean hasPushbackTC>":[0],"sdaReg95":[3],"sdaReg96":[0],"sdaReg97":[0],"sdaReg98":[2],"1093628456.arrayIdx_int:10":[3],"sdaReg60":[3],"sdaReg61":[0],"1093516712":[0],"1093628456":[3],"sdaReg58":[2],"sdaReg56":[2],"sdaReg55":[0],"sdaReg54":[0],"sdaReg53":[3],"sdaReg51":[2],"1093517032":[0],"1093628456.arrayIdx_int:0":[3],"1093628456.arrayIdx_int:1":[3],"1093628456.arrayIdx_int:2":[3],"1093628456.arrayIdx_int:3":[3],"1093628456.arrayIdx_int:4":[3],"1093628456.arrayIdx_int:5":[3],"1093628456.arrayIdx_int:6":[3],"1093516800":[0],"1093628456.arrayIdx_int:7":[3],"1093628456.arrayIdx_int:8":[3],"1093628456.arrayIdx_int:9":[3],"sdaReg49":[2],"sdaReg48":[0],"sdaReg44":[2],"sdaReg47":[0],"sdaReg46":[3],"sdaReg41":[0],"1093516800.<java.io.ObjectInputStream: java.io.InputStream primitiveData>":[0],"sdaReg40":[0],"sdaReg42":[2],"1093517000.<java.io.ByteArrayInputStream: int pos>":[0],"1093517032.arrayIdx_int:5":[0],"sdaReg39":[3],"1093517032.arrayIdx_int:4":[0],"sdaReg38":[3],"sdaReg37":[2],"sdaReg32":[2],"sdaReg31":[2],"sdaReg30":[2],"sdaReg36":[2],"sdaReg35":[2],"1093517000.<java.io.ByteArrayInputStream: byte[] buf>":[0],"sdaReg9":[0],"sdaReg6":[0],"sdaReg7":[0],"sdaReg4":[0],"sdaReg5":[0],"1093557792":[0],"sdaReg27":[3],"1093628424.<java.io.ByteArrayInputStream: int pos>":[2],"sdaReg29":[3],"sdaReg28":[2],"sdaReg2":[1],"sdaReg21":[0],"sdaReg1":[1],"sdaReg20":[0],"sdaReg0":[0],"sdaReg22":[3],"sdaReg25":[3],"sdaReg24":[0]},"colorToColor":{"0":[0, 3],"1":[5],"2":[0, 2],"3":[1, 2],"4":[5]},"colorToLabel":{"0":"this","5":"return"}}}

Generated Model
	this->return

