Scanning method <java.io.PrintWriter: java.lang.Appendable append(java.lang.CharSequence,int,int)>

All seen event types: SimpleAssignmentRecord, ExitMonitorRecord, MethodStartRecord, LoadInstanceRecord, IfRecord, NewObjectRecord, StoreInstanceRecord, BinaryOperationRecord, MethodCallRecord, MethodReturnRecord, EnterMonitorRecord, ArrayLengthRecord, MethodEndRecord, 
Ignored event types: ExitMonitorRecord, EnterMonitorRecord, IfRecord, 

JSON Encoded Analysis Data (for visualization):{"heapEdges":[{"step":0,"from":"1093624520","to":"1093646528","type":"model"},{"step":1,"from":"1093646528","to":"sdaReg5","type":"model"},{"step":2,"from":"sdaReg5","to":"sdaReg10","type":"model"},{"step":3,"from":"sdaReg10","to":"1093646728","type":"model"},{"step":4,"from":"1093569472","to":"1093569504","type":"load","field":"<java.io.Writer: java.lang.Object lock>"},{"step":5,"from":"1093569472","to":"1093569504","type":"load","field":"<java.io.PrintWriter: java.io.Writer out>"},{"step":6,"from":"1093569472","to":"1093569504","type":"load","field":"<java.io.PrintWriter: java.io.Writer out>"},{"step":7,"from":"1093569504","to":"1093569296","type":"load","field":"<java.io.Writer: java.lang.Object lock>"},{"step":8,"from":"1093569504","to":"1093588200","type":"load","field":"<java.io.OutputStreamWriter: java.nio.charset.CharsetEncoder encoder>"},{"step":9,"from":"1093646752","to":"sdaReg44","type":"create","field":"<java.nio.Buffer: int mark>"},{"step":10,"from":"1093646752","to":"sdaReg45","type":"create","field":"<java.nio.Buffer: int position>"},{"step":11,"from":"1093646752","to":"sdaReg42","type":"create","field":"<java.nio.Buffer: int _elementSizeShift>"},{"step":12,"from":"sdaReg36","to":"1093646752","type":"store","field":"<java.nio.Buffer: int limit>"},{"step":13,"from":"sdaReg36","to":"1093646752","type":"store","field":"<java.nio.Buffer: int capacity>"},{"step":14,"from":"1093646752","to":"1093646728","type":"create","field":"<java.nio.CharArrayBuffer: char[] backingArray>"},{"step":15,"from":"1093646752","to":"sdaReg39","type":"create","field":"<java.nio.CharArrayBuffer: int offset>"},{"step":16,"from":"1093646752","to":"sdaReg17","type":"create","field":"<java.nio.Buffer: int position>"},{"step":17,"from":"sdaReg52","to":"1093646752","type":"store","field":"<java.nio.Buffer: int limit>"},{"step":18,"from":"1093569504","to":"1093588200","type":"load","field":"<java.io.OutputStreamWriter: java.nio.charset.CharsetEncoder encoder>"},{"step":19,"from":"1093569504","to":"1093569536","type":"load","field":"<java.io.OutputStreamWriter: java.nio.ByteBuffer bytes>"},{"step":20,"from":"1093588200","to":"1093646752","type":"model"},{"step":21,"from":"1093588200","to":"1093569536","type":"model"},{"step":22,"from":"1093588200","to":"1084215096","type":"model"},{"step":23,"from":"1093646752","to":"1093588200","type":"model"},{"step":24,"from":"1093646752","to":"1093569536","type":"model"},{"step":25,"from":"1093646752","to":"1084215096","type":"model"},{"step":26,"from":"1093569536","to":"1093588200","type":"model"},{"step":27,"from":"1093569536","to":"1093646752","type":"model"},{"step":28,"from":"1093569536","to":"1084215096","type":"model"},{"step":29,"from":"1084215096","to":"1084215096.<java.nio.charset.CoderResult: int type>","type":"load","field":"<java.nio.charset.CoderResult: int type>"},{"step":30,"from":"1084215096","to":"1084215096.<java.nio.charset.CoderResult: int type>","type":"load","field":"<java.nio.charset.CoderResult: int type>"},{"step":31,"from":"1084215096","to":"1084215096.<java.nio.charset.CoderResult: int type>","type":"load","field":"<java.nio.charset.CoderResult: int type>"}],"parameters":[{"id":"1093569472","name":"this","klass":"java.io.PrintWriter"},{"id":"1093624520","name":"arg#1","klass":"java.lang.CharSequence"},{"id":"sdaReg0","name":"arg#2","klass":"int"},{"id":"sdaReg1","name":"arg#3","klass":"int"}],"returns":[{"id":"1093569472","name":"return","klass":"java.lang.Appendable"}],"colors":{"heapLocToColor":{"1093646728":[1, 4, 5, 7, 8],"sdaReg61":[0],"sdaReg13":[1, 4, 5, 7, 8],"1093588200":[0],"sdaReg11":[1, 4, 5, 7, 8],"sdaReg12":[0],"sdaReg10":[1, 4, 5, 7],"sdaReg59":[0, 10],"sdaReg57":[0, 10],"1093569296":[0],"sdaReg56":[0, 10],"sdaReg19":[1, 4, 5, 7, 8],"1093646528":[1, 4],"sdaReg55":[9],"sdaReg54":[0],"sdaReg18":[0],"sdaReg53":[9],"sdaReg15":[0],"sdaReg16":[1, 4, 5, 7, 8],"sdaReg51":[9],"1093646752":[0, 9],"1093569472":[0],"sdaReg50":[9],"sdaReg49":[9],"sdaReg48":[9],"1084215096":[0, 10],"sdaReg47":[9],"sdaReg46":[9],"sdaReg41":[9],"sdaReg40":[9],"sdaReg43":[9],"1093569472.<java.io.PrintWriter: java.io.Writer out>":[0],"sdaReg38":[1, 4, 5, 7, 8],"sdaReg37":[9],"1093569536":[0],"sdaReg32":[9],"1084215096.<java.nio.charset.CoderResult: int type>":[0, 10],"sdaReg35":[1, 4, 5, 7, 8],"sdaReg34":[9],"sdaReg33":[1, 4, 5, 7, 8],"1093569504":[0],"sdaReg9":[6],"sdaReg6":[6],"sdaReg7":[0],"sdaReg4":[1, 4],"sdaReg5":[1, 4, 5],"1093624520":[1],"sdaReg28":[1, 4, 5, 7, 8],"1093569504.<java.io.OutputStreamWriter: java.nio.charset.CharsetEncoder encoder>":[0],"sdaReg3":[1],"sdaReg2":[0],"sdaReg21":[0],"sdaReg1":[3],"sdaReg0":[2],"sdaReg22":[1, 4, 5, 7, 8],"sdaReg24":[0]},"colorToColor":{"0":[0, 9, 10, 11],"1":[9],"4":[9],"5":[9],"7":[9],"8":[9],"9":[0, 10]},"colorToLabel":{"0":"this","1":"arg#1","2":"arg#2","3":"arg#3","11":"return"}}}

Generated Model
	this->return
	arg#1->this
	arg#1->return

