Scanning method <android.location.Location: void computeDistanceAndBearing(double,double,double,double,float[])>

All seen event types: BinaryOperationRecord, NegationRecord, StoreArrayRecord, SimpleAssignmentRecord, MethodReturnRecord, MethodCallRecord, ArrayLengthRecord, CastRecord, IfRecord, 
Ignored event types: NegationRecord, IfRecord, 

JSON Encoded Analysis Data (for visualization):{"heapEdges":[{"step":0,"from":"sdaReg5","to":"sdaReg21","type":"model"},{"step":1,"from":"sdaReg22","to":"sdaReg23","type":"model"},{"step":2,"from":"sdaReg6","to":"sdaReg25","type":"model"},{"step":3,"from":"sdaReg26","to":"sdaReg27","type":"model"},{"step":4,"from":"sdaReg23","to":"sdaReg28","type":"model"},{"step":5,"from":"sdaReg27","to":"sdaReg29","type":"model"},{"step":6,"from":"sdaReg23","to":"sdaReg30","type":"model"},{"step":7,"from":"sdaReg27","to":"sdaReg31","type":"model"},{"step":8,"from":"sdaReg42","to":"sdaReg45","type":"model"},{"step":9,"from":"sdaReg42","to":"sdaReg46","type":"model"},{"step":10,"from":"sdaReg54","to":"sdaReg55","type":"model"},{"step":11,"from":"sdaReg57","to":"sdaReg58","type":"model"},{"step":12,"from":"sdaReg55","to":"sdaReg58","type":"model"},{"step":13,"from":"sdaReg126","to":"sdaReg127","type":"model"},{"step":14,"from":"sdaReg42","to":"sdaReg129","type":"model"},{"step":15,"from":"sdaReg42","to":"sdaReg130","type":"model"},{"step":16,"from":"sdaReg54","to":"sdaReg131","type":"model"},{"step":17,"from":"sdaReg57","to":"sdaReg132","type":"model"},{"step":18,"from":"sdaReg131","to":"sdaReg132","type":"model"},{"step":19,"from":"sdaReg126","to":"sdaReg133","type":"model"},{"step":20,"from":"sdaReg42","to":"sdaReg134","type":"model"},{"step":21,"from":"sdaReg42","to":"sdaReg135","type":"model"},{"step":22,"from":"sdaReg54","to":"sdaReg136","type":"model"},{"step":23,"from":"sdaReg57","to":"sdaReg137","type":"model"},{"step":24,"from":"sdaReg136","to":"sdaReg137","type":"model"},{"step":25,"from":"sdaReg126","to":"sdaReg138","type":"model"},{"step":26,"from":"sdaReg42","to":"sdaReg139","type":"model"},{"step":27,"from":"sdaReg42","to":"sdaReg140","type":"model"},{"step":28,"from":"sdaReg54","to":"sdaReg141","type":"model"},{"step":29,"from":"sdaReg57","to":"sdaReg142","type":"model"},{"step":30,"from":"sdaReg141","to":"sdaReg142","type":"model"},{"step":31,"from":"sdaReg126","to":"sdaReg143","type":"model"},{"step":32,"from":"sdaReg42","to":"sdaReg144","type":"model"},{"step":33,"from":"sdaReg42","to":"sdaReg145","type":"model"},{"step":34,"from":"sdaReg54","to":"sdaReg146","type":"model"},{"step":35,"from":"sdaReg57","to":"sdaReg147","type":"model"},{"step":36,"from":"sdaReg146","to":"sdaReg147","type":"model"},{"step":37,"from":"sdaReg126","to":"sdaReg148","type":"model"},{"step":38,"from":"sdaReg152","to":"1093983696","type":"store","field":"arrayIdx_int:0"},{"step":39,"from":"sdaReg158","to":"sdaReg159","type":"model"},{"step":40,"from":"sdaReg154","to":"sdaReg159","type":"model"},{"step":41,"from":"sdaReg163","to":"1093983696","type":"store","field":"arrayIdx_int:1"},{"step":42,"from":"sdaReg169","to":"sdaReg170","type":"model"},{"step":43,"from":"sdaReg165","to":"sdaReg170","type":"model"},{"step":44,"from":"sdaReg174","to":"1093983696","type":"store","field":"arrayIdx_int:2"}],"parameters":[{"id":"sdaReg0","name":"arg#0","klass":"double"},{"id":"sdaReg1","name":"arg#1","klass":"double"},{"id":"sdaReg2","name":"arg#2","klass":"double"},{"id":"sdaReg3","name":"arg#3","klass":"double"},{"id":"1093983696","name":"arg#4","klass":"float[]"}],"returns":[{"id":null,"name":"return","klass":null}],"colors":{"heapLocToColor":{"sdaReg125":[1, 3, 9, 10, 11, 12, 13, 14, 15, 16, 19, 18, 21, 20, 23, 25, 24, 26, 29, 28, 31, 30, 34, 35, 33, 36],"sdaReg126":[1, 3, 9, 10, 11, 12, 13, 14, 15, 16, 19, 18, 21, 20, 23, 25, 24, 26, 29, 28, 31, 30, 34, 35, 33, 36],"sdaReg127":[17],"sdaReg128":[17, 32, 37, 22, 27],"sdaReg129":[18],"sdaReg68":[34, 35, 33, 9, 10, 11, 12, 13, 14, 15, 19, 18, 20, 23, 25, 24, 29, 28, 30],"sdaReg69":[34, 35, 33, 9, 10, 11, 12, 13, 14, 15, 19, 18, 20, 23, 25, 24, 29, 28, 30],"sdaReg66":[11, 12],"sdaReg67":[34, 35, 9, 10, 11, 12, 14, 15, 19, 20, 25, 24, 29, 30],"sdaReg64":[34, 35, 19, 20, 25, 24, 9, 10, 29, 14, 30, 15],"sdaReg65":[34, 35, 19, 20, 25, 24, 9, 10, 29, 14, 30, 15],"sdaReg62":[34, 35, 19, 20, 25, 24, 9, 10, 29, 14, 30, 15],"sdaReg63":[34, 35, 19, 20, 25, 24, 9, 10, 29, 14, 30, 15],"sdaReg72":[34, 35, 19, 20, 25, 24, 9, 10, 29, 14, 30, 15],"sdaReg71":[34, 35, 19, 20, 25, 24, 9, 10, 29, 14, 30, 15],"sdaReg70":[34, 35, 19, 20, 25, 24, 9, 10, 29, 14, 30, 15],"sdaReg120":[34, 35, 33, 9, 10, 11, 12, 13, 14, 15, 19, 18, 20, 23, 25, 24, 29, 28, 30],"sdaReg19":[34, 35, 19, 20, 25, 24, 9, 10, 29, 14, 30, 15],"sdaReg122":[34, 35, 33, 9, 10, 11, 12, 13, 14, 15, 19, 18, 20, 23, 25, 24, 29, 28, 30],"sdaReg121":[34, 35, 33, 9, 10, 11, 12, 13, 14, 15, 19, 18, 20, 23, 25, 24, 29, 28, 30],"sdaReg18":[1, 3],"sdaReg124":[34, 35, 33, 36, 9, 10, 11, 12, 13, 14, 15, 16, 19, 18, 21, 20, 23, 25, 24, 26, 29, 28, 31, 30],"sdaReg123":[34, 35, 33, 36, 9, 10, 11, 12, 13, 14, 15, 16, 19, 18, 21, 20, 23, 25, 24, 26, 29, 28, 31, 30],"sdaReg116":[34, 35, 33, 9, 10, 11, 12, 13, 14, 15, 19, 18, 20, 23, 25, 24, 29, 28, 30],"sdaReg117":[34, 35, 33, 9, 10, 11, 12, 13, 14, 15, 19, 18, 20, 23, 25, 24, 29, 28, 30],"sdaReg114":[34, 35, 19, 20, 25, 24, 9, 10, 29, 14, 30, 15],"sdaReg115":[34, 35, 19, 20, 25, 24, 9, 10, 29, 14, 30, 15],"sdaReg118":[34, 35, 33, 9, 10, 11, 12, 13, 14, 15, 19, 18, 20, 23, 25, 24, 29, 28, 30],"sdaReg119":[34, 35, 33, 9, 10, 11, 12, 13, 14, 15, 19, 18, 20, 23, 25, 24, 29, 28, 30],"sdaReg77":[34, 35, 19, 20, 25, 24, 9, 10, 29, 14, 30, 15],"sdaReg78":[34, 35, 19, 20, 25, 24, 9, 10, 29, 14, 30, 15],"sdaReg79":[34, 35, 19, 20, 25, 24, 9, 10, 29, 14, 30, 15],"sdaReg73":[34, 35, 19, 20, 25, 24, 9, 10, 29, 14, 30, 15],"sdaReg74":[34, 35, 19, 20, 25, 24, 9, 10, 29, 14, 30, 15],"sdaReg75":[34, 35, 19, 20, 25, 24, 9, 10, 29, 14, 30, 15],"sdaReg76":[34, 35, 19, 20, 25, 24, 9, 10, 29, 14, 30, 15],"sdaReg81":[34, 35, 19, 20, 25, 24, 9, 10, 29, 14, 30, 15],"sdaReg80":[34, 35, 19, 20, 25, 24, 9, 10, 29, 14, 30, 15],"sdaReg83":[34, 35, 19, 20, 25, 24, 9, 10, 29, 14, 30, 15],"sdaReg82":[34, 35, 19, 20, 25, 24, 9, 10, 29, 14, 30, 15],"sdaReg113":[34, 35, 19, 20, 25, 24, 9, 10, 29, 14, 30, 15],"sdaReg112":[34, 35, 19, 20, 25, 24, 9, 10, 29, 14, 30, 15],"sdaReg111":[34, 35, 33, 9, 10, 11, 12, 13, 14, 15, 19, 18, 20, 23, 25, 24, 29, 28, 30],"sdaReg110":[34, 35, 33, 9, 10, 11, 12, 13, 14, 15, 19, 18, 20, 23, 25, 24, 29, 28, 30],"sdaReg107":[34, 35, 33, 9, 10, 11, 12, 13, 14, 15, 19, 18, 20, 23, 25, 24, 29, 28, 30],"sdaReg108":[34, 35, 33, 9, 10, 11, 12, 13, 14, 15, 19, 18, 20, 23, 25, 24, 29, 28, 30],"sdaReg109":[34, 35, 33, 9, 10, 11, 12, 13, 14, 15, 19, 18, 20, 23, 25, 24, 29, 28, 30],"sdaReg103":[35, 20, 25, 30, 15],"sdaReg104":[35, 20, 25, 30, 15],"sdaReg171":[39],"sdaReg105":[34, 35, 33, 9, 10, 11, 12, 13, 14, 15, 19, 18, 20, 23, 25, 24, 29, 28, 30],"sdaReg170":[39],"sdaReg106":[34, 35, 33, 9, 10, 11, 12, 13, 14, 15, 19, 18, 20, 23, 25, 24, 29, 28, 30],"sdaReg173":[39],"sdaReg86":[34, 35, 19, 20, 25, 24, 9, 10, 29, 14, 30, 15],"sdaReg172":[39],"sdaReg84":[34, 35, 19, 20, 25, 24, 9, 10, 29, 14, 30, 15],"sdaReg174":[39],"sdaReg85":[34, 35, 19, 20, 25, 24, 9, 10, 29, 14, 30, 15],"sdaReg88":[34, 35, 19, 20, 25, 24, 9, 10, 29, 14, 30, 15],"sdaReg89":[34, 35, 19, 20, 25, 24, 9, 10, 29, 14, 30, 15],"sdaReg90":[34, 35, 19, 20, 25, 24, 9, 10, 29, 14, 30, 15],"sdaReg94":[34, 35, 33, 9, 10, 11, 12, 13, 14, 15, 19, 18, 20, 23, 25, 24, 29, 28, 30],"sdaReg93":[34, 35, 19, 20, 25, 24, 9, 10, 29, 14, 30, 15],"sdaReg92":[34, 35, 19, 20, 25, 24, 9, 10, 29, 14, 30, 15],"sdaReg91":[34, 35, 19, 20, 25, 24, 9, 10, 29, 14, 30, 15],"sdaReg100":[34, 35, 19, 20, 25, 24, 9, 10, 29, 14, 30, 15],"sdaReg102":[35, 20, 25, 30, 15],"sdaReg101":[34, 35, 33, 9, 10, 11, 12, 13, 14, 15, 19, 18, 20, 23, 25, 24, 29, 28, 30],"sdaReg95":[34, 35, 19, 20, 25, 24, 9, 10, 29, 14, 30, 15],"sdaReg96":[34, 35, 19, 20, 25, 24, 9, 10, 29, 14, 30, 15],"sdaReg97":[34, 35, 33, 9, 10, 11, 12, 13, 14, 15, 19, 18, 20, 23, 25, 24, 29, 28, 30],"sdaReg98":[34, 35, 33, 9, 10, 11, 12, 13, 14, 15, 19, 18, 20, 23, 25, 24, 29, 28, 30],"sdaReg99":[34, 35, 33, 9, 10, 11, 12, 13, 14, 15, 19, 18, 20, 23, 25, 24, 29, 28, 30],"sdaReg60":[34, 19, 24, 9, 10, 29, 14],"sdaReg61":[34, 35, 19, 20, 25, 24, 9, 10, 29, 14, 30, 15],"sdaReg169":[33, 9, 10, 12],"sdaReg161":[38],"sdaReg162":[38],"sdaReg163":[38],"sdaReg165":[34, 9],"sdaReg166":[10],"sdaReg167":[9, 12],"sdaReg168":[33, 9, 12],"sdaReg59":[35, 20, 25, 30, 15],"sdaReg58":[16],"sdaReg57":[33, 18, 23, 9, 10, 11, 12, 28, 13],"sdaReg56":[33, 18, 23, 9, 10, 28, 13],"sdaReg55":[15],"sdaReg54":[34, 33, 9, 10, 11, 12, 13, 14, 19, 18, 23, 24, 29, 28],"sdaReg53":[33, 18, 23, 9, 10, 11, 12, 28, 13],"sdaReg52":[34, 19, 24, 10, 29, 14],"sdaReg160":[38],"sdaReg51":[33, 18, 23, 9, 10, 11, 12, 28, 13],"sdaReg50":[33, 18, 23, 10, 11, 28, 13],"sdaReg159":[38],"sdaReg158":[33, 9, 10, 11, 12],"sdaReg152":[34, 35, 33, 36, 9, 10, 11, 12, 13, 14, 15, 19, 18, 20, 23, 25, 24, 29, 28, 30],"sdaReg150":[34, 35, 33, 36, 9, 10, 11, 12, 13, 14, 15, 19, 18, 20, 23, 25, 24, 29, 28, 30],"sdaReg151":[34, 35, 33, 36, 9, 10, 11, 12, 13, 14, 15, 19, 18, 20, 23, 25, 24, 29, 28, 30],"sdaReg156":[10, 11],"sdaReg49":[10, 11],"sdaReg157":[33, 10, 11],"sdaReg48":[9, 12],"sdaReg154":[34, 10],"sdaReg155":[9, 12],"sdaReg45":[13],"sdaReg44":[1, 3, 9, 10, 11, 12, 13, 14, 15, 16, 19, 18, 21, 20, 23, 25, 24, 26, 29, 28, 31, 30],"sdaReg47":[34, 19, 24, 10, 29, 14],"sdaReg46":[14],"sdaReg42":[1, 3, 9, 10, 11, 12, 13, 14, 15, 16, 19, 18, 21, 20, 23, 25, 24, 26, 29, 28, 31, 30, 34, 35, 33, 36],"1093983696":[4],"sdaReg148":[37],"sdaReg147":[36],"sdaReg149":[34, 35, 19, 20, 25, 9, 24, 10, 29, 14, 15, 30],"sdaReg143":[32],"sdaReg144":[33],"sdaReg145":[34],"sdaReg146":[35],"sdaReg140":[29],"sdaReg141":[30],"sdaReg142":[31],"sdaReg32":[9, 10],"sdaReg31":[12],"sdaReg30":[11],"sdaReg35":[34, 35, 33, 9, 10, 11, 12, 13, 14, 15, 19, 18, 20, 23, 25, 24, 29, 28, 30],"sdaReg33":[11, 12],"sdaReg8":[3],"sdaReg6":[2],"sdaReg7":[1],"sdaReg5":[0],"sdaReg139":[28],"sdaReg138":[27],"sdaReg137":[26],"sdaReg136":[25],"sdaReg134":[23],"sdaReg27":[8],"sdaReg135":[24],"sdaReg26":[7],"sdaReg132":[21],"sdaReg29":[10],"sdaReg133":[22],"sdaReg28":[9],"sdaReg130":[19],"sdaReg131":[20],"sdaReg3":[3],"sdaReg2":[2],"sdaReg21":[5],"sdaReg1":[1],"sdaReg0":[0],"sdaReg23":[6],"sdaReg22":[5],"sdaReg25":[7]},"colorToColor":{"0":[5],"1":[34, 32, 33, 37, 13, 14, 17, 19, 18, 23, 22, 24, 27, 29, 28],"2":[7],"3":[34, 32, 33, 37, 13, 14, 17, 19, 18, 23, 22, 24, 27, 29, 28],"5":[6],"6":[9, 11],"7":[8],"8":[10, 12],"9":[4, 15, 17, 16, 19, 18, 21, 20, 23, 22, 25, 24, 27, 26, 29, 28, 31, 30, 34, 35, 32, 33, 38, 39, 36, 37],"10":[4, 15, 17, 16, 19, 18, 21, 20, 23, 22, 25, 24, 27, 26, 29, 28, 31, 30, 34, 35, 32, 33, 38, 39, 36, 37],"11":[4, 15, 17, 16, 19, 18, 21, 20, 23, 22, 25, 24, 27, 26, 29, 28, 31, 30, 34, 35, 32, 33, 38, 36, 37],"12":[4, 15, 17, 16, 19, 18, 21, 20, 23, 22, 25, 24, 27, 26, 29, 28, 31, 30, 34, 35, 32, 33, 38, 39, 36, 37],"13":[34, 35, 32, 33, 4, 36, 37, 15, 17, 16, 19, 18, 21, 20, 23, 22, 25, 24, 27, 26, 29, 28, 31, 30],"14":[34, 35, 32, 33, 4, 37, 15, 17, 19, 18, 20, 23, 22, 25, 24, 27, 29, 28, 30],"15":[34, 32, 33, 4, 37, 17, 16, 19, 18, 23, 22, 24, 27, 29, 28],"16":[34, 32, 33, 37, 17, 19, 18, 23, 22, 24, 27, 29, 28],"19":[34, 35, 32, 33, 4, 37, 20, 23, 22, 25, 24, 27, 29, 28, 30],"18":[34, 35, 32, 33, 4, 36, 37, 21, 20, 23, 22, 25, 24, 27, 26, 29, 28, 31, 30],"21":[34, 32, 33, 23, 37, 22, 24, 27, 29, 28],"20":[34, 32, 33, 4, 21, 23, 37, 22, 24, 27, 29, 28],"23":[34, 35, 32, 33, 4, 36, 37, 25, 27, 26, 29, 28, 31, 30],"25":[34, 32, 33, 4, 37, 27, 26, 29, 28],"24":[34, 35, 32, 33, 4, 37, 25, 27, 29, 28, 30],"26":[34, 32, 33, 37, 27, 29, 28],"29":[34, 35, 32, 33, 4, 37, 30],"28":[34, 35, 32, 33, 4, 36, 37, 31, 30],"31":[34, 32, 33, 37],"30":[34, 32, 33, 4, 37, 31],"34":[35, 38, 4, 39, 37],"35":[4, 36, 37],"33":[35, 38, 4, 39, 36, 37],"38":[4],"39":[4],"36":[4, 37]},"colorToLabel":{"0":"arg#0","1":"arg#1","2":"arg#2","3":"arg#3","4":"arg#4","40":"return"}}}

Generated Model
	arg#3->arg#4
	arg#2->arg#4
	arg#1->arg#4
	arg#0->arg#4

