Scanning method <java.io.FileOutputStream: void <init>(java.io.File,boolean)>

All seen event types: LoadStaticRecord, BinaryOperationRecord, MethodReturnRecord, MethodCallRecord, LoadInstanceRecord, IfRecord, StoreInstanceRecord, 
Ignored event types: IfRecord, 

JSON Encoded Analysis Data (for visualization):{"heapEdges":[{"step":0,"from":"1093677128","to":"1083966016","type":"create","field":"<java.io.FileOutputStream: dalvik.system.CloseGuard guard>"},{"step":1,"from":"static.<libcore.io.OsConstants: int O_WRONLY>","to":"static.<libcore.io.OsConstants: int O_WRONLY>","type":"load","field":"<libcore.io.OsConstants: int O_WRONLY>"},{"step":2,"from":"static.<libcore.io.OsConstants: int O_CREAT>","to":"static.<libcore.io.OsConstants: int O_CREAT>","type":"load","field":"<libcore.io.OsConstants: int O_CREAT>"},{"step":3,"from":"static.<libcore.io.OsConstants: int O_TRUNC>","to":"static.<libcore.io.OsConstants: int O_TRUNC>","type":"load","field":"<libcore.io.OsConstants: int O_TRUNC>"},{"step":4,"from":"sdaReg4","to":"1093677128","type":"store","field":"<java.io.FileOutputStream: int mode>"},{"step":5,"from":"1093677440","to":"sdaReg5","type":"model"},{"step":6,"from":"sdaReg5","to":"1093677744","type":"model"},{"step":7,"from":"1093677128","to":"1093677744","type":"create","field":"<java.io.FileOutputStream: java.io.FileDescriptor fd>"},{"step":8,"from":"1093677128","to":"sdaReg7","type":"create","field":"<java.io.FileOutputStream: boolean shouldClose>"}],"parameters":[{"id":"1093677128","name":"this","klass":"java.io.FileOutputStream"},{"id":"1093677440","name":"arg#1","klass":"java.io.File"},{"id":"sdaReg0","name":"arg#2","klass":"boolean"}],"returns":[{"id":"1093677128","name":"return","klass":"java.io.FileOutputStream"}],"colors":{"heapLocToColor":{"1093677128":[0],"sdaReg6":[8],"static.<libcore.io.OsConstants: int O_WRONLY>":[4],"sdaReg4":[4, 5, 6],"sdaReg5":[1, 7],"1093677744":[8],"1093677440":[1],"sdaReg3":[4, 5],"sdaReg2":[3],"sdaReg1":[0],"sdaReg0":[2],"static.<libcore.io.OsConstants: int O_TRUNC>":[6],"1083966016":[3],"static.<libcore.io.OsConstants: int O_CREAT>":[5]},"colorToColor":{"0":[9],"1":[8],"3":[0],"4":[0],"5":[0],"6":[0],"7":[8],"8":[0]},"colorToLabel":{"0":"this","1":"arg#1","2":"arg#2","4":"<libcore.io.OsConstants: int O_WRONLY>","5":"<libcore.io.OsConstants: int O_CREAT>","6":"<libcore.io.OsConstants: int O_TRUNC>","9":"return"}}}

Generated Model
	this->return
	arg#1->this
	arg#1->return

