Scanning method <java.util.Random: void <init>()>

All seen event types: BinaryOperationRecord, MethodReturnRecord, MethodCallRecord, MethodStartRecord, CastRecord, MethodEndRecord, StoreInstanceRecord, 
Ignored event types: 

JSON Encoded Analysis Data (for visualization):{"heapEdges":[{"step":0,"from":"1093388632","to":"sdaReg2","type":"model"},{"step":1,"from":"sdaReg7","to":"1093388632","type":"store","field":"<java.util.Random: long seed>"},{"step":2,"from":"1093388632","to":"sdaReg8","type":"create","field":"<java.util.Random: boolean haveNextNextGaussian>"}],"parameters":[{"id":"1093388632","name":"this","klass":"java.util.Random"}],"returns":[{"id":"1093388632","name":"return","klass":"java.util.Random"}],"colors":{"heapLocToColor":{"sdaReg6":[1, 2],"sdaReg7":[1, 2],"sdaReg4":[1, 2],"sdaReg5":[0],"1093388632":[0],"sdaReg3":[2],"sdaReg2":[2],"sdaReg1":[1],"sdaReg0":[0]},"colorToColor":{"0":[2, 3],"1":[0],"2":[0]},"colorToLabel":{"0":"this","3":"return"}}}

Generated Model
	this->return

