Scanning method <java.util.HashMap$HashIterator: void <init>(java.util.HashMap)>

All seen event types: BinaryOperationRecord, SimpleAssignmentRecord, MethodReturnRecord, MethodCallRecord, ArrayLengthRecord, LoadInstanceRecord, LoadArrayRecord, IfRecord, StoreInstanceRecord, 
Ignored event types: IfRecord, 

JSON Encoded Analysis Data (for visualization):{"heapEdges":[{"step":0,"from":"1093561688","to":"1093398688","type":"store","field":"<java.util.HashMap$HashIterator: java.util.HashMap this$0>"},{"step":1,"from":"1093561688","to":"1093561688.<java.util.HashMap: int modCount>","type":"load","field":"<java.util.HashMap: int modCount>"},{"step":2,"from":"1093561688.<java.util.HashMap: int modCount>","to":"1093398688","type":"store","field":"<java.util.HashMap$HashIterator: int expectedModCount>"},{"step":3,"from":"1093561688","to":"1093412520","type":"load","field":"<java.util.HashMap: java.util.HashMap$HashMapEntry[] table>"},{"step":4,"from":"1093398688","to":"1093398688.<java.util.HashMap$HashIterator: int nextIndex>","type":"load","field":"<java.util.HashMap$HashIterator: int nextIndex>"},{"step":5,"from":"1093398688","to":"1093398688.<java.util.HashMap$HashIterator: int nextIndex>","type":"load","field":"<java.util.HashMap$HashIterator: int nextIndex>"},{"step":6,"from":"sdaReg3","to":"1093398688","type":"store","field":"<java.util.HashMap$HashIterator: int nextIndex>"},{"step":7,"from":"sdaReg3","to":"1093398688","type":"store","field":"<java.util.HashMap$HashIterator: int nextIndex>"},{"step":8,"from":"sdaReg3","to":"1093398688","type":"store","field":"<java.util.HashMap$HashIterator: int nextIndex>"},{"step":9,"from":"1093412520","to":"1093413208","type":"load","field":"arrayIdx_int:2"},{"step":10,"from":"1093413208","to":"1093398688","type":"store","field":"<java.util.HashMap$HashIterator: java.util.HashMap$HashMapEntry nextEntry>"}],"parameters":[{"id":"1093398688","name":"this","klass":"java.util.HashMap$HashIterator"},{"id":"1093561688","name":"arg#1","klass":"java.util.HashMap"}],"returns":[{"id":"1093398688","name":"return","klass":"java.util.HashMap$HashIterator"}],"colors":{"heapLocToColor":{"1093413208":[1],"1093412520":[1],"1093561688.<java.util.HashMap: int modCount>":[1],"sdaReg3":[0],"1093398688.<java.util.HashMap$HashIterator: int nextIndex>":[0],"1093398688":[0],"sdaReg0":[0],"1093561688":[1]},"colorToColor":{"0":[0, 2],"1":[0]},"colorToLabel":{"0":"this","1":"arg#1","2":"return"}}}

Generated Model
	this->return
	arg#1->this
	arg#1->return

