Scanning method <java.io.BufferedReader: void close()>

All seen event types: SimpleAssignmentRecord, ExitMonitorRecord, MethodReturnRecord, MethodCallRecord, EnterMonitorRecord, MethodStartRecord, LoadInstanceRecord, MethodEndRecord, IfRecord, StoreInstanceRecord, 
Ignored event types: ExitMonitorRecord, EnterMonitorRecord, IfRecord, 

JSON Encoded Analysis Data (for visualization):{"heapEdges":[{"step":0,"from":"1093676944","to":"1093677336","type":"load","field":"<java.io.Reader: java.lang.Object lock>"},{"step":1,"from":"1093676944","to":"1094298448","type":"load","field":"<java.io.BufferedReader: char[] buf>"},{"step":2,"from":"1093676944","to":"1093677336","type":"load","field":"<java.io.BufferedReader: java.io.Reader in>"},{"step":3,"from":"1093677336","to":"1093677336","type":"load","field":"<java.io.Reader: java.lang.Object lock>"},{"step":4,"from":"1093677336","to":"1093308656","type":"load","field":"<java.io.CharArrayReader: char[] buf>"},{"step":5,"from":"1093677336","to":"sdaReg7","type":"create","field":"<java.io.CharArrayReader: char[] buf>"},{"step":6,"from":"1093676944","to":"sdaReg8","type":"create","field":"<java.io.BufferedReader: char[] buf>"}],"parameters":[{"id":"1093676944","name":"this","klass":"java.io.BufferedReader"}],"returns":[{"id":null,"name":"return","klass":null}],"colors":{"heapLocToColor":{"1094298448":[0],"sdaReg4":[0],"sdaReg5":[0],"sdaReg3":[0],"1093676944":[0],"1093308656":[0],"sdaReg1":[0],"1093676944.<java.io.BufferedReader: java.io.Reader in>":[0],"1093677336.<java.io.Reader: java.lang.Object lock>":[0],"1093677336":[0]},"colorToColor":{},"colorToLabel":{"0":"this","1":"return"}}}

Generated Model

