Scanning method <android.os.Bundle: android.os.Bundle getBundle(java.lang.String)>

All seen event types: BinaryOperationRecord, MethodReturnRecord, MethodCallRecord, CastRecord, ArrayLengthRecord, LoadInstanceRecord, MethodStartRecord, LoadArrayRecord, MethodEndRecord, IfRecord, 
Ignored event types: IfRecord, 

JSON Encoded Analysis Data (for visualization):{"heapEdges":[{"step":0,"from":"1093975400","to":"1093982368","type":"load","field":"<android.os.Bundle: java.util.Map mMap>"},{"step":1,"from":"1093982368","to":"1093881808","type":"load","field":"<java.util.HashMap: java.util.HashMap$HashMapEntry[] table>"},{"step":2,"from":"1093881808","to":"1093881848","type":"load","field":"arrayIdx_int:2"},{"step":3,"from":"1093881848","to":"1093526528","type":"load","field":"<java.util.HashMap$HashMapEntry: java.lang.Object key>"},{"step":4,"from":"1093881848","to":"1093803976","type":"load","field":"<java.util.HashMap$HashMapEntry: java.lang.Object value>"}],"parameters":[{"id":"1093975400","name":"this","klass":"android.os.Bundle"},{"id":"sdaReg0","name":"arg#1","klass":"string"}],"returns":[{"id":"1093803976","name":"return","klass":"android.os.Bundle"}],"colors":{"heapLocToColor":{"sdaReg8":[2],"sdaReg9":[2],"sdaReg6":[2],"sdaReg7":[2],"sdaReg4":[2],"sdaReg5":[2],"1093803976":[0],"1093982368":[0],"1093881848":[0],"1093881808":[0],"1093526528":[0],"sdaReg14":[2],"sdaReg11":[2],"1093975400":[0],"sdaReg10":[2],"sdaReg3":[2],"sdaReg2":[0],"sdaReg1":[0],"sdaReg0":[1],"sdaReg15":[0],"sdaReg16":[0]},"colorToColor":{"0":[3]},"colorToLabel":{"0":"this","1":"arg#1","3":"return"}}}

Generated Model
	this->return

