Scanning method <java.util.LinkedList: boolean add(java.lang.Object)>

All seen event types: BinaryOperationRecord, SimpleAssignmentRecord, MethodReturnRecord, MethodCallRecord, LoadInstanceRecord, MethodStartRecord, MethodEndRecord, StoreInstanceRecord, NewObjectRecord, 
Ignored event types: 

JSON Encoded Analysis Data (for visualization):{"heapEdges":[{"step":0,"from":"1093389264","to":"1093393616","type":"load","field":"<java.util.LinkedList: java.util.LinkedList$Link voidLink>"},{"step":1,"from":"1093393616","to":"1093626480","type":"load","field":"<java.util.LinkedList$Link: java.util.LinkedList$Link previous>"},{"step":2,"from":"1093389264","to":"1093393616","type":"load","field":"<java.util.LinkedList: java.util.LinkedList$Link voidLink>"},{"step":3,"from":"1093296144","to":"1093626504","type":"store","field":"<java.util.LinkedList$Link: java.lang.Object data>"},{"step":4,"from":"1093626480","to":"1093626504","type":"store","field":"<java.util.LinkedList$Link: java.util.LinkedList$Link previous>"},{"step":5,"from":"1093393616","to":"1093626504","type":"store","field":"<java.util.LinkedList$Link: java.util.LinkedList$Link next>"},{"step":6,"from":"1093389264","to":"1093393616","type":"load","field":"<java.util.LinkedList: java.util.LinkedList$Link voidLink>"},{"step":7,"from":"1093393616","to":"1093626504","type":"create","field":"<java.util.LinkedList$Link: java.util.LinkedList$Link previous>"},{"step":8,"from":"1093626504","to":"1093626480","type":"store","field":"<java.util.LinkedList$Link: java.util.LinkedList$Link next>"},{"step":9,"from":"1093389264","to":"1093389264.<java.util.LinkedList: int size>","type":"load","field":"<java.util.LinkedList: int size>"},{"step":10,"from":"sdaReg9","to":"1093389264","type":"store","field":"<java.util.LinkedList: int size>"},{"step":11,"from":"1093389264","to":"1093389264.<java.util.AbstractList: int modCount>","type":"load","field":"<java.util.AbstractList: int modCount>"},{"step":12,"from":"sdaReg10","to":"1093389264","type":"store","field":"<java.util.AbstractList: int modCount>"}],"parameters":[{"id":"1093389264","name":"this","klass":"java.util.LinkedList"},{"id":"1093296144","name":"arg#1","klass":"java.lang.Object"}],"returns":[{"id":"sdaReg11","name":"return","klass":"boolean"}],"colors":{"heapLocToColor":{"1093296144":[1],"sdaReg8":[2],"sdaReg9":[0],"sdaReg6":[2],"sdaReg7":[2],"sdaReg4":[0],"sdaReg5":[0],"1093389264":[0],"1093626504":[2],"sdaReg10":[0],"1093626480":[0],"sdaReg3":[1],"sdaReg2":[2],"1093389264.<java.util.AbstractList: int modCount>":[0],"1093389264.<java.util.LinkedList: int size>":[0],"sdaReg1":[1],"sdaReg0":[0],"1093393616":[0],"1093389264.<java.util.LinkedList: java.util.LinkedList$Link voidLink>":[0]},"colorToColor":{"0":[0, 2],"1":[2],"2":[0]},"colorToLabel":{"0":"this","1":"arg#1","3":"return"}}}

Generated Model
	arg#1->this

