Scanning method <java.io.ObjectInputStream: java.io.ObjectStreamClass readClassDesc()>

All seen event types: StoreArrayRecord, SimpleAssignmentRecord, MethodStartRecord, LoadInstanceRecord, IfRecord, StoreInstanceRecord, NewArrayRecord, BinaryOperationRecord, MethodCallRecord, MethodReturnRecord, SwitchRecord, ArrayLengthRecord, CastRecord, LoadArrayRecord, MethodEndRecord, 
Ignored event types: SwitchRecord, IfRecord, 

JSON Encoded Analysis Data (for visualization):{"heapEdges":[{"step":0,"from":"1093619504","to":"1093619504.<java.io.ObjectInputStream: boolean hasPushbackTC>","type":"load","field":"<java.io.ObjectInputStream: boolean hasPushbackTC>"},{"step":1,"from":"1093619504","to":"1093551856","type":"load","field":"<java.io.ObjectInputStream: java.io.DataInputStream input>"},{"step":2,"from":"1093551856","to":"1093721784","type":"load","field":"<java.io.FilterInputStream: java.io.InputStream in>"},{"step":3,"from":"1093721784","to":"1093721784.<java.io.PipedInputStream: boolean isConnected>","type":"load","field":"<java.io.PipedInputStream: boolean isConnected>"},{"step":4,"from":"1093721784","to":"1093721824","type":"load","field":"<java.io.PipedInputStream: byte[] buffer>"},{"step":5,"from":"1093721784","to":"1093475720","type":"create","field":"<java.io.PipedInputStream: java.lang.Thread lastReader>"},{"step":6,"from":"1093721784","to":"1093721784.<java.io.PipedInputStream: int in>","type":"load","field":"<java.io.PipedInputStream: int in>"},{"step":7,"from":"1093721784","to":"1093721824","type":"load","field":"<java.io.PipedInputStream: byte[] buffer>"},{"step":8,"from":"1093721784","to":"1093721784.<java.io.PipedInputStream: int out>","type":"load","field":"<java.io.PipedInputStream: int out>"},{"step":9,"from":"sdaReg5","to":"1093721784","type":"store","field":"<java.io.PipedInputStream: int out>"},{"step":10,"from":"1093721824","to":"1093721824.arrayIdx_int:5","type":"load","field":"arrayIdx_int:5"},{"step":11,"from":"1093721784","to":"1093721824","type":"load","field":"<java.io.PipedInputStream: byte[] buffer>"},{"step":12,"from":"1093721784","to":"1093721784.<java.io.PipedInputStream: int in>","type":"load","field":"<java.io.PipedInputStream: int in>"},{"step":13,"from":"sdaReg8","to":"1093619504","type":"store","field":"<java.io.ObjectInputStream: byte pushbackTC>"},{"step":14,"from":"1093619504","to":"1093551856","type":"load","field":"<java.io.ObjectInputStream: java.io.DataInputStream input>"},{"step":15,"from":"1093551856","to":"1093619504","type":"store","field":"<java.io.ObjectInputStream: java.io.InputStream primitiveData>"},{"step":16,"from":"1093619504","to":"1093619504.<java.io.ObjectInputStream: int descriptorHandle>","type":"load","field":"<java.io.ObjectInputStream: int descriptorHandle>"},{"step":17,"from":"1093619504","to":"1093619504.<java.io.ObjectInputStream: int nextHandle>","type":"load","field":"<java.io.ObjectInputStream: int nextHandle>"},{"step":18,"from":"sdaReg13","to":"1093619504","type":"store","field":"<java.io.ObjectInputStream: int nextHandle>"},{"step":19,"from":"1093619504.<java.io.ObjectInputStream: int nextHandle>","to":"1093619504","type":"store","field":"<java.io.ObjectInputStream: int descriptorHandle>"},{"step":20,"from":"1093619504","to":"1093283136","type":"model"},{"step":21,"from":"1093619504","to":"1093548816","type":"load","field":"<java.io.ObjectInputStream: java.util.ArrayList objectsRead>"},{"step":22,"from":"1093548816","to":"1093548816.<java.util.ArrayList: int size>","type":"load","field":"<java.util.ArrayList: int size>"},{"step":23,"from":"1093619504","to":"1093548816","type":"load","field":"<java.io.ObjectInputStream: java.util.ArrayList objectsRead>"},{"step":24,"from":"1093548816","to":"1083994088","type":"load","field":"<java.util.ArrayList: java.lang.Object[] array>"},{"step":25,"from":"1093548816","to":"1093548816.<java.util.ArrayList: int size>","type":"load","field":"<java.util.ArrayList: int size>"},{"step":26,"from":"1083994088","to":"1093700752","type":"model"},{"step":27,"from":"1093548816","to":"1093700752","type":"create","field":"<java.util.ArrayList: java.lang.Object[] array>"},{"step":28,"from":"1093700752","to":"1093283136","type":"create","field":"arrayIdx_int:0"},{"step":29,"from":"sdaReg25","to":"1093548816","type":"store","field":"<java.util.ArrayList: int size>"},{"step":30,"from":"1093548816","to":"1093548816.<java.util.AbstractList: int modCount>","type":"load","field":"<java.util.AbstractList: int modCount>"},{"step":31,"from":"sdaReg26","to":"1093548816","type":"store","field":"<java.util.AbstractList: int modCount>"},{"step":32,"from":"1093619504.<java.io.ObjectInputStream: int descriptorHandle>","to":"1093619504","type":"store","field":"<java.io.ObjectInputStream: int descriptorHandle>"},{"step":33,"from":"1093619504","to":"1093230200","type":"load","field":"<java.io.ObjectInputStream: java.io.InputStream emptyStream>"},{"step":34,"from":"1093230200","to":"1093619504","type":"store","field":"<java.io.ObjectInputStream: java.io.InputStream primitiveData>"},{"step":35,"from":"1093283136","to":"1093660336","type":"model"},{"step":36,"from":"1093283136","to":"1093660336","type":"model"},{"step":37,"from":"1093660336","to":"1093283136","type":"model"},{"step":38,"from":"1093283136","to":"1093660336","type":"model"},{"step":39,"from":"1093660336","to":"1093283136","type":"model"},{"step":40,"from":"1093283136","to":"sdaReg36","type":"model"},{"step":41,"from":"1093283136","to":"sdaReg37","type":"model"},{"step":42,"from":"1093283136","to":"sdaReg39","type":"model"},{"step":43,"from":"sdaReg39","to":"sdaReg40","type":"model"},{"step":44,"from":"sdaReg39","to":"sdaReg43","type":"model"},{"step":45,"from":"sdaReg39","to":"sdaReg44","type":"model"},{"step":46,"from":"sdaReg43","to":"sdaReg39","type":"model"},{"step":47,"from":"sdaReg43","to":"sdaReg44","type":"model"},{"step":48,"from":"1093283136","to":"sdaReg45","type":"model"},{"step":49,"from":"sdaReg45","to":"sdaReg46","type":"model"},{"step":50,"from":"sdaReg45","to":"sdaReg49","type":"model"},{"step":51,"from":"sdaReg45","to":"sdaReg50","type":"model"},{"step":52,"from":"sdaReg49","to":"sdaReg45","type":"model"},{"step":53,"from":"sdaReg49","to":"sdaReg50","type":"model"},{"step":54,"from":"1093283136","to":"1093308352","type":"model"},{"step":55,"from":"1093283136","to":"1093660336","type":"model"},{"step":56,"from":"1093283136","to":"1093660336","type":"model"},{"step":57,"from":"1093660336","to":"1093291256","type":"model"},{"step":58,"from":"1093619504","to":"1093230200","type":"load","field":"<java.io.ObjectInputStream: java.io.InputStream emptyStream>"},{"step":59,"from":"1093230200","to":"1093619504","type":"store","field":"<java.io.ObjectInputStream: java.io.InputStream primitiveData>"},{"step":60,"from":"1093619504","to":"1093619504.<java.io.ObjectInputStream: boolean mustResolve>","type":"load","field":"<java.io.ObjectInputStream: boolean mustResolve>"},{"step":61,"from":"1093619504","to":"sdaReg63","type":"create","field":"<java.io.ObjectInputStream: boolean mustResolve>"},{"step":62,"from":"1093619504","to":"1093619504.<java.io.ObjectInputStream: boolean hasPushbackTC>","type":"load","field":"<java.io.ObjectInputStream: boolean hasPushbackTC>"},{"step":63,"from":"1093619504","to":"1093551856","type":"load","field":"<java.io.ObjectInputStream: java.io.DataInputStream input>"},{"step":64,"from":"1093551856","to":"1093721784","type":"load","field":"<java.io.FilterInputStream: java.io.InputStream in>"},{"step":65,"from":"1093721784","to":"1093721784.<java.io.PipedInputStream: boolean isConnected>","type":"load","field":"<java.io.PipedInputStream: boolean isConnected>"},{"step":66,"from":"1093721784","to":"1093721824","type":"load","field":"<java.io.PipedInputStream: byte[] buffer>"},{"step":67,"from":"1093475720","to":"1093721784","type":"store","field":"<java.io.PipedInputStream: java.lang.Thread lastReader>"},{"step":68,"from":"1093721784","to":"1093721784.<java.io.PipedInputStream: int in>","type":"load","field":"<java.io.PipedInputStream: int in>"},{"step":69,"from":"1093721784","to":"1093721824","type":"load","field":"<java.io.PipedInputStream: byte[] buffer>"},{"step":70,"from":"sdaReg69","to":"1093721784","type":"store","field":"<java.io.PipedInputStream: int out>"},{"step":71,"from":"1093721824","to":"1093721824.arrayIdx_int:6","type":"load","field":"arrayIdx_int:6"},{"step":72,"from":"1093721784","to":"1093721824","type":"load","field":"<java.io.PipedInputStream: byte[] buffer>"},{"step":73,"from":"1093721784","to":"1093721784.<java.io.PipedInputStream: int in>","type":"load","field":"<java.io.PipedInputStream: int in>"},{"step":74,"from":"sdaReg72","to":"1093619504","type":"store","field":"<java.io.ObjectInputStream: byte pushbackTC>"},{"step":75,"from":"1093619504.<java.io.ObjectInputStream: boolean mustResolve>","to":"1093619504","type":"store","field":"<java.io.ObjectInputStream: boolean mustResolve>"},{"step":76,"from":"1093619504","to":"1093619504.<java.io.ObjectInputStream: boolean hasPushbackTC>","type":"load","field":"<java.io.ObjectInputStream: boolean hasPushbackTC>"},{"step":77,"from":"1093619504","to":"1093551856","type":"load","field":"<java.io.ObjectInputStream: java.io.DataInputStream input>"},{"step":78,"from":"1093551856","to":"1093721784","type":"load","field":"<java.io.FilterInputStream: java.io.InputStream in>"},{"step":79,"from":"1093721784","to":"1093721784.<java.io.PipedInputStream: boolean isConnected>","type":"load","field":"<java.io.PipedInputStream: boolean isConnected>"},{"step":80,"from":"1093721784","to":"1093721824","type":"load","field":"<java.io.PipedInputStream: byte[] buffer>"},{"step":81,"from":"1093475720","to":"1093721784","type":"store","field":"<java.io.PipedInputStream: java.lang.Thread lastReader>"},{"step":82,"from":"1093721784","to":"1093721784.<java.io.PipedInputStream: int in>","type":"load","field":"<java.io.PipedInputStream: int in>"},{"step":83,"from":"1093721784","to":"1093721824","type":"load","field":"<java.io.PipedInputStream: byte[] buffer>"},{"step":84,"from":"sdaReg80","to":"1093721784","type":"store","field":"<java.io.PipedInputStream: int out>"},{"step":85,"from":"1093721824","to":"1093721824.arrayIdx_int:7","type":"load","field":"arrayIdx_int:7"},{"step":86,"from":"1093721784","to":"1093721824","type":"load","field":"<java.io.PipedInputStream: byte[] buffer>"},{"step":87,"from":"1093721784","to":"1093721784.<java.io.PipedInputStream: int in>","type":"load","field":"<java.io.PipedInputStream: int in>"},{"step":88,"from":"sdaReg83","to":"1093619504","type":"store","field":"<java.io.ObjectInputStream: byte pushbackTC>"}],"parameters":[{"id":"1093619504","name":"this","klass":"java.io.ObjectInputStream"}],"returns":[{"id":"1093283136","name":"return","klass":"java.io.ObjectStreamClass"}],"colors":{"heapLocToColor":{"1093475720":[1],"sdaReg66":[0],"sdaReg67":[1],"sdaReg64":[0],"sdaReg65":[0],"1093619504.<java.io.ObjectInputStream: int nextHandle>":[0],"sdaReg62":[0],"sdaReg13":[0],"sdaReg72":[0],"sdaReg14":[0, 2],"sdaReg70":[0],"sdaReg12":[0],"sdaReg10":[0],"sdaReg19":[0],"sdaReg15":[0],"sdaReg16":[0, 2],"1093721824":[0],"1093230200":[0],"sdaReg77":[0],"sdaReg78":[1],"sdaReg74":[0],"sdaReg75":[0],"sdaReg76":[0],"sdaReg81":[0],"1093721784":[0],"sdaReg83":[0],"1083994088":[0],"1093619504.<java.io.ObjectInputStream: boolean mustResolve>":[0],"1093548816.<java.util.ArrayList: int size>":[0],"sdaReg86":[0, 2],"sdaReg88":[18],"sdaReg89":[0, 2],"1093619504":[0],"1093291256":[0, 17, 2, 4],"1093548816.<java.util.AbstractList: int modCount>":[0],"1093721824.arrayIdx_int:6":[0],"1093721824.arrayIdx_int:5":[0],"1093308352":[0, 16, 2],"1093721824.arrayIdx_int:7":[0],"1093619504.<java.io.ObjectInputStream: boolean hasPushbackTC>":[0],"1093700752":[3],"1093283136":[0, 2],"1093619504.<java.io.ObjectInputStream: java.util.ArrayList objectsRead>":[0],"sdaReg59":[0, 16, 2],"sdaReg58":[0, 17, 2, 4],"sdaReg57":[17, 0, 2, 4],"sdaReg56":[0, 2, 4],"sdaReg55":[0, 2, 4],"sdaReg54":[0, 16, 2],"sdaReg53":[0, 16, 2],"sdaReg52":[0, 16, 2],"sdaReg51":[15],"sdaReg50":[0, 2, 11, 14],"1093721784.<java.io.PipedInputStream: int in>":[0],"1093619504.<java.io.ObjectInputStream: int descriptorHandle>":[0],"sdaReg49":[0, 2, 11, 12],"1093660336":[0, 2, 4],"sdaReg48":[13],"sdaReg45":[0, 2, 11],"sdaReg44":[0, 2, 7, 10],"sdaReg47":[13],"sdaReg46":[0, 2, 11, 12],"sdaReg41":[9],"sdaReg40":[0, 2, 7, 8],"sdaReg43":[0, 2, 7, 8],"sdaReg42":[9],"1093619504.<java.io.ObjectInputStream: java.io.InputStream emptyStream>":[0],"sdaReg39":[0, 2, 7],"sdaReg38":[0, 2, 5, 6],"1093551856.<java.io.FilterInputStream: java.io.InputStream in>":[0],"sdaReg37":[0, 2, 6],"sdaReg32":[0],"sdaReg31":[0, 2, 4],"1093548816":[0],"sdaReg30":[0, 2, 4],"sdaReg36":[0, 2, 5],"sdaReg35":[0, 2],"sdaReg34":[0, 2, 4],"1093721784.<java.io.PipedInputStream: byte[] buffer>":[0],"sdaReg33":[0, 2],"sdaReg8":[0],"1093721784.<java.io.PipedInputStream: int out>":[0],"sdaReg6":[0],"1093619504.<java.io.ObjectInputStream: java.io.DataInputStream input>":[0],"sdaReg5":[0],"1093551856":[0],"1093721784.<java.io.PipedInputStream: boolean isConnected>":[0],"sdaReg26":[0],"sdaReg29":[0, 2],"sdaReg28":[0],"sdaReg3":[1],"sdaReg2":[0],"sdaReg21":[0, 2],"sdaReg1":[0],"sdaReg20":[0],"sdaReg0":[0],"sdaReg25":[0],"sdaReg24":[0]},"colorToColor":{"0":[0, 19, 2, 3, 7, 10, 11, 14],"1":[0],"2":[0, 19, 2, 3, 7, 10, 11, 14],"3":[0],"4":[0, 2],"7":[0, 2, 7, 10],"8":[0, 2, 7, 10],"11":[0, 2, 11, 14],"12":[0, 2, 11, 14]},"colorToLabel":{"0":"this","19":"return"}}}

Generated Model
	this->return

