Scanning method <java.io.PrintWriter: void print(java.lang.String)>

All seen event types: SimpleAssignmentRecord, ExitMonitorRecord, MethodStartRecord, LoadInstanceRecord, IfRecord, NewObjectRecord, StoreInstanceRecord, BinaryOperationRecord, MethodCallRecord, MethodReturnRecord, EnterMonitorRecord, ArrayLengthRecord, MethodEndRecord, 
Ignored event types: ExitMonitorRecord, EnterMonitorRecord, IfRecord, 

JSON Encoded Analysis Data (for visualization):{"heapEdges":[{"step":0,"from":"sdaReg1","to":"1093256664","type":"model"},{"step":1,"from":"1093648216","to":"1093648248","type":"load","field":"<java.io.Writer: java.lang.Object lock>"},{"step":2,"from":"1093648216","to":"1093648248","type":"load","field":"<java.io.PrintWriter: java.io.Writer out>"},{"step":3,"from":"1093648216","to":"1093648248","type":"load","field":"<java.io.PrintWriter: java.io.Writer out>"},{"step":4,"from":"1093648248","to":"1093593072","type":"load","field":"<java.io.Writer: java.lang.Object lock>"},{"step":5,"from":"1093648248","to":"1093656800","type":"load","field":"<java.io.OutputStreamWriter: java.nio.charset.CharsetEncoder encoder>"},{"step":6,"from":"1093667304","to":"sdaReg36","type":"create","field":"<java.nio.Buffer: int mark>"},{"step":7,"from":"1093667304","to":"sdaReg37","type":"create","field":"<java.nio.Buffer: int position>"},{"step":8,"from":"1093667304","to":"sdaReg34","type":"create","field":"<java.nio.Buffer: int _elementSizeShift>"},{"step":9,"from":"sdaReg28","to":"1093667304","type":"store","field":"<java.nio.Buffer: int limit>"},{"step":10,"from":"sdaReg28","to":"1093667304","type":"store","field":"<java.nio.Buffer: int capacity>"},{"step":11,"from":"1093667304","to":"1093256664","type":"create","field":"<java.nio.CharArrayBuffer: char[] backingArray>"},{"step":12,"from":"1093667304","to":"sdaReg31","type":"create","field":"<java.nio.CharArrayBuffer: int offset>"},{"step":13,"from":"1093667304","to":"sdaReg9","type":"create","field":"<java.nio.Buffer: int position>"},{"step":14,"from":"sdaReg44","to":"1093667304","type":"store","field":"<java.nio.Buffer: int limit>"},{"step":15,"from":"1093648248","to":"1093656800","type":"load","field":"<java.io.OutputStreamWriter: java.nio.charset.CharsetEncoder encoder>"},{"step":16,"from":"1093648248","to":"1093648280","type":"load","field":"<java.io.OutputStreamWriter: java.nio.ByteBuffer bytes>"},{"step":17,"from":"1093656800","to":"1093667304","type":"model"},{"step":18,"from":"1093656800","to":"1093648280","type":"model"},{"step":19,"from":"1093656800","to":"1084215096","type":"model"},{"step":20,"from":"1093667304","to":"1093656800","type":"model"},{"step":21,"from":"1093667304","to":"1093648280","type":"model"},{"step":22,"from":"1093667304","to":"1084215096","type":"model"},{"step":23,"from":"1093648280","to":"1093656800","type":"model"},{"step":24,"from":"1093648280","to":"1093667304","type":"model"},{"step":25,"from":"1093648280","to":"1084215096","type":"model"},{"step":26,"from":"1084215096","to":"1084215096.<java.nio.charset.CoderResult: int type>","type":"load","field":"<java.nio.charset.CoderResult: int type>"},{"step":27,"from":"1084215096","to":"1084215096.<java.nio.charset.CoderResult: int type>","type":"load","field":"<java.nio.charset.CoderResult: int type>"},{"step":28,"from":"1084215096","to":"1084215096.<java.nio.charset.CoderResult: int type>","type":"load","field":"<java.nio.charset.CoderResult: int type>"}],"parameters":[{"id":"1093648216","name":"this","klass":"java.io.PrintWriter"},{"id":"sdaReg0","name":"arg#1","klass":"string"}],"returns":[{"id":null,"name":"return","klass":null}],"colors":{"heapLocToColor":{"1093648216":[0],"sdaReg13":[0],"sdaReg39":[3],"sdaReg14":[1, 2],"1093648248.<java.io.OutputStreamWriter: java.nio.charset.CharsetEncoder encoder>":[0],"sdaReg38":[3],"sdaReg11":[1, 2],"sdaReg10":[0],"sdaReg32":[3],"1093593072":[0],"sdaReg30":[1, 2],"1084215096.<java.nio.charset.CoderResult: int type>":[0, 4],"1093667304":[0, 3],"sdaReg35":[3],"1093256664":[1, 2],"sdaReg51":[0, 4],"sdaReg33":[3],"sdaReg16":[0],"1093648280":[0],"sdaReg8":[1, 2],"1093656800":[0],"sdaReg7":[0],"sdaReg4":[0],"sdaReg5":[1, 2],"sdaReg27":[1, 2],"1093648216.<java.io.PrintWriter: java.io.Writer out>":[0],"sdaReg26":[3],"sdaReg29":[3],"sdaReg49":[0, 4],"sdaReg48":[0, 4],"1093648248":[0],"1084215096":[0, 4],"sdaReg45":[3],"sdaReg3":[1, 2],"sdaReg2":[0],"sdaReg47":[3],"sdaReg1":[1],"sdaReg46":[0],"sdaReg0":[1],"sdaReg20":[1, 2],"sdaReg41":[3],"sdaReg40":[3],"sdaReg43":[3],"sdaReg25":[1, 2],"sdaReg42":[3],"sdaReg24":[3]},"colorToColor":{"0":[0, 3, 4],"1":[3],"2":[3],"3":[0, 4]},"colorToLabel":{"0":"this","1":"arg#1","5":"return"}}}

Generated Model
	arg#1->this

