Scanning method <java.util.TreeMap$Node: java.util.TreeMap$Node first()>

All seen event types: SimpleAssignmentRecord, LoadInstanceRecord, IfRecord, 
Ignored event types: IfRecord, 

JSON Encoded Analysis Data (for visualization):{"heapEdges":[{"step":0,"from":"1095420264","to":"1093938576","type":"load","field":"<java.util.TreeMap$Node: java.util.TreeMap$Node left>"},{"step":1,"from":"1093938576","to":"1097993720","type":"load","field":"<java.util.TreeMap$Node: java.util.TreeMap$Node left>"},{"step":2,"from":"1097993720","to":"1095117736","type":"load","field":"<java.util.TreeMap$Node: java.util.TreeMap$Node left>"}],"parameters":[{"id":"1095420264","name":"this","klass":"java.util.TreeMap$Node"}],"returns":[{"id":"1095117736","name":"return","klass":"java.util.TreeMap$Node"}],"colors":{"heapLocToColor":{"1097993720":[0],"1095117736":[0],"1093938576":[0],"1095420264":[0]},"colorToColor":{"0":[1]},"colorToLabel":{"0":"this","1":"return"}}}

Generated Model
	this->return

