Scanning method <java.io.ObjectInputStream: java.io.ObjectStreamClass readNewClassDesc(boolean)>

All seen event types: StoreArrayRecord, SimpleAssignmentRecord, LoadInstanceRecord, MethodStartRecord, IfRecord, StoreInstanceRecord, NewObjectRecord, BinaryOperationRecord, SwitchRecord, MethodCallRecord, MethodReturnRecord, CastRecord, ArrayLengthRecord, LoadArrayRecord, MethodEndRecord, 
Ignored event types: SwitchRecord, IfRecord, 

JSON Encoded Analysis Data (for visualization):{"heapEdges":[{"step":0,"from":"1093467432","to":"1093497528","type":"load","field":"<java.io.ObjectInputStream: java.io.DataInputStream input>"},{"step":1,"from":"1093497528","to":"1093467432","type":"store","field":"<java.io.ObjectInputStream: java.io.InputStream primitiveData>"},{"step":2,"from":"1093467432","to":"1093467432.<java.io.ObjectInputStream: int descriptorHandle>","type":"load","field":"<java.io.ObjectInputStream: int descriptorHandle>"},{"step":3,"from":"1093467432","to":"1093467432.<java.io.ObjectInputStream: int nextHandle>","type":"load","field":"<java.io.ObjectInputStream: int nextHandle>"},{"step":4,"from":"sdaReg2","to":"1093467432","type":"store","field":"<java.io.ObjectInputStream: int nextHandle>"},{"step":5,"from":"1093467432.<java.io.ObjectInputStream: int nextHandle>","to":"1093467432","type":"store","field":"<java.io.ObjectInputStream: int descriptorHandle>"},{"step":6,"from":"1093467432","to":"1093438208","type":"model"},{"step":7,"from":"1093467432","to":"1093668752","type":"load","field":"<java.io.ObjectInputStream: java.util.ArrayList objectsRead>"},{"step":8,"from":"1093668752","to":"1093668752.<java.util.ArrayList: int size>","type":"load","field":"<java.util.ArrayList: int size>"},{"step":9,"from":"1093467432","to":"1093668752","type":"load","field":"<java.io.ObjectInputStream: java.util.ArrayList objectsRead>"},{"step":10,"from":"1093668752","to":"1093583760","type":"load","field":"<java.util.ArrayList: java.lang.Object[] array>"},{"step":11,"from":"1093668752","to":"1093668752.<java.util.ArrayList: int size>","type":"load","field":"<java.util.ArrayList: int size>"},{"step":12,"from":"1093583760","to":"1094521560","type":"load","field":"arrayIdx_int:0"},{"step":13,"from":"1093583760","to":"1093438208","type":"create","field":"arrayIdx_int:0"},{"step":14,"from":"1093467432.<java.io.ObjectInputStream: int descriptorHandle>","to":"1093467432","type":"store","field":"<java.io.ObjectInputStream: int descriptorHandle>"},{"step":15,"from":"1093467432","to":"1093666648","type":"load","field":"<java.io.ObjectInputStream: java.io.InputStream emptyStream>"},{"step":16,"from":"1093666648","to":"1093467432","type":"store","field":"<java.io.ObjectInputStream: java.io.InputStream primitiveData>"},{"step":17,"from":"1093438208","to":"1093316416","type":"model"},{"step":18,"from":"1093438208","to":"1093316416","type":"model"},{"step":19,"from":"1093316416","to":"1093438208","type":"model"},{"step":20,"from":"1093438208","to":"1093316416","type":"model"},{"step":21,"from":"1093316416","to":"1093438208","type":"model"},{"step":22,"from":"1093438208","to":"sdaReg19","type":"model"},{"step":23,"from":"1093438208","to":"sdaReg20","type":"model"},{"step":24,"from":"1093438208","to":"sdaReg22","type":"model"},{"step":25,"from":"sdaReg22","to":"sdaReg23","type":"model"},{"step":26,"from":"sdaReg22","to":"sdaReg26","type":"model"},{"step":27,"from":"sdaReg22","to":"sdaReg27","type":"model"},{"step":28,"from":"sdaReg26","to":"sdaReg22","type":"model"},{"step":29,"from":"sdaReg26","to":"sdaReg27","type":"model"},{"step":30,"from":"1093438208","to":"sdaReg28","type":"model"},{"step":31,"from":"sdaReg28","to":"sdaReg29","type":"model"},{"step":32,"from":"sdaReg28","to":"sdaReg32","type":"model"},{"step":33,"from":"sdaReg28","to":"sdaReg33","type":"model"},{"step":34,"from":"sdaReg32","to":"sdaReg28","type":"model"},{"step":35,"from":"sdaReg32","to":"sdaReg33","type":"model"},{"step":36,"from":"1093438208","to":"1093281424","type":"model"},{"step":37,"from":"1093438208","to":"1093316416","type":"model"},{"step":38,"from":"1093438208","to":"1093316416","type":"model"},{"step":39,"from":"1093316416","to":"1093277648","type":"model"},{"step":40,"from":"1093281424","to":"1093281448","type":"load","field":"arrayIdx_int:0"},{"step":41,"from":"1093281448","to":"1093281448.<java.io.ObjectStreamField: java.lang.String typeString>","type":"load","field":"<java.io.ObjectStreamField: java.lang.String typeString>"},{"step":42,"from":"1093281448","to":"1093281448.<java.io.ObjectStreamField: java.lang.String typeString>","type":"load","field":"<java.io.ObjectStreamField: java.lang.String typeString>"},{"step":43,"from":"1093281448","to":"1093281448.<java.io.ObjectStreamField: java.lang.String typeString>","type":"load","field":"<java.io.ObjectStreamField: java.lang.String typeString>"},{"step":44,"from":"1093281448.<java.io.ObjectStreamField: java.lang.String typeString>","to":"sdaReg48","type":"model"},{"step":45,"from":"sdaReg48","to":"sdaReg49","type":"model"},{"step":46,"from":"sdaReg48","to":"sdaReg52","type":"model"},{"step":47,"from":"sdaReg52","to":"1093277648","type":"model"},{"step":48,"from":"sdaReg52","to":"1083912376","type":"model"},{"step":49,"from":"1093277648","to":"sdaReg52","type":"model"},{"step":50,"from":"1093277648","to":"1083912376","type":"model"},{"step":51,"from":"1083912376","to":"1083999984","type":"model"},{"step":52,"from":"1093294072","to":"1083912376","type":"model"},{"step":53,"from":"1083912376","to":"1093294072","type":"model"},{"step":54,"from":"1083912376","to":"1093294072","type":"model"},{"step":55,"from":"1093281448","to":"1093294072","type":"create","field":"<java.io.ObjectStreamField: java.lang.Object type>"},{"step":56,"from":"1093467432","to":"1093666648","type":"load","field":"<java.io.ObjectInputStream: java.io.InputStream emptyStream>"},{"step":57,"from":"1093666648","to":"1093467432","type":"store","field":"<java.io.ObjectInputStream: java.io.InputStream primitiveData>"},{"step":58,"from":"1093467432","to":"1093467432.<java.io.ObjectInputStream: boolean mustResolve>","type":"load","field":"<java.io.ObjectInputStream: boolean mustResolve>"},{"step":59,"from":"1093467432","to":"sdaReg58","type":"create","field":"<java.io.ObjectInputStream: boolean mustResolve>"},{"step":60,"from":"1093467432","to":"1093467432.<java.io.ObjectInputStream: boolean hasPushbackTC>","type":"load","field":"<java.io.ObjectInputStream: boolean hasPushbackTC>"},{"step":61,"from":"1093467432","to":"1093497528","type":"load","field":"<java.io.ObjectInputStream: java.io.DataInputStream input>"},{"step":62,"from":"1093497528","to":"1093266320","type":"load","field":"<java.io.FilterInputStream: java.io.InputStream in>"},{"step":63,"from":"1093266320","to":"1093266320.<java.io.PipedInputStream: boolean isConnected>","type":"load","field":"<java.io.PipedInputStream: boolean isConnected>"},{"step":64,"from":"1093266320","to":"1093271696","type":"load","field":"<java.io.PipedInputStream: byte[] buffer>"},{"step":65,"from":"1093266320","to":"1093451856","type":"create","field":"<java.io.PipedInputStream: java.lang.Thread lastReader>"},{"step":66,"from":"1093266320","to":"1093266320.<java.io.PipedInputStream: int in>","type":"load","field":"<java.io.PipedInputStream: int in>"},{"step":67,"from":"1093266320","to":"1093271696","type":"load","field":"<java.io.PipedInputStream: byte[] buffer>"},{"step":68,"from":"1093266320","to":"1093266320.<java.io.PipedInputStream: int out>","type":"load","field":"<java.io.PipedInputStream: int out>"},{"step":69,"from":"sdaReg64","to":"1093266320","type":"store","field":"<java.io.PipedInputStream: int out>"},{"step":70,"from":"1093271696","to":"1093271696.arrayIdx_int:103","type":"load","field":"arrayIdx_int:103"},{"step":71,"from":"1093266320","to":"1093271696","type":"load","field":"<java.io.PipedInputStream: byte[] buffer>"},{"step":72,"from":"1093266320","to":"1093266320.<java.io.PipedInputStream: int in>","type":"load","field":"<java.io.PipedInputStream: int in>"},{"step":73,"from":"sdaReg67","to":"1093467432","type":"store","field":"<java.io.ObjectInputStream: byte pushbackTC>"},{"step":74,"from":"1093467432.<java.io.ObjectInputStream: boolean mustResolve>","to":"1093467432","type":"store","field":"<java.io.ObjectInputStream: boolean mustResolve>"},{"step":75,"from":"1093467432","to":"1093467432.<java.io.ObjectInputStream: boolean hasPushbackTC>","type":"load","field":"<java.io.ObjectInputStream: boolean hasPushbackTC>"},{"step":76,"from":"1093467432","to":"1093497528","type":"load","field":"<java.io.ObjectInputStream: java.io.DataInputStream input>"},{"step":77,"from":"1093497528","to":"1093266320","type":"load","field":"<java.io.FilterInputStream: java.io.InputStream in>"},{"step":78,"from":"1093266320","to":"1093266320.<java.io.PipedInputStream: boolean isConnected>","type":"load","field":"<java.io.PipedInputStream: boolean isConnected>"},{"step":79,"from":"1093266320","to":"1093271696","type":"load","field":"<java.io.PipedInputStream: byte[] buffer>"},{"step":80,"from":"1093451856","to":"1093266320","type":"store","field":"<java.io.PipedInputStream: java.lang.Thread lastReader>"},{"step":81,"from":"1093266320","to":"1093266320.<java.io.PipedInputStream: int in>","type":"load","field":"<java.io.PipedInputStream: int in>"},{"step":82,"from":"1093266320","to":"1093271696","type":"load","field":"<java.io.PipedInputStream: byte[] buffer>"},{"step":83,"from":"sdaReg75","to":"1093266320","type":"store","field":"<java.io.PipedInputStream: int out>"},{"step":84,"from":"1093271696","to":"1093271696.arrayIdx_int:104","type":"load","field":"arrayIdx_int:104"},{"step":85,"from":"1093266320","to":"1093271696","type":"load","field":"<java.io.PipedInputStream: byte[] buffer>"},{"step":86,"from":"1093266320","to":"1093266320.<java.io.PipedInputStream: int in>","type":"load","field":"<java.io.PipedInputStream: int in>"},{"step":87,"from":"sdaReg78","to":"1093467432","type":"store","field":"<java.io.ObjectInputStream: byte pushbackTC>"}],"parameters":[{"id":"1093467432","name":"this","klass":"java.io.ObjectInputStream"},{"id":"sdaReg0","name":"arg#1","klass":"boolean"}],"returns":[{"id":"1093438208","name":"return","klass":"java.io.ObjectStreamClass"}],"colors":{"heapLocToColor":{"sdaReg69":[0],"sdaReg67":[0],"1093277648":[0, 16, 2, 3],"sdaReg64":[0],"sdaReg65":[0],"sdaReg62":[25],"sdaReg13":[0, 2, 3],"sdaReg72":[0],"sdaReg14":[0, 2, 3],"sdaReg71":[0],"sdaReg11":[0],"sdaReg70":[0],"sdaReg12":[0, 2],"sdaReg10":[0, 2],"sdaReg19":[0, 2, 4],"1093467432.<java.io.ObjectInputStream: boolean mustResolve>":[0],"sdaReg17":[0, 2, 3],"sdaReg18":[0, 2],"sdaReg15":[0],"sdaReg16":[0, 2],"1093281448.<java.io.ObjectStreamField: java.lang.String typeString>":[0, 2, 15],"1093467432.<java.io.ObjectInputStream: int nextHandle>":[0],"sdaReg78":[0],"sdaReg73":[25],"sdaReg76":[0],"sdaReg81":[0, 2],"sdaReg83":[26],"1093497528.<java.io.FilterInputStream: java.io.InputStream in>":[0],"1093467432.<java.io.ObjectInputStream: int descriptorHandle>":[0],"1093266320.<java.io.PipedInputStream: byte[] buffer>":[0],"1093467432.<java.io.ObjectInputStream: java.io.DataInputStream input>":[0],"1093497528":[0],"1094521560":[0],"1093271696.arrayIdx_int:103":[0],"1093271696.arrayIdx_int:104":[0],"1093271696":[0],"sdaReg60":[0],"sdaReg61":[0],"1093294072":[24],"1093467432.<java.io.ObjectInputStream: java.util.ArrayList objectsRead>":[0],"1093266320.<java.io.PipedInputStream: boolean isConnected>":[0],"1093281448":[0, 2, 15],"sdaReg59":[0],"sdaReg57":[0],"sdaReg56":[24],"1093438208":[0, 2],"sdaReg54":[23, 22],"sdaReg53":[22],"sdaReg52":[0, 2, 18, 21, 15],"sdaReg51":[20],"sdaReg50":[20],"1093451856":[25],"1093266320":[0],"1093266320.<java.io.PipedInputStream: int in>":[0],"sdaReg49":[0, 2, 19, 18, 15],"sdaReg48":[0, 2, 18, 15],"sdaReg45":[0, 2, 15],"sdaReg47":[17],"1093666648":[0],"sdaReg46":[0, 16, 2, 3],"sdaReg41":[0, 16, 2, 3],"sdaReg40":[0, 16, 2, 3],"sdaReg42":[0, 2, 15],"1093467432.<java.io.ObjectInputStream: boolean hasPushbackTC>":[0],"1093281424":[0, 2, 15],"sdaReg39":[0, 2, 3],"sdaReg38":[0, 2, 3],"sdaReg37":[0, 2, 15],"1093266320.<java.io.PipedInputStream: int out>":[0],"sdaReg32":[0, 2, 10, 11],"sdaReg31":[12],"1083999984":[23, 22],"sdaReg30":[12],"sdaReg36":[0, 2, 15],"sdaReg35":[0, 2, 15],"sdaReg34":[14],"sdaReg33":[0, 2, 10, 13],"sdaReg8":[0],"sdaReg9":[0],"sdaReg4":[0],"1093668752.<java.util.ArrayList: int size>":[0],"sdaReg5":[0, 2],"1093583760":[0],"sdaReg27":[0, 2, 6, 9],"1093668752":[0],"sdaReg26":[0, 2, 6, 7],"sdaReg29":[0, 2, 10, 11],"sdaReg28":[0, 2, 10],"sdaReg3":[0, 2],"sdaReg2":[0],"1093467432":[0],"sdaReg21":[0, 2, 4, 5],"sdaReg1":[0],"1093467432.<java.io.ObjectInputStream: java.io.InputStream emptyStream>":[0],"sdaReg20":[0, 2, 5],"sdaReg0":[1],"1093316416":[0, 2, 3],"1083912376":[22, 24],"sdaReg23":[0, 2, 6, 7],"sdaReg22":[0, 2, 6],"sdaReg25":[8],"sdaReg24":[8]},"colorToColor":{"0":[0, 2, 3, 6, 9, 10, 13, 15, 16, 18, 21, 22, 27],"2":[0, 2, 3, 6, 9, 10, 13, 15, 16, 18, 21, 22, 27],"3":[0, 2, 18, 21, 22, 15],"6":[0, 2, 6, 9],"7":[0, 2, 6, 9],"10":[0, 2, 10, 13],"11":[0, 2, 10, 13],"15":[0, 16, 2, 3, 22],"16":[0, 2, 18, 21, 22, 15],"18":[0, 16, 2, 3, 22],"21":[0, 16, 2, 3, 22],"22":[24],"25":[0],"24":[0, 2, 24, 15]},"colorToLabel":{"0":"this","1":"arg#1","27":"return"}}}

Generated Model
	this->return

