Scanning method <android.os.Bundle: java.lang.String[] getStringArray(java.lang.String)>

All seen event types: BinaryOperationRecord, MethodReturnRecord, MethodCallRecord, CastRecord, ArrayLengthRecord, LoadInstanceRecord, MethodStartRecord, LoadArrayRecord, MethodEndRecord, IfRecord, 
Ignored event types: IfRecord, 

JSON Encoded Analysis Data (for visualization):{"heapEdges":[{"step":0,"from":"1093505624","to":"1093907728","type":"load","field":"<android.os.Bundle: java.util.Map mMap>"},{"step":1,"from":"1093907728","to":"1094000752","type":"load","field":"<java.util.HashMap: java.util.HashMap$HashMapEntry[] table>"},{"step":2,"from":"1094000752","to":"1094000792","type":"load","field":"arrayIdx_int:2"},{"step":3,"from":"1094000792","to":"1093516168","type":"load","field":"<java.util.HashMap$HashMapEntry: java.lang.Object key>"},{"step":4,"from":"1094000792","to":"1093973280","type":"load","field":"<java.util.HashMap$HashMapEntry: java.lang.Object value>"}],"parameters":[{"id":"1093505624","name":"this","klass":"android.os.Bundle"},{"id":"sdaReg0","name":"arg#1","klass":"string"}],"returns":[{"id":"1093973280","name":"return","klass":"java.lang.String[]"}],"colors":{"heapLocToColor":{"1093973280":[0],"1093516168":[0],"sdaReg8":[2],"sdaReg9":[2],"sdaReg6":[2],"sdaReg7":[2],"sdaReg4":[2],"sdaReg5":[2],"1094000752":[0],"1093505624":[0],"sdaReg14":[2],"sdaReg11":[2],"1094000792":[0],"sdaReg10":[2],"1093907728":[0],"sdaReg3":[2],"sdaReg2":[0],"sdaReg1":[0],"sdaReg0":[1],"sdaReg17":[0],"sdaReg15":[0],"sdaReg16":[0]},"colorToColor":{"0":[3]},"colorToLabel":{"0":"this","1":"arg#1","3":"return"}}}

Generated Model
	this->return

