Scanning method <java.util.TreeMap$MapIterator: boolean hasNext()>

All seen event types: SimpleAssignmentRecord, LoadInstanceRecord, IfRecord, 
Ignored event types: IfRecord, 

JSON Encoded Analysis Data (for visualization):{"heapEdges":[{"step":0,"from":"1099873088","to":"1099705112","type":"load","field":"<java.util.TreeMap$MapIterator: java.util.TreeMap$Node next>"}],"parameters":[{"id":"1099873088","name":"this","klass":"java.util.TreeMap$MapIterator"}],"returns":[{"id":"sdaReg0","name":"return","klass":"boolean"}],"colors":{"heapLocToColor":{"1099873088":[0],"1099705112":[0]},"colorToColor":{},"colorToLabel":{"0":"this","1":"return"}}}

Generated Model

