Scanning method <java.util.AbstractList$SimpleListIterator: boolean hasNext()>

All seen event types: BinaryOperationRecord, SimpleAssignmentRecord, MethodReturnRecord, MethodCallRecord, MethodStartRecord, LoadInstanceRecord, IfRecord, MethodEndRecord, 
Ignored event types: IfRecord, 

JSON Encoded Analysis Data (for visualization):{"heapEdges":[{"step":0,"from":"1096373376","to":"1096373376.<java.util.AbstractList$SimpleListIterator: int pos>","type":"load","field":"<java.util.AbstractList$SimpleListIterator: int pos>"},{"step":1,"from":"1096373376","to":"1093519824","type":"load","field":"<java.util.AbstractList$SimpleListIterator: java.util.AbstractList this$0>"},{"step":2,"from":"1093519824","to":"1093519824.<java.util.ArrayList: int size>","type":"load","field":"<java.util.ArrayList: int size>"}],"parameters":[{"id":"1096373376","name":"this","klass":"java.util.AbstractList$SimpleListIterator"}],"returns":[{"id":"sdaReg2","name":"return","klass":"boolean"}],"colors":{"heapLocToColor":{"1093519824":[0],"1096373376.<java.util.AbstractList$SimpleListIterator: int pos>":[0],"1096373376":[0],"1093519824.<java.util.ArrayList: int size>":[0],"sdaReg1":[0],"sdaReg0":[0]},"colorToColor":{},"colorToLabel":{"0":"this","1":"return"}}}

Generated Model

