Scanning method <java.io.DataInputStream: java.lang.String decodeUTF(int,java.io.DataInput)>

All seen event types: NewArrayRecord, SimpleAssignmentRecord, MethodReturnRecord, MethodCallRecord, MethodStartRecord, MethodEndRecord, IfRecord, NewObjectRecord, 
Ignored event types: IfRecord, 

JSON Encoded Analysis Data (for visualization):{"heapEdges":[{"step":0,"from":"1093231048","to":"1093299112","type":"model"},{"step":1,"from":"1093507600","to":"sdaReg6","type":"model"}],"parameters":[{"id":"sdaReg0","name":"arg#0","klass":"int"},{"id":"1093299112","name":"arg#1","klass":"java.io.DataInput"}],"returns":[{"id":"sdaReg6","name":"return","klass":"string"}],"colors":{"heapLocToColor":{"1093231048":[2],"1093299112":[1],"sdaReg6":[4],"1093507600":[3],"sdaReg2":[3],"sdaReg1":[2],"sdaReg0":[0]},"colorToColor":{"2":[1],"3":[4],"4":[5]},"colorToLabel":{"0":"arg#0","1":"arg#1","5":"return"}}}

Generated Model

