Scanning method <java.net.URLConnection: int getConnectTimeout()>

All seen event types: LoadInstanceRecord, 
Ignored event types: 

JSON Encoded Analysis Data (for visualization):{"heapEdges":[{"step":0,"from":"1093467408","to":"1093467408.<java.net.URLConnection: int connectTimeout>","type":"load","field":"<java.net.URLConnection: int connectTimeout>"}],"parameters":[{"id":"1093467408","name":"this","klass":"java.net.URLConnection"}],"returns":[{"id":"1093467408.<java.net.URLConnection: int connectTimeout>","name":"return","klass":"int"}],"colors":{"heapLocToColor":{"1093467408":[0],"1093467408.<java.net.URLConnection: int connectTimeout>":[0]},"colorToColor":{"0":[1]},"colorToLabel":{"0":"this","1":"return"}}}

Generated Model
	this->return

