Scanning method <java.util.TreeMap: void rebalance(java.util.TreeMap$Node,boolean)>

All seen event types: LoadStaticRecord, BinaryOperationRecord, SimpleAssignmentRecord, MethodReturnRecord, MethodCallRecord, MethodStartRecord, LoadInstanceRecord, MethodEndRecord, IfRecord, StoreInstanceRecord, 
Ignored event types: IfRecord, 

JSON Encoded Analysis Data (for visualization):{"heapEdges":[{"step":0,"from":"1095430504","to":"1094753824","type":"load","field":"<java.util.TreeMap$Node: java.util.TreeMap$Node right>"},{"step":1,"from":"1094753824","to":"1094753824.<java.util.TreeMap$Node: int height>","type":"load","field":"<java.util.TreeMap$Node: int height>"},{"step":2,"from":"static.<java.util.TreeMap: boolean $assertionsDisabled>","to":"static.<java.util.TreeMap: boolean $assertionsDisabled>","type":"load","field":"<java.util.TreeMap: boolean $assertionsDisabled>"},{"step":3,"from":"sdaReg3","to":"sdaReg4","type":"model"},{"step":4,"from":"sdaReg3","to":"sdaReg6","type":"model"},{"step":5,"from":"sdaReg4","to":"sdaReg3","type":"model"},{"step":6,"from":"sdaReg4","to":"sdaReg6","type":"model"},{"step":7,"from":"sdaReg7","to":"1095430504","type":"store","field":"<java.util.TreeMap$Node: int height>"},{"step":8,"from":"1095430504","to":"1093260488","type":"load","field":"<java.util.TreeMap$Node: java.util.TreeMap$Node parent>"},{"step":9,"from":"1093260488","to":"1095430504","type":"load","field":"<java.util.TreeMap$Node: java.util.TreeMap$Node right>"},{"step":10,"from":"1095430504","to":"1094753824","type":"load","field":"<java.util.TreeMap$Node: java.util.TreeMap$Node right>"},{"step":11,"from":"1094753824","to":"1094753824.<java.util.TreeMap$Node: int height>","type":"load","field":"<java.util.TreeMap$Node: int height>"},{"step":12,"from":"1093260488","to":"1095430504","type":"load","field":"<java.util.TreeMap$Node: java.util.TreeMap$Node right>"},{"step":13,"from":"1095430504","to":"1094753824","type":"load","field":"<java.util.TreeMap$Node: java.util.TreeMap$Node right>"},{"step":14,"from":"1093260488","to":"sdaReg17","type":"create","field":"<java.util.TreeMap$Node: java.util.TreeMap$Node parent>"},{"step":15,"from":"1095430504","to":"1093233072","type":"store","field":"<java.util.TreeMap: java.util.TreeMap$Node root>"},{"step":16,"from":"1093260488","to":"1095430504","type":"store","field":"<java.util.TreeMap$Node: java.util.TreeMap$Node left>"},{"step":17,"from":"1095430504","to":"1093260488","type":"store","field":"<java.util.TreeMap$Node: java.util.TreeMap$Node parent>"},{"step":18,"from":"sdaReg18","to":"sdaReg19","type":"model"},{"step":19,"from":"sdaReg18","to":"sdaReg20","type":"model"},{"step":20,"from":"sdaReg19","to":"sdaReg18","type":"model"},{"step":21,"from":"sdaReg19","to":"sdaReg20","type":"model"},{"step":22,"from":"sdaReg21","to":"1093260488","type":"store","field":"<java.util.TreeMap$Node: int height>"},{"step":23,"from":"1094753824","to":"1094753824.<java.util.TreeMap$Node: int height>","type":"load","field":"<java.util.TreeMap$Node: int height>"},{"step":24,"from":"1094753824.<java.util.TreeMap$Node: int height>","to":"sdaReg22","type":"model"},{"step":25,"from":"sdaReg23","to":"1095430504","type":"store","field":"<java.util.TreeMap$Node: int height>"}],"parameters":[{"id":"1093233072","name":"this","klass":"java.util.TreeMap"},{"id":"1095430504","name":"arg#1","klass":"java.util.TreeMap$Node"},{"id":"sdaReg0","name":"arg#2","klass":"boolean"}],"returns":[{"id":null,"name":"return","klass":null}],"colors":{"heapLocToColor":{"sdaReg8":[1],"sdaReg6":[4],"sdaReg7":[4],"sdaReg4":[1],"sdaReg5":[1],"1093233072":[0],"sdaReg13":[1],"1095430504":[1],"sdaReg14":[0],"sdaReg11":[1],"sdaReg12":[0],"1095430504.<java.util.TreeMap$Node: java.util.TreeMap$Node right>":[1],"1093260488.<java.util.TreeMap$Node: java.util.TreeMap$Node right>":[1],"1094753824":[1],"static.<java.util.TreeMap: boolean $assertionsDisabled>":[3],"sdaReg21":[5],"sdaReg20":[5],"sdaReg0":[2],"sdaReg23":[6],"sdaReg22":[6],"1094753824.<java.util.TreeMap$Node: int height>":[1],"sdaReg15":[1],"sdaReg16":[1],"1093260488":[1]},"colorToColor":{"1":[0, 1, 4, 6],"4":[1],"5":[1],"6":[1]},"colorToLabel":{"0":"this","1":"arg#1","2":"arg#2","3":"<java.util.TreeMap: boolean $assertionsDisabled>","7":"return"}}}

Generated Model
	arg#1->this

