Scanning method <java.util.TreeMap: void replaceInParent(java.util.TreeMap$Node,java.util.TreeMap$Node)>

All seen event types: LoadStaticRecord, LoadInstanceRecord, IfRecord, StoreInstanceRecord, 
Ignored event types: IfRecord, 

JSON Encoded Analysis Data (for visualization):{"heapEdges":[{"step":0,"from":"1095583056","to":"1095583016","type":"load","field":"<java.util.TreeMap$Node: java.util.TreeMap$Node parent>"},{"step":1,"from":"1095583056","to":"sdaReg0","type":"create","field":"<java.util.TreeMap$Node: java.util.TreeMap$Node parent>"},{"step":2,"from":"1095583016","to":"1095116944","type":"store","field":"<java.util.TreeMap$Node: java.util.TreeMap$Node parent>"},{"step":3,"from":"1095583016","to":"1096043560","type":"load","field":"<java.util.TreeMap$Node: java.util.TreeMap$Node left>"},{"step":4,"from":"static.<java.util.TreeMap: boolean $assertionsDisabled>","to":"static.<java.util.TreeMap: boolean $assertionsDisabled>","type":"load","field":"<java.util.TreeMap: boolean $assertionsDisabled>"},{"step":5,"from":"1095116944","to":"1095583016","type":"store","field":"<java.util.TreeMap$Node: java.util.TreeMap$Node right>"}],"parameters":[{"id":"1093233072","name":"this","klass":"java.util.TreeMap"},{"id":"1095583056","name":"arg#1","klass":"java.util.TreeMap$Node"},{"id":"1095116944","name":"arg#2","klass":"java.util.TreeMap$Node"}],"returns":[{"id":null,"name":"return","klass":null}],"colors":{"heapLocToColor":{"1095116944":[2],"1095583056":[1],"static.<java.util.TreeMap: boolean $assertionsDisabled>":[3],"1096043560":[1],"1093233072":[0],"1095583016":[1]},"colorToColor":{"1":[2],"2":[1]},"colorToLabel":{"0":"this","1":"arg#1","2":"arg#2","3":"<java.util.TreeMap: boolean $assertionsDisabled>","4":"return"}}}

Generated Model
	arg#2->arg#1
	arg#1->arg#2

