Scanning method <java.net.URLConnection: void checkNotConnected()>

All seen event types: LoadInstanceRecord, IfRecord, 
Ignored event types: IfRecord, 

JSON Encoded Analysis Data (for visualization):{"heapEdges":[{"step":0,"from":"1093704320","to":"1093704320.<java.net.URLConnection: boolean connected>","type":"load","field":"<java.net.URLConnection: boolean connected>"}],"parameters":[{"id":"1093704320","name":"this","klass":"java.net.URLConnection"}],"returns":[{"id":null,"name":"return","klass":null}],"colors":{"heapLocToColor":{"1093704320.<java.net.URLConnection: boolean connected>":[0],"1093704320":[0]},"colorToColor":{},"colorToLabel":{"0":"this","1":"return"}}}

Generated Model

