Scanning method <java.io.PrintWriter: void println()>

All seen event types: SimpleAssignmentRecord, ExitMonitorRecord, LoadInstanceRecord, MethodStartRecord, IfRecord, NewObjectRecord, StoreInstanceRecord, BinaryOperationRecord, MethodCallRecord, MethodReturnRecord, EnterMonitorRecord, ArrayLengthRecord, MethodEndRecord, 
Ignored event types: ExitMonitorRecord, EnterMonitorRecord, IfRecord, 

JSON Encoded Analysis Data (for visualization):{"heapEdges":[{"step":0,"from":"1093633552","to":"1093633584","type":"load","field":"<java.io.Writer: java.lang.Object lock>"},{"step":1,"from":"sdaReg3","to":"1093528112","type":"model"},{"step":2,"from":"1093633552","to":"1093633584","type":"load","field":"<java.io.Writer: java.lang.Object lock>"},{"step":3,"from":"1093633552","to":"1093633584","type":"load","field":"<java.io.PrintWriter: java.io.Writer out>"},{"step":4,"from":"1093633552","to":"1093633584","type":"load","field":"<java.io.PrintWriter: java.io.Writer out>"},{"step":5,"from":"1093633584","to":"1093633376","type":"load","field":"<java.io.Writer: java.lang.Object lock>"},{"step":6,"from":"1093633584","to":"1093642136","type":"load","field":"<java.io.OutputStreamWriter: java.nio.charset.CharsetEncoder encoder>"},{"step":7,"from":"1093481416","to":"sdaReg38","type":"create","field":"<java.nio.Buffer: int mark>"},{"step":8,"from":"1093481416","to":"sdaReg39","type":"create","field":"<java.nio.Buffer: int position>"},{"step":9,"from":"1093481416","to":"sdaReg36","type":"create","field":"<java.nio.Buffer: int _elementSizeShift>"},{"step":10,"from":"sdaReg30","to":"1093481416","type":"store","field":"<java.nio.Buffer: int limit>"},{"step":11,"from":"sdaReg30","to":"1093481416","type":"store","field":"<java.nio.Buffer: int capacity>"},{"step":12,"from":"1093481416","to":"1093528112","type":"create","field":"<java.nio.CharArrayBuffer: char[] backingArray>"},{"step":13,"from":"1093481416","to":"sdaReg33","type":"create","field":"<java.nio.CharArrayBuffer: int offset>"},{"step":14,"from":"1093481416","to":"sdaReg11","type":"create","field":"<java.nio.Buffer: int position>"},{"step":15,"from":"sdaReg46","to":"1093481416","type":"store","field":"<java.nio.Buffer: int limit>"},{"step":16,"from":"1093633584","to":"1093642136","type":"load","field":"<java.io.OutputStreamWriter: java.nio.charset.CharsetEncoder encoder>"},{"step":17,"from":"1093633584","to":"1093633616","type":"load","field":"<java.io.OutputStreamWriter: java.nio.ByteBuffer bytes>"},{"step":18,"from":"1093642136","to":"1093481416","type":"model"},{"step":19,"from":"1093642136","to":"1093633616","type":"model"},{"step":20,"from":"1093642136","to":"1084215096","type":"model"},{"step":21,"from":"1093481416","to":"1093642136","type":"model"},{"step":22,"from":"1093481416","to":"1093633616","type":"model"},{"step":23,"from":"1093481416","to":"1084215096","type":"model"},{"step":24,"from":"1093633616","to":"1093642136","type":"model"},{"step":25,"from":"1093633616","to":"1093481416","type":"model"},{"step":26,"from":"1093633616","to":"1084215096","type":"model"},{"step":27,"from":"1084215096","to":"1084215096.<java.nio.charset.CoderResult: int type>","type":"load","field":"<java.nio.charset.CoderResult: int type>"},{"step":28,"from":"1084215096","to":"1084215096.<java.nio.charset.CoderResult: int type>","type":"load","field":"<java.nio.charset.CoderResult: int type>"},{"step":29,"from":"1084215096","to":"1084215096.<java.nio.charset.CoderResult: int type>","type":"load","field":"<java.nio.charset.CoderResult: int type>"},{"step":30,"from":"1093633552","to":"1093633552.<java.io.PrintWriter: boolean autoFlush>","type":"load","field":"<java.io.PrintWriter: boolean autoFlush>"}],"parameters":[{"id":"1093633552","name":"this","klass":"java.io.PrintWriter"}],"returns":[{"id":null,"name":"return","klass":null}],"colors":{"heapLocToColor":{"1093633552.<java.io.PrintWriter: boolean autoFlush>":[0],"1093633552.<java.io.PrintWriter: java.io.Writer out>":[0],"1093642136":[0],"sdaReg13":[1, 2],"sdaReg14":[0],"sdaReg12":[0],"sdaReg10":[1, 2],"sdaReg18":[0],"sdaReg53":[0, 4],"sdaReg15":[0],"sdaReg16":[1, 2],"sdaReg51":[0, 4],"1093633584.<java.io.OutputStreamWriter: java.nio.charset.CharsetEncoder encoder>":[0],"sdaReg50":[0, 4],"1093481416":[0, 3],"1093633616":[0],"sdaReg49":[3],"sdaReg48":[0],"1084215096":[0, 4],"sdaReg45":[3],"sdaReg44":[3],"sdaReg47":[3],"sdaReg41":[3],"sdaReg40":[3],"sdaReg43":[3],"sdaReg42":[3],"sdaReg37":[3],"sdaReg32":[1, 2],"sdaReg31":[3],"1084215096.<java.nio.charset.CoderResult: int type>":[0, 4],"1093633552.<java.io.Writer: java.lang.Object lock>":[0],"sdaReg35":[3],"sdaReg34":[3],"1093633552":[0],"1093528112":[1, 2],"sdaReg9":[0],"sdaReg6":[0],"1093633376":[0],"sdaReg7":[1, 2],"sdaReg4":[0],"sdaReg5":[1, 2],"sdaReg27":[1, 2],"sdaReg26":[3],"sdaReg29":[1, 2],"sdaReg28":[3],"1093633584":[0],"sdaReg3":[1],"sdaReg2":[0],"sdaReg1":[1],"sdaReg22":[1, 2]},"colorToColor":{"0":[0, 3, 4],"1":[3],"2":[3],"3":[0, 4]},"colorToLabel":{"0":"this","5":"return"}}}

Generated Model

