Scanning method <android.os.Bundle: double getDouble(java.lang.String,double)>

All seen event types: BinaryOperationRecord, MethodReturnRecord, MethodCallRecord, CastRecord, ArrayLengthRecord, LoadInstanceRecord, MethodStartRecord, LoadArrayRecord, MethodEndRecord, IfRecord, 
Ignored event types: IfRecord, 

JSON Encoded Analysis Data (for visualization):{"heapEdges":[{"step":0,"from":"1094080952","to":"1094129792","type":"load","field":"<android.os.Bundle: java.util.Map mMap>"},{"step":1,"from":"1094129792","to":"1093452040","type":"load","field":"<java.util.HashMap: java.util.HashMap$HashMapEntry[] table>"},{"step":2,"from":"1093452040","to":"1093452080","type":"load","field":"arrayIdx_int:2"},{"step":3,"from":"1093452080","to":"1094149048","type":"load","field":"<java.util.HashMap$HashMapEntry: java.lang.Object key>"},{"step":4,"from":"1093452080","to":"1093452080.<java.util.HashMap$HashMapEntry: int hash>","type":"load","field":"<java.util.HashMap$HashMapEntry: int hash>"},{"step":5,"from":"1093452080","to":"1094062392","type":"load","field":"<java.util.HashMap$HashMapEntry: java.lang.Object value>"},{"step":6,"from":"1094062392","to":"sdaReg19","type":"model"}],"parameters":[{"id":"1094080952","name":"this","klass":"android.os.Bundle"},{"id":"sdaReg0","name":"arg#1","klass":"string"},{"id":"sdaReg1","name":"arg#2","klass":"double"}],"returns":[{"id":"sdaReg19","name":"return","klass":"double"}],"colors":{"heapLocToColor":{"1093452080.<java.util.HashMap$HashMapEntry: int hash>":[0],"sdaReg11":[3],"sdaReg12":[3],"sdaReg10":[3],"1093452080":[0],"sdaReg19":[0, 5],"sdaReg17":[0],"sdaReg18":[0],"sdaReg15":[3],"sdaReg16":[4],"sdaReg8":[3],"1093452040":[0],"sdaReg9":[3],"sdaReg6":[3],"sdaReg7":[3],"sdaReg4":[3],"sdaReg5":[3],"1094149048":[0],"1094129792":[0],"sdaReg3":[0],"sdaReg2":[0],"sdaReg1":[2],"1094062392":[0],"sdaReg0":[1],"1094080952":[0]},"colorToColor":{"0":[6],"5":[6]},"colorToLabel":{"0":"this","1":"arg#1","2":"arg#2","6":"return"}}}

Generated Model
	this->return

