Scanning method <java.io.ObjectInputStream: void verifyAndInit(java.io.ObjectStreamClass)>

All seen event types: BinaryOperationRecord, MethodReturnRecord, MethodCallRecord, MethodStartRecord, MethodEndRecord, IfRecord, 
Ignored event types: IfRecord, 

JSON Encoded Analysis Data (for visualization):{"heapEdges":[{"step":0,"from":"1093438208","to":"1093316416","type":"model"},{"step":1,"from":"1093316416","to":"1093438208","type":"model"},{"step":2,"from":"1093438208","to":"sdaReg2","type":"model"},{"step":3,"from":"1093438208","to":"sdaReg3","type":"model"},{"step":4,"from":"1093438208","to":"sdaReg5","type":"model"},{"step":5,"from":"sdaReg5","to":"sdaReg6","type":"model"},{"step":6,"from":"sdaReg5","to":"sdaReg9","type":"model"},{"step":7,"from":"sdaReg5","to":"sdaReg10","type":"model"},{"step":8,"from":"sdaReg9","to":"sdaReg5","type":"model"},{"step":9,"from":"sdaReg9","to":"sdaReg10","type":"model"},{"step":10,"from":"1093438208","to":"sdaReg11","type":"model"},{"step":11,"from":"sdaReg11","to":"sdaReg12","type":"model"},{"step":12,"from":"sdaReg11","to":"sdaReg15","type":"model"},{"step":13,"from":"sdaReg11","to":"sdaReg16","type":"model"},{"step":14,"from":"sdaReg15","to":"sdaReg11","type":"model"},{"step":15,"from":"sdaReg15","to":"sdaReg16","type":"model"}],"parameters":[{"id":"1093467432","name":"this","klass":"java.io.ObjectInputStream"},{"id":"1093438208","name":"arg#1","klass":"java.io.ObjectStreamClass"}],"returns":[{"id":null,"name":"return","klass":null}],"colors":{"heapLocToColor":{"sdaReg8":[7],"sdaReg9":[1, 5, 6],"sdaReg6":[1, 5, 6],"sdaReg7":[7],"sdaReg4":[1, 3, 4],"sdaReg5":[1, 5],"sdaReg13":[11],"sdaReg14":[11],"sdaReg11":[1, 9],"sdaReg12":[1, 9, 10],"sdaReg10":[1, 5, 8],"sdaReg3":[1, 4],"1093467432":[0],"sdaReg2":[1, 3],"sdaReg1":[1],"1093316416":[1, 2],"sdaReg0":[1, 2],"sdaReg17":[13],"1093438208":[1],"sdaReg15":[1, 9, 10],"sdaReg16":[1, 9, 12]},"colorToColor":{"1":[1, 5, 8, 9, 12],"2":[1],"5":[1, 5, 8],"6":[1, 5, 8],"9":[1, 9, 12],"10":[1, 9, 12]},"colorToLabel":{"0":"this","1":"arg#1","14":"return"}}}

Generated Model

