Scanning method <java.io.BufferedWriter: void close()>

All seen event types: SimpleAssignmentRecord, ExitMonitorRecord, MethodReturnRecord, MethodCallRecord, EnterMonitorRecord, MethodStartRecord, LoadInstanceRecord, MethodEndRecord, IfRecord, StoreInstanceRecord, 
Ignored event types: ExitMonitorRecord, EnterMonitorRecord, IfRecord, 

JSON Encoded Analysis Data (for visualization):{"heapEdges":[{"step":0,"from":"1093649360","to":"1093604872","type":"load","field":"<java.io.Writer: java.lang.Object lock>"},{"step":1,"from":"1093649360","to":"1093604872","type":"load","field":"<java.io.BufferedWriter: java.io.Writer out>"},{"step":2,"from":"1093649360","to":"1093649360.<java.io.BufferedWriter: int pos>","type":"load","field":"<java.io.BufferedWriter: int pos>"},{"step":3,"from":"1093649360","to":"sdaReg5","type":"create","field":"<java.io.BufferedWriter: int pos>"},{"step":4,"from":"1093649360","to":"sdaReg6","type":"create","field":"<java.io.BufferedWriter: char[] buf>"},{"step":5,"from":"1093649360","to":"1093604872","type":"load","field":"<java.io.BufferedWriter: java.io.Writer out>"},{"step":6,"from":"1093649360","to":"sdaReg7","type":"create","field":"<java.io.BufferedWriter: java.io.Writer out>"}],"parameters":[{"id":"1093649360","name":"this","klass":"java.io.BufferedWriter"}],"returns":[{"id":null,"name":"return","klass":null}],"colors":{"heapLocToColor":{"1093649360.<java.io.BufferedWriter: int pos>":[0],"1093649360.<java.io.BufferedWriter: java.io.Writer out>":[0],"sdaReg4":[0],"1093649360":[0],"sdaReg1":[0],"1093604872":[0]},"colorToColor":{},"colorToLabel":{"0":"this","1":"return"}}}

Generated Model

