Scanning method <java.util.HashMap$EntrySet: int size()>

All seen event types: LoadInstanceRecord, 
Ignored event types: 

JSON Encoded Analysis Data (for visualization):{"heapEdges":[{"step":0,"from":"1093322448","to":"1093228992","type":"load","field":"<java.util.HashMap$EntrySet: java.util.HashMap this$0>"},{"step":1,"from":"1093228992","to":"1093228992.<java.util.HashMap: int size>","type":"load","field":"<java.util.HashMap: int size>"}],"parameters":[{"id":"1093322448","name":"this","klass":"java.util.HashMap$EntrySet"}],"returns":[{"id":"1093228992.<java.util.HashMap: int size>","name":"return","klass":"int"}],"colors":{"heapLocToColor":{"1093322448":[0],"1093228992.<java.util.HashMap: int size>":[0],"1093228992":[0]},"colorToColor":{"0":[1]},"colorToLabel":{"0":"this","1":"return"}}}

Generated Model
	this->return

