Scanning method <java.io.CharArrayWriter: void expand(int)>

All seen event types: BinaryOperationRecord, ArrayLengthRecord, LoadInstanceRecord, IfRecord, 
Ignored event types: IfRecord, 

JSON Encoded Analysis Data (for visualization):{"heapEdges":[{"step":0,"from":"1093613880","to":"1093613880.<java.io.CharArrayWriter: int count>","type":"load","field":"<java.io.CharArrayWriter: int count>"},{"step":1,"from":"1093613880","to":"1093613904","type":"load","field":"<java.io.CharArrayWriter: char[] buf>"}],"parameters":[{"id":"1093613880","name":"this","klass":"java.io.CharArrayWriter"},{"id":"sdaReg0","name":"arg#1","klass":"int"}],"returns":[{"id":null,"name":"return","klass":null}],"colors":{"heapLocToColor":{"1093613904":[0],"1093613880.<java.io.CharArrayWriter: int count>":[0],"1093613880":[0],"sdaReg1":[0, 1],"sdaReg0":[1]},"colorToColor":{},"colorToLabel":{"0":"this","1":"arg#1","2":"return"}}}

Generated Model

