Scanning method <java.util.HashMap: java.util.HashMap$HashMapEntry[] doubleCapacity()>

All seen event types: StoreArrayRecord, SimpleAssignmentRecord, LoadInstanceRecord, MethodStartRecord, IfRecord, StoreInstanceRecord, NewArrayRecord, BinaryOperationRecord, MethodCallRecord, MethodReturnRecord, ArrayLengthRecord, CastRecord, LoadArrayRecord, MethodEndRecord, 
Ignored event types: IfRecord, 

JSON Encoded Analysis Data (for visualization):{"heapEdges":[{"step":0,"from":"1093265824","to":"1093265880","type":"load","field":"<java.util.HashMap: java.util.HashMap$HashMapEntry[] table>"},{"step":1,"from":"1093265824","to":"1093229128","type":"create","field":"<java.util.HashMap: java.util.HashMap$HashMapEntry[] table>"},{"step":2,"from":"sdaReg6","to":"1093265824","type":"store","field":"<java.util.HashMap: int threshold>"},{"step":3,"from":"1093265824","to":"1093265824.<java.util.HashMap: int size>","type":"load","field":"<java.util.HashMap: int size>"},{"step":4,"from":"1093265880","to":"1093278184","type":"load","field":"arrayIdx_int:0"},{"step":5,"from":"1093278184","to":"1093278184.<java.util.HashMap$HashMapEntry: int hash>","type":"load","field":"<java.util.HashMap$HashMapEntry: int hash>"},{"step":6,"from":"1093278184","to":"1093229128","type":"store","field":"arrayIdx_int:0"},{"step":7,"from":"1093265880","to":"1093229096","type":"load","field":"arrayIdx_int:1"},{"step":8,"from":"1093229096","to":"1093229096.<java.util.HashMap$HashMapEntry: int hash>","type":"load","field":"<java.util.HashMap$HashMapEntry: int hash>"},{"step":9,"from":"1093229096","to":"1093229128","type":"store","field":"arrayIdx_int:5"},{"step":10,"from":"1093229096","to":"1093229064","type":"load","field":"<java.util.HashMap$HashMapEntry: java.util.HashMap$HashMapEntry next>"},{"step":11,"from":"1093229064","to":"1093229064.<java.util.HashMap$HashMapEntry: int hash>","type":"load","field":"<java.util.HashMap$HashMapEntry: int hash>"},{"step":12,"from":"1093229064","to":"1093229128","type":"store","field":"arrayIdx_int:1"},{"step":13,"from":"1093229096","to":"sdaReg14","type":"create","field":"<java.util.HashMap$HashMapEntry: java.util.HashMap$HashMapEntry next>"},{"step":14,"from":"1093265880","to":"1093229032","type":"load","field":"arrayIdx_int:3"},{"step":15,"from":"1093229032","to":"1093229032.<java.util.HashMap$HashMapEntry: int hash>","type":"load","field":"<java.util.HashMap$HashMapEntry: int hash>"},{"step":16,"from":"1093229032","to":"1093229128","type":"store","field":"arrayIdx_int:3"}],"parameters":[{"id":"1093265824","name":"this","klass":"java.util.HashMap"}],"returns":[{"id":"1093229128","name":"return","klass":"java.util.HashMap$HashMapEntry[]"}],"colors":{"heapLocToColor":{"sdaReg9":[0],"1093229032.<java.util.HashMap$HashMapEntry: int hash>":[0],"sdaReg7":[1],"1093265880":[0],"1093229096.<java.util.HashMap$HashMapEntry: int hash>":[0],"1093229064":[0],"1093265824.<java.util.HashMap: int size>":[0],"1093229096":[0],"sdaReg13":[0],"1093278184":[0],"1093229032":[0],"1093229064.<java.util.HashMap$HashMapEntry: int hash>":[0],"sdaReg11":[0],"sdaReg12":[0],"sdaReg2":[0],"1093265824":[0],"1093229128":[1],"1093278184.<java.util.HashMap$HashMapEntry: int hash>":[0]},"colorToColor":{"0":[1],"1":[0, 2]},"colorToLabel":{"0":"this","2":"return"}}}

Generated Model
	this->return

