Scanning method <java.io.ObjectInputStream: java.lang.Object readObject(boolean)>

All seen event types: StoreArrayRecord, SimpleAssignmentRecord, LoadInstanceRecord, MethodStartRecord, IfRecord, InstanceOfRecord, NewObjectRecord, StoreInstanceRecord, NewArrayRecord, LoadStaticRecord, BinaryOperationRecord, SwitchRecord, MethodCallRecord, MethodReturnRecord, ArrayLengthRecord, CastRecord, LoadArrayRecord, MethodEndRecord, 
Ignored event types: SwitchRecord, IfRecord, 

JSON Encoded Analysis Data (for visualization):{"heapEdges":[{"step":0,"from":"1093467432","to":"1093666648","type":"load","field":"<java.io.ObjectInputStream: java.io.InputStream primitiveData>"},{"step":1,"from":"1093467432","to":"1093497528","type":"load","field":"<java.io.ObjectInputStream: java.io.DataInputStream input>"},{"step":2,"from":"1093467432","to":"1093467432.<java.io.ObjectInputStream: boolean subclassOverridingImplementation>","type":"load","field":"<java.io.ObjectInputStream: boolean subclassOverridingImplementation>"},{"step":3,"from":"1093467432","to":"1093467432.<java.io.ObjectInputStream: int nestedLevels>","type":"load","field":"<java.io.ObjectInputStream: int nestedLevels>"},{"step":4,"from":"sdaReg3","to":"1093467432","type":"store","field":"<java.io.ObjectInputStream: int nestedLevels>"},{"step":5,"from":"1093684992","to":"1085582952","type":"load","field":"arrayIdx_int:0"},{"step":6,"from":"1085582952","to":"1083999984","type":"model"},{"step":7,"from":"static.<java.io.ObjectInputStream: java.lang.ClassLoader bootstrapLoader>","to":"1083999984","type":"load","field":"<java.io.ObjectInputStream: java.lang.ClassLoader bootstrapLoader>"},{"step":8,"from":"1093684992","to":"1085582952","type":"load","field":"arrayIdx_int:1"},{"step":9,"from":"1085582952","to":"1083999984","type":"model"},{"step":10,"from":"static.<java.io.ObjectInputStream: java.lang.ClassLoader bootstrapLoader>","to":"1083999984","type":"load","field":"<java.io.ObjectInputStream: java.lang.ClassLoader bootstrapLoader>"},{"step":11,"from":"1093684992","to":"1085582952","type":"load","field":"arrayIdx_int:2"},{"step":12,"from":"1085582952","to":"1083999984","type":"model"},{"step":13,"from":"static.<java.io.ObjectInputStream: java.lang.ClassLoader bootstrapLoader>","to":"1083999984","type":"load","field":"<java.io.ObjectInputStream: java.lang.ClassLoader bootstrapLoader>"},{"step":14,"from":"1093684992","to":"1085582952","type":"load","field":"arrayIdx_int:3"},{"step":15,"from":"1085582952","to":"1083999984","type":"model"},{"step":16,"from":"static.<java.io.ObjectInputStream: java.lang.ClassLoader bootstrapLoader>","to":"1083999984","type":"load","field":"<java.io.ObjectInputStream: java.lang.ClassLoader bootstrapLoader>"},{"step":17,"from":"1093684992","to":"1085582952","type":"load","field":"arrayIdx_int:4"},{"step":18,"from":"1085582952","to":"1083999984","type":"model"},{"step":19,"from":"static.<java.io.ObjectInputStream: java.lang.ClassLoader bootstrapLoader>","to":"1083999984","type":"load","field":"<java.io.ObjectInputStream: java.lang.ClassLoader bootstrapLoader>"},{"step":20,"from":"1093684992","to":"1093326472","type":"load","field":"arrayIdx_int:5"},{"step":21,"from":"1093326472","to":"1093277648","type":"model"},{"step":22,"from":"static.<java.io.ObjectInputStream: java.lang.ClassLoader bootstrapLoader>","to":"1083999984","type":"load","field":"<java.io.ObjectInputStream: java.lang.ClassLoader bootstrapLoader>"},{"step":23,"from":"static.<java.io.ObjectInputStream: java.lang.ClassLoader systemLoader>","to":"1083999760","type":"load","field":"<java.io.ObjectInputStream: java.lang.ClassLoader systemLoader>"},{"step":24,"from":"1093467432","to":"1093277648","type":"create","field":"<java.io.ObjectInputStream: java.lang.ClassLoader callerClassLoader>"},{"step":25,"from":"1093467432","to":"1093666648","type":"load","field":"<java.io.ObjectInputStream: java.io.InputStream primitiveData>"},{"step":26,"from":"1093467432","to":"1093497528","type":"load","field":"<java.io.ObjectInputStream: java.io.DataInputStream input>"},{"step":27,"from":"1093467432","to":"1093666648","type":"load","field":"<java.io.ObjectInputStream: java.io.InputStream primitiveData>"},{"step":28,"from":"1093666648","to":"1093666648.<java.io.ByteArrayInputStream: int count>","type":"load","field":"<java.io.ByteArrayInputStream: int count>"},{"step":29,"from":"1093666648","to":"1093666648.<java.io.ByteArrayInputStream: int pos>","type":"load","field":"<java.io.ByteArrayInputStream: int pos>"},{"step":30,"from":"1093467432","to":"1093467432.<java.io.ObjectInputStream: boolean hasPushbackTC>","type":"load","field":"<java.io.ObjectInputStream: boolean hasPushbackTC>"},{"step":31,"from":"1093467432","to":"1093497528","type":"load","field":"<java.io.ObjectInputStream: java.io.DataInputStream input>"},{"step":32,"from":"1093497528","to":"1093266320","type":"load","field":"<java.io.FilterInputStream: java.io.InputStream in>"},{"step":33,"from":"1093266320","to":"1093266320.<java.io.PipedInputStream: boolean isConnected>","type":"load","field":"<java.io.PipedInputStream: boolean isConnected>"},{"step":34,"from":"1093266320","to":"1093271696","type":"load","field":"<java.io.PipedInputStream: byte[] buffer>"},{"step":35,"from":"1093266320","to":"1093451856","type":"create","field":"<java.io.PipedInputStream: java.lang.Thread lastReader>"},{"step":36,"from":"1093266320","to":"1093266320.<java.io.PipedInputStream: int in>","type":"load","field":"<java.io.PipedInputStream: int in>"},{"step":37,"from":"1093266320","to":"1093271696","type":"load","field":"<java.io.PipedInputStream: byte[] buffer>"},{"step":38,"from":"1093266320","to":"1093266320.<java.io.PipedInputStream: int out>","type":"load","field":"<java.io.PipedInputStream: int out>"},{"step":39,"from":"sdaReg24","to":"1093266320","type":"store","field":"<java.io.PipedInputStream: int out>"},{"step":40,"from":"1093271696","to":"1093271696.arrayIdx_int:0","type":"load","field":"arrayIdx_int:0"},{"step":41,"from":"1093266320","to":"1093271696","type":"load","field":"<java.io.PipedInputStream: byte[] buffer>"},{"step":42,"from":"1093266320","to":"1093266320.<java.io.PipedInputStream: int in>","type":"load","field":"<java.io.PipedInputStream: int in>"},{"step":43,"from":"sdaReg27","to":"1093467432","type":"store","field":"<java.io.ObjectInputStream: byte pushbackTC>"},{"step":44,"from":"1093467432","to":"sdaReg29","type":"create","field":"<java.io.ObjectInputStream: boolean hasPushbackTC>"},{"step":45,"from":"1093467432","to":"1093666648","type":"load","field":"<java.io.ObjectInputStream: java.io.InputStream primitiveData>"},{"step":46,"from":"1093666648","to":"1093666648.<java.io.ByteArrayInputStream: int count>","type":"load","field":"<java.io.ByteArrayInputStream: int count>"},{"step":47,"from":"1093666648","to":"1093666648.<java.io.ByteArrayInputStream: int pos>","type":"load","field":"<java.io.ByteArrayInputStream: int pos>"},{"step":48,"from":"1093467432","to":"sdaReg33","type":"create","field":"<java.io.ObjectInputStream: boolean hasPushbackTC>"},{"step":49,"from":"1093467432","to":"1093497528","type":"load","field":"<java.io.ObjectInputStream: java.io.DataInputStream input>"},{"step":50,"from":"1093497528","to":"1093266320","type":"load","field":"<java.io.FilterInputStream: java.io.InputStream in>"},{"step":51,"from":"1093266320","to":"1093266320.<java.io.PipedInputStream: boolean isConnected>","type":"load","field":"<java.io.PipedInputStream: boolean isConnected>"},{"step":52,"from":"1093266320","to":"1093271696","type":"load","field":"<java.io.PipedInputStream: byte[] buffer>"},{"step":53,"from":"1093451856","to":"1093266320","type":"store","field":"<java.io.PipedInputStream: java.lang.Thread lastReader>"},{"step":54,"from":"1093266320","to":"1093266320.<java.io.PipedInputStream: int in>","type":"load","field":"<java.io.PipedInputStream: int in>"},{"step":55,"from":"1093266320","to":"1093271696","type":"load","field":"<java.io.PipedInputStream: byte[] buffer>"},{"step":56,"from":"sdaReg42","to":"1093266320","type":"store","field":"<java.io.PipedInputStream: int out>"},{"step":57,"from":"1093271696","to":"1093271696.arrayIdx_int:1","type":"load","field":"arrayIdx_int:1"},{"step":58,"from":"1093266320","to":"1093271696","type":"load","field":"<java.io.PipedInputStream: byte[] buffer>"},{"step":59,"from":"1093266320","to":"1093266320.<java.io.PipedInputStream: int in>","type":"load","field":"<java.io.PipedInputStream: int in>"},{"step":60,"from":"sdaReg45","to":"1093467432","type":"store","field":"<java.io.ObjectInputStream: byte pushbackTC>"},{"step":61,"from":"1093467432","to":"1093497528","type":"load","field":"<java.io.ObjectInputStream: java.io.DataInputStream input>"},{"step":62,"from":"1093497528","to":"1093467432","type":"store","field":"<java.io.ObjectInputStream: java.io.InputStream primitiveData>"},{"step":63,"from":"1093467432","to":"1093467432.<java.io.ObjectInputStream: int descriptorHandle>","type":"load","field":"<java.io.ObjectInputStream: int descriptorHandle>"},{"step":64,"from":"1093467432","to":"1093467432.<java.io.ObjectInputStream: int nextHandle>","type":"load","field":"<java.io.ObjectInputStream: int nextHandle>"},{"step":65,"from":"sdaReg50","to":"1093467432","type":"store","field":"<java.io.ObjectInputStream: int nextHandle>"},{"step":66,"from":"1093467432.<java.io.ObjectInputStream: int nextHandle>","to":"1093467432","type":"store","field":"<java.io.ObjectInputStream: int descriptorHandle>"},{"step":67,"from":"1093467432","to":"1093438208","type":"model"},{"step":68,"from":"1093467432","to":"1093668752","type":"load","field":"<java.io.ObjectInputStream: java.util.ArrayList objectsRead>"},{"step":69,"from":"1093668752","to":"1093668752.<java.util.ArrayList: int size>","type":"load","field":"<java.util.ArrayList: int size>"},{"step":70,"from":"1093467432","to":"1093668752","type":"load","field":"<java.io.ObjectInputStream: java.util.ArrayList objectsRead>"},{"step":71,"from":"1093668752","to":"1093583760","type":"load","field":"<java.util.ArrayList: java.lang.Object[] array>"},{"step":72,"from":"1093668752","to":"1093668752.<java.util.ArrayList: int size>","type":"load","field":"<java.util.ArrayList: int size>"},{"step":73,"from":"1093583760","to":"1094521560","type":"load","field":"arrayIdx_int:0"},{"step":74,"from":"1093583760","to":"1093438208","type":"create","field":"arrayIdx_int:0"},{"step":75,"from":"1093467432.<java.io.ObjectInputStream: int descriptorHandle>","to":"1093467432","type":"store","field":"<java.io.ObjectInputStream: int descriptorHandle>"},{"step":76,"from":"1093467432","to":"1093666648","type":"load","field":"<java.io.ObjectInputStream: java.io.InputStream emptyStream>"},{"step":77,"from":"1093666648","to":"1093467432","type":"store","field":"<java.io.ObjectInputStream: java.io.InputStream primitiveData>"},{"step":78,"from":"1093438208","to":"1093316416","type":"model"},{"step":79,"from":"1093438208","to":"1093316416","type":"model"},{"step":80,"from":"1093316416","to":"1093438208","type":"model"},{"step":81,"from":"1093438208","to":"1093316416","type":"model"},{"step":82,"from":"1093316416","to":"1093438208","type":"model"},{"step":83,"from":"1093438208","to":"sdaReg67","type":"model"},{"step":84,"from":"1093438208","to":"sdaReg68","type":"model"},{"step":85,"from":"1093438208","to":"sdaReg70","type":"model"},{"step":86,"from":"sdaReg70","to":"sdaReg71","type":"model"},{"step":87,"from":"sdaReg70","to":"sdaReg74","type":"model"},{"step":88,"from":"sdaReg70","to":"sdaReg75","type":"model"},{"step":89,"from":"sdaReg74","to":"sdaReg70","type":"model"},{"step":90,"from":"sdaReg74","to":"sdaReg75","type":"model"},{"step":91,"from":"1093438208","to":"sdaReg76","type":"model"},{"step":92,"from":"sdaReg76","to":"sdaReg77","type":"model"},{"step":93,"from":"sdaReg76","to":"sdaReg80","type":"model"},{"step":94,"from":"sdaReg76","to":"sdaReg81","type":"model"},{"step":95,"from":"sdaReg80","to":"sdaReg76","type":"model"},{"step":96,"from":"sdaReg80","to":"sdaReg81","type":"model"},{"step":97,"from":"1093438208","to":"1093281424","type":"model"},{"step":98,"from":"1093438208","to":"1093316416","type":"model"},{"step":99,"from":"1093438208","to":"1093316416","type":"model"},{"step":100,"from":"1093316416","to":"1093277648","type":"model"},{"step":101,"from":"1093281424","to":"1093281448","type":"load","field":"arrayIdx_int:0"},{"step":102,"from":"1093281448","to":"1093281448.<java.io.ObjectStreamField: java.lang.String typeString>","type":"load","field":"<java.io.ObjectStreamField: java.lang.String typeString>"},{"step":103,"from":"1093281448","to":"1093281448.<java.io.ObjectStreamField: java.lang.String typeString>","type":"load","field":"<java.io.ObjectStreamField: java.lang.String typeString>"},{"step":104,"from":"1093281448","to":"1093281448.<java.io.ObjectStreamField: java.lang.String typeString>","type":"load","field":"<java.io.ObjectStreamField: java.lang.String typeString>"},{"step":105,"from":"1093281448.<java.io.ObjectStreamField: java.lang.String typeString>","to":"sdaReg96","type":"model"},{"step":106,"from":"sdaReg96","to":"sdaReg97","type":"model"},{"step":107,"from":"sdaReg96","to":"sdaReg100","type":"model"},{"step":108,"from":"sdaReg100","to":"1093277648","type":"model"},{"step":109,"from":"sdaReg100","to":"1083912376","type":"model"},{"step":110,"from":"1093277648","to":"sdaReg100","type":"model"},{"step":111,"from":"1093277648","to":"1083912376","type":"model"},{"step":112,"from":"1083912376","to":"1083999984","type":"model"},{"step":113,"from":"1093294072","to":"1083912376","type":"model"},{"step":114,"from":"1083912376","to":"1093294072","type":"model"},{"step":115,"from":"1083912376","to":"1093294072","type":"model"},{"step":116,"from":"1093281448","to":"1093294072","type":"create","field":"<java.io.ObjectStreamField: java.lang.Object type>"},{"step":117,"from":"1093467432","to":"1093666648","type":"load","field":"<java.io.ObjectInputStream: java.io.InputStream emptyStream>"},{"step":118,"from":"1093666648","to":"1093467432","type":"store","field":"<java.io.ObjectInputStream: java.io.InputStream primitiveData>"},{"step":119,"from":"1093467432","to":"1093467432.<java.io.ObjectInputStream: boolean mustResolve>","type":"load","field":"<java.io.ObjectInputStream: boolean mustResolve>"},{"step":120,"from":"1093467432","to":"sdaReg106","type":"create","field":"<java.io.ObjectInputStream: boolean mustResolve>"},{"step":121,"from":"1093467432","to":"1093497528","type":"load","field":"<java.io.ObjectInputStream: java.io.DataInputStream input>"},{"step":122,"from":"1093497528","to":"1093266320","type":"load","field":"<java.io.FilterInputStream: java.io.InputStream in>"},{"step":123,"from":"1093266320","to":"1093266320.<java.io.PipedInputStream: boolean isConnected>","type":"load","field":"<java.io.PipedInputStream: boolean isConnected>"},{"step":124,"from":"1093266320","to":"1093271696","type":"load","field":"<java.io.PipedInputStream: byte[] buffer>"},{"step":125,"from":"1093451856","to":"1093266320","type":"store","field":"<java.io.PipedInputStream: java.lang.Thread lastReader>"},{"step":126,"from":"1093266320","to":"1093266320.<java.io.PipedInputStream: int in>","type":"load","field":"<java.io.PipedInputStream: int in>"},{"step":127,"from":"1093266320","to":"1093271696","type":"load","field":"<java.io.PipedInputStream: byte[] buffer>"},{"step":128,"from":"sdaReg112","to":"1093266320","type":"store","field":"<java.io.PipedInputStream: int out>"},{"step":129,"from":"1093271696","to":"1093271696.arrayIdx_int:103","type":"load","field":"arrayIdx_int:103"},{"step":130,"from":"1093266320","to":"1093271696","type":"load","field":"<java.io.PipedInputStream: byte[] buffer>"},{"step":131,"from":"1093266320","to":"1093266320.<java.io.PipedInputStream: int in>","type":"load","field":"<java.io.PipedInputStream: int in>"},{"step":132,"from":"sdaReg115","to":"1093467432","type":"store","field":"<java.io.ObjectInputStream: byte pushbackTC>"},{"step":133,"from":"1093467432.<java.io.ObjectInputStream: boolean mustResolve>","to":"1093467432","type":"store","field":"<java.io.ObjectInputStream: boolean mustResolve>"},{"step":134,"from":"1093467432","to":"1093497528","type":"load","field":"<java.io.ObjectInputStream: java.io.DataInputStream input>"},{"step":135,"from":"1093497528","to":"1093266320","type":"load","field":"<java.io.FilterInputStream: java.io.InputStream in>"},{"step":136,"from":"1093266320","to":"1093266320.<java.io.PipedInputStream: boolean isConnected>","type":"load","field":"<java.io.PipedInputStream: boolean isConnected>"},{"step":137,"from":"1093266320","to":"1093271696","type":"load","field":"<java.io.PipedInputStream: byte[] buffer>"},{"step":138,"from":"1093451856","to":"1093266320","type":"store","field":"<java.io.PipedInputStream: java.lang.Thread lastReader>"},{"step":139,"from":"1093266320","to":"1093266320.<java.io.PipedInputStream: int in>","type":"load","field":"<java.io.PipedInputStream: int in>"},{"step":140,"from":"1093266320","to":"1093271696","type":"load","field":"<java.io.PipedInputStream: byte[] buffer>"},{"step":141,"from":"sdaReg123","to":"1093266320","type":"store","field":"<java.io.PipedInputStream: int out>"},{"step":142,"from":"1093271696","to":"1093271696.arrayIdx_int:104","type":"load","field":"arrayIdx_int:104"},{"step":143,"from":"1093266320","to":"1093271696","type":"load","field":"<java.io.PipedInputStream: byte[] buffer>"},{"step":144,"from":"1093266320","to":"1093266320.<java.io.PipedInputStream: int in>","type":"load","field":"<java.io.PipedInputStream: int in>"},{"step":145,"from":"sdaReg126","to":"1093467432","type":"store","field":"<java.io.ObjectInputStream: byte pushbackTC>"},{"step":146,"from":"sdaReg135","to":"1093467432","type":"store","field":"<java.io.ObjectInputStream: int nextHandle>"},{"step":147,"from":"1093438208","to":"1093316416","type":"model"},{"step":148,"from":"1093438208","to":"1093316416","type":"model"},{"step":149,"from":"1093438208","to":"1093445584","type":"model"},{"step":150,"from":"1093316416","to":"1093438208","type":"model"},{"step":151,"from":"1093316416","to":"1093445584","type":"model"},{"step":152,"from":"1093467432","to":"1093668752","type":"load","field":"<java.io.ObjectInputStream: java.util.ArrayList objectsRead>"},{"step":153,"from":"1093668752","to":"1093668752.<java.util.ArrayList: int size>","type":"load","field":"<java.util.ArrayList: int size>"},{"step":154,"from":"1093467432","to":"1093668752","type":"load","field":"<java.io.ObjectInputStream: java.util.ArrayList objectsRead>"},{"step":155,"from":"1093668752","to":"1093583760","type":"load","field":"<java.util.ArrayList: java.lang.Object[] array>"},{"step":156,"from":"1093668752","to":"1093668752.<java.util.ArrayList: int size>","type":"load","field":"<java.util.ArrayList: int size>"},{"step":157,"from":"1093583760","to":"1093445584","type":"create","field":"arrayIdx_int:2"},{"step":158,"from":"sdaReg148","to":"1093668752","type":"store","field":"<java.util.ArrayList: int size>"},{"step":159,"from":"1093668752","to":"1093668752.<java.util.AbstractList: int modCount>","type":"load","field":"<java.util.AbstractList: int modCount>"},{"step":160,"from":"sdaReg149","to":"1093668752","type":"store","field":"<java.util.AbstractList: int modCount>"},{"step":161,"from":"1093445584","to":"1093467432","type":"store","field":"<java.io.ObjectInputStream: java.lang.Object currentObject>"},{"step":162,"from":"1093438208","to":"1093467432","type":"store","field":"<java.io.ObjectInputStream: java.io.ObjectStreamClass currentClass>"},{"step":163,"from":"1093438208","to":"sdaReg151","type":"model"},{"step":164,"from":"1093438208","to":"1093496336","type":"model"},{"step":165,"from":"1093467432","to":"1093666680","type":"load","field":"<java.io.ObjectInputStream: java.util.HashMap cachedSuperclasses>"},{"step":166,"from":"1093445584","to":"1093316416","type":"model"},{"step":167,"from":"1093666680","to":"1093316416","type":"model"},{"step":168,"from":"1093666680","to":"0","type":"model"},{"step":169,"from":"1093316416","to":"1093666680","type":"model"},{"step":170,"from":"1093316416","to":"0","type":"model"},{"step":171,"from":"1093445584","to":"1093316416","type":"model"},{"step":172,"from":"static.<libcore.util.EmptyArray: java.lang.Object[] OBJECT>","to":"1083994088","type":"load","field":"<libcore.util.EmptyArray: java.lang.Object[] OBJECT>"},{"step":173,"from":"1083994088","to":"1094844520","type":"store","field":"<java.util.ArrayList: java.lang.Object[] array>"},{"step":174,"from":"1093316416","to":"1083910288","type":"model"},{"step":175,"from":"1094844520","to":"1093316416","type":"model"},{"step":176,"from":"1093316416","to":"1094844520","type":"model"},{"step":177,"from":"1083910288","to":"0","type":"model"},{"step":178,"from":"1093467432","to":"1093666680","type":"load","field":"<java.io.ObjectInputStream: java.util.HashMap cachedSuperclasses>"},{"step":179,"from":"1093666680","to":"1093316416","type":"model"},{"step":180,"from":"1093666680","to":"1094844520","type":"model"},{"step":181,"from":"1093316416","to":"1093666680","type":"model"},{"step":182,"from":"1093316416","to":"1094844520","type":"model"},{"step":183,"from":"1094844520","to":"1093666680","type":"model"},{"step":184,"from":"1094844520","to":"1093316416","type":"model"},{"step":185,"from":"1094844520","to":"1094844520.<java.util.ArrayList: int size>","type":"load","field":"<java.util.ArrayList: int size>"},{"step":186,"from":"1094844520","to":"1094844520.<java.util.ArrayList: int size>","type":"load","field":"<java.util.ArrayList: int size>"},{"step":187,"from":"1094511216","to":"1093316416","type":"load","field":"arrayIdx_int:0"},{"step":188,"from":"1093496336","to":"1093496336.<java.util.ArrayList: int size>","type":"load","field":"<java.util.ArrayList: int size>"},{"step":189,"from":"1093496336","to":"1093496336.<java.util.ArrayList: int size>","type":"load","field":"<java.util.ArrayList: int size>"},{"step":190,"from":"1093496336","to":"1093496360","type":"load","field":"<java.util.ArrayList: java.lang.Object[] array>"},{"step":191,"from":"1093496360","to":"1093438208","type":"load","field":"arrayIdx_int:0"},{"step":192,"from":"1093438208","to":"1093316416","type":"model"},{"step":193,"from":"1093316416","to":"sdaReg192","type":"model"},{"step":194,"from":"1093438208","to":"sdaReg193","type":"model"},{"step":195,"from":"1093316416","to":"sdaReg195","type":"model"},{"step":196,"from":"1093438208","to":"sdaReg196","type":"model"},{"step":197,"from":"1093496336","to":"1093496336.<java.util.ArrayList: int size>","type":"load","field":"<java.util.ArrayList: int size>"},{"step":198,"from":"1093496336","to":"1093496360","type":"load","field":"<java.util.ArrayList: java.lang.Object[] array>"},{"step":199,"from":"1093496360","to":"1093438208","type":"load","field":"arrayIdx_int:0"},{"step":200,"from":"1093445584","to":"1093467432","type":"store","field":"<java.io.ObjectInputStream: java.lang.Object currentObject>"},{"step":201,"from":"1093438208","to":"1093467432","type":"store","field":"<java.io.ObjectInputStream: java.io.ObjectStreamClass currentClass>"},{"step":202,"from":"1093438208","to":"sdaReg205","type":"model"},{"step":203,"from":"1093438208","to":"1093316416","type":"model"},{"step":204,"from":"1093438208","to":"0","type":"model"},{"step":205,"from":"1093438208","to":"1093281424","type":"model"},{"step":206,"from":"1093438208","to":"1093316416","type":"model"},{"step":207,"from":"1093281424","to":"1093281448","type":"load","field":"arrayIdx_int:0"},{"step":208,"from":"1093438208","to":"1093281448","type":"model"},{"step":209,"from":"1093438208","to":"1095754920","type":"model"},{"step":210,"from":"1093281448","to":"1093438208","type":"model"},{"step":211,"from":"1093281448","to":"1095754920","type":"model"},{"step":212,"from":"1093294072","to":"1083912376","type":"model"},{"step":213,"from":"static.<java.lang.Byte: java.lang.Class TYPE>","to":"1083909112","type":"load","field":"<java.lang.Byte: java.lang.Class TYPE>"},{"step":214,"from":"static.<java.lang.Character: java.lang.Class TYPE>","to":"1083909448","type":"load","field":"<java.lang.Character: java.lang.Class TYPE>"},{"step":215,"from":"static.<java.lang.Double: java.lang.Class TYPE>","to":"1083910120","type":"load","field":"<java.lang.Double: java.lang.Class TYPE>"},{"step":216,"from":"static.<java.lang.Float: java.lang.Class TYPE>","to":"1083909952","type":"load","field":"<java.lang.Float: java.lang.Class TYPE>"},{"step":217,"from":"static.<java.lang.Integer: java.lang.Class TYPE>","to":"1083909616","type":"load","field":"<java.lang.Integer: java.lang.Class TYPE>"},{"step":218,"from":"static.<java.lang.Long: java.lang.Class TYPE>","to":"1083909784","type":"load","field":"<java.lang.Long: java.lang.Class TYPE>"},{"step":219,"from":"static.<java.lang.Short: java.lang.Class TYPE>","to":"1083909280","type":"load","field":"<java.lang.Short: java.lang.Class TYPE>"},{"step":220,"from":"static.<java.lang.Boolean: java.lang.Class TYPE>","to":"1083908944","type":"load","field":"<java.lang.Boolean: java.lang.Class TYPE>"},{"step":221,"from":"1093281448","to":"1093281448.<java.io.ObjectStreamField: boolean unshared>","type":"load","field":"<java.io.ObjectStreamField: boolean unshared>"},{"step":222,"from":"1093467432","to":"1093497528","type":"load","field":"<java.io.ObjectInputStream: java.io.DataInputStream input>"},{"step":223,"from":"1093467432","to":"1093467432.<java.io.ObjectInputStream: boolean subclassOverridingImplementation>","type":"load","field":"<java.io.ObjectInputStream: boolean subclassOverridingImplementation>"},{"step":224,"from":"sdaReg235","to":"1093467432","type":"store","field":"<java.io.ObjectInputStream: int nestedLevels>"},{"step":225,"from":"1093467432","to":"1093497528","type":"load","field":"<java.io.ObjectInputStream: java.io.DataInputStream input>"},{"step":226,"from":"1093666648","to":"1093666648.<java.io.ByteArrayInputStream: int count>","type":"load","field":"<java.io.ByteArrayInputStream: int count>"},{"step":227,"from":"1093666648","to":"1093666648.<java.io.ByteArrayInputStream: int pos>","type":"load","field":"<java.io.ByteArrayInputStream: int pos>"},{"step":228,"from":"1093467432","to":"1093497528","type":"load","field":"<java.io.ObjectInputStream: java.io.DataInputStream input>"},{"step":229,"from":"1093497528","to":"1093266320","type":"load","field":"<java.io.FilterInputStream: java.io.InputStream in>"},{"step":230,"from":"1093266320","to":"1093266320.<java.io.PipedInputStream: boolean isConnected>","type":"load","field":"<java.io.PipedInputStream: boolean isConnected>"},{"step":231,"from":"1093266320","to":"1093271696","type":"load","field":"<java.io.PipedInputStream: byte[] buffer>"},{"step":232,"from":"1093451856","to":"1093266320","type":"store","field":"<java.io.PipedInputStream: java.lang.Thread lastReader>"},{"step":233,"from":"1093266320","to":"1093266320.<java.io.PipedInputStream: int in>","type":"load","field":"<java.io.PipedInputStream: int in>"},{"step":234,"from":"1093266320","to":"1093271696","type":"load","field":"<java.io.PipedInputStream: byte[] buffer>"},{"step":235,"from":"sdaReg245","to":"1093266320","type":"store","field":"<java.io.PipedInputStream: int out>"},{"step":236,"from":"1093271696","to":"1093271696.arrayIdx_int:105","type":"load","field":"arrayIdx_int:105"},{"step":237,"from":"1093266320","to":"1093271696","type":"load","field":"<java.io.PipedInputStream: byte[] buffer>"},{"step":238,"from":"1093266320","to":"1093266320.<java.io.PipedInputStream: int in>","type":"load","field":"<java.io.PipedInputStream: int in>"},{"step":239,"from":"sdaReg248","to":"1093467432","type":"store","field":"<java.io.ObjectInputStream: byte pushbackTC>"},{"step":240,"from":"1093467432","to":"sdaReg250","type":"create","field":"<java.io.ObjectInputStream: boolean hasPushbackTC>"},{"step":241,"from":"1093666648","to":"1093666648.<java.io.ByteArrayInputStream: int count>","type":"load","field":"<java.io.ByteArrayInputStream: int count>"},{"step":242,"from":"1093666648","to":"1093666648.<java.io.ByteArrayInputStream: int pos>","type":"load","field":"<java.io.ByteArrayInputStream: int pos>"},{"step":243,"from":"1093467432","to":"sdaReg254","type":"create","field":"<java.io.ObjectInputStream: boolean hasPushbackTC>"},{"step":244,"from":"1093467432","to":"1093497528","type":"load","field":"<java.io.ObjectInputStream: java.io.DataInputStream input>"},{"step":245,"from":"1093497528","to":"1093266320","type":"load","field":"<java.io.FilterInputStream: java.io.InputStream in>"},{"step":246,"from":"1093497528","to":"1093666736","type":"load","field":"<java.io.DataInputStream: byte[] scratch>"},{"step":247,"from":"1093266320","to":"1093666736","type":"model"},{"step":248,"from":"1093497528","to":"1093666736","type":"load","field":"<java.io.DataInputStream: byte[] scratch>"},{"step":249,"from":"static.<java.nio.ByteOrder: java.nio.ByteOrder BIG_ENDIAN>","to":"1084339448","type":"load","field":"<java.nio.ByteOrder: java.nio.ByteOrder BIG_ENDIAN>"},{"step":250,"from":"1093666736","to":"sdaReg260","type":"model"},{"step":251,"from":"1093497528","to":"1093266320","type":"load","field":"<java.io.FilterInputStream: java.io.InputStream in>"},{"step":252,"from":"1093266320","to":"1095920608","type":"model"},{"step":253,"from":"1095920608","to":"1095920608.arrayIdx_int:0","type":"load","field":"arrayIdx_int:0"},{"step":254,"from":"sdaReg274","to":"1095971360","type":"store","field":"arrayIdx_int:0"},{"step":255,"from":"1095920608","to":"1095920608.arrayIdx_int:1","type":"load","field":"arrayIdx_int:1"},{"step":256,"from":"sdaReg274","to":"1095971360","type":"store","field":"arrayIdx_int:1"},{"step":257,"from":"1095920608","to":"1095920608.arrayIdx_int:2","type":"load","field":"arrayIdx_int:2"},{"step":258,"from":"sdaReg274","to":"1095971360","type":"store","field":"arrayIdx_int:2"},{"step":259,"from":"1095920608","to":"1095920608.arrayIdx_int:3","type":"load","field":"arrayIdx_int:3"},{"step":260,"from":"sdaReg274","to":"1095971360","type":"store","field":"arrayIdx_int:3"},{"step":261,"from":"1095920608","to":"1095920608.arrayIdx_int:4","type":"load","field":"arrayIdx_int:4"},{"step":262,"from":"sdaReg274","to":"1095971360","type":"store","field":"arrayIdx_int:4"},{"step":263,"from":"1095920608","to":"1095920608.arrayIdx_int:5","type":"load","field":"arrayIdx_int:5"},{"step":264,"from":"sdaReg274","to":"1095971360","type":"store","field":"arrayIdx_int:5"},{"step":265,"from":"1095920608","to":"1095920608.arrayIdx_int:6","type":"load","field":"arrayIdx_int:6"},{"step":266,"from":"sdaReg274","to":"1095971360","type":"store","field":"arrayIdx_int:6"},{"step":267,"from":"1095920608","to":"1095920608.arrayIdx_int:7","type":"load","field":"arrayIdx_int:7"},{"step":268,"from":"sdaReg274","to":"1095971360","type":"store","field":"arrayIdx_int:7"},{"step":269,"from":"1095920608","to":"1095920608.arrayIdx_int:8","type":"load","field":"arrayIdx_int:8"},{"step":270,"from":"sdaReg274","to":"1095971360","type":"store","field":"arrayIdx_int:8"},{"step":271,"from":"1095920608","to":"1095920608.arrayIdx_int:9","type":"load","field":"arrayIdx_int:9"},{"step":272,"from":"sdaReg274","to":"1095971360","type":"store","field":"arrayIdx_int:9"},{"step":273,"from":"1095920608","to":"1095920608.arrayIdx_int:10","type":"load","field":"arrayIdx_int:10"},{"step":274,"from":"sdaReg274","to":"1095971360","type":"store","field":"arrayIdx_int:10"},{"step":275,"from":"1095971360","to":"sdaReg275","type":"model"},{"step":276,"from":"1093467432","to":"1093467432.<java.io.ObjectInputStream: boolean enableResolve>","type":"load","field":"<java.io.ObjectInputStream: boolean enableResolve>"},{"step":277,"from":"sdaReg278","to":"1093467432","type":"store","field":"<java.io.ObjectInputStream: int nextHandle>"},{"step":278,"from":"1093467432","to":"1093668752","type":"load","field":"<java.io.ObjectInputStream: java.util.ArrayList objectsRead>"},{"step":279,"from":"1093467432","to":"1093668752","type":"load","field":"<java.io.ObjectInputStream: java.util.ArrayList objectsRead>"},{"step":280,"from":"1093668752","to":"1093583760","type":"load","field":"<java.util.ArrayList: java.lang.Object[] array>"},{"step":281,"from":"1095991696","to":"1093583760","type":"store","field":"arrayIdx_int:3"},{"step":282,"from":"sdaReg288","to":"1093668752","type":"store","field":"<java.util.ArrayList: int size>"},{"step":283,"from":"sdaReg289","to":"1093668752","type":"store","field":"<java.util.AbstractList: int modCount>"},{"step":284,"from":"sdaReg293","to":"1093467432","type":"store","field":"<java.io.ObjectInputStream: int nestedLevels>"},{"step":285,"from":"1093281448","to":"1093281448.<java.io.ObjectStreamField: java.lang.String name>","type":"load","field":"<java.io.ObjectStreamField: java.lang.String name>"},{"step":286,"from":"1093438208","to":"1093281448.<java.io.ObjectStreamField: java.lang.String name>","type":"model"},{"step":287,"from":"1093438208","to":"1093281448","type":"model"},{"step":288,"from":"1093281448.<java.io.ObjectStreamField: java.lang.String name>","to":"1093438208","type":"model"},{"step":289,"from":"1093281448.<java.io.ObjectStreamField: java.lang.String name>","to":"1093281448","type":"model"},{"step":290,"from":"1093294072","to":"1083912376","type":"model"},{"step":291,"from":"1095991696","to":"1083912376","type":"model"},{"step":292,"from":"1083912376","to":"sdaReg306","type":"model"},{"step":293,"from":"1083912376","to":"sdaReg306","type":"model"},{"step":294,"from":"1095754920","to":"1093445584","type":"model"},{"step":295,"from":"1095754920","to":"1095991696","type":"model"},{"step":296,"from":"1093445584","to":"1095754920","type":"model"},{"step":297,"from":"1093445584","to":"1095991696","type":"model"},{"step":298,"from":"1095991696","to":"1095754920","type":"model"},{"step":299,"from":"1095991696","to":"1093445584","type":"model"},{"step":300,"from":"1093467432","to":"sdaReg307","type":"create","field":"<java.io.ObjectInputStream: java.lang.Object currentObject>"},{"step":301,"from":"1093467432","to":"sdaReg308","type":"create","field":"<java.io.ObjectInputStream: java.io.ObjectStreamClass currentClass>"},{"step":302,"from":"1093467432","to":"sdaReg309","type":"create","field":"<java.io.ObjectInputStream: java.lang.Object currentObject>"},{"step":303,"from":"1093467432","to":"sdaReg310","type":"create","field":"<java.io.ObjectInputStream: java.io.ObjectStreamClass currentClass>"},{"step":304,"from":"1093438208","to":"sdaReg311","type":"model"},{"step":305,"from":"1093467432","to":"1093467432.<java.io.ObjectInputStream: boolean enableResolve>","type":"load","field":"<java.io.ObjectInputStream: boolean enableResolve>"},{"step":306,"from":"sdaReg314","to":"1093467432","type":"store","field":"<java.io.ObjectInputStream: int nestedLevels>"},{"step":307,"from":"1093467432","to":"sdaReg315","type":"create","field":"<java.io.ObjectInputStream: java.lang.ClassLoader callerClassLoader>"}],"parameters":[{"id":"1093467432","name":"this","klass":"java.io.ObjectInputStream"},{"id":"sdaReg0","name":"arg#1","klass":"boolean"}],"returns":[{"id":"1093445584","name":"return","klass":"java.lang.Object"}],"colors":{"heapLocToColor":{"sdaReg191":[0, 34, 32, 37, 8, 9, 30],"sdaReg190":[0, 32, 8],"sdaReg193":[0, 32, 39, 8],"sdaReg192":[0, 34, 32, 38, 37, 8, 9, 30],"sdaReg298":[0, 32, 21, 8],"sdaReg297":[0, 32, 21, 8],"sdaReg299":[0, 32, 21, 8],"sdaReg199":[0, 32, 8],"static.<java.io.ObjectInputStream: java.lang.ClassLoader bootstrapLoader>":[2, 3, 4],"sdaReg195":[0, 34, 32, 37, 8, 9, 41, 30],"sdaReg194":[40],"sdaReg197":[43],"sdaReg196":[0, 32, 8, 42],"1093497528.<java.io.DataInputStream: byte[] scratch>":[0],"sdaReg13":[2, 5],"sdaReg14":[2, 5],"sdaReg11":[2, 3, 4],"sdaReg12":[2, 3, 4],"1093684992":[2],"sdaReg10":[2, 3, 4],"sdaReg17":[0],"sdaReg18":[0],"sdaReg15":[0],"sdaReg16":[0],"1093281448.<java.io.ObjectStreamField: java.lang.String typeString>":[0, 21, 8],"1093467432.<java.io.ObjectInputStream: int nextHandle>":[0],"1093668752.<java.util.ArrayList: java.lang.Object[] array>":[0],"sdaReg313":[0, 32, 8, 30, 45],"1083999760":[6],"sdaReg312":[0, 32, 8, 30, 45],"1083909280":[52],"static.<java.lang.Boolean: java.lang.Class TYPE>":[53],"1093326472":[2],"0":[0, 32, 33, 36, 8, 9, 30],"sdaReg311":[0, 32, 8, 60],"1093467432.<java.io.ObjectInputStream: boolean subclassOverridingImplementation>":[0],"1093497528.<java.io.FilterInputStream: java.io.InputStream in>":[0],"1093467432.<java.io.ObjectInputStream: int descriptorHandle>":[0],"1093445584":[0, 32, 8, 45, 30],"static.<java.lang.Character: java.lang.Class TYPE>":[47],"1093467432.<java.io.ObjectInputStream: int nestedLevels>":[0],"sdaReg171":[34],"1093281424.arrayIdx_int:0":[0, 21, 8],"sdaReg170":[34],"sdaReg173":[0, 33, 36, 8, 9, 30],"sdaReg172":[34],"sdaReg306":[59, 27, 28],"sdaReg175":[0, 33, 36, 8, 9, 30],"sdaReg305":[27, 28],"sdaReg174":[0, 36, 8, 9, 30],"sdaReg304":[27, 28],"sdaReg303":[27, 28],"sdaReg176":[34, 0],"sdaReg302":[27, 28],"sdaReg179":[34, 0],"sdaReg182":[34, 0, 37, 8, 9, 30],"1094844520":[0, 34],"sdaReg181":[0, 34, 37, 8, 9, 30],"sdaReg180":[34, 0],"sdaReg185":[0, 32, 8],"sdaReg184":[0, 34, 37, 8, 9, 30],"sdaReg183":[0],"sdaReg189":[0, 32, 8],"sdaReg188":[0, 32, 8],"sdaReg187":[0, 32, 8],"1093271696":[0],"sdaReg60":[0, 8],"sdaReg61":[0, 8, 9],"1093666648.<java.io.ByteArrayInputStream: int pos>":[0],"static.<java.lang.Float: java.lang.Class TYPE>":[49],"static.<libcore.util.EmptyArray: java.lang.Object[] OBJECT>":[35],"1083909784":[51],"1093666736":[0],"1093666648.<java.io.ByteArrayInputStream: int count>":[0],"sdaReg59":[0],"sdaReg58":[0, 8],"sdaReg57":[0],"sdaReg56":[0],"1093438208":[0, 32, 8],"sdaReg53":[0, 8],"sdaReg52":[0],"static.<java.lang.Double: java.lang.Class TYPE>":[48],"sdaReg51":[0, 8],"sdaReg50":[0],"1093451856":[7],"1093266320.<java.io.PipedInputStream: int in>":[0],"sdaReg49":[0],"sdaReg45":[0],"1083910120":[48],"sdaReg47":[0],"1093666648":[0],"sdaReg40":[7],"sdaReg43":[0],"static.<java.lang.Long: java.lang.Class TYPE>":[51],"sdaReg200":[0, 32, 8],"sdaReg201":[0, 32, 8],"sdaReg205":[0, 32, 8, 44],"1094844520.<java.util.ArrayList: int size>":[34, 0],"sdaReg204":[0, 32, 8],"sdaReg39":[0],"sdaReg203":[0, 8, 30],"sdaReg38":[0],"sdaReg202":[0],"sdaReg37":[0],"sdaReg209":[0, 34, 32, 37, 8, 9, 30],"sdaReg206":[0, 32, 8, 44],"sdaReg32":[0],"sdaReg31":[0],"sdaReg30":[0],"sdaReg36":[0],"sdaReg35":[0],"sdaReg8":[2, 3],"sdaReg9":[2, 3, 4],"1093668752.<java.util.ArrayList: int size>":[0],"sdaReg4":[2],"sdaReg5":[2],"static.<java.lang.Short: java.lang.Class TYPE>":[52],"1093668752":[0],"sdaReg27":[0],"sdaReg28":[0],"1093496336.<java.util.ArrayList: java.lang.Object[] array>":[0, 32, 8],"sdaReg3":[0],"1093467432.<java.io.ObjectInputStream: java.io.InputStream emptyStream>":[0],"sdaReg21":[0],"sdaReg0":[1],"sdaReg20":[0],"1083912376":[27, 28],"sdaReg22":[7],"sdaReg25":[0],"sdaReg24":[0],"sdaReg126":[0],"sdaReg129":[0, 8],"sdaReg228":[27, 28],"sdaReg68":[0, 8, 11],"sdaReg229":[0, 32, 21, 8],"sdaReg69":[0, 8, 10, 11],"sdaReg66":[0, 8],"sdaReg67":[0, 8, 10],"sdaReg64":[0, 8],"1093277648":[0, 2, 5, 8, 9],"sdaReg65":[0, 8, 9],"sdaReg226":[27, 28],"sdaReg62":[0, 8, 9],"sdaReg227":[27, 28],"sdaReg63":[0],"sdaReg72":[14],"sdaReg71":[0, 8, 12, 13],"sdaReg223":[0, 32, 21, 8],"sdaReg70":[0, 8, 12],"sdaReg222":[0, 32, 8, 45],"1094511216":[37],"1093281448.<java.io.ObjectStreamField: java.lang.String name>":[0, 32, 21, 8],"1093467432.<java.io.ObjectInputStream: boolean mustResolve>":[0],"sdaReg120":[0],"1095991696":[0, 32, 8, 45],"sdaReg121":[7],"sdaReg124":[0],"sdaReg117":[0],"sdaReg115":[0],"sdaReg118":[0],"sdaReg119":[0],"sdaReg219":[0, 32, 21, 8],"sdaReg77":[0, 17, 16, 8],"sdaReg78":[18],"sdaReg217":[0, 32, 21, 8],"sdaReg79":[18],"sdaReg218":[0, 34, 32, 37, 8, 9, 30],"1093496360":[0, 32, 8],"sdaReg215":[0, 32, 21, 8],"sdaReg73":[14],"1093666680":[0],"sdaReg216":[0, 32, 21, 8],"sdaReg74":[0, 8, 12, 13],"sdaReg213":[0, 8, 30],"sdaReg75":[0, 8, 12, 15],"sdaReg214":[0, 32, 8],"sdaReg76":[0, 16, 8],"sdaReg212":[0],"sdaReg81":[0, 16, 19, 8],"sdaReg211":[0],"sdaReg80":[17, 0, 16, 8],"sdaReg210":[0, 32, 33, 36, 8, 9, 30],"sdaReg83":[0, 21, 8],"sdaReg82":[20],"1083994088":[35],"sdaReg113":[0],"1093467432.<java.io.ObjectInputStream: boolean enableResolve>":[0],"sdaReg110":[7],"sdaReg107":[0],"1093266320.<java.io.PipedInputStream: byte[] buffer>":[0],"sdaReg108":[0],"sdaReg109":[0],"1093467432.<java.io.ObjectInputStream: java.io.DataInputStream input>":[0],"sdaReg104":[28],"sdaReg105":[0],"1093496336":[0, 32, 8],"sdaReg246":[0],"sdaReg86":[0, 8, 9],"sdaReg87":[0, 8, 9],"sdaReg248":[0],"sdaReg84":[0, 21, 8],"sdaReg249":[0],"sdaReg85":[0, 21, 8],"sdaReg88":[0, 2, 5, 8, 9],"sdaReg89":[0, 2, 5, 8, 9],"sdaReg90":[0, 21, 8],"sdaReg241":[0],"1083909616":[50],"1095920608":[56],"sdaReg243":[7],"1093497528":[0],"sdaReg94":[0, 2, 5, 8, 9],"sdaReg242":[0],"sdaReg93":[0, 21, 8],"sdaReg100":[0, 21, 23, 8, 26],"sdaReg102":[2, 3, 4, 27],"sdaReg101":[27],"1094521560":[0],"1093271696.arrayIdx_int:105":[0],"1093271696.arrayIdx_int:103":[0],"1093271696.arrayIdx_int:104":[0],"1085582952":[2],"sdaReg237":[0],"sdaReg95":[22],"sdaReg238":[0],"sdaReg96":[0, 21, 23, 8],"sdaReg97":[0, 21, 23, 8, 24],"sdaReg236":[0],"sdaReg98":[25],"1083910288":[0, 36, 8, 9, 30],"sdaReg99":[25],"1095754920":[0, 32, 8, 45],"1094511216.arrayIdx_int:0":[0, 34, 8, 9, 30],"sdaReg239":[0],"sdaReg230":[0],"1084339448":[54],"sdaReg231":[0],"1093281448.<java.io.ObjectStreamField: boolean unshared>":[0, 32, 21, 8],"1093294072":[28],"sdaReg268":[57],"sdaReg169":[34],"1093467432.<java.io.ObjectInputStream: java.util.ArrayList objectsRead>":[0],"1093668752.<java.util.AbstractList: int modCount>":[0],"static.<java.lang.Byte: java.lang.Class TYPE>":[46],"sdaReg161":[0, 33],"1083909112":[46],"sdaReg162":[0, 8, 9, 30],"sdaReg163":[0],"sdaReg164":[0, 8, 9, 30],"sdaReg165":[34],"1093266320.<java.io.PipedInputStream: boolean isConnected>":[0],"sdaReg166":[34],"sdaReg167":[34],"1093281448":[0, 32, 21, 8],"sdaReg168":[34],"sdaReg264":[0],"sdaReg265":[56],"sdaReg267":[56],"sdaReg260":[55],"static.<java.nio.ByteOrder: java.nio.ByteOrder BIG_ENDIAN>":[54],"sdaReg261":[55],"sdaReg262":[0],"sdaReg263":[0],"sdaReg160":[0, 33],"sdaReg259":[0],"1095920608.arrayIdx_int:10":[56],"sdaReg258":[0],"sdaReg257":[0],"1093266320":[0],"sdaReg159":[0, 8, 9, 30],"sdaReg158":[0, 32, 8],"sdaReg152":[0, 8, 31],"sdaReg151":[0, 8, 31],"sdaReg156":[0, 8, 30],"sdaReg157":[0, 8],"1093467432.<java.io.ObjectInputStream: java.util.HashMap cachedSuperclasses>":[0],"1093467432.<java.io.ObjectInputStream: java.io.InputStream primitiveData>":[0],"sdaReg155":[0],"1093271696.arrayIdx_int:0":[0],"sdaReg256":[0],"1093271696.arrayIdx_int:1":[0],"sdaReg253":[0],"sdaReg251":[0],"sdaReg252":[0],"1083909448":[47],"1093684992.arrayIdx_int:4":[2],"1093684992.arrayIdx_int:3":[2],"1093684992.arrayIdx_int:2":[2],"1093684992.arrayIdx_int:1":[2],"sdaReg148":[0],"1093467432.<java.io.ObjectInputStream: boolean hasPushbackTC>":[0],"sdaReg149":[0],"1093281424":[0, 32, 21, 8],"sdaReg144":[0],"sdaReg145":[0],"1083909952":[49],"sdaReg146":[0, 8, 30],"sdaReg140":[0, 8, 30],"sdaReg280":[0],"static.<java.io.ObjectInputStream: java.lang.ClassLoader systemLoader>":[6],"sdaReg141":[0],"1093266320.<java.io.PipedInputStream: int out>":[0],"sdaReg142":[0, 8, 30],"sdaReg283":[0],"1083999984":[2, 3, 4, 27],"sdaReg285":[0],"1095971360":[57],"1095920608.arrayIdx_int:0":[56],"1095920608.arrayIdx_int:1":[56],"1095920608.arrayIdx_int:8":[56],"1095920608.arrayIdx_int:9":[56],"1093583760":[0],"1095920608.arrayIdx_int:6":[56],"1095920608.arrayIdx_int:7":[56],"1095920608.arrayIdx_int:4":[56],"sdaReg139":[0, 8, 30],"1095920608.arrayIdx_int:5":[56],"1095920608.arrayIdx_int:2":[56],"sdaReg137":[0, 8, 9],"1095920608.arrayIdx_int:3":[56],"sdaReg134":[0],"sdaReg132":[0, 8],"sdaReg133":[0, 8],"sdaReg131":[29],"static.<java.lang.Integer: java.lang.Class TYPE>":[50],"sdaReg274":[56],"1093467432":[0],"1083908944":[53],"1093496360.arrayIdx_int:0":[0, 32, 8],"1093316416":[34, 0, 32, 37, 8, 9, 30],"sdaReg277":[0],"1093496336.<java.util.ArrayList: int size>":[0, 32, 8],"sdaReg275":[58]},"colorToColor":{"34":[0, 34, 8, 9, 30],"0":[34, 0, 32, 2, 33, 5, 8, 9, 12, 45, 15, 16, 19, 55, 21, 23, 27, 56, 26, 61, 30],"35":[34],"32":[0, 32, 21, 8, 61, 30, 45],"2":[0, 21, 23, 8, 27, 26],"5":[0, 21, 23, 8, 27, 26],"7":[0],"8":[34, 0, 32, 2, 33, 5, 8, 9, 12, 45, 15, 16, 19, 21, 23, 27, 26, 61, 30],"9":[34, 0, 33, 21, 23, 8, 27, 26, 30],"12":[0, 8, 12, 15],"13":[0, 8, 12, 15],"45":[0, 32, 8, 61, 30, 45],"17":[0, 16, 19, 8],"16":[0, 16, 19, 8],"21":[0, 32, 2, 21, 5, 8, 9, 27, 45],"23":[0, 2, 5, 8, 9, 27],"57":[58],"27":[59, 27, 28],"56":[57],"26":[0, 2, 5, 8, 9, 27],"28":[0, 21, 59, 8, 27, 28],"30":[34, 0, 32, 33, 8, 61, 45]},"colorToLabel":{"0":"this","1":"arg#1","4":"<java.io.ObjectInputStream: java.lang.ClassLoader bootstrapLoader>","6":"<java.io.ObjectInputStream: java.lang.ClassLoader systemLoader>","35":"<libcore.util.EmptyArray: java.lang.Object[] OBJECT>","46":"<java.lang.Byte: java.lang.Class TYPE>","47":"<java.lang.Character: java.lang.Class TYPE>","48":"<java.lang.Double: java.lang.Class TYPE>","49":"<java.lang.Float: java.lang.Class TYPE>","50":"<java.lang.Integer: java.lang.Class TYPE>","51":"<java.lang.Long: java.lang.Class TYPE>","52":"<java.lang.Short: java.lang.Class TYPE>","53":"<java.lang.Boolean: java.lang.Class TYPE>","54":"<java.nio.ByteOrder: java.nio.ByteOrder BIG_ENDIAN>","61":"return"}}}

Generated Model
	this->return

