Scanning method <java.io.DataInputStream: void <init>(java.io.InputStream)>

All seen event types: NewArrayRecord, MethodReturnRecord, MethodCallRecord, MethodStartRecord, MethodEndRecord, StoreInstanceRecord, 
Ignored event types: 

JSON Encoded Analysis Data (for visualization):{"heapEdges":[{"step":0,"from":"1093661944","to":"1093661808","type":"store","field":"<java.io.FilterInputStream: java.io.InputStream in>"},{"step":1,"from":"1093661808","to":"1093662008","type":"create","field":"<java.io.DataInputStream: byte[] scratch>"}],"parameters":[{"id":"1093661808","name":"this","klass":"java.io.DataInputStream"},{"id":"1093661944","name":"arg#1","klass":"java.io.InputStream"}],"returns":[{"id":"1093661808","name":"return","klass":"java.io.DataInputStream"}],"colors":{"heapLocToColor":{"sdaReg4":[0],"1093662008":[2],"sdaReg5":[0],"sdaReg3":[0],"sdaReg2":[0],"1093661944":[1],"sdaReg1":[1],"sdaReg0":[0],"1093661808":[0]},"colorToColor":{"0":[3],"1":[0],"2":[0]},"colorToLabel":{"0":"this","1":"arg#1","3":"return"}}}

Generated Model
	this->return
	arg#1->this
	arg#1->return

