Scanning method <android.os.Bundle: long getLong(java.lang.String,long)>

All seen event types: BinaryOperationRecord, MethodReturnRecord, MethodCallRecord, ArrayLengthRecord, LoadInstanceRecord, MethodStartRecord, LoadArrayRecord, MethodEndRecord, IfRecord, 
Ignored event types: IfRecord, 

JSON Encoded Analysis Data (for visualization):{"heapEdges":[{"step":0,"from":"1093935424","to":"1093711024","type":"load","field":"<android.os.Bundle: java.util.Map mMap>"},{"step":1,"from":"1093711024","to":"1083997920","type":"load","field":"<java.util.HashMap: java.util.HashMap$HashMapEntry[] table>"}],"parameters":[{"id":"1093935424","name":"this","klass":"android.os.Bundle"},{"id":"sdaReg0","name":"arg#1","klass":"string"},{"id":"sdaReg1","name":"arg#2","klass":"long"}],"returns":[{"id":"sdaReg1","name":"return","klass":"long"}],"colors":{"heapLocToColor":{"1093711024":[0],"sdaReg8":[3],"sdaReg9":[3],"sdaReg6":[3],"sdaReg7":[3],"sdaReg4":[3],"sdaReg5":[3],"1093935424":[0],"sdaReg11":[3],"sdaReg12":[3],"sdaReg10":[3],"sdaReg3":[0],"sdaReg2":[0],"1083997920":[0],"sdaReg1":[2],"sdaReg0":[1],"sdaReg15":[3]},"colorToColor":{"2":[4]},"colorToLabel":{"0":"this","1":"arg#1","2":"arg#2","4":"return"}}}

Generated Model
	arg#2->return

