Scanning method <java.util.Vector: void copyInto(java.lang.Object[])>

All seen event types: MethodReturnRecord, MethodCallRecord, LoadInstanceRecord, 
Ignored event types: 

JSON Encoded Analysis Data (for visualization):{"heapEdges":[{"step":0,"from":"1093628376","to":"1093592024","type":"load","field":"<java.util.Vector: java.lang.Object[] elementData>"},{"step":1,"from":"1093628376","to":"1093628376.<java.util.Vector: int elementCount>","type":"load","field":"<java.util.Vector: int elementCount>"},{"step":2,"from":"1093592024","to":"1093848152","type":"model"}],"parameters":[{"id":"1093628376","name":"this","klass":"java.util.Vector"},{"id":"1093848152","name":"arg#1","klass":"java.lang.Object[]"}],"returns":[{"id":null,"name":"return","klass":null}],"colors":{"heapLocToColor":{"1093848152":[1],"1093628376.<java.util.Vector: int elementCount>":[0],"1093628376":[0],"1093592024":[0]},"colorToColor":{"0":[1]},"colorToLabel":{"0":"this","1":"arg#1","2":"return"}}}

Generated Model
	this->arg#1

