Scanning method <java.util.HashMap$EntrySet: void <init>(java.util.HashMap)>

All seen event types: MethodReturnRecord, MethodCallRecord, MethodStartRecord, MethodEndRecord, StoreInstanceRecord, 
Ignored event types: 

JSON Encoded Analysis Data (for visualization):{"heapEdges":[{"step":0,"from":"1093250184","to":"1093546272","type":"store","field":"<java.util.HashMap$EntrySet: java.util.HashMap this$0>"}],"parameters":[{"id":"1093546272","name":"this","klass":"java.util.HashMap$EntrySet"},{"id":"1093250184","name":"arg#1","klass":"java.util.HashMap"}],"returns":[{"id":"1093546272","name":"return","klass":"java.util.HashMap$EntrySet"}],"colors":{"heapLocToColor":{"sdaReg4":[0],"1093250184":[1],"sdaReg3":[0],"sdaReg2":[0],"1093546272":[0],"sdaReg1":[0],"sdaReg0":[0]},"colorToColor":{"0":[2],"1":[0]},"colorToLabel":{"0":"this","1":"arg#1","2":"return"}}}

Generated Model
	this->return
	arg#1->this
	arg#1->return

