Scanning method <java.net.URL: java.lang.String getFile()>

All seen event types: LoadInstanceRecord, 
Ignored event types: 

JSON Encoded Analysis Data (for visualization):{"heapEdges":[{"step":0,"from":"1093504928","to":"1093504928.<java.net.URL: java.lang.String file>","type":"load","field":"<java.net.URL: java.lang.String file>"}],"parameters":[{"id":"1093504928","name":"this","klass":"java.net.URL"}],"returns":[{"id":"1093504928.<java.net.URL: java.lang.String file>","name":"return","klass":"string"}],"colors":{"heapLocToColor":{"1093504928.<java.net.URL: java.lang.String file>":[0],"1093504928":[0]},"colorToColor":{"0":[1]},"colorToLabel":{"0":"this","1":"return"}}}

Generated Model
	this->return

