Scanning method <java.util.ArrayList: java.lang.Object get(int)>

All seen event types: LoadInstanceRecord, LoadArrayRecord, IfRecord, 
Ignored event types: IfRecord, 

JSON Encoded Analysis Data (for visualization):{"heapEdges":[{"step":0,"from":"1094029968","to":"1094029968.<java.util.ArrayList: int size>","type":"load","field":"<java.util.ArrayList: int size>"},{"step":1,"from":"1094029968","to":"1096565920","type":"load","field":"<java.util.ArrayList: java.lang.Object[] array>"},{"step":2,"from":"1096565920","to":"1093956552","type":"load","field":"arrayIdx_int:0"}],"parameters":[{"id":"1094029968","name":"this","klass":"java.util.ArrayList"},{"id":"sdaReg0","name":"arg#1","klass":"int"}],"returns":[{"id":"1093956552","name":"return","klass":"java.lang.Object"}],"colors":{"heapLocToColor":{"1093956552":[0],"1096565920":[0],"1094029968.<java.util.ArrayList: int size>":[0],"1094029968":[0],"sdaReg0":[1]},"colorToColor":{"0":[2]},"colorToLabel":{"0":"this","1":"arg#1","2":"return"}}}

Generated Model
	this->return

