Scanning method <java.util.HashMap$HashIterator: java.util.HashMap$HashMapEntry nextEntry()>

All seen event types: BinaryOperationRecord, ArrayLengthRecord, LoadInstanceRecord, LoadArrayRecord, IfRecord, StoreInstanceRecord, 
Ignored event types: IfRecord, 

JSON Encoded Analysis Data (for visualization):{"heapEdges":[{"step":0,"from":"1093295568","to":"1093406112","type":"load","field":"<java.util.HashMap$HashIterator: java.util.HashMap this$0>"},{"step":1,"from":"1093406112","to":"1093406112.<java.util.HashMap: int modCount>","type":"load","field":"<java.util.HashMap: int modCount>"},{"step":2,"from":"1093295568","to":"1093295568.<java.util.HashMap$HashIterator: int expectedModCount>","type":"load","field":"<java.util.HashMap$HashIterator: int expectedModCount>"},{"step":3,"from":"1093295568","to":"1093406168","type":"load","field":"<java.util.HashMap$HashIterator: java.util.HashMap$HashMapEntry nextEntry>"},{"step":4,"from":"1093295568","to":"1093406168","type":"load","field":"<java.util.HashMap$HashIterator: java.util.HashMap$HashMapEntry nextEntry>"},{"step":5,"from":"1093295568","to":"1093406112","type":"load","field":"<java.util.HashMap$HashIterator: java.util.HashMap this$0>"},{"step":6,"from":"1093406112","to":"1093410736","type":"load","field":"<java.util.HashMap: java.util.HashMap$HashMapEntry[] table>"},{"step":7,"from":"1093295568","to":"1093295568.<java.util.HashMap$HashIterator: int nextIndex>","type":"load","field":"<java.util.HashMap$HashIterator: int nextIndex>"},{"step":8,"from":"1093295568","to":"1093295568.<java.util.HashMap$HashIterator: int nextIndex>","type":"load","field":"<java.util.HashMap$HashIterator: int nextIndex>"},{"step":9,"from":"sdaReg1","to":"1093295568","type":"store","field":"<java.util.HashMap$HashIterator: int nextIndex>"},{"step":10,"from":"sdaReg1","to":"1093295568","type":"store","field":"<java.util.HashMap$HashIterator: int nextIndex>"},{"step":11,"from":"sdaReg1","to":"1093295568","type":"store","field":"<java.util.HashMap$HashIterator: int nextIndex>"},{"step":12,"from":"1093410736","to":"1093405744","type":"load","field":"arrayIdx_int:3"},{"step":13,"from":"1093405744","to":"1093295568","type":"store","field":"<java.util.HashMap$HashIterator: java.util.HashMap$HashMapEntry nextEntry>"},{"step":14,"from":"1093406168","to":"1093295568","type":"store","field":"<java.util.HashMap$HashIterator: java.util.HashMap$HashMapEntry lastEntryReturned>"}],"parameters":[{"id":"1093295568","name":"this","klass":"java.util.HashMap$HashIterator"}],"returns":[{"id":"1093406168","name":"return","klass":"java.util.HashMap$HashMapEntry"}],"colors":{"heapLocToColor":{"1093295568.<java.util.HashMap$HashIterator: int nextIndex>":[0],"1093406112.<java.util.HashMap: int modCount>":[0],"1093406112":[0],"1093410736":[0],"1093295568.<java.util.HashMap$HashIterator: java.util.HashMap this$0>":[0],"1093295568.<java.util.HashMap$HashIterator: java.util.HashMap$HashMapEntry nextEntry>":[0],"1093405744":[0],"1093295568":[0],"sdaReg1":[0],"1093406168":[0],"1093295568.<java.util.HashMap$HashIterator: int expectedModCount>":[0]},"colorToColor":{"0":[0, 1]},"colorToLabel":{"0":"this","1":"return"}}}

Generated Model
	this->return

