Scanning method <java.util.AbstractCollection: boolean addAll(java.util.Collection)>

All seen event types: StoreArrayRecord, SimpleAssignmentRecord, MethodStartRecord, LoadInstanceRecord, IfRecord, NewObjectRecord, StoreInstanceRecord, BinaryOperationRecord, MethodCallRecord, MethodReturnRecord, ArrayLengthRecord, LoadArrayRecord, MethodEndRecord, 
Ignored event types: IfRecord, 

JSON Encoded Analysis Data (for visualization):{"heapEdges":[{"step":0,"from":"1093626656","to":"1093626888","type":"store","field":"<java.util.ArrayList$ArrayListIterator: java.util.ArrayList this$0>"},{"step":1,"from":"1093626656","to":"1093626656.<java.util.ArrayList: int size>","type":"load","field":"<java.util.ArrayList: int size>"},{"step":2,"from":"1093626656.<java.util.ArrayList: int size>","to":"1093626888","type":"store","field":"<java.util.ArrayList$ArrayListIterator: int remaining>"},{"step":3,"from":"1093626888","to":"sdaReg7","type":"create","field":"<java.util.ArrayList$ArrayListIterator: int removalIndex>"},{"step":4,"from":"1093626656","to":"1093626656.<java.util.AbstractList: int modCount>","type":"load","field":"<java.util.AbstractList: int modCount>"},{"step":5,"from":"1093626656.<java.util.AbstractList: int modCount>","to":"1093626888","type":"store","field":"<java.util.ArrayList$ArrayListIterator: int expectedModCount>"},{"step":6,"from":"1093626656","to":"1093626656.<java.util.AbstractList: int modCount>","type":"load","field":"<java.util.AbstractList: int modCount>"},{"step":7,"from":"sdaReg14","to":"1093626888","type":"store","field":"<java.util.ArrayList$ArrayListIterator: int remaining>"},{"step":8,"from":"1093626656","to":"1093626816","type":"load","field":"<java.util.ArrayList: java.lang.Object[] array>"},{"step":9,"from":"1093626656","to":"1093626656.<java.util.ArrayList: int size>","type":"load","field":"<java.util.ArrayList: int size>"},{"step":10,"from":"sdaReg15","to":"1093626888","type":"store","field":"<java.util.ArrayList$ArrayListIterator: int removalIndex>"},{"step":11,"from":"1093626816","to":"1093626800","type":"load","field":"arrayIdx_int:0"},{"step":12,"from":"1093569568","to":"1093569584","type":"load","field":"<java.util.HashSet: java.util.HashMap backingMap>"},{"step":13,"from":"1093569584","to":"1093576776","type":"load","field":"<java.util.HashMap: java.util.HashMap$HashMapEntry[] table>"},{"step":14,"from":"1093569584","to":"1093569584.<java.util.HashMap: int modCount>","type":"load","field":"<java.util.HashMap: int modCount>"},{"step":15,"from":"sdaReg34","to":"1093569584","type":"store","field":"<java.util.HashMap: int modCount>"},{"step":16,"from":"1093569584","to":"1093569584.<java.util.HashMap: int size>","type":"load","field":"<java.util.HashMap: int size>"},{"step":17,"from":"sdaReg35","to":"1093569584","type":"store","field":"<java.util.HashMap: int size>"},{"step":18,"from":"1093569584","to":"1093569584.<java.util.HashMap: int threshold>","type":"load","field":"<java.util.HashMap: int threshold>"},{"step":19,"from":"1093569584","to":"1093576776","type":"load","field":"<java.util.HashMap: java.util.HashMap$HashMapEntry[] table>"},{"step":20,"from":"1093569584","to":"1093576776","type":"load","field":"<java.util.HashMap: java.util.HashMap$HashMapEntry[] table>"},{"step":21,"from":"1093626800","to":"1093626920","type":"store","field":"<java.util.HashMap$HashMapEntry: java.lang.Object key>"},{"step":22,"from":"1093569568","to":"1093626920","type":"store","field":"<java.util.HashMap$HashMapEntry: java.lang.Object value>"},{"step":23,"from":"sdaReg30","to":"1093626920","type":"store","field":"<java.util.HashMap$HashMapEntry: int hash>"},{"step":24,"from":"1093576776","to":"1093626920","type":"create","field":"arrayIdx_int:3"}],"parameters":[{"id":"1093569568","name":"this","klass":"java.util.AbstractCollection"},{"id":"1093626656","name":"arg#1","klass":"java.util.Collection"}],"returns":[{"id":"sdaReg0","name":"return","klass":"boolean"}],"colors":{"heapLocToColor":{"1093569584.<java.util.HashMap: int modCount>":[0],"1093576776":[0],"sdaReg13":[2],"sdaReg11":[2],"sdaReg10":[2],"1093626888":[2],"sdaReg19":[0],"sdaReg17":[0],"sdaReg18":[1],"sdaReg15":[1],"sdaReg16":[1],"1093569584.<java.util.HashMap: java.util.HashMap$HashMapEntry[] table>":[0],"1093626920":[4],"1093569568":[0],"sdaReg44":[4],"sdaReg47":[2],"1093626816":[1],"sdaReg41":[0],"sdaReg40":[1],"sdaReg43":[4],"1093626656":[1],"1093626656.<java.util.AbstractList: int modCount>":[1],"sdaReg39":[4],"sdaReg38":[0],"sdaReg37":[1],"1093569584.<java.util.HashMap: int size>":[0],"1093626800":[1],"sdaReg30":[3],"sdaReg36":[0],"sdaReg35":[0],"sdaReg34":[0],"sdaReg33":[3],"sdaReg8":[2],"sdaReg9":[2],"sdaReg6":[2],"sdaReg4":[2],"sdaReg5":[1],"sdaReg27":[3],"sdaReg26":[3],"sdaReg29":[3],"sdaReg28":[3],"1093569584.<java.util.HashMap: int threshold>":[0],"1093626656.<java.util.ArrayList: int size>":[1],"1093569584":[0],"sdaReg3":[1],"sdaReg2":[2],"sdaReg1":[1],"sdaReg21":[0],"sdaReg20":[1],"sdaReg23":[3],"sdaReg22":[3],"sdaReg25":[3],"sdaReg24":[3]},"colorToColor":{"0":[0, 4],"1":[2, 4],"3":[4],"4":[0]},"colorToLabel":{"0":"this","1":"arg#1","5":"return"}}}

Generated Model
	arg#1->this

