Scanning method <java.nio.CharBuffer: java.nio.CharBuffer wrap(java.lang.CharSequence)>

All seen event types: MethodReturnRecord, MethodCallRecord, MethodStartRecord, MethodEndRecord, IfRecord, StoreInstanceRecord, NewObjectRecord, 
Ignored event types: IfRecord, 

JSON Encoded Analysis Data (for visualization):{"heapEdges":[{"step":0,"from":"1093632432","to":"sdaReg7","type":"create","field":"<java.nio.Buffer: int mark>"},{"step":1,"from":"1093632432","to":"sdaReg8","type":"create","field":"<java.nio.Buffer: int position>"},{"step":2,"from":"1093632432","to":"sdaReg5","type":"create","field":"<java.nio.Buffer: int _elementSizeShift>"},{"step":3,"from":"sdaReg2","to":"1093632432","type":"store","field":"<java.nio.Buffer: int limit>"},{"step":4,"from":"sdaReg2","to":"1093632432","type":"store","field":"<java.nio.Buffer: int capacity>"},{"step":5,"from":"1093632288","to":"1093632432","type":"store","field":"<java.nio.CharSequenceAdapter: java.lang.CharSequence sequence>"}],"parameters":[{"id":"1093632288","name":"arg#0","klass":"java.lang.CharSequence"}],"returns":[{"id":"1093632432","name":"return","klass":"java.nio.CharBuffer"}],"colors":{"heapLocToColor":{"1093632432":[1],"sdaReg11":[1],"sdaReg9":[1],"sdaReg6":[1],"sdaReg10":[1],"sdaReg4":[1],"sdaReg3":[1],"sdaReg2":[2],"sdaReg1":[0],"sdaReg0":[1],"1093632288":[0]},"colorToColor":{"0":[1],"1":[3],"2":[1]},"colorToLabel":{"0":"arg#0","3":"return"}}}

Generated Model
	arg#0->return

