Scanning method <android.os.Bundle: byte[] getByteArray(java.lang.String)>

All seen event types: StoreArrayRecord, SimpleAssignmentRecord, ExitMonitorRecord, MethodStartRecord, LoadInstanceRecord, IfRecord, NewObjectRecord, StoreInstanceRecord, NewArrayRecord, LoadStaticRecord, BinaryOperationRecord, MethodCallRecord, MethodReturnRecord, SwitchRecord, EnterMonitorRecord, CastRecord, ArrayLengthRecord, LoadArrayRecord, MethodEndRecord, 
Ignored event types: ExitMonitorRecord, SwitchRecord, EnterMonitorRecord, IfRecord, 

JSON Encoded Analysis Data (for visualization):{"heapEdges":[{"step":0,"from":"1093544264","to":"1093474776","type":"load","field":"<android.os.Bundle: android.os.Parcel mParcelledData>"},{"step":1,"from":"1093544264","to":"1093474776","type":"load","field":"<android.os.Bundle: android.os.Parcel mParcelledData>"},{"step":2,"from":"1093474776","to":"sdaReg2","type":"model"},{"step":3,"from":"static.<java.util.HashMap: java.util.Map$Entry[] EMPTY_TABLE>","to":"1083997920","type":"load","field":"<java.util.HashMap: java.util.Map$Entry[] EMPTY_TABLE>"},{"step":4,"from":"1083997920","to":"1093805024","type":"store","field":"<java.util.HashMap: java.util.HashMap$HashMapEntry[] table>"},{"step":5,"from":"1093805024","to":"sdaReg9","type":"create","field":"<java.util.HashMap: int threshold>"},{"step":6,"from":"1093544264","to":"1093805024","type":"create","field":"<android.os.Bundle: java.util.Map mMap>"},{"step":7,"from":"1093544264","to":"1093474776","type":"load","field":"<android.os.Bundle: android.os.Parcel mParcelledData>"},{"step":8,"from":"1093474776","to":"sdaReg16","type":"model"},{"step":9,"from":"1093474776","to":"sdaReg17","type":"model"},{"step":10,"from":"1093474776","to":"sdaReg21","type":"model"},{"step":11,"from":"1093474776","to":"1093612592","type":"model"},{"step":12,"from":"1093805024","to":"1093805024.<java.util.HashMap: int modCount>","type":"load","field":"<java.util.HashMap: int modCount>"},{"step":13,"from":"sdaReg39","to":"1093805024","type":"store","field":"<java.util.HashMap: int modCount>"},{"step":14,"from":"1093805024","to":"1093805024.<java.util.HashMap: int size>","type":"load","field":"<java.util.HashMap: int size>"},{"step":15,"from":"sdaReg40","to":"1093805024","type":"store","field":"<java.util.HashMap: int size>"},{"step":16,"from":"1093805024","to":"1093754176","type":"create","field":"<java.util.HashMap: java.util.HashMap$HashMapEntry[] table>"},{"step":17,"from":"sdaReg48","to":"1093805024","type":"store","field":"<java.util.HashMap: int threshold>"},{"step":18,"from":"1093610480","to":"1093575472","type":"store","field":"<java.util.HashMap$HashMapEntry: java.lang.Object key>"},{"step":19,"from":"1093575472","to":"1093612592","type":"create","field":"<java.util.HashMap$HashMapEntry: java.lang.Object value>"},{"step":20,"from":"sdaReg35","to":"1093575472","type":"store","field":"<java.util.HashMap$HashMapEntry: int hash>"},{"step":21,"from":"1093754176","to":"1093575472","type":"create","field":"arrayIdx_int:2"},{"step":22,"from":"1093544264","to":"1093474776","type":"load","field":"<android.os.Bundle: android.os.Parcel mParcelledData>"},{"step":23,"from":"1093474776","to":"1093474776.<android.os.Parcel: int mOwnObject>","type":"load","field":"<android.os.Parcel: int mOwnObject>"},{"step":24,"from":"static.<android.os.Parcel: android.os.Parcel[] sOwnedPool>","to":"1084044960","type":"load","field":"<android.os.Parcel: android.os.Parcel[] sOwnedPool>"},{"step":25,"from":"1093474776","to":"1084044960","type":"store","field":"arrayIdx_int:0"},{"step":26,"from":"1093544264","to":"sdaReg67","type":"create","field":"<android.os.Bundle: android.os.Parcel mParcelledData>"}],"parameters":[{"id":"1093544264","name":"this","klass":"android.os.Bundle"},{"id":"sdaReg0","name":"arg#1","klass":"string"}],"returns":[{"id":"1093612592","name":"return","klass":"byte[]"}],"colors":{"heapLocToColor":{"sdaReg61":[11],"1084044960":[12],"sdaReg68":[3],"sdaReg69":[13],"sdaReg64":[12],"sdaReg65":[12],"sdaReg62":[11],"sdaReg63":[0],"sdaReg72":[13],"sdaReg71":[13],"sdaReg14":[0],"sdaReg70":[13],"sdaReg11":[0],"sdaReg12":[3],"1093544264":[0],"sdaReg10":[3],"sdaReg59":[0, 8],"sdaReg57":[11],"1093575472":[11],"sdaReg19":[0],"1083997920":[4],"sdaReg56":[0, 8],"sdaReg17":[0, 6],"sdaReg54":[3],"sdaReg16":[0, 5],"sdaReg51":[10],"sdaReg77":[13],"sdaReg73":[13],"sdaReg74":[13],"sdaReg75":[13],"sdaReg76":[13],"sdaReg81":[14],"sdaReg80":[13],"sdaReg83":[0, 8],"sdaReg82":[0, 8],"sdaReg49":[10],"1093805024.<java.util.HashMap: int modCount>":[3],"sdaReg44":[3],"sdaReg41":[3],"sdaReg40":[3],"static.<android.os.Parcel: android.os.Parcel[] sOwnedPool>":[12],"sdaReg84":[0, 8],"1093544264.<android.os.Bundle: android.os.Parcel mParcelledData>":[0],"1093474776.<android.os.Parcel: int mOwnObject>":[0],"1093612592":[0, 8],"sdaReg39":[3],"sdaReg38":[9],"sdaReg32":[9],"sdaReg31":[9],"static.<java.util.HashMap: java.util.Map$Entry[] EMPTY_TABLE>":[4],"sdaReg30":[9],"sdaReg35":[9],"sdaReg34":[9],"sdaReg33":[9],"1093805024.<java.util.HashMap: int size>":[3],"sdaReg8":[4],"1093474776":[0],"sdaReg6":[3],"sdaReg7":[4],"sdaReg4":[3],"sdaReg5":[3],"sdaReg27":[9],"sdaReg26":[0, 8],"sdaReg29":[9],"sdaReg28":[9],"sdaReg3":[3],"sdaReg2":[0, 2],"sdaReg21":[0, 7],"sdaReg1":[0],"1093805024":[3],"sdaReg0":[1],"sdaReg23":[0, 8],"sdaReg22":[0, 8],"1093754176":[10],"sdaReg24":[3]},"colorToColor":{"0":[11, 12, 15],"3":[0, 3],"4":[3],"8":[11, 15],"9":[11],"10":[3],"11":[10]},"colorToLabel":{"0":"this","1":"arg#1","4":"<java.util.HashMap: java.util.Map$Entry[] EMPTY_TABLE>","12":"<android.os.Parcel: android.os.Parcel[] sOwnedPool>","15":"return"}}}

Generated Model
	this->return
	this-><android.os.Parcel: android.os.Parcel[] sOwnedPool>

