Scanning method <java.util.HashMap: void preModify(java.util.HashMap$HashMapEntry)>

All seen event types: 
Ignored event types: 

JSON Encoded Analysis Data (for visualization):{"heapEdges":[],"parameters":[{"id":"1093566272","name":"this","klass":"java.util.HashMap"},{"id":"1093567176","name":"arg#1","klass":"java.util.HashMap$HashMapEntry"}],"returns":[{"id":null,"name":"return","klass":null}],"colors":{"heapLocToColor":{"1093566272":[0],"1093567176":[1]},"colorToColor":{},"colorToLabel":{"0":"this","1":"arg#1","2":"return"}}}

Generated Model

