Scanning method <java.io.DataOutputStream: void writeLong(long)>

All seen event types: LoadStaticRecord, BinaryOperationRecord, MethodReturnRecord, MethodCallRecord, ArrayLengthRecord, MethodStartRecord, LoadInstanceRecord, MethodEndRecord, IfRecord, StoreInstanceRecord, 
Ignored event types: IfRecord, 

JSON Encoded Analysis Data (for visualization):{"heapEdges":[{"step":0,"from":"1093255688","to":"1093630608","type":"load","field":"<java.io.DataOutputStream: byte[] scratch>"},{"step":1,"from":"static.<java.nio.ByteOrder: java.nio.ByteOrder BIG_ENDIAN>","to":"1084339448","type":"load","field":"<java.nio.ByteOrder: java.nio.ByteOrder BIG_ENDIAN>"},{"step":2,"from":"1093630608","to":"sdaReg0","type":"model"},{"step":3,"from":"1093630608","to":"1084339448","type":"model"},{"step":4,"from":"sdaReg0","to":"1093630608","type":"model"},{"step":5,"from":"sdaReg0","to":"1084339448","type":"model"},{"step":6,"from":"1084339448","to":"1093630608","type":"model"},{"step":7,"from":"1084339448","to":"sdaReg0","type":"model"},{"step":8,"from":"1093255688","to":"1093557968","type":"load","field":"<java.io.FilterOutputStream: java.io.OutputStream out>"},{"step":9,"from":"1093255688","to":"1093630608","type":"load","field":"<java.io.DataOutputStream: byte[] scratch>"},{"step":10,"from":"1093557968","to":"1093557968.<java.io.ByteArrayOutputStream: int count>","type":"load","field":"<java.io.ByteArrayOutputStream: int count>"},{"step":11,"from":"1093557968","to":"1093630456","type":"load","field":"<java.io.ByteArrayOutputStream: byte[] buf>"},{"step":12,"from":"1093557968","to":"1093630456","type":"load","field":"<java.io.ByteArrayOutputStream: byte[] buf>"},{"step":13,"from":"1093557968","to":"1093557968.<java.io.ByteArrayOutputStream: int count>","type":"load","field":"<java.io.ByteArrayOutputStream: int count>"},{"step":14,"from":"1093630608","to":"1093630456","type":"model"},{"step":15,"from":"1093557968","to":"1093557968.<java.io.ByteArrayOutputStream: int count>","type":"load","field":"<java.io.ByteArrayOutputStream: int count>"},{"step":16,"from":"sdaReg11","to":"1093557968","type":"store","field":"<java.io.ByteArrayOutputStream: int count>"},{"step":17,"from":"1093255688","to":"1093255688.<java.io.DataOutputStream: int written>","type":"load","field":"<java.io.DataOutputStream: int written>"},{"step":18,"from":"sdaReg12","to":"1093255688","type":"store","field":"<java.io.DataOutputStream: int written>"}],"parameters":[{"id":"1093255688","name":"this","klass":"java.io.DataOutputStream"},{"id":"sdaReg0","name":"arg#1","klass":"long"}],"returns":[{"id":null,"name":"return","klass":null}],"colors":{"heapLocToColor":{"sdaReg8":[0],"sdaReg9":[0],"1093557968.<java.io.ByteArrayOutputStream: byte[] buf>":[0],"1093557968":[0],"1093255688.<java.io.DataOutputStream: int written>":[0],"1093630456":[0],"sdaReg11":[0],"1093255688.<java.io.DataOutputStream: byte[] scratch>":[0],"sdaReg12":[0],"1093630608":[0],"1084339448":[2],"1093557968.<java.io.ByteArrayOutputStream: int count>":[0],"sdaReg2":[0],"1093255688":[0],"sdaReg1":[0],"sdaReg0":[1],"static.<java.nio.ByteOrder: java.nio.ByteOrder BIG_ENDIAN>":[2]},"colorToColor":{"0":[0, 1, 2],"1":[0, 2],"2":[0, 1]},"colorToLabel":{"0":"this","1":"arg#1","2":"<java.nio.ByteOrder: java.nio.ByteOrder BIG_ENDIAN>","3":"return"}}}

Generated Model
	this->arg#1
	this-><java.nio.ByteOrder: java.nio.ByteOrder BIG_ENDIAN>
	arg#1->this
	arg#1-><java.nio.ByteOrder: java.nio.ByteOrder BIG_ENDIAN>

