Scanning method <java.util.HashMap$EntryIterator: java.lang.Object next()>

All seen event types: MethodReturnRecord, MethodCallRecord, LoadInstanceRecord, MethodStartRecord, MethodEndRecord, IfRecord, StoreInstanceRecord, 
Ignored event types: IfRecord, 

JSON Encoded Analysis Data (for visualization):{"heapEdges":[{"step":0,"from":"1093642112","to":"1093295472","type":"load","field":"<java.util.HashMap$HashIterator: java.util.HashMap this$0>"},{"step":1,"from":"1093295472","to":"1093295472.<java.util.HashMap: int modCount>","type":"load","field":"<java.util.HashMap: int modCount>"},{"step":2,"from":"1093642112","to":"1093642112.<java.util.HashMap$HashIterator: int expectedModCount>","type":"load","field":"<java.util.HashMap$HashIterator: int expectedModCount>"},{"step":3,"from":"1093642112","to":"1093299800","type":"load","field":"<java.util.HashMap$HashIterator: java.util.HashMap$HashMapEntry nextEntry>"},{"step":4,"from":"1093642112","to":"1093299800","type":"load","field":"<java.util.HashMap$HashIterator: java.util.HashMap$HashMapEntry nextEntry>"},{"step":5,"from":"1093642112","to":"1093295472","type":"load","field":"<java.util.HashMap$HashIterator: java.util.HashMap this$0>"},{"step":6,"from":"1093295472","to":"1093299744","type":"load","field":"<java.util.HashMap: java.util.HashMap$HashMapEntry[] table>"},{"step":7,"from":"1093299800","to":"1093295608","type":"load","field":"<java.util.HashMap$HashMapEntry: java.util.HashMap$HashMapEntry next>"},{"step":8,"from":"1093295608","to":"1093642112","type":"store","field":"<java.util.HashMap$HashIterator: java.util.HashMap$HashMapEntry nextEntry>"},{"step":9,"from":"1093299800","to":"1093642112","type":"store","field":"<java.util.HashMap$HashIterator: java.util.HashMap$HashMapEntry lastEntryReturned>"}],"parameters":[{"id":"1093642112","name":"this","klass":"java.util.HashMap$EntryIterator"}],"returns":[{"id":"1093299800","name":"return","klass":"java.lang.Object"}],"colors":{"heapLocToColor":{"1093642112.<java.util.HashMap$HashIterator: int expectedModCount>":[0],"1093299744":[0],"1093642112":[0],"1093295472":[0],"1093295472.<java.util.HashMap: int modCount>":[0],"1093642112.<java.util.HashMap$HashIterator: java.util.HashMap this$0>":[0],"1093295608":[0],"1093642112.<java.util.HashMap$HashIterator: java.util.HashMap$HashMapEntry nextEntry>":[0],"sdaReg3":[0],"sdaReg2":[0],"sdaReg1":[0],"1093299800":[0],"sdaReg0":[0]},"colorToColor":{"0":[0, 1]},"colorToLabel":{"0":"this","1":"return"}}}

Generated Model
	this->return

