Scanning method <java.util.HashMap$EntryIterator: java.lang.Object next()>

All seen event types: BinaryOperationRecord, MethodReturnRecord, MethodCallRecord, ArrayLengthRecord, LoadInstanceRecord, MethodStartRecord, LoadArrayRecord, MethodEndRecord, IfRecord, StoreInstanceRecord, 
Ignored event types: IfRecord, 

JSON Encoded Analysis Data (for visualization):{"heapEdges":[{"step":0,"from":"1093544512","to":"1093297344","type":"load","field":"<java.util.HashMap$HashIterator: java.util.HashMap this$0>"},{"step":1,"from":"1093297344","to":"1093297344.<java.util.HashMap: int modCount>","type":"load","field":"<java.util.HashMap: int modCount>"},{"step":2,"from":"1093544512","to":"1093544512.<java.util.HashMap$HashIterator: int expectedModCount>","type":"load","field":"<java.util.HashMap$HashIterator: int expectedModCount>"},{"step":3,"from":"1093544512","to":"1093296144","type":"load","field":"<java.util.HashMap$HashIterator: java.util.HashMap$HashMapEntry nextEntry>"},{"step":4,"from":"1093544512","to":"1093296144","type":"load","field":"<java.util.HashMap$HashIterator: java.util.HashMap$HashMapEntry nextEntry>"},{"step":5,"from":"1093544512","to":"1093297344","type":"load","field":"<java.util.HashMap$HashIterator: java.util.HashMap this$0>"},{"step":6,"from":"1093297344","to":"1093296472","type":"load","field":"<java.util.HashMap: java.util.HashMap$HashMapEntry[] table>"},{"step":7,"from":"1093544512","to":"1093544512.<java.util.HashMap$HashIterator: int nextIndex>","type":"load","field":"<java.util.HashMap$HashIterator: int nextIndex>"},{"step":8,"from":"1093544512","to":"1093544512.<java.util.HashMap$HashIterator: int nextIndex>","type":"load","field":"<java.util.HashMap$HashIterator: int nextIndex>"},{"step":9,"from":"sdaReg3","to":"1093544512","type":"store","field":"<java.util.HashMap$HashIterator: int nextIndex>"},{"step":10,"from":"sdaReg3","to":"1093544512","type":"store","field":"<java.util.HashMap$HashIterator: int nextIndex>"},{"step":11,"from":"sdaReg3","to":"1093544512","type":"store","field":"<java.util.HashMap$HashIterator: int nextIndex>"},{"step":12,"from":"1093296472","to":"1093296176","type":"load","field":"arrayIdx_int:3"},{"step":13,"from":"1093296176","to":"1093544512","type":"store","field":"<java.util.HashMap$HashIterator: java.util.HashMap$HashMapEntry nextEntry>"},{"step":14,"from":"1093296144","to":"1093544512","type":"store","field":"<java.util.HashMap$HashIterator: java.util.HashMap$HashMapEntry lastEntryReturned>"}],"parameters":[{"id":"1093544512","name":"this","klass":"java.util.HashMap$EntryIterator"}],"returns":[{"id":"1093296144","name":"return","klass":"java.lang.Object"}],"colors":{"heapLocToColor":{"1093296144":[0],"sdaReg6":[0],"1093296176":[0],"sdaReg7":[0],"1093297344":[0],"1093297344.<java.util.HashMap: int modCount>":[0],"1093544512.<java.util.HashMap$HashIterator: int expectedModCount>":[0],"1093544512.<java.util.HashMap$HashIterator: int nextIndex>":[0],"1093544512":[0],"1093296472":[0],"1093544512.<java.util.HashMap$HashIterator: java.util.HashMap this$0>":[0],"sdaReg3":[0],"sdaReg1":[0],"sdaReg0":[0],"1093544512.<java.util.HashMap$HashIterator: java.util.HashMap$HashMapEntry nextEntry>":[0]},"colorToColor":{"0":[0, 1]},"colorToLabel":{"0":"this","1":"return"}}}

Generated Model
	this->return

