Scanning method <java.util.HashMap$EntryIterator: java.lang.Object next()>

All seen event types: BinaryOperationRecord, MethodReturnRecord, MethodCallRecord, ArrayLengthRecord, LoadInstanceRecord, MethodStartRecord, LoadArrayRecord, MethodEndRecord, IfRecord, StoreInstanceRecord, 
Ignored event types: IfRecord, 

JSON Encoded Analysis Data (for visualization):{"heapEdges":[{"step":0,"from":"1093594400","to":"1093287792","type":"load","field":"<java.util.HashMap$HashIterator: java.util.HashMap this$0>"},{"step":1,"from":"1093287792","to":"1093287792.<java.util.HashMap: int modCount>","type":"load","field":"<java.util.HashMap: int modCount>"},{"step":2,"from":"1093594400","to":"1093594400.<java.util.HashMap$HashIterator: int expectedModCount>","type":"load","field":"<java.util.HashMap$HashIterator: int expectedModCount>"},{"step":3,"from":"1093594400","to":"1093229128","type":"load","field":"<java.util.HashMap$HashIterator: java.util.HashMap$HashMapEntry nextEntry>"},{"step":4,"from":"1093594400","to":"1093229128","type":"load","field":"<java.util.HashMap$HashIterator: java.util.HashMap$HashMapEntry nextEntry>"},{"step":5,"from":"1093594400","to":"1093287792","type":"load","field":"<java.util.HashMap$HashIterator: java.util.HashMap this$0>"},{"step":6,"from":"1093287792","to":"1093229224","type":"load","field":"<java.util.HashMap: java.util.HashMap$HashMapEntry[] table>"},{"step":7,"from":"1093594400","to":"1093594400.<java.util.HashMap$HashIterator: int nextIndex>","type":"load","field":"<java.util.HashMap$HashIterator: int nextIndex>"},{"step":8,"from":"1093594400","to":"1093594400.<java.util.HashMap$HashIterator: int nextIndex>","type":"load","field":"<java.util.HashMap$HashIterator: int nextIndex>"},{"step":9,"from":"sdaReg3","to":"1093594400","type":"store","field":"<java.util.HashMap$HashIterator: int nextIndex>"},{"step":10,"from":"sdaReg3","to":"1093594400","type":"store","field":"<java.util.HashMap$HashIterator: int nextIndex>"},{"step":11,"from":"1093229224","to":"1093229192","type":"load","field":"arrayIdx_int:5"},{"step":12,"from":"1093229192","to":"1093594400","type":"store","field":"<java.util.HashMap$HashIterator: java.util.HashMap$HashMapEntry nextEntry>"},{"step":13,"from":"1093229128","to":"1093594400","type":"store","field":"<java.util.HashMap$HashIterator: java.util.HashMap$HashMapEntry lastEntryReturned>"}],"parameters":[{"id":"1093594400","name":"this","klass":"java.util.HashMap$EntryIterator"}],"returns":[{"id":"1093229128","name":"return","klass":"java.lang.Object"}],"colors":{"heapLocToColor":{"1093594400.<java.util.HashMap$HashIterator: int expectedModCount>":[0],"1093287792.<java.util.HashMap: int modCount>":[0],"sdaReg6":[0],"1093594400.<java.util.HashMap$HashIterator: java.util.HashMap$HashMapEntry nextEntry>":[0],"sdaReg5":[0],"1093287792":[0],"1093229224":[0],"1093594400":[0],"1093229192":[0],"sdaReg3":[0],"1093594400.<java.util.HashMap$HashIterator: java.util.HashMap this$0>":[0],"sdaReg1":[0],"sdaReg0":[0],"1093229128":[0],"1093594400.<java.util.HashMap$HashIterator: int nextIndex>":[0]},"colorToColor":{"0":[0, 1]},"colorToLabel":{"0":"this","1":"return"}}}

Generated Model
	this->return

