Scanning method <java.io.PrintWriter: void write(java.lang.String)>

All seen event types: SimpleAssignmentRecord, ExitMonitorRecord, MethodStartRecord, LoadInstanceRecord, IfRecord, NewObjectRecord, StoreInstanceRecord, BinaryOperationRecord, MethodCallRecord, MethodReturnRecord, EnterMonitorRecord, ArrayLengthRecord, MethodEndRecord, 
Ignored event types: ExitMonitorRecord, EnterMonitorRecord, IfRecord, 

JSON Encoded Analysis Data (for visualization):{"heapEdges":[{"step":0,"from":"sdaReg0","to":"1093272304","type":"model"},{"step":1,"from":"1093677552","to":"1093677584","type":"load","field":"<java.io.Writer: java.lang.Object lock>"},{"step":2,"from":"1093677552","to":"1093677584","type":"load","field":"<java.io.PrintWriter: java.io.Writer out>"},{"step":3,"from":"1093677552","to":"1093677584","type":"load","field":"<java.io.PrintWriter: java.io.Writer out>"},{"step":4,"from":"1093677584","to":"1093677376","type":"load","field":"<java.io.Writer: java.lang.Object lock>"},{"step":5,"from":"1093677584","to":"1093696280","type":"load","field":"<java.io.OutputStreamWriter: java.nio.charset.CharsetEncoder encoder>"},{"step":6,"from":"1093272328","to":"sdaReg34","type":"create","field":"<java.nio.Buffer: int mark>"},{"step":7,"from":"1093272328","to":"sdaReg35","type":"create","field":"<java.nio.Buffer: int position>"},{"step":8,"from":"1093272328","to":"sdaReg32","type":"create","field":"<java.nio.Buffer: int _elementSizeShift>"},{"step":9,"from":"sdaReg26","to":"1093272328","type":"store","field":"<java.nio.Buffer: int limit>"},{"step":10,"from":"sdaReg26","to":"1093272328","type":"store","field":"<java.nio.Buffer: int capacity>"},{"step":11,"from":"1093272328","to":"1093272304","type":"create","field":"<java.nio.CharArrayBuffer: char[] backingArray>"},{"step":12,"from":"1093272328","to":"sdaReg29","type":"create","field":"<java.nio.CharArrayBuffer: int offset>"},{"step":13,"from":"1093272328","to":"sdaReg7","type":"create","field":"<java.nio.Buffer: int position>"},{"step":14,"from":"sdaReg42","to":"1093272328","type":"store","field":"<java.nio.Buffer: int limit>"},{"step":15,"from":"1093677584","to":"1093696280","type":"load","field":"<java.io.OutputStreamWriter: java.nio.charset.CharsetEncoder encoder>"},{"step":16,"from":"1093677584","to":"1093687760","type":"load","field":"<java.io.OutputStreamWriter: java.nio.ByteBuffer bytes>"},{"step":17,"from":"1093696280","to":"1093272328","type":"model"},{"step":18,"from":"1093696280","to":"1093687760","type":"model"},{"step":19,"from":"1093696280","to":"1084215096","type":"model"},{"step":20,"from":"1093272328","to":"1093696280","type":"model"},{"step":21,"from":"1093272328","to":"1093687760","type":"model"},{"step":22,"from":"1093272328","to":"1084215096","type":"model"},{"step":23,"from":"1093687760","to":"1093696280","type":"model"},{"step":24,"from":"1093687760","to":"1093272328","type":"model"},{"step":25,"from":"1093687760","to":"1084215096","type":"model"},{"step":26,"from":"1084215096","to":"1084215096.<java.nio.charset.CoderResult: int type>","type":"load","field":"<java.nio.charset.CoderResult: int type>"},{"step":27,"from":"1084215096","to":"1084215096.<java.nio.charset.CoderResult: int type>","type":"load","field":"<java.nio.charset.CoderResult: int type>"},{"step":28,"from":"1084215096","to":"1084215096.<java.nio.charset.CoderResult: int type>","type":"load","field":"<java.nio.charset.CoderResult: int type>"}],"parameters":[{"id":"1093677552","name":"this","klass":"java.io.PrintWriter"},{"id":"sdaReg0","name":"arg#1","klass":"string"}],"returns":[{"id":null,"name":"return","klass":null}],"colors":{"heapLocToColor":{"1093677584":[0],"sdaReg39":[3],"sdaReg14":[0],"sdaReg38":[3],"sdaReg11":[0],"sdaReg37":[3],"sdaReg12":[1, 2],"sdaReg31":[3],"sdaReg30":[3],"1084215096.<java.nio.charset.CoderResult: int type>":[0, 4],"sdaReg36":[3],"sdaReg18":[1, 2],"sdaReg33":[3],"1093687760":[0],"sdaReg8":[0],"sdaReg9":[1, 2],"sdaReg6":[1, 2],"sdaReg5":[0],"sdaReg27":[3],"1093696280":[0],"sdaReg28":[1, 2],"sdaReg49":[0, 4],"1084215096":[0, 4],"sdaReg45":[3],"sdaReg3":[1, 2],"sdaReg44":[0],"sdaReg2":[0],"sdaReg47":[0, 4],"1093677552.<java.io.PrintWriter: java.io.Writer out>":[0],"sdaReg1":[1, 2],"1093677376":[0],"sdaReg46":[0, 4],"sdaReg0":[1],"sdaReg41":[3],"1093677552":[0],"sdaReg23":[1, 2],"1093677584.<java.io.OutputStreamWriter: java.nio.charset.CharsetEncoder encoder>":[0],"sdaReg40":[3],"1093272304":[1, 2],"sdaReg22":[3],"sdaReg43":[3],"sdaReg25":[1, 2],"1093272328":[0, 3],"sdaReg24":[3]},"colorToColor":{"0":[0, 3, 4],"1":[3],"2":[3],"3":[0, 4]},"colorToLabel":{"0":"this","1":"arg#1","5":"return"}}}

Generated Model
	arg#1->this

