Scanning method <java.io.ObjectInputStream: java.lang.Object readNewObject(boolean)>

All seen event types: StoreArrayRecord, SimpleAssignmentRecord, MethodStartRecord, LoadInstanceRecord, IfRecord, InstanceOfRecord, StoreInstanceRecord, NewObjectRecord, NewArrayRecord, LoadStaticRecord, BinaryOperationRecord, MethodCallRecord, MethodReturnRecord, SwitchRecord, ArrayLengthRecord, CastRecord, LoadArrayRecord, MethodEndRecord, 
Ignored event types: SwitchRecord, IfRecord, 

JSON Encoded Analysis Data (for visualization):{"heapEdges":[{"step":0,"from":"1093293768","to":"1093293768.<java.io.ObjectInputStream: boolean hasPushbackTC>","type":"load","field":"<java.io.ObjectInputStream: boolean hasPushbackTC>"},{"step":1,"from":"1093293768","to":"1093386376","type":"load","field":"<java.io.ObjectInputStream: java.io.DataInputStream input>"},{"step":2,"from":"1093386376","to":"1093544616","type":"load","field":"<java.io.FilterInputStream: java.io.InputStream in>"},{"step":3,"from":"1093544616","to":"1093544616.<java.io.ByteArrayInputStream: int pos>","type":"load","field":"<java.io.ByteArrayInputStream: int pos>"},{"step":4,"from":"1093544616","to":"1093544616.<java.io.ByteArrayInputStream: int count>","type":"load","field":"<java.io.ByteArrayInputStream: int count>"},{"step":5,"from":"1093544616","to":"1093544400","type":"load","field":"<java.io.ByteArrayInputStream: byte[] buf>"},{"step":6,"from":"1093544616","to":"1093544616.<java.io.ByteArrayInputStream: int pos>","type":"load","field":"<java.io.ByteArrayInputStream: int pos>"},{"step":7,"from":"sdaReg5","to":"1093544616","type":"store","field":"<java.io.ByteArrayInputStream: int pos>"},{"step":8,"from":"1093544400","to":"1093544400.arrayIdx_int:5","type":"load","field":"arrayIdx_int:5"},{"step":9,"from":"sdaReg7","to":"1093293768","type":"store","field":"<java.io.ObjectInputStream: byte pushbackTC>"},{"step":10,"from":"1093293768","to":"1093386376","type":"load","field":"<java.io.ObjectInputStream: java.io.DataInputStream input>"},{"step":11,"from":"1093386376","to":"1093293768","type":"store","field":"<java.io.ObjectInputStream: java.io.InputStream primitiveData>"},{"step":12,"from":"1093293768","to":"1093293768.<java.io.ObjectInputStream: int descriptorHandle>","type":"load","field":"<java.io.ObjectInputStream: int descriptorHandle>"},{"step":13,"from":"1093293768","to":"1093293768.<java.io.ObjectInputStream: int nextHandle>","type":"load","field":"<java.io.ObjectInputStream: int nextHandle>"},{"step":14,"from":"sdaReg12","to":"1093293768","type":"store","field":"<java.io.ObjectInputStream: int nextHandle>"},{"step":15,"from":"1093293768.<java.io.ObjectInputStream: int nextHandle>","to":"1093293768","type":"store","field":"<java.io.ObjectInputStream: int descriptorHandle>"},{"step":16,"from":"1093293768","to":"1093386376","type":"load","field":"<java.io.ObjectInputStream: java.io.DataInputStream input>"},{"step":17,"from":"1093386376","to":"1093544616","type":"load","field":"<java.io.FilterInputStream: java.io.InputStream in>"},{"step":18,"from":"1093386376","to":"1093388312","type":"load","field":"<java.io.DataInputStream: byte[] scratch>"},{"step":19,"from":"1093544616","to":"1093388312","type":"model"},{"step":20,"from":"1093386376","to":"1093388312","type":"load","field":"<java.io.DataInputStream: byte[] scratch>"},{"step":21,"from":"static.<java.nio.ByteOrder: java.nio.ByteOrder BIG_ENDIAN>","to":"1084339448","type":"load","field":"<java.nio.ByteOrder: java.nio.ByteOrder BIG_ENDIAN>"},{"step":22,"from":"1093388312","to":"sdaReg19","type":"model"},{"step":23,"from":"1093386376","to":"1093544616","type":"load","field":"<java.io.FilterInputStream: java.io.InputStream in>"},{"step":24,"from":"1093544616","to":"1093497832","type":"model"},{"step":25,"from":"1093497832","to":"1093497832.arrayIdx_int:0","type":"load","field":"arrayIdx_int:0"},{"step":26,"from":"sdaReg33","to":"1093499800","type":"store","field":"arrayIdx_int:0"},{"step":27,"from":"1093497832","to":"1093497832.arrayIdx_int:1","type":"load","field":"arrayIdx_int:1"},{"step":28,"from":"sdaReg33","to":"1093499800","type":"store","field":"arrayIdx_int:1"},{"step":29,"from":"1093497832","to":"1093497832.arrayIdx_int:2","type":"load","field":"arrayIdx_int:2"},{"step":30,"from":"sdaReg33","to":"1093499800","type":"store","field":"arrayIdx_int:2"},{"step":31,"from":"1093497832","to":"1093497832.arrayIdx_int:3","type":"load","field":"arrayIdx_int:3"},{"step":32,"from":"sdaReg33","to":"1093499800","type":"store","field":"arrayIdx_int:3"},{"step":33,"from":"1093497832","to":"1093497832.arrayIdx_int:4","type":"load","field":"arrayIdx_int:4"},{"step":34,"from":"sdaReg33","to":"1093499800","type":"store","field":"arrayIdx_int:4"},{"step":35,"from":"1093497832","to":"1093497832.arrayIdx_int:5","type":"load","field":"arrayIdx_int:5"},{"step":36,"from":"sdaReg33","to":"1093499800","type":"store","field":"arrayIdx_int:5"},{"step":37,"from":"1093497832","to":"1093497832.arrayIdx_int:6","type":"load","field":"arrayIdx_int:6"},{"step":38,"from":"sdaReg33","to":"1093499800","type":"store","field":"arrayIdx_int:6"},{"step":39,"from":"1093497832","to":"1093497832.arrayIdx_int:7","type":"load","field":"arrayIdx_int:7"},{"step":40,"from":"sdaReg33","to":"1093499800","type":"store","field":"arrayIdx_int:7"},{"step":41,"from":"1093497832","to":"1093497832.arrayIdx_int:8","type":"load","field":"arrayIdx_int:8"},{"step":42,"from":"sdaReg33","to":"1093499800","type":"store","field":"arrayIdx_int:8"},{"step":43,"from":"1093497832","to":"1093497832.arrayIdx_int:9","type":"load","field":"arrayIdx_int:9"},{"step":44,"from":"sdaReg33","to":"1093499800","type":"store","field":"arrayIdx_int:9"},{"step":45,"from":"1093497832","to":"1093497832.arrayIdx_int:10","type":"load","field":"arrayIdx_int:10"},{"step":46,"from":"sdaReg33","to":"1093499800","type":"store","field":"arrayIdx_int:10"},{"step":47,"from":"1093497832","to":"1093497832.arrayIdx_int:11","type":"load","field":"arrayIdx_int:11"},{"step":48,"from":"sdaReg33","to":"1093499800","type":"store","field":"arrayIdx_int:11"},{"step":49,"from":"1093497832","to":"1093497832.arrayIdx_int:12","type":"load","field":"arrayIdx_int:12"},{"step":50,"from":"sdaReg33","to":"1093499800","type":"store","field":"arrayIdx_int:12"},{"step":51,"from":"1093497832","to":"1093497832.arrayIdx_int:13","type":"load","field":"arrayIdx_int:13"},{"step":52,"from":"sdaReg33","to":"1093499800","type":"store","field":"arrayIdx_int:13"},{"step":53,"from":"1093497832","to":"1093497832.arrayIdx_int:14","type":"load","field":"arrayIdx_int:14"},{"step":54,"from":"sdaReg33","to":"1093499800","type":"store","field":"arrayIdx_int:14"},{"step":55,"from":"1093497832","to":"1093497832.arrayIdx_int:15","type":"load","field":"arrayIdx_int:15"},{"step":56,"from":"sdaReg33","to":"1093499800","type":"store","field":"arrayIdx_int:15"},{"step":57,"from":"1093497832","to":"1093497832.arrayIdx_int:16","type":"load","field":"arrayIdx_int:16"},{"step":58,"from":"sdaReg33","to":"1093499800","type":"store","field":"arrayIdx_int:16"},{"step":59,"from":"1093499800","to":"sdaReg34","type":"model"},{"step":60,"from":"1093497664","to":"sdaReg34","type":"model"},{"step":61,"from":"sdaReg34","to":"1093497664","type":"model"},{"step":62,"from":"1093293768","to":"1093386376","type":"load","field":"<java.io.ObjectInputStream: java.io.DataInputStream input>"},{"step":63,"from":"1093386376","to":"1093544616","type":"load","field":"<java.io.FilterInputStream: java.io.InputStream in>"},{"step":64,"from":"1093386376","to":"1093388312","type":"load","field":"<java.io.DataInputStream: byte[] scratch>"},{"step":65,"from":"1093544616","to":"1093388312","type":"model"},{"step":66,"from":"1093386376","to":"1093388312","type":"load","field":"<java.io.DataInputStream: byte[] scratch>"},{"step":67,"from":"static.<java.nio.ByteOrder: java.nio.ByteOrder BIG_ENDIAN>","to":"1084339448","type":"load","field":"<java.nio.ByteOrder: java.nio.ByteOrder BIG_ENDIAN>"},{"step":68,"from":"1093388312","to":"sdaReg37","type":"model"},{"step":69,"from":"1093497664","to":"sdaReg37","type":"model"},{"step":70,"from":"sdaReg37","to":"1093497664","type":"model"},{"step":71,"from":"1093293768","to":"1093386376","type":"load","field":"<java.io.ObjectInputStream: java.io.DataInputStream input>"},{"step":72,"from":"1093386376","to":"1093544616","type":"load","field":"<java.io.FilterInputStream: java.io.InputStream in>"},{"step":73,"from":"1093544616","to":"1093544616.<java.io.ByteArrayInputStream: int count>","type":"load","field":"<java.io.ByteArrayInputStream: int count>"},{"step":74,"from":"1093544616","to":"1093544400","type":"load","field":"<java.io.ByteArrayInputStream: byte[] buf>"},{"step":75,"from":"sdaReg40","to":"1093544616","type":"store","field":"<java.io.ByteArrayInputStream: int pos>"},{"step":76,"from":"1093544400","to":"1093544400.arrayIdx_int:33","type":"load","field":"arrayIdx_int:33"},{"step":77,"from":"1093497664","to":"sdaReg42","type":"model"},{"step":78,"from":"sdaReg42","to":"1093497664","type":"model"},{"step":79,"from":"1093293768","to":"1093388400","type":"load","field":"<java.io.ObjectInputStream: java.util.ArrayList objectsRead>"},{"step":80,"from":"1093388400","to":"1093388400.<java.util.ArrayList: int size>","type":"load","field":"<java.util.ArrayList: int size>"},{"step":81,"from":"1093293768","to":"1093388400","type":"load","field":"<java.io.ObjectInputStream: java.util.ArrayList objectsRead>"},{"step":82,"from":"1093388400","to":"1083994088","type":"load","field":"<java.util.ArrayList: java.lang.Object[] array>"},{"step":83,"from":"1093388400","to":"1093388400.<java.util.ArrayList: int size>","type":"load","field":"<java.util.ArrayList: int size>"},{"step":84,"from":"1083994088","to":"1093453440","type":"model"},{"step":85,"from":"1093388400","to":"1093453440","type":"create","field":"<java.util.ArrayList: java.lang.Object[] array>"},{"step":86,"from":"1093453440","to":"1093497664","type":"create","field":"arrayIdx_int:0"},{"step":87,"from":"sdaReg54","to":"1093388400","type":"store","field":"<java.util.ArrayList: int size>"},{"step":88,"from":"1093388400","to":"1093388400.<java.util.AbstractList: int modCount>","type":"load","field":"<java.util.AbstractList: int modCount>"},{"step":89,"from":"sdaReg55","to":"1093388400","type":"store","field":"<java.util.AbstractList: int modCount>"},{"step":90,"from":"1093293768","to":"1093386376","type":"load","field":"<java.io.ObjectInputStream: java.io.DataInputStream input>"},{"step":91,"from":"1093386376","to":"1093544616","type":"load","field":"<java.io.FilterInputStream: java.io.InputStream in>"},{"step":92,"from":"1093386376","to":"1093388312","type":"load","field":"<java.io.DataInputStream: byte[] scratch>"},{"step":93,"from":"1093544616","to":"1093388312","type":"model"},{"step":94,"from":"1093386376","to":"1093388312","type":"load","field":"<java.io.DataInputStream: byte[] scratch>"},{"step":95,"from":"static.<java.nio.ByteOrder: java.nio.ByteOrder BIG_ENDIAN>","to":"1084339448","type":"load","field":"<java.nio.ByteOrder: java.nio.ByteOrder BIG_ENDIAN>"},{"step":96,"from":"1093388312","to":"sdaReg60","type":"model"},{"step":97,"from":"1093497664","to":"1093702528","type":"model"},{"step":98,"from":"1093702528","to":"1093497664","type":"model"},{"step":99,"from":"1093293768","to":"1093386376","type":"load","field":"<java.io.ObjectInputStream: java.io.DataInputStream input>"},{"step":100,"from":"1093386376","to":"1093544616","type":"load","field":"<java.io.FilterInputStream: java.io.InputStream in>"},{"step":101,"from":"1093544616","to":"1093544616.<java.io.ByteArrayInputStream: int count>","type":"load","field":"<java.io.ByteArrayInputStream: int count>"},{"step":102,"from":"1093544616","to":"1093544400","type":"load","field":"<java.io.ByteArrayInputStream: byte[] buf>"},{"step":103,"from":"sdaReg64","to":"1093544616","type":"store","field":"<java.io.ByteArrayInputStream: int pos>"},{"step":104,"from":"1093544400","to":"1093544400.arrayIdx_int:36","type":"load","field":"arrayIdx_int:36"},{"step":105,"from":"1093293768","to":"1093386376","type":"load","field":"<java.io.ObjectInputStream: java.io.DataInputStream input>"},{"step":106,"from":"1093386376","to":"1093544616","type":"load","field":"<java.io.FilterInputStream: java.io.InputStream in>"},{"step":107,"from":"1093386376","to":"1093388312","type":"load","field":"<java.io.DataInputStream: byte[] scratch>"},{"step":108,"from":"1093544616","to":"1093388312","type":"model"},{"step":109,"from":"1093386376","to":"1093388312","type":"load","field":"<java.io.DataInputStream: byte[] scratch>"},{"step":110,"from":"static.<java.nio.ByteOrder: java.nio.ByteOrder BIG_ENDIAN>","to":"1084339448","type":"load","field":"<java.nio.ByteOrder: java.nio.ByteOrder BIG_ENDIAN>"},{"step":111,"from":"1093388312","to":"sdaReg71","type":"model"},{"step":112,"from":"1093386376","to":"1093544616","type":"load","field":"<java.io.FilterInputStream: java.io.InputStream in>"},{"step":113,"from":"1093544616","to":"1093325200","type":"model"},{"step":114,"from":"1093325200","to":"1093325200.arrayIdx_int:0","type":"load","field":"arrayIdx_int:0"},{"step":115,"from":"sdaReg85","to":"1093319920","type":"store","field":"arrayIdx_int:0"},{"step":116,"from":"1093325200","to":"1093325200.arrayIdx_int:1","type":"load","field":"arrayIdx_int:1"},{"step":117,"from":"sdaReg85","to":"1093319920","type":"store","field":"arrayIdx_int:1"},{"step":118,"from":"1093325200","to":"1093325200.arrayIdx_int:2","type":"load","field":"arrayIdx_int:2"},{"step":119,"from":"sdaReg85","to":"1093319920","type":"store","field":"arrayIdx_int:2"},{"step":120,"from":"1093325200","to":"1093325200.arrayIdx_int:3","type":"load","field":"arrayIdx_int:3"},{"step":121,"from":"sdaReg85","to":"1093319920","type":"store","field":"arrayIdx_int:3"},{"step":122,"from":"1093325200","to":"1093325200.arrayIdx_int:4","type":"load","field":"arrayIdx_int:4"},{"step":123,"from":"sdaReg85","to":"1093319920","type":"store","field":"arrayIdx_int:4"},{"step":124,"from":"1093319920","to":"sdaReg86","type":"model"},{"step":125,"from":"sdaReg67","to":"sdaReg87","type":"model"},{"step":126,"from":"sdaReg67","to":"sdaReg88","type":"model"},{"step":127,"from":"sdaReg88","to":"sdaReg89","type":"model"},{"step":128,"from":"sdaReg88","to":"sdaReg91","type":"model"},{"step":129,"from":"sdaReg89","to":"sdaReg88","type":"model"},{"step":130,"from":"sdaReg89","to":"sdaReg91","type":"model"},{"step":131,"from":"sdaReg86","to":"1093280088","type":"store","field":"<java.io.ObjectStreamField: java.lang.String name>"},{"step":132,"from":"sdaReg88","to":"sdaReg94","type":"model"},{"step":133,"from":"sdaReg94","to":"sdaReg95","type":"model"},{"step":134,"from":"sdaReg95","to":"1093280088","type":"store","field":"<java.io.ObjectStreamField: java.lang.String typeString>"},{"step":135,"from":"static.<java.lang.Integer: java.lang.Class TYPE>","to":"1083909616","type":"load","field":"<java.lang.Integer: java.lang.Class TYPE>"},{"step":136,"from":"1083909616","to":"1093280088","type":"store","field":"<java.io.ObjectStreamField: java.lang.Object type>"},{"step":137,"from":"1093280088","to":"sdaReg99","type":"create","field":"<java.io.ObjectStreamField: boolean isDeserialized>"},{"step":138,"from":"1093702528","to":"1093280088","type":"create","field":"arrayIdx_int:0"},{"step":139,"from":"1093293768","to":"1093388400","type":"load","field":"<java.io.ObjectInputStream: java.util.ArrayList objectsRead>"},{"step":140,"from":"1093293768","to":"1093388400","type":"load","field":"<java.io.ObjectInputStream: java.util.ArrayList objectsRead>"},{"step":141,"from":"1093497664","to":"1093453440","type":"store","field":"arrayIdx_int:0"},{"step":142,"from":"1093293768.<java.io.ObjectInputStream: int descriptorHandle>","to":"1093293768","type":"store","field":"<java.io.ObjectInputStream: int descriptorHandle>"},{"step":143,"from":"1093293768","to":"1093386288","type":"load","field":"<java.io.ObjectInputStream: java.io.InputStream emptyStream>"},{"step":144,"from":"1093386288","to":"1093293768","type":"store","field":"<java.io.ObjectInputStream: java.io.InputStream primitiveData>"},{"step":145,"from":"1093497664","to":"0","type":"model"},{"step":146,"from":"1093497664","to":"sdaReg115","type":"model"},{"step":147,"from":"static.<java.io.ObjectInputStream: java.util.HashMap PRIMITIVE_CLASSES>","to":"1093661056","type":"load","field":"<java.io.ObjectInputStream: java.util.HashMap PRIMITIVE_CLASSES>"},{"step":148,"from":"1093661056","to":"1093646272","type":"load","field":"<java.util.HashMap: java.util.HashMap$HashMapEntry[] table>"},{"step":149,"from":"1093646272","to":"1093673432","type":"load","field":"arrayIdx_int:9"},{"step":150,"from":"1093673432","to":"1083992288","type":"load","field":"<java.util.HashMap$HashMapEntry: java.lang.Object key>"},{"step":151,"from":"1093673432","to":"1093673432.<java.util.HashMap$HashMapEntry: int hash>","type":"load","field":"<java.util.HashMap$HashMapEntry: int hash>"},{"step":152,"from":"1093293768","to":"1093284544","type":"load","field":"<java.io.ObjectInputStream: java.lang.ClassLoader callerClassLoader>"},{"step":153,"from":"sdaReg115","to":"1093284544","type":"model"},{"step":154,"from":"sdaReg115","to":"1083934568","type":"model"},{"step":155,"from":"1093284544","to":"sdaReg115","type":"model"},{"step":156,"from":"1093284544","to":"1083934568","type":"model"},{"step":157,"from":"1093497664","to":"1083934568","type":"model"},{"step":158,"from":"1083934568","to":"1093497664","type":"model"},{"step":159,"from":"1093497664","to":"1083934568","type":"model"},{"step":160,"from":"1083934568","to":"1093622840","type":"model"},{"step":161,"from":"1093497664","to":"sdaReg136","type":"model"},{"step":162,"from":"1093622840","to":"sdaReg137","type":"model"},{"step":163,"from":"1093497664","to":"sdaReg139","type":"model"},{"step":164,"from":"sdaReg139","to":"sdaReg140","type":"model"},{"step":165,"from":"sdaReg139","to":"sdaReg143","type":"model"},{"step":166,"from":"sdaReg139","to":"sdaReg144","type":"model"},{"step":167,"from":"sdaReg143","to":"sdaReg139","type":"model"},{"step":168,"from":"sdaReg143","to":"sdaReg144","type":"model"},{"step":169,"from":"1093622840","to":"sdaReg145","type":"model"},{"step":170,"from":"sdaReg145","to":"sdaReg146","type":"model"},{"step":171,"from":"sdaReg145","to":"sdaReg149","type":"model"},{"step":172,"from":"sdaReg145","to":"sdaReg150","type":"model"},{"step":173,"from":"sdaReg149","to":"sdaReg145","type":"model"},{"step":174,"from":"sdaReg149","to":"sdaReg150","type":"model"},{"step":175,"from":"1093497664","to":"1093622840","type":"model"},{"step":176,"from":"1093622840","to":"1093497664","type":"model"},{"step":177,"from":"1093497664","to":"1093702528","type":"model"},{"step":178,"from":"1093497664","to":"1083934568","type":"model"},{"step":179,"from":"1093497664","to":"1083934568","type":"model"},{"step":180,"from":"1083934568","to":"1083999984","type":"model"},{"step":181,"from":"static.<java.lang.Integer: java.lang.Class TYPE>","to":"1083909616","type":"load","field":"<java.lang.Integer: java.lang.Class TYPE>"},{"step":182,"from":"1083909616","to":"1093280088","type":"store","field":"<java.io.ObjectStreamField: java.lang.Object type>"},{"step":183,"from":"1093293768","to":"1093386288","type":"load","field":"<java.io.ObjectInputStream: java.io.InputStream emptyStream>"},{"step":184,"from":"1093386288","to":"1093293768","type":"store","field":"<java.io.ObjectInputStream: java.io.InputStream primitiveData>"},{"step":185,"from":"1093293768","to":"1093293768.<java.io.ObjectInputStream: boolean mustResolve>","type":"load","field":"<java.io.ObjectInputStream: boolean mustResolve>"},{"step":186,"from":"1093293768","to":"sdaReg169","type":"create","field":"<java.io.ObjectInputStream: boolean mustResolve>"},{"step":187,"from":"1093293768","to":"1093293768.<java.io.ObjectInputStream: boolean hasPushbackTC>","type":"load","field":"<java.io.ObjectInputStream: boolean hasPushbackTC>"},{"step":188,"from":"1093293768","to":"1093386376","type":"load","field":"<java.io.ObjectInputStream: java.io.DataInputStream input>"},{"step":189,"from":"1093386376","to":"1093544616","type":"load","field":"<java.io.FilterInputStream: java.io.InputStream in>"},{"step":190,"from":"1093544616","to":"1093544616.<java.io.ByteArrayInputStream: int count>","type":"load","field":"<java.io.ByteArrayInputStream: int count>"},{"step":191,"from":"1093544616","to":"1093544400","type":"load","field":"<java.io.ByteArrayInputStream: byte[] buf>"},{"step":192,"from":"sdaReg173","to":"1093544616","type":"store","field":"<java.io.ByteArrayInputStream: int pos>"},{"step":193,"from":"1093544400","to":"1093544400.arrayIdx_int:44","type":"load","field":"arrayIdx_int:44"},{"step":194,"from":"sdaReg175","to":"1093293768","type":"store","field":"<java.io.ObjectInputStream: byte pushbackTC>"},{"step":195,"from":"1093293768.<java.io.ObjectInputStream: boolean mustResolve>","to":"1093293768","type":"store","field":"<java.io.ObjectInputStream: boolean mustResolve>"},{"step":196,"from":"1093293768","to":"1093293768.<java.io.ObjectInputStream: boolean hasPushbackTC>","type":"load","field":"<java.io.ObjectInputStream: boolean hasPushbackTC>"},{"step":197,"from":"1093293768","to":"1093386376","type":"load","field":"<java.io.ObjectInputStream: java.io.DataInputStream input>"},{"step":198,"from":"1093386376","to":"1093544616","type":"load","field":"<java.io.FilterInputStream: java.io.InputStream in>"},{"step":199,"from":"1093544616","to":"1093544616.<java.io.ByteArrayInputStream: int count>","type":"load","field":"<java.io.ByteArrayInputStream: int count>"},{"step":200,"from":"1093544616","to":"1093544400","type":"load","field":"<java.io.ByteArrayInputStream: byte[] buf>"},{"step":201,"from":"sdaReg181","to":"1093544616","type":"store","field":"<java.io.ByteArrayInputStream: int pos>"},{"step":202,"from":"1093544400","to":"1093544400.arrayIdx_int:45","type":"load","field":"arrayIdx_int:45"},{"step":203,"from":"sdaReg183","to":"1093293768","type":"store","field":"<java.io.ObjectInputStream: byte pushbackTC>"},{"step":204,"from":"1093293768","to":"1093386376","type":"load","field":"<java.io.ObjectInputStream: java.io.DataInputStream input>"},{"step":205,"from":"1093386376","to":"1093293768","type":"store","field":"<java.io.ObjectInputStream: java.io.InputStream primitiveData>"},{"step":206,"from":"sdaReg188","to":"1093293768","type":"store","field":"<java.io.ObjectInputStream: int nextHandle>"},{"step":207,"from":"sdaReg189","to":"1093293768","type":"store","field":"<java.io.ObjectInputStream: int descriptorHandle>"},{"step":208,"from":"1093293768","to":"1093386376","type":"load","field":"<java.io.ObjectInputStream: java.io.DataInputStream input>"},{"step":209,"from":"1093386376","to":"1093544616","type":"load","field":"<java.io.FilterInputStream: java.io.InputStream in>"},{"step":210,"from":"1093386376","to":"1093388312","type":"load","field":"<java.io.DataInputStream: byte[] scratch>"},{"step":211,"from":"1093544616","to":"1093388312","type":"model"},{"step":212,"from":"1093386376","to":"1093388312","type":"load","field":"<java.io.DataInputStream: byte[] scratch>"},{"step":213,"from":"static.<java.nio.ByteOrder: java.nio.ByteOrder BIG_ENDIAN>","to":"1084339448","type":"load","field":"<java.nio.ByteOrder: java.nio.ByteOrder BIG_ENDIAN>"},{"step":214,"from":"1093388312","to":"sdaReg196","type":"model"},{"step":215,"from":"1093386376","to":"1093544616","type":"load","field":"<java.io.FilterInputStream: java.io.InputStream in>"},{"step":216,"from":"1093544616","to":"1093292448","type":"model"},{"step":217,"from":"1093292448","to":"1093292448.arrayIdx_int:0","type":"load","field":"arrayIdx_int:0"},{"step":218,"from":"sdaReg210","to":"1093292488","type":"store","field":"arrayIdx_int:0"},{"step":219,"from":"1093292448","to":"1093292448.arrayIdx_int:1","type":"load","field":"arrayIdx_int:1"},{"step":220,"from":"sdaReg210","to":"1093292488","type":"store","field":"arrayIdx_int:1"},{"step":221,"from":"1093292448","to":"1093292448.arrayIdx_int:2","type":"load","field":"arrayIdx_int:2"},{"step":222,"from":"sdaReg210","to":"1093292488","type":"store","field":"arrayIdx_int:2"},{"step":223,"from":"1093292448","to":"1093292448.arrayIdx_int:3","type":"load","field":"arrayIdx_int:3"},{"step":224,"from":"sdaReg210","to":"1093292488","type":"store","field":"arrayIdx_int:3"},{"step":225,"from":"1093292448","to":"1093292448.arrayIdx_int:4","type":"load","field":"arrayIdx_int:4"},{"step":226,"from":"sdaReg210","to":"1093292488","type":"store","field":"arrayIdx_int:4"},{"step":227,"from":"1093292448","to":"1093292448.arrayIdx_int:5","type":"load","field":"arrayIdx_int:5"},{"step":228,"from":"sdaReg210","to":"1093292488","type":"store","field":"arrayIdx_int:5"},{"step":229,"from":"1093292448","to":"1093292448.arrayIdx_int:6","type":"load","field":"arrayIdx_int:6"},{"step":230,"from":"sdaReg210","to":"1093292488","type":"store","field":"arrayIdx_int:6"},{"step":231,"from":"1093292448","to":"1093292448.arrayIdx_int:7","type":"load","field":"arrayIdx_int:7"},{"step":232,"from":"sdaReg210","to":"1093292488","type":"store","field":"arrayIdx_int:7"},{"step":233,"from":"1093292448","to":"1093292448.arrayIdx_int:8","type":"load","field":"arrayIdx_int:8"},{"step":234,"from":"sdaReg210","to":"1093292488","type":"store","field":"arrayIdx_int:8"},{"step":235,"from":"1093292448","to":"1093292448.arrayIdx_int:9","type":"load","field":"arrayIdx_int:9"},{"step":236,"from":"sdaReg210","to":"1093292488","type":"store","field":"arrayIdx_int:9"},{"step":237,"from":"1093292448","to":"1093292448.arrayIdx_int:10","type":"load","field":"arrayIdx_int:10"},{"step":238,"from":"sdaReg210","to":"1093292488","type":"store","field":"arrayIdx_int:10"},{"step":239,"from":"1093292448","to":"1093292448.arrayIdx_int:11","type":"load","field":"arrayIdx_int:11"},{"step":240,"from":"sdaReg210","to":"1093292488","type":"store","field":"arrayIdx_int:11"},{"step":241,"from":"1093292448","to":"1093292448.arrayIdx_int:12","type":"load","field":"arrayIdx_int:12"},{"step":242,"from":"sdaReg210","to":"1093292488","type":"store","field":"arrayIdx_int:12"},{"step":243,"from":"1093292448","to":"1093292448.arrayIdx_int:13","type":"load","field":"arrayIdx_int:13"},{"step":244,"from":"sdaReg210","to":"1093292488","type":"store","field":"arrayIdx_int:13"},{"step":245,"from":"1093292448","to":"1093292448.arrayIdx_int:14","type":"load","field":"arrayIdx_int:14"},{"step":246,"from":"sdaReg210","to":"1093292488","type":"store","field":"arrayIdx_int:14"},{"step":247,"from":"1093292448","to":"1093292448.arrayIdx_int:15","type":"load","field":"arrayIdx_int:15"},{"step":248,"from":"sdaReg210","to":"1093292488","type":"store","field":"arrayIdx_int:15"},{"step":249,"from":"1093292488","to":"sdaReg211","type":"model"},{"step":250,"from":"1093286304","to":"sdaReg211","type":"model"},{"step":251,"from":"sdaReg211","to":"1093286304","type":"model"},{"step":252,"from":"1093293768","to":"1093386376","type":"load","field":"<java.io.ObjectInputStream: java.io.DataInputStream input>"},{"step":253,"from":"1093386376","to":"1093544616","type":"load","field":"<java.io.FilterInputStream: java.io.InputStream in>"},{"step":254,"from":"1093386376","to":"1093388312","type":"load","field":"<java.io.DataInputStream: byte[] scratch>"},{"step":255,"from":"1093544616","to":"1093388312","type":"model"},{"step":256,"from":"1093386376","to":"1093388312","type":"load","field":"<java.io.DataInputStream: byte[] scratch>"},{"step":257,"from":"static.<java.nio.ByteOrder: java.nio.ByteOrder BIG_ENDIAN>","to":"1084339448","type":"load","field":"<java.nio.ByteOrder: java.nio.ByteOrder BIG_ENDIAN>"},{"step":258,"from":"1093388312","to":"sdaReg214","type":"model"},{"step":259,"from":"1093286304","to":"sdaReg214","type":"model"},{"step":260,"from":"sdaReg214","to":"1093286304","type":"model"},{"step":261,"from":"1093293768","to":"1093386376","type":"load","field":"<java.io.ObjectInputStream: java.io.DataInputStream input>"},{"step":262,"from":"1093386376","to":"1093544616","type":"load","field":"<java.io.FilterInputStream: java.io.InputStream in>"},{"step":263,"from":"1093544616","to":"1093544616.<java.io.ByteArrayInputStream: int count>","type":"load","field":"<java.io.ByteArrayInputStream: int count>"},{"step":264,"from":"1093544616","to":"1093544400","type":"load","field":"<java.io.ByteArrayInputStream: byte[] buf>"},{"step":265,"from":"sdaReg217","to":"1093544616","type":"store","field":"<java.io.ByteArrayInputStream: int pos>"},{"step":266,"from":"1093544400","to":"1093544400.arrayIdx_int:72","type":"load","field":"arrayIdx_int:72"},{"step":267,"from":"1093286304","to":"sdaReg219","type":"model"},{"step":268,"from":"sdaReg219","to":"1093286304","type":"model"},{"step":269,"from":"1093293768","to":"1093388400","type":"load","field":"<java.io.ObjectInputStream: java.util.ArrayList objectsRead>"},{"step":270,"from":"1093293768","to":"1093388400","type":"load","field":"<java.io.ObjectInputStream: java.util.ArrayList objectsRead>"},{"step":271,"from":"1093453440","to":"1093286304","type":"create","field":"arrayIdx_int:1"},{"step":272,"from":"sdaReg230","to":"1093388400","type":"store","field":"<java.util.ArrayList: int size>"},{"step":273,"from":"sdaReg231","to":"1093388400","type":"store","field":"<java.util.AbstractList: int modCount>"},{"step":274,"from":"1093293768","to":"1093386376","type":"load","field":"<java.io.ObjectInputStream: java.io.DataInputStream input>"},{"step":275,"from":"1093386376","to":"1093544616","type":"load","field":"<java.io.FilterInputStream: java.io.InputStream in>"},{"step":276,"from":"1093386376","to":"1093388312","type":"load","field":"<java.io.DataInputStream: byte[] scratch>"},{"step":277,"from":"1093544616","to":"1093388312","type":"model"},{"step":278,"from":"1093386376","to":"1093388312","type":"load","field":"<java.io.DataInputStream: byte[] scratch>"},{"step":279,"from":"static.<java.nio.ByteOrder: java.nio.ByteOrder BIG_ENDIAN>","to":"1084339448","type":"load","field":"<java.nio.ByteOrder: java.nio.ByteOrder BIG_ENDIAN>"},{"step":280,"from":"1093388312","to":"sdaReg236","type":"model"},{"step":281,"from":"1093286304","to":"1093481392","type":"model"},{"step":282,"from":"1093481392","to":"1093286304","type":"model"},{"step":283,"from":"1093293768","to":"1093388400","type":"load","field":"<java.io.ObjectInputStream: java.util.ArrayList objectsRead>"},{"step":284,"from":"1093293768","to":"1093388400","type":"load","field":"<java.io.ObjectInputStream: java.util.ArrayList objectsRead>"},{"step":285,"from":"1093286304","to":"1093453440","type":"store","field":"arrayIdx_int:1"},{"step":286,"from":"sdaReg247","to":"1093293768","type":"store","field":"<java.io.ObjectInputStream: int descriptorHandle>"},{"step":287,"from":"1093293768","to":"1093386288","type":"load","field":"<java.io.ObjectInputStream: java.io.InputStream emptyStream>"},{"step":288,"from":"1093386288","to":"1093293768","type":"store","field":"<java.io.ObjectInputStream: java.io.InputStream primitiveData>"},{"step":289,"from":"1093286304","to":"0","type":"model"},{"step":290,"from":"1093286304","to":"sdaReg251","type":"model"},{"step":291,"from":"static.<java.io.ObjectInputStream: java.util.HashMap PRIMITIVE_CLASSES>","to":"1093661056","type":"load","field":"<java.io.ObjectInputStream: java.util.HashMap PRIMITIVE_CLASSES>"},{"step":292,"from":"1093661056","to":"1093646272","type":"load","field":"<java.util.HashMap: java.util.HashMap$HashMapEntry[] table>"},{"step":293,"from":"1093646272","to":"1093646360","type":"load","field":"arrayIdx_int:0"},{"step":294,"from":"1093646360","to":"1083991528","type":"load","field":"<java.util.HashMap$HashMapEntry: java.lang.Object key>"},{"step":295,"from":"1093646360","to":"1093646360.<java.util.HashMap$HashMapEntry: int hash>","type":"load","field":"<java.util.HashMap$HashMapEntry: int hash>"},{"step":296,"from":"1093293768","to":"1093284544","type":"load","field":"<java.io.ObjectInputStream: java.lang.ClassLoader callerClassLoader>"},{"step":297,"from":"sdaReg251","to":"1093284544","type":"model"},{"step":298,"from":"sdaReg251","to":"1083931088","type":"model"},{"step":299,"from":"1093284544","to":"sdaReg251","type":"model"},{"step":300,"from":"1093284544","to":"1083931088","type":"model"},{"step":301,"from":"1093286304","to":"1083931088","type":"model"},{"step":302,"from":"1083931088","to":"1093286304","type":"model"},{"step":303,"from":"1093286304","to":"1083931088","type":"model"},{"step":304,"from":"1083931088","to":"1093514224","type":"model"},{"step":305,"from":"1093286304","to":"sdaReg272","type":"model"},{"step":306,"from":"1093514224","to":"sdaReg273","type":"model"},{"step":307,"from":"1093286304","to":"sdaReg275","type":"model"},{"step":308,"from":"sdaReg275","to":"sdaReg276","type":"model"},{"step":309,"from":"sdaReg275","to":"sdaReg279","type":"model"},{"step":310,"from":"sdaReg275","to":"sdaReg280","type":"model"},{"step":311,"from":"sdaReg279","to":"sdaReg275","type":"model"},{"step":312,"from":"sdaReg279","to":"sdaReg280","type":"model"},{"step":313,"from":"1093514224","to":"sdaReg281","type":"model"},{"step":314,"from":"sdaReg281","to":"sdaReg282","type":"model"},{"step":315,"from":"sdaReg281","to":"sdaReg285","type":"model"},{"step":316,"from":"sdaReg281","to":"sdaReg286","type":"model"},{"step":317,"from":"sdaReg285","to":"sdaReg281","type":"model"},{"step":318,"from":"sdaReg285","to":"sdaReg286","type":"model"},{"step":319,"from":"1093286304","to":"1093514224","type":"model"},{"step":320,"from":"1093514224","to":"1093286304","type":"model"},{"step":321,"from":"1093286304","to":"1093481392","type":"model"},{"step":322,"from":"1093286304","to":"1083931088","type":"model"},{"step":323,"from":"1093286304","to":"1083931088","type":"model"},{"step":324,"from":"1083931088","to":"1083999984","type":"model"},{"step":325,"from":"1093293768","to":"1093386288","type":"load","field":"<java.io.ObjectInputStream: java.io.InputStream emptyStream>"},{"step":326,"from":"1093386288","to":"1093293768","type":"store","field":"<java.io.ObjectInputStream: java.io.InputStream primitiveData>"},{"step":327,"from":"1093293768","to":"sdaReg299","type":"create","field":"<java.io.ObjectInputStream: boolean mustResolve>"},{"step":328,"from":"1093293768","to":"1093293768.<java.io.ObjectInputStream: boolean hasPushbackTC>","type":"load","field":"<java.io.ObjectInputStream: boolean hasPushbackTC>"},{"step":329,"from":"1093293768","to":"1093386376","type":"load","field":"<java.io.ObjectInputStream: java.io.DataInputStream input>"},{"step":330,"from":"1093386376","to":"1093544616","type":"load","field":"<java.io.FilterInputStream: java.io.InputStream in>"},{"step":331,"from":"1093544616","to":"1093544616.<java.io.ByteArrayInputStream: int count>","type":"load","field":"<java.io.ByteArrayInputStream: int count>"},{"step":332,"from":"1093544616","to":"1093544400","type":"load","field":"<java.io.ByteArrayInputStream: byte[] buf>"},{"step":333,"from":"sdaReg303","to":"1093544616","type":"store","field":"<java.io.ByteArrayInputStream: int pos>"},{"step":334,"from":"1093544400","to":"1093544400.arrayIdx_int:75","type":"load","field":"arrayIdx_int:75"},{"step":335,"from":"sdaReg305","to":"1093293768","type":"store","field":"<java.io.ObjectInputStream: byte pushbackTC>"},{"step":336,"from":"sdaReg307","to":"1093293768","type":"store","field":"<java.io.ObjectInputStream: boolean mustResolve>"},{"step":337,"from":"1093293768","to":"1093293768.<java.io.ObjectInputStream: boolean hasPushbackTC>","type":"load","field":"<java.io.ObjectInputStream: boolean hasPushbackTC>"},{"step":338,"from":"1093293768","to":"1093386376","type":"load","field":"<java.io.ObjectInputStream: java.io.DataInputStream input>"},{"step":339,"from":"1093386376","to":"1093544616","type":"load","field":"<java.io.FilterInputStream: java.io.InputStream in>"},{"step":340,"from":"1093544616","to":"1093544616.<java.io.ByteArrayInputStream: int count>","type":"load","field":"<java.io.ByteArrayInputStream: int count>"},{"step":341,"from":"1093544616","to":"1093544400","type":"load","field":"<java.io.ByteArrayInputStream: byte[] buf>"},{"step":342,"from":"sdaReg312","to":"1093544616","type":"store","field":"<java.io.ByteArrayInputStream: int pos>"},{"step":343,"from":"1093544400","to":"1093544400.arrayIdx_int:76","type":"load","field":"arrayIdx_int:76"},{"step":344,"from":"sdaReg314","to":"1093293768","type":"store","field":"<java.io.ObjectInputStream: byte pushbackTC>"},{"step":345,"from":"1093497664","to":"1093286304","type":"model"},{"step":346,"from":"1093286304","to":"1093497664","type":"model"},{"step":347,"from":"sdaReg328","to":"1093293768","type":"store","field":"<java.io.ObjectInputStream: int nextHandle>"},{"step":348,"from":"1093497664","to":"1083934568","type":"model"},{"step":349,"from":"1093497664","to":"1083934568","type":"model"},{"step":350,"from":"1093497664","to":"1093281456","type":"model"},{"step":351,"from":"1083934568","to":"1093497664","type":"model"},{"step":352,"from":"1083934568","to":"1093281456","type":"model"},{"step":353,"from":"1093293768","to":"1093388400","type":"load","field":"<java.io.ObjectInputStream: java.util.ArrayList objectsRead>"},{"step":354,"from":"1093293768","to":"1093388400","type":"load","field":"<java.io.ObjectInputStream: java.util.ArrayList objectsRead>"},{"step":355,"from":"1093453440","to":"1093281456","type":"create","field":"arrayIdx_int:2"},{"step":356,"from":"sdaReg342","to":"1093388400","type":"store","field":"<java.util.ArrayList: int size>"},{"step":357,"from":"sdaReg343","to":"1093388400","type":"store","field":"<java.util.AbstractList: int modCount>"},{"step":358,"from":"1093281456","to":"1093293768","type":"store","field":"<java.io.ObjectInputStream: java.lang.Object currentObject>"},{"step":359,"from":"1093497664","to":"1093293768","type":"store","field":"<java.io.ObjectInputStream: java.io.ObjectStreamClass currentClass>"},{"step":360,"from":"1093497664","to":"sdaReg345","type":"model"},{"step":361,"from":"1093497664","to":"1093328432","type":"model"},{"step":362,"from":"1093293768","to":"1093386320","type":"load","field":"<java.io.ObjectInputStream: java.util.HashMap cachedSuperclasses>"},{"step":363,"from":"1093281456","to":"1083934568","type":"model"},{"step":364,"from":"1093386320","to":"1083934568","type":"model"},{"step":365,"from":"1093386320","to":"0","type":"model"},{"step":366,"from":"1083934568","to":"1093386320","type":"model"},{"step":367,"from":"1083934568","to":"0","type":"model"},{"step":368,"from":"1093281456","to":"1083934568","type":"model"},{"step":369,"from":"static.<libcore.util.EmptyArray: java.lang.Object[] OBJECT>","to":"1083994088","type":"load","field":"<libcore.util.EmptyArray: java.lang.Object[] OBJECT>"},{"step":370,"from":"1083994088","to":"1093660920","type":"store","field":"<java.util.ArrayList: java.lang.Object[] array>"},{"step":371,"from":"1083934568","to":"1083931088","type":"model"},{"step":372,"from":"1093660920","to":"1083934568","type":"model"},{"step":373,"from":"1083934568","to":"1093660920","type":"model"},{"step":374,"from":"1083931088","to":"1083910288","type":"model"},{"step":375,"from":"1093660920","to":"1083931088","type":"model"},{"step":376,"from":"1083931088","to":"1093660920","type":"model"},{"step":377,"from":"1083910288","to":"0","type":"model"},{"step":378,"from":"1093293768","to":"1093386320","type":"load","field":"<java.io.ObjectInputStream: java.util.HashMap cachedSuperclasses>"},{"step":379,"from":"1093386320","to":"1083934568","type":"model"},{"step":380,"from":"1093386320","to":"1093660920","type":"model"},{"step":381,"from":"1083934568","to":"1093386320","type":"model"},{"step":382,"from":"1083934568","to":"1093660920","type":"model"},{"step":383,"from":"1093660920","to":"1093386320","type":"model"},{"step":384,"from":"1093660920","to":"1083934568","type":"model"},{"step":385,"from":"1093660920","to":"1093660920.<java.util.ArrayList: int size>","type":"load","field":"<java.util.ArrayList: int size>"},{"step":386,"from":"1093660920","to":"1093660920.<java.util.ArrayList: int size>","type":"load","field":"<java.util.ArrayList: int size>"},{"step":387,"from":"1093513352","to":"1083931088","type":"load","field":"arrayIdx_int:0"},{"step":388,"from":"1093328432","to":"1093328432.<java.util.ArrayList: int size>","type":"load","field":"<java.util.ArrayList: int size>"},{"step":389,"from":"1093328432","to":"1093328432.<java.util.ArrayList: int size>","type":"load","field":"<java.util.ArrayList: int size>"},{"step":390,"from":"1093328432","to":"1093424448","type":"load","field":"<java.util.ArrayList: java.lang.Object[] array>"},{"step":391,"from":"1093424448","to":"1093286304","type":"load","field":"arrayIdx_int:0"},{"step":392,"from":"1093286304","to":"1083931088","type":"model"},{"step":393,"from":"1083931088","to":"sdaReg387","type":"model"},{"step":394,"from":"1093286304","to":"sdaReg388","type":"model"},{"step":395,"from":"1083931088","to":"sdaReg390","type":"model"},{"step":396,"from":"1093286304","to":"sdaReg391","type":"model"},{"step":397,"from":"1093328432","to":"1093328432.<java.util.ArrayList: int size>","type":"load","field":"<java.util.ArrayList: int size>"},{"step":398,"from":"1093328432","to":"1093424448","type":"load","field":"<java.util.ArrayList: java.lang.Object[] array>"},{"step":399,"from":"1093424448","to":"1093286304","type":"load","field":"arrayIdx_int:0"},{"step":400,"from":"1093281456","to":"1093293768","type":"store","field":"<java.io.ObjectInputStream: java.lang.Object currentObject>"},{"step":401,"from":"1093286304","to":"1093293768","type":"store","field":"<java.io.ObjectInputStream: java.io.ObjectStreamClass currentClass>"},{"step":402,"from":"1093286304","to":"sdaReg400","type":"model"},{"step":403,"from":"1093286304","to":"1083931088","type":"model"},{"step":404,"from":"1093286304","to":"0","type":"model"},{"step":405,"from":"1093286304","to":"1093481392","type":"model"},{"step":406,"from":"1093286304","to":"1083931088","type":"model"},{"step":407,"from":"1093293768","to":"sdaReg417","type":"create","field":"<java.io.ObjectInputStream: java.lang.Object currentObject>"},{"step":408,"from":"1093293768","to":"sdaReg418","type":"create","field":"<java.io.ObjectInputStream: java.io.ObjectStreamClass currentClass>"},{"step":409,"from":"1093660920","to":"1093660920.<java.util.ArrayList: int size>","type":"load","field":"<java.util.ArrayList: int size>"},{"step":410,"from":"1093513352","to":"1083934568","type":"load","field":"arrayIdx_int:1"},{"step":411,"from":"1093328432","to":"1093328432.<java.util.ArrayList: int size>","type":"load","field":"<java.util.ArrayList: int size>"},{"step":412,"from":"1093328432","to":"1093328432.<java.util.ArrayList: int size>","type":"load","field":"<java.util.ArrayList: int size>"},{"step":413,"from":"1093328432","to":"1093424448","type":"load","field":"<java.util.ArrayList: java.lang.Object[] array>"},{"step":414,"from":"1093424448","to":"1093497664","type":"load","field":"arrayIdx_int:1"},{"step":415,"from":"1093497664","to":"1083934568","type":"model"},{"step":416,"from":"1083934568","to":"sdaReg430","type":"model"},{"step":417,"from":"1093497664","to":"sdaReg431","type":"model"},{"step":418,"from":"1083934568","to":"sdaReg433","type":"model"},{"step":419,"from":"1093497664","to":"sdaReg434","type":"model"},{"step":420,"from":"1093328432","to":"1093328432.<java.util.ArrayList: int size>","type":"load","field":"<java.util.ArrayList: int size>"},{"step":421,"from":"1093328432","to":"1093424448","type":"load","field":"<java.util.ArrayList: java.lang.Object[] array>"},{"step":422,"from":"1093424448","to":"1093497664","type":"load","field":"arrayIdx_int:1"},{"step":423,"from":"1093281456","to":"1093293768","type":"store","field":"<java.io.ObjectInputStream: java.lang.Object currentObject>"},{"step":424,"from":"1093497664","to":"1093293768","type":"store","field":"<java.io.ObjectInputStream: java.io.ObjectStreamClass currentClass>"},{"step":425,"from":"1093497664","to":"sdaReg441","type":"model"},{"step":426,"from":"1093497664","to":"1083934568","type":"model"},{"step":427,"from":"1093497664","to":"0","type":"model"},{"step":428,"from":"1093497664","to":"1093702528","type":"model"},{"step":429,"from":"1093497664","to":"1083934568","type":"model"},{"step":430,"from":"1093497664","to":"1093280088","type":"model"},{"step":431,"from":"1093497664","to":"1093388936","type":"model"},{"step":432,"from":"1093280088","to":"1093497664","type":"model"},{"step":433,"from":"1093280088","to":"1093388936","type":"model"},{"step":434,"from":"static.<java.lang.Byte: java.lang.Class TYPE>","to":"1083909112","type":"load","field":"<java.lang.Byte: java.lang.Class TYPE>"},{"step":435,"from":"static.<java.lang.Character: java.lang.Class TYPE>","to":"1083909448","type":"load","field":"<java.lang.Character: java.lang.Class TYPE>"},{"step":436,"from":"static.<java.lang.Double: java.lang.Class TYPE>","to":"1083910120","type":"load","field":"<java.lang.Double: java.lang.Class TYPE>"},{"step":437,"from":"static.<java.lang.Float: java.lang.Class TYPE>","to":"1083909952","type":"load","field":"<java.lang.Float: java.lang.Class TYPE>"},{"step":438,"from":"static.<java.lang.Integer: java.lang.Class TYPE>","to":"1083909616","type":"load","field":"<java.lang.Integer: java.lang.Class TYPE>"},{"step":439,"from":"1093293768","to":"1093386376","type":"load","field":"<java.io.ObjectInputStream: java.io.DataInputStream input>"},{"step":440,"from":"1093386376","to":"1093544616","type":"load","field":"<java.io.FilterInputStream: java.io.InputStream in>"},{"step":441,"from":"1093386376","to":"1093388312","type":"load","field":"<java.io.DataInputStream: byte[] scratch>"},{"step":442,"from":"1093544616","to":"1093388312","type":"model"},{"step":443,"from":"1093386376","to":"1093388312","type":"load","field":"<java.io.DataInputStream: byte[] scratch>"},{"step":444,"from":"static.<java.nio.ByteOrder: java.nio.ByteOrder BIG_ENDIAN>","to":"1084339448","type":"load","field":"<java.nio.ByteOrder: java.nio.ByteOrder BIG_ENDIAN>"},{"step":445,"from":"1093388312","to":"sdaReg464","type":"model"},{"step":446,"from":"1093388936","to":"1093281456","type":"model"},{"step":447,"from":"1093388936","to":"sdaReg464","type":"model"},{"step":448,"from":"1093281456","to":"1093388936","type":"model"},{"step":449,"from":"1093281456","to":"sdaReg464","type":"model"},{"step":450,"from":"sdaReg464","to":"1093388936","type":"model"},{"step":451,"from":"sdaReg464","to":"1093281456","type":"model"},{"step":452,"from":"1093293768","to":"sdaReg465","type":"create","field":"<java.io.ObjectInputStream: java.lang.Object currentObject>"},{"step":453,"from":"1093293768","to":"sdaReg466","type":"create","field":"<java.io.ObjectInputStream: java.io.ObjectStreamClass currentClass>"},{"step":454,"from":"1093293768","to":"sdaReg467","type":"create","field":"<java.io.ObjectInputStream: java.lang.Object currentObject>"},{"step":455,"from":"1093293768","to":"sdaReg468","type":"create","field":"<java.io.ObjectInputStream: java.io.ObjectStreamClass currentClass>"},{"step":456,"from":"1093497664","to":"sdaReg469","type":"model"},{"step":457,"from":"1093293768","to":"1093293768.<java.io.ObjectInputStream: boolean enableResolve>","type":"load","field":"<java.io.ObjectInputStream: boolean enableResolve>"},{"step":458,"from":"1093293768","to":"1093281456","type":"model"},{"step":459,"from":"1093293768","to":"1093293752","type":"model"},{"step":460,"from":"1093281456","to":"1093293768","type":"model"},{"step":461,"from":"1093281456","to":"1093293752","type":"model"},{"step":462,"from":"1093293768","to":"1093388400","type":"load","field":"<java.io.ObjectInputStream: java.util.ArrayList objectsRead>"},{"step":463,"from":"1093293768","to":"1093388400","type":"load","field":"<java.io.ObjectInputStream: java.util.ArrayList objectsRead>"},{"step":464,"from":"1093453440","to":"1093293752","type":"create","field":"arrayIdx_int:2"}],"parameters":[{"id":"1093293768","name":"this","klass":"java.io.ObjectInputStream"},{"id":"sdaReg0","name":"arg#1","klass":"boolean"}],"returns":[{"id":"1093293752","name":"return","klass":"java.lang.Object"}],"colors":{"heapLocToColor":{"sdaReg191":[46],"sdaReg294":[2, 43, 57, 46, 30],"sdaReg190":[0],"sdaReg293":[2, 43, 57, 46, 30],"sdaReg193":[0],"sdaReg192":[46],"sdaReg295":[54, 46],"sdaReg298":[0],"sdaReg199":[0],"sdaReg198":[0],"sdaReg195":[0],"sdaReg290":[54, 46],"sdaReg194":[0],"sdaReg197":[47],"sdaReg292":[57, 46],"sdaReg196":[47],"sdaReg291":[57, 46],"1093328432":[2, 74],"1093544400.arrayIdx_int:36":[0],"1093544400.arrayIdx_int:33":[0],"0":[0, 2, 77, 57, 26, 72, 46, 74, 30],"static.<java.lang.Character: java.lang.Class TYPE>":[95],"sdaReg171":[0],"sdaReg170":[0],"sdaReg172":[0],"sdaReg175":[0],"sdaReg174":[0],"1093281456":[0, 2, 93, 72, 74],"1093544400.arrayIdx_int:44":[0],"sdaReg177":[0],"1093544400.arrayIdx_int:45":[0],"sdaReg179":[0],"sdaReg178":[0],"1093424448":[2, 74],"1093293768.<java.io.ObjectInputStream: java.io.DataInputStream input>":[0],"1093497664":[2, 74],"sdaReg182":[0],"sdaReg180":[0],"sdaReg185":[0],"1093386376.<java.io.DataInputStream: byte[] scratch>":[0],"sdaReg183":[0],"1093513352.arrayIdx_int:0":[0, 2, 57, 46, 72, 30, 75],"1093513352.arrayIdx_int:1":[0, 2, 72, 30, 75],"sdaReg187":[0],"static.<java.lang.Float: java.lang.Class TYPE>":[97],"1093544400.arrayIdx_int:72":[0],"1083910120":[96],"1093544400.arrayIdx_int:75":[0],"1093544400.arrayIdx_int:76":[0],"1093293768.<java.io.ObjectInputStream: java.util.HashMap cachedSuperclasses>":[0],"1093293768.<java.io.ObjectInputStream: java.lang.ClassLoader callerClassLoader>":[0],"1093325200.arrayIdx_int:0":[14],"1093325200.arrayIdx_int:1":[14],"1093292448":[48],"1093325200.arrayIdx_int:2":[14],"1093325200.arrayIdx_int:3":[14],"1093325200.arrayIdx_int:4":[14],"1093544616":[0],"1093388400.<java.util.AbstractList: int modCount>":[0],"sdaReg68":[0],"sdaReg69":[0],"sdaReg66":[0],"sdaReg67":[0],"sdaReg65":[0],"sdaReg62":[0],"sdaReg63":[0],"sdaReg72":[13],"sdaReg71":[13],"sdaReg70":[0],"sdaReg78":[14],"sdaReg79":[15],"sdaReg73":[0],"sdaReg74":[0],"sdaReg75":[0],"sdaReg76":[14],"1093328432.<java.util.ArrayList: int size>":[2, 74],"sdaReg86":[16],"sdaReg87":[17],"sdaReg85":[14],"sdaReg88":[18],"sdaReg89":[18],"sdaReg90":[19],"sdaReg94":[18, 22],"sdaReg93":[21],"sdaReg92":[21],"sdaReg91":[18, 20],"sdaReg95":[18, 23, 22],"sdaReg96":[21],"sdaReg97":[24],"1083910288":[0, 2, 77, 57, 46, 72, 30],"1093388936":[2, 93, 74],"static.<java.lang.Byte: java.lang.Class TYPE>":[94],"1083909112":[94],"1093293768":[0],"1093544616.<java.io.ByteArrayInputStream: int pos>":[0],"1093673432.<java.util.HashMap$HashMapEntry: int hash>":[28],"1093661056.<java.util.HashMap: java.util.HashMap$HashMapEntry[] table>":[28],"1083992288":[28],"1093497832.arrayIdx_int:0":[5],"1093497832.arrayIdx_int:1":[5],"1093497832.arrayIdx_int:2":[5],"1093661056":[28],"1093497832.arrayIdx_int:3":[5],"1093497832.arrayIdx_int:4":[5],"1093497832.arrayIdx_int:5":[5],"1083909448":[95],"1093293752":[0, 100],"1093544616.<java.io.ByteArrayInputStream: byte[] buf>":[0],"1093292448.arrayIdx_int:10":[48],"1093292448.arrayIdx_int:12":[48],"1093292448.arrayIdx_int:11":[48],"1093497832.arrayIdx_int:9":[5],"1093497832.arrayIdx_int:8":[5],"1093497832.arrayIdx_int:7":[5],"1093497832.arrayIdx_int:6":[5],"1093702528":[2, 12, 74],"static.<java.io.ObjectInputStream: java.util.HashMap PRIMITIVE_CLASSES>":[28],"1093293768.<java.io.ObjectInputStream: boolean enableResolve>":[0],"1093292448.arrayIdx_int:15":[48],"1093386288":[0],"1093292448.arrayIdx_int:13":[48],"1093292448.arrayIdx_int:14":[48],"static.<java.lang.Integer: java.lang.Class TYPE>":[25],"1093280088":[2, 21, 74],"sdaReg429":[0, 2, 78, 72, 74, 30, 75],"sdaReg428":[2, 74],"sdaReg427":[2, 74],"sdaReg426":[2, 74],"sdaReg425":[2, 74],"sdaReg423":[2, 74],"sdaReg422":[0, 2, 78, 72, 30, 75],"sdaReg326":[2],"sdaReg325":[2],"sdaReg324":[71],"1093453440":[10],"sdaReg323":[46],"sdaReg327":[0],"sdaReg13":[0],"sdaReg14":[2],"sdaReg11":[0],"sdaReg12":[0],"sdaReg321":[46],"sdaReg322":[2],"sdaReg320":[46],"sdaReg420":[0, 2, 78, 72, 30, 75],"sdaReg421":[0],"sdaReg19":[4],"sdaReg17":[0],"sdaReg18":[0],"sdaReg15":[2],"sdaReg16":[0],"sdaReg412":[2, 54, 46, 74],"sdaReg411":[2, 54, 46, 74],"sdaReg414":[2, 54, 46, 74],"sdaReg413":[0, 2, 57, 78, 46, 72, 74, 30, 75],"1093286304":[2, 46, 74],"sdaReg313":[0],"1093328432.<java.util.ArrayList: java.lang.Object[] array>":[2, 74],"sdaReg314":[0],"sdaReg317":[46],"sdaReg419":[0, 75],"sdaReg316":[2, 26, 46],"1083931088":[0, 2, 78, 57, 72, 46, 74, 75, 30],"sdaReg319":[70],"sdaReg318":[2, 26, 46],"1083991528":[28],"sdaReg310":[0],"sdaReg311":[0],"sdaReg410":[2, 54, 46, 74],"sdaReg447":[0],"sdaReg446":[0, 2, 77, 57, 26, 46, 72, 74, 30],"sdaReg445":[0, 2, 78, 72, 74, 30, 75],"sdaReg449":[2, 72],"sdaReg448":[0],"1083934568":[0, 2, 78, 72, 74, 75, 30],"sdaReg309":[0],"sdaReg308":[0],"1093481392":[2, 54, 46, 74],"sdaReg305":[0],"sdaReg304":[0],"sdaReg302":[0],"sdaReg301":[0],"sdaReg300":[0],"1093386376.<java.io.FilterInputStream: java.io.InputStream in>":[0],"sdaReg442":[2, 92, 74],"sdaReg440":[2, 74],"sdaReg441":[2, 92, 74],"sdaReg434":[2, 74, 90],"sdaReg433":[0, 2, 78, 72, 89, 74, 30, 75],"sdaReg436":[2, 74],"sdaReg435":[91],"sdaReg438":[0],"sdaReg437":[2, 74],"sdaReg439":[2, 72],"1093424448.arrayIdx_int:1":[2, 74],"1093424448.arrayIdx_int:0":[2, 46, 74],"sdaReg430":[0, 2, 86, 78, 72, 74, 30, 75],"sdaReg431":[2, 87, 74],"sdaReg432":[88],"sdaReg60":[11],"1093673432":[28],"static.<libcore.util.EmptyArray: java.lang.Object[] OBJECT>":[0, 76],"1093544616.<java.io.ByteArrayInputStream: int count>":[0],"sdaReg59":[0],"sdaReg58":[2],"sdaReg57":[0],"sdaReg55":[0],"sdaReg54":[0],"sdaReg53":[0],"static.<java.lang.Double: java.lang.Class TYPE>":[96],"1093325200":[14],"sdaReg50":[2],"1093646360.<java.util.HashMap$HashMapEntry: int hash>":[28],"1093514224":[58, 46],"sdaReg49":[0],"sdaReg48":[0],"1093646272":[28],"sdaReg44":[2],"sdaReg41":[0],"sdaReg43":[0],"sdaReg42":[0, 2],"sdaReg408":[2, 72],"sdaReg409":[2, 46, 74],"sdaReg400":[85, 2, 46, 74],"sdaReg401":[85, 2, 46, 74],"sdaReg406":[0],"sdaReg200":[0],"sdaReg407":[0],"sdaReg201":[48],"sdaReg404":[0, 2, 57, 78, 46, 72, 74, 30, 75],"sdaReg405":[0, 2, 77, 57, 26, 46, 72, 74, 30],"1093293768.<java.io.ObjectInputStream: java.util.ArrayList objectsRead>":[0],"sdaReg39":[0],"sdaReg204":[49],"sdaReg38":[0],"sdaReg203":[48],"sdaReg37":[2, 9],"1093544400.arrayIdx_int:5":[0],"1093544400":[0],"1093293768.<java.io.ObjectInputStream: boolean mustResolve>":[0],"sdaReg36":[0],"sdaReg35":[8],"sdaReg34":[2, 7],"sdaReg33":[5],"sdaReg9":[0],"sdaReg6":[0],"sdaReg7":[0],"sdaReg4":[0],"sdaReg5":[0],"sdaReg27":[6],"sdaReg26":[5],"sdaReg3":[0],"sdaReg2":[0],"sdaReg21":[0],"sdaReg1":[0],"sdaReg20":[4],"sdaReg0":[1],"sdaReg23":[0],"sdaReg22":[0],"sdaReg24":[5],"sdaReg125":[29],"sdaReg128":[29],"1093497832":[5],"sdaReg129":[2, 26],"sdaReg228":[46],"sdaReg225":[0],"sdaReg227":[0],"sdaReg221":[46],"sdaReg220":[0],"1093388312":[0],"sdaReg120":[29],"sdaReg122":[29],"sdaReg121":[29],"sdaReg124":[29],"sdaReg123":[29],"sdaReg394":[2, 74],"sdaReg116":[28],"sdaReg395":[2, 46, 74],"sdaReg117":[29],"sdaReg392":[84],"sdaReg114":[2, 26],"sdaReg115":[2, 27],"1093319920":[15],"sdaReg398":[2, 72],"sdaReg399":[2, 46, 74],"sdaReg396":[2, 46, 74],"sdaReg118":[29],"sdaReg397":[0],"sdaReg119":[29],"sdaReg219":[0, 46],"sdaReg218":[0],"sdaReg390":[0, 2, 82, 57, 78, 46, 72, 74, 30, 75],"sdaReg215":[0],"sdaReg391":[2, 83, 46, 74],"1093284544":[0],"sdaReg216":[0],"sdaReg213":[0],"sdaReg214":[52, 46],"sdaReg212":[51],"sdaReg211":[50, 46],"sdaReg210":[48],"1083994088":[0, 76],"1093497832.arrayIdx_int:13":[5],"1093497832.arrayIdx_int:14":[5],"1093497832.arrayIdx_int:15":[5],"1093497832.arrayIdx_int:16":[5],"1093388400":[0],"1093497832.arrayIdx_int:10":[5],"1093497832.arrayIdx_int:11":[5],"1093497832.arrayIdx_int:12":[5],"sdaReg113":[2],"sdaReg112":[0],"sdaReg111":[2],"sdaReg110":[0],"sdaReg385":[2, 46, 74],"sdaReg386":[0, 2, 57, 78, 46, 72, 74, 30, 75],"sdaReg108":[0],"sdaReg387":[0, 2, 57, 78, 79, 46, 72, 74, 30, 75],"sdaReg388":[2, 80, 46, 74],"sdaReg103":[2],"sdaReg382":[2, 74],"sdaReg104":[0],"sdaReg383":[2, 74],"sdaReg105":[2],"sdaReg384":[2, 46, 74],"1093646360":[28],"sdaReg246":[46],"sdaReg248":[0],"sdaReg380":[2, 74],"sdaReg249":[46],"1093292488":[49],"1083909616":[25],"sdaReg240":[46],"sdaReg243":[0],"sdaReg245":[0],"sdaReg100":[21],"sdaReg101":[21],"sdaReg389":[81],"1093386320":[0],"sdaReg376":[0, 2, 57, 78, 46, 72, 30, 75],"sdaReg377":[0, 2, 78, 57, 72, 46, 75, 30],"sdaReg374":[0, 75],"sdaReg375":[0, 75],"sdaReg370":[0, 2, 77, 57, 26, 46, 72, 30],"sdaReg371":[0, 75],"sdaReg238":[46],"sdaReg235":[0],"sdaReg236":[53],"sdaReg239":[0],"1093660920":[0, 75],"sdaReg234":[46],"1084339448":[3],"sdaReg233":[0],"sdaReg379":[0, 2, 57, 78, 46, 72, 30, 75],"sdaReg378":[0],"sdaReg463":[0],"sdaReg462":[25],"sdaReg464":[2, 98, 93, 74],"sdaReg269":[46],"sdaReg268":[0],"1093513352":[78],"sdaReg360":[75],"sdaReg362":[75],"sdaReg361":[75],"sdaReg364":[75],"sdaReg363":[75],"sdaReg366":[75],"sdaReg365":[75],"sdaReg367":[0, 2, 77, 57, 26, 46, 72, 30],"1093292448.arrayIdx_int:9":[48],"sdaReg368":[0, 2, 57, 46, 72, 30],"sdaReg162":[21],"1093292448.arrayIdx_int:8":[48],"sdaReg369":[0, 2, 77, 57, 72, 46, 30],"sdaReg163":[2, 43, 30],"1093292448.arrayIdx_int:7":[48],"sdaReg164":[44],"1093292448.arrayIdx_int:6":[48],"sdaReg165":[21],"sdaReg166":[45],"sdaReg168":[0],"1093292448.arrayIdx_int:1":[48],"sdaReg264":[56],"1093292448.arrayIdx_int:0":[48],"sdaReg265":[2, 26, 46],"sdaReg266":[57],"sdaReg267":[57],"static.<java.nio.ByteOrder: java.nio.ByteOrder BIG_ENDIAN>":[3],"1093292448.arrayIdx_int:5":[48],"sdaReg260":[56],"1093292448.arrayIdx_int:4":[48],"sdaReg261":[56],"1093292448.arrayIdx_int:3":[48],"sdaReg469":[2, 99, 74],"1093292448.arrayIdx_int:2":[48],"sdaReg454":[0, 2, 78, 72, 74, 30, 75],"sdaReg453":[2, 12, 74],"sdaReg452":[2, 12, 74],"sdaReg451":[2, 12, 74],"sdaReg450":[2, 74],"sdaReg259":[56],"sdaReg258":[56],"sdaReg257":[56],"sdaReg351":[2],"sdaReg350":[2, 72],"sdaReg159":[2, 12],"sdaReg158":[2, 43, 30],"sdaReg355":[0, 2, 26, 46],"sdaReg354":[0, 2, 26, 46],"sdaReg353":[2, 72, 30],"sdaReg352":[2, 74],"sdaReg152":[2, 12],"sdaReg358":[0, 2, 72, 30],"sdaReg153":[2, 12],"sdaReg359":[75],"sdaReg150":[38, 41, 31],"sdaReg356":[0, 2, 72, 30],"sdaReg151":[42],"sdaReg357":[0],"sdaReg156":[2, 30],"sdaReg157":[2, 43, 30],"sdaReg154":[2, 12],"1093293768.<java.io.ObjectInputStream: int nextHandle>":[0],"sdaReg155":[2, 30],"sdaReg255":[56],"sdaReg256":[56],"sdaReg459":[2, 21, 74],"sdaReg253":[56],"1093622840":[2, 31],"sdaReg254":[56],"sdaReg251":[55, 46],"sdaReg458":[2, 93, 74],"1093388400.<java.util.ArrayList: int size>":[0],"sdaReg252":[28],"sdaReg455":[2, 12, 74],"sdaReg250":[2, 26, 46],"1093660920.<java.util.ArrayList: int size>":[0, 75],"1093499800":[6],"sdaReg148":[40],"sdaReg147":[40],"sdaReg340":[2, 72],"sdaReg149":[38, 39, 31],"sdaReg143":[34, 35, 2],"sdaReg349":[0],"sdaReg144":[34, 2, 37],"sdaReg145":[38, 31],"1083909952":[97],"sdaReg146":[38, 39, 31],"sdaReg345":[2, 73],"sdaReg140":[34, 35, 2],"sdaReg346":[2, 73],"sdaReg141":[36],"sdaReg280":[64, 46, 61],"sdaReg142":[36],"sdaReg281":[65, 58],"sdaReg282":[65, 66, 58],"1083999984":[2, 43, 57, 46, 30],"sdaReg283":[67],"1093293768.<java.io.ObjectInputStream: boolean hasPushbackTC>":[0],"sdaReg284":[67],"sdaReg285":[65, 66, 58],"sdaReg286":[68, 65, 58],"sdaReg287":[69],"sdaReg288":[54, 46],"sdaReg289":[54, 46],"sdaReg472":[0, 100],"sdaReg471":[0],"sdaReg470":[0, 100],"sdaReg279":[46, 62, 61],"sdaReg476":[0],"sdaReg474":[0],"1093293768.<java.io.ObjectInputStream: java.io.InputStream emptyStream>":[0],"sdaReg333":[2, 72],"sdaReg332":[2, 72],"sdaReg330":[2, 30],"sdaReg139":[34, 2],"sdaReg138":[32, 2, 33, 31],"sdaReg137":[33, 31],"sdaReg136":[2, 32],"sdaReg134":[2, 30],"sdaReg135":[31],"sdaReg132":[0],"sdaReg133":[2],"sdaReg339":[0],"sdaReg130":[30],"sdaReg131":[30],"sdaReg270":[57, 46],"sdaReg337":[0],"sdaReg334":[0],"1093386376":[0],"sdaReg335":[2, 72],"sdaReg273":[58, 60],"sdaReg274":[59, 58, 46, 60],"sdaReg477":[0, 100],"sdaReg271":[58],"sdaReg272":[59, 46],"sdaReg277":[63],"1093293768.<java.io.ObjectInputStream: int descriptorHandle>":[0],"sdaReg278":[63],"sdaReg275":[46, 61],"sdaReg276":[46, 62, 61]},"colorToColor":{"0":[0, 2, 4, 5, 9, 10, 11, 72, 13, 14, 75, 17, 18, 27, 26, 30, 100, 101, 98, 46, 47, 48, 55, 53, 52, 57],"2":[0, 34, 100, 2, 98, 37, 10, 72, 46, 74, 75, 93, 26, 31, 30],"65":[68, 65, 58],"5":[6],"66":[68, 65, 58],"6":[7],"7":[2],"76":[75],"9":[2],"10":[0],"72":[0, 100, 2, 98, 93, 10, 26, 46, 74, 75],"12":[2],"74":[0, 100, 2, 98, 93, 72, 74],"14":[15],"75":[0, 2, 72, 30, 75],"15":[16],"16":[21],"18":[18, 21, 20],"21":[2, 93, 12, 74],"23":[21],"22":[21],"93":[0, 100, 2, 98, 93, 72, 74],"25":[21],"27":[0, 30],"31":[2, 38, 41, 31],"30":[0, 2, 26, 46, 72, 31, 75],"34":[34, 2, 37],"35":[34, 2, 37],"100":[101, 10],"98":[2, 93, 72, 74],"38":[38, 41, 31],"39":[38, 41, 31],"46":[0, 2, 64, 58, 57, 10, 46, 61, 75],"50":[46],"49":[50],"48":[49],"55":[0, 57],"54":[46],"52":[46],"58":[68, 65, 58, 46],"57":[58, 46, 75],"62":[64, 46, 61],"61":[64, 46, 61]},"colorToLabel":{"0":"this","1":"arg#1","3":"<java.nio.ByteOrder: java.nio.ByteOrder BIG_ENDIAN>","25":"<java.lang.Integer: java.lang.Class TYPE>","28":"<java.io.ObjectInputStream: java.util.HashMap PRIMITIVE_CLASSES>","76":"<libcore.util.EmptyArray: java.lang.Object[] OBJECT>","94":"<java.lang.Byte: java.lang.Class TYPE>","95":"<java.lang.Character: java.lang.Class TYPE>","96":"<java.lang.Double: java.lang.Class TYPE>","97":"<java.lang.Float: java.lang.Class TYPE>","101":"return"}}}

Generated Model
	this->return

