Scanning method <android.os.Bundle: void unparcel()>

All seen event types: StoreArrayRecord, SimpleAssignmentRecord, ExitMonitorRecord, LoadInstanceRecord, MethodStartRecord, IfRecord, NewObjectRecord, StoreInstanceRecord, NewArrayRecord, LoadStaticRecord, BinaryOperationRecord, MethodCallRecord, MethodReturnRecord, SwitchRecord, EnterMonitorRecord, CastRecord, ArrayLengthRecord, LoadArrayRecord, MethodEndRecord, 
Ignored event types: ExitMonitorRecord, SwitchRecord, EnterMonitorRecord, IfRecord, 

JSON Encoded Analysis Data (for visualization):{"heapEdges":[{"step":0,"from":"1093511080","to":"1093467872","type":"load","field":"<android.os.Bundle: android.os.Parcel mParcelledData>"},{"step":1,"from":"1093511080","to":"1093467872","type":"load","field":"<android.os.Bundle: android.os.Parcel mParcelledData>"},{"step":2,"from":"1093467872","to":"sdaReg0","type":"model"},{"step":3,"from":"static.<java.util.HashMap: java.util.Map$Entry[] EMPTY_TABLE>","to":"1083997920","type":"load","field":"<java.util.HashMap: java.util.Map$Entry[] EMPTY_TABLE>"},{"step":4,"from":"1083997920","to":"1093796400","type":"store","field":"<java.util.HashMap: java.util.HashMap$HashMapEntry[] table>"},{"step":5,"from":"1093796400","to":"sdaReg7","type":"create","field":"<java.util.HashMap: int threshold>"},{"step":6,"from":"1093511080","to":"1093796400","type":"create","field":"<android.os.Bundle: java.util.Map mMap>"},{"step":7,"from":"1093511080","to":"1093467872","type":"load","field":"<android.os.Bundle: android.os.Parcel mParcelledData>"},{"step":8,"from":"1093467872","to":"sdaReg14","type":"model"},{"step":9,"from":"1093467872","to":"sdaReg15","type":"model"},{"step":10,"from":"1093467872","to":"sdaReg19","type":"model"},{"step":11,"from":"1093467872","to":"sdaReg21","type":"model"},{"step":12,"from":"sdaReg23","to":"1085840752","type":"model"},{"step":13,"from":"1093796400","to":"1093796400.<java.util.HashMap: int modCount>","type":"load","field":"<java.util.HashMap: int modCount>"},{"step":14,"from":"sdaReg41","to":"1093796400","type":"store","field":"<java.util.HashMap: int modCount>"},{"step":15,"from":"1093796400","to":"1093796400.<java.util.HashMap: int size>","type":"load","field":"<java.util.HashMap: int size>"},{"step":16,"from":"sdaReg42","to":"1093796400","type":"store","field":"<java.util.HashMap: int size>"},{"step":17,"from":"1093796400","to":"1093803840","type":"create","field":"<java.util.HashMap: java.util.HashMap$HashMapEntry[] table>"},{"step":18,"from":"sdaReg50","to":"1093796400","type":"store","field":"<java.util.HashMap: int threshold>"},{"step":19,"from":"1093926896","to":"1093803880","type":"store","field":"<java.util.HashMap$HashMapEntry: java.lang.Object key>"},{"step":20,"from":"1093803880","to":"1085840752","type":"create","field":"<java.util.HashMap$HashMapEntry: java.lang.Object value>"},{"step":21,"from":"sdaReg37","to":"1093803880","type":"store","field":"<java.util.HashMap$HashMapEntry: int hash>"},{"step":22,"from":"1093803840","to":"1093803880","type":"create","field":"arrayIdx_int:2"},{"step":23,"from":"1093511080","to":"1093467872","type":"load","field":"<android.os.Bundle: android.os.Parcel mParcelledData>"},{"step":24,"from":"1093467872","to":"1093467872.<android.os.Parcel: int mOwnObject>","type":"load","field":"<android.os.Parcel: int mOwnObject>"},{"step":25,"from":"static.<android.os.Parcel: android.os.Parcel[] sOwnedPool>","to":"1084044960","type":"load","field":"<android.os.Parcel: android.os.Parcel[] sOwnedPool>"},{"step":26,"from":"1093467872","to":"1084044960","type":"store","field":"arrayIdx_int:0"},{"step":27,"from":"1093511080","to":"sdaReg69","type":"create","field":"<android.os.Bundle: android.os.Parcel mParcelledData>"}],"parameters":[{"id":"1093511080","name":"this","klass":"android.os.Bundle"}],"returns":[{"id":null,"name":"return","klass":null}],"colors":{"heapLocToColor":{"sdaReg61":[8],"1084044960":[12],"1093467872.<android.os.Parcel: int mOwnObject>":[0],"1093796400":[2],"sdaReg66":[12],"sdaReg67":[12],"sdaReg64":[11],"sdaReg65":[0],"sdaReg63":[11],"1093796400.<java.util.HashMap: int size>":[2],"sdaReg14":[0, 4],"1085840752":[8],"sdaReg12":[0],"sdaReg10":[2],"sdaReg59":[11],"sdaReg58":[8],"sdaReg56":[2],"sdaReg19":[0, 6],"1083997920":[3],"sdaReg17":[0],"sdaReg53":[10],"sdaReg15":[0, 5],"sdaReg51":[10],"1093796400.<java.util.HashMap: int modCount>":[2],"sdaReg46":[2],"sdaReg41":[2],"sdaReg40":[9],"sdaReg43":[2],"1093511080":[0],"sdaReg42":[2],"1093803880":[11],"static.<android.os.Parcel: android.os.Parcel[] sOwnedPool>":[12],"1093511080.<android.os.Bundle: android.os.Parcel mParcelledData>":[0],"sdaReg37":[9],"1093803840":[10],"sdaReg32":[9],"sdaReg31":[9],"static.<java.util.HashMap: java.util.Map$Entry[] EMPTY_TABLE>":[3],"sdaReg30":[9],"sdaReg36":[9],"sdaReg35":[9],"sdaReg34":[9],"sdaReg33":[9],"sdaReg8":[2],"sdaReg9":[0],"sdaReg6":[3],"sdaReg4":[2],"1093467872":[0],"sdaReg5":[3],"sdaReg26":[2],"sdaReg29":[9],"sdaReg28":[8],"sdaReg3":[2],"sdaReg2":[2],"sdaReg21":[0, 7],"sdaReg1":[2],"sdaReg20":[0],"sdaReg0":[0, 1],"sdaReg23":[0, 7],"sdaReg22":[0, 7],"sdaReg25":[8],"sdaReg24":[8]},"colorToColor":{"0":[8, 12],"2":[0, 2],"3":[2],"7":[8],"8":[11],"9":[11],"10":[2],"11":[10]},"colorToLabel":{"0":"this","3":"<java.util.HashMap: java.util.Map$Entry[] EMPTY_TABLE>","12":"<android.os.Parcel: android.os.Parcel[] sOwnedPool>","13":"return"}}}

Generated Model
	this-><android.os.Parcel: android.os.Parcel[] sOwnedPool>

