Scanning method <android.os.Bundle: void unparcel()>

All seen event types: StoreArrayRecord, SimpleAssignmentRecord, ExitMonitorRecord, LoadInstanceRecord, MethodStartRecord, IfRecord, InstanceOfRecord, StoreInstanceRecord, NewObjectRecord, NewArrayRecord, LoadStaticRecord, BinaryOperationRecord, MethodCallRecord, MethodReturnRecord, SwitchRecord, EnterMonitorRecord, CastRecord, ArrayLengthRecord, LoadArrayRecord, MethodEndRecord, 
Ignored event types: ExitMonitorRecord, SwitchRecord, EnterMonitorRecord, IfRecord, 

JSON Encoded Analysis Data (for visualization):{"heapEdges":[{"step":0,"from":"1093959896","to":"1093448552","type":"load","field":"<android.os.Bundle: android.os.Parcel mParcelledData>"},{"step":1,"from":"1093959896","to":"1093448552","type":"load","field":"<android.os.Bundle: android.os.Parcel mParcelledData>"},{"step":2,"from":"1093448552","to":"sdaReg0","type":"model"},{"step":3,"from":"1093959896","to":"1093821864","type":"load","field":"<android.os.Bundle: java.util.Map mMap>"},{"step":4,"from":"1093959896","to":"1093448552","type":"load","field":"<android.os.Bundle: android.os.Parcel mParcelledData>"},{"step":5,"from":"1093959896","to":"1093821864","type":"load","field":"<android.os.Bundle: java.util.Map mMap>"},{"step":6,"from":"1093959896","to":"1083999984","type":"load","field":"<android.os.Bundle: java.lang.ClassLoader mClassLoader>"},{"step":7,"from":"1093448552","to":"sdaReg6","type":"model"},{"step":8,"from":"1093448552","to":"sdaReg7","type":"model"},{"step":9,"from":"1093448552","to":"sdaReg11","type":"model"},{"step":10,"from":"1093448552","to":"sdaReg14","type":"model"},{"step":11,"from":"static.<android.os.Parcel: java.util.HashMap mCreators>","to":"1084045240","type":"load","field":"<android.os.Parcel: java.util.HashMap mCreators>"},{"step":12,"from":"static.<android.os.Parcel: java.util.HashMap mCreators>","to":"1084045240","type":"load","field":"<android.os.Parcel: java.util.HashMap mCreators>"},{"step":13,"from":"1084045240","to":"1083997920","type":"load","field":"<java.util.HashMap: java.util.HashMap$HashMapEntry[] table>"},{"step":14,"from":"static.<java.util.HashMap: java.util.Map$Entry[] EMPTY_TABLE>","to":"1083997920","type":"load","field":"<java.util.HashMap: java.util.Map$Entry[] EMPTY_TABLE>"},{"step":15,"from":"1083997920","to":"1093616848","type":"store","field":"<java.util.HashMap: java.util.HashMap$HashMapEntry[] table>"},{"step":16,"from":"1093616848","to":"sdaReg38","type":"create","field":"<java.util.HashMap: int threshold>"},{"step":17,"from":"static.<android.os.Parcel: java.util.HashMap mCreators>","to":"1084045240","type":"load","field":"<android.os.Parcel: java.util.HashMap mCreators>"},{"step":18,"from":"1084045240","to":"1083997920","type":"load","field":"<java.util.HashMap: java.util.HashMap$HashMapEntry[] table>"},{"step":19,"from":"1084045240","to":"1084045240.<java.util.HashMap: int modCount>","type":"load","field":"<java.util.HashMap: int modCount>"},{"step":20,"from":"sdaReg55","to":"1084045240","type":"store","field":"<java.util.HashMap: int modCount>"},{"step":21,"from":"1084045240","to":"1084045240.<java.util.HashMap: int size>","type":"load","field":"<java.util.HashMap: int size>"},{"step":22,"from":"sdaReg56","to":"1084045240","type":"store","field":"<java.util.HashMap: int size>"},{"step":23,"from":"1084045240","to":"1084045240.<java.util.HashMap: int threshold>","type":"load","field":"<java.util.HashMap: int threshold>"},{"step":24,"from":"1084045240","to":"1083997920","type":"load","field":"<java.util.HashMap: java.util.HashMap$HashMapEntry[] table>"},{"step":25,"from":"1084045240","to":"1093618600","type":"create","field":"<java.util.HashMap: java.util.HashMap$HashMapEntry[] table>"},{"step":26,"from":"sdaReg64","to":"1084045240","type":"store","field":"<java.util.HashMap: int threshold>"},{"step":27,"from":"1083999984","to":"1093618640","type":"store","field":"<java.util.HashMap$HashMapEntry: java.lang.Object key>"},{"step":28,"from":"1093618640","to":"1093616848","type":"create","field":"<java.util.HashMap$HashMapEntry: java.lang.Object value>"},{"step":29,"from":"sdaReg51","to":"1093618640","type":"store","field":"<java.util.HashMap$HashMapEntry: int hash>"},{"step":30,"from":"1093618600","to":"1093618640","type":"create","field":"arrayIdx_int:0"},{"step":31,"from":"sdaReg14","to":"1083999984","type":"model"},{"step":32,"from":"sdaReg14","to":"1084022880","type":"model"},{"step":33,"from":"1083999984","to":"sdaReg14","type":"model"},{"step":34,"from":"1083999984","to":"1084022880","type":"model"},{"step":35,"from":"1084022880","to":"1093619728","type":"model"},{"step":36,"from":"1093619728","to":"1084044624","type":"model"},{"step":37,"from":"1093616848","to":"1093616848.<java.util.HashMap: int modCount>","type":"load","field":"<java.util.HashMap: int modCount>"},{"step":38,"from":"sdaReg112","to":"1093616848","type":"store","field":"<java.util.HashMap: int modCount>"},{"step":39,"from":"1093616848","to":"1093616848.<java.util.HashMap: int size>","type":"load","field":"<java.util.HashMap: int size>"},{"step":40,"from":"sdaReg113","to":"1093616848","type":"store","field":"<java.util.HashMap: int size>"},{"step":41,"from":"1093616848","to":"1093621592","type":"create","field":"<java.util.HashMap: java.util.HashMap$HashMapEntry[] table>"},{"step":42,"from":"sdaReg121","to":"1093616848","type":"store","field":"<java.util.HashMap: int threshold>"},{"step":43,"from":"1093616672","to":"1093623328","type":"store","field":"<java.util.HashMap$HashMapEntry: java.lang.Object key>"},{"step":44,"from":"1093623328","to":"1084044624","type":"create","field":"<java.util.HashMap$HashMapEntry: java.lang.Object value>"},{"step":45,"from":"sdaReg108","to":"1093623328","type":"store","field":"<java.util.HashMap$HashMapEntry: int hash>"},{"step":46,"from":"1093621592","to":"1093623328","type":"create","field":"arrayIdx_int:2"},{"step":47,"from":"1093448552","to":"1093623752","type":"model"},{"step":48,"from":"1093517280","to":"1093623752","type":"create","field":"<android.os.ParcelFileDescriptor: java.io.FileDescriptor mFileDescriptor>"},{"step":49,"from":"1093517280","to":"sdaReg146","type":"create","field":"<android.os.ParcelFileDescriptor: android.os.ParcelFileDescriptor mParcelDescriptor>"},{"step":50,"from":"1093821864","to":"1094098656","type":"load","field":"<java.util.HashMap: java.util.HashMap$HashMapEntry[] table>"},{"step":51,"from":"1093821864","to":"1093821864.<java.util.HashMap: int modCount>","type":"load","field":"<java.util.HashMap: int modCount>"},{"step":52,"from":"sdaReg169","to":"1093821864","type":"store","field":"<java.util.HashMap: int modCount>"},{"step":53,"from":"1093821864","to":"1093821864.<java.util.HashMap: int size>","type":"load","field":"<java.util.HashMap: int size>"},{"step":54,"from":"sdaReg170","to":"1093821864","type":"store","field":"<java.util.HashMap: int size>"},{"step":55,"from":"1093821864","to":"1093821864.<java.util.HashMap: int threshold>","type":"load","field":"<java.util.HashMap: int threshold>"},{"step":56,"from":"1093821864","to":"1094098656","type":"load","field":"<java.util.HashMap: java.util.HashMap$HashMapEntry[] table>"},{"step":57,"from":"1093821864","to":"1094098656","type":"load","field":"<java.util.HashMap: java.util.HashMap$HashMapEntry[] table>"},{"step":58,"from":"1093650336","to":"1094163136","type":"store","field":"<java.util.HashMap$HashMapEntry: java.lang.Object key>"},{"step":59,"from":"1094163136","to":"1093517280","type":"create","field":"<java.util.HashMap$HashMapEntry: java.lang.Object value>"},{"step":60,"from":"sdaReg165","to":"1094163136","type":"store","field":"<java.util.HashMap$HashMapEntry: int hash>"},{"step":61,"from":"1094098656","to":"1094163136","type":"create","field":"arrayIdx_int:2"},{"step":62,"from":"1093959896","to":"1093448552","type":"load","field":"<android.os.Bundle: android.os.Parcel mParcelledData>"},{"step":63,"from":"1093448552","to":"1093448552.<android.os.Parcel: int mOwnObject>","type":"load","field":"<android.os.Parcel: int mOwnObject>"},{"step":64,"from":"static.<android.os.Parcel: android.os.Parcel[] sOwnedPool>","to":"1084044960","type":"load","field":"<android.os.Parcel: android.os.Parcel[] sOwnedPool>"},{"step":65,"from":"1093448552","to":"1084044960","type":"store","field":"arrayIdx_int:0"},{"step":66,"from":"1093959896","to":"sdaReg184","type":"create","field":"<android.os.Bundle: android.os.Parcel mParcelledData>"}],"parameters":[{"id":"1093959896","name":"this","klass":"android.os.Bundle"}],"returns":[{"id":null,"name":"return","klass":null}],"colors":{"heapLocToColor":{"sdaReg127":[8],"sdaReg129":[16, 14, 15],"1084045240.<java.util.HashMap: int modCount>":[6],"1084044960":[24],"1093616848.<java.util.HashMap: int size>":[8],"sdaReg67":[11],"sdaReg65":[11],"sdaReg13":[0],"sdaReg72":[8],"sdaReg14":[0, 5],"sdaReg71":[0],"sdaReg11":[0, 4],"sdaReg70":[6],"1093616848.<java.util.HashMap: int modCount>":[8],"sdaReg12":[0],"1093616848":[8],"1093517280":[21],"sdaReg10":[0],"sdaReg19":[7],"sdaReg122":[18],"sdaReg17":[0],"sdaReg18":[7],"sdaReg124":[18],"sdaReg15":[6],"1093619728":[14, 15],"sdaReg16":[6],"1094098656":[0],"sdaReg117":[8],"1084045240":[6],"sdaReg114":[8],"sdaReg77":[12],"sdaReg78":[12],"sdaReg79":[8],"sdaReg73":[12],"sdaReg74":[0],"sdaReg75":[8],"sdaReg81":[13],"sdaReg80":[13],"1093448552":[0],"sdaReg83":[13],"sdaReg82":[13],"1093618600":[11],"1093821864.<java.util.HashMap: int modCount>":[0],"sdaReg113":[8],"sdaReg112":[8],"sdaReg111":[17],"1093821864.<java.util.HashMap: java.util.HashMap$HashMapEntry[] table>":[0],"sdaReg107":[17],"sdaReg108":[17],"static.<android.os.Parcel: java.util.HashMap mCreators>":[6],"sdaReg103":[17],"sdaReg104":[17],"sdaReg171":[0],"sdaReg105":[17],"sdaReg170":[0],"sdaReg106":[17],"sdaReg173":[21],"sdaReg86":[13],"sdaReg87":[13],"sdaReg84":[13],"sdaReg174":[23],"sdaReg85":[13],"1093623752":[0, 20],"sdaReg176":[21],"sdaReg179":[23],"sdaReg88":[13],"sdaReg178":[23],"sdaReg94":[14],"sdaReg93":[16, 14, 15],"sdaReg91":[13],"sdaReg100":[17],"sdaReg102":[17],"static.<java.util.HashMap: java.util.Map$Entry[] EMPTY_TABLE>":[6, 9],"sdaReg101":[17],"1093959896.<android.os.Bundle: android.os.Parcel mParcelledData>":[0],"sdaReg182":[24],"sdaReg181":[24],"sdaReg180":[0],"sdaReg95":[14],"sdaReg96":[14, 15],"sdaReg97":[16, 14, 15],"sdaReg98":[8],"sdaReg99":[16, 14, 15],"1093821864.<java.util.HashMap: int threshold>":[0],"1093959896.<android.os.Bundle: java.util.Map mMap>":[0],"sdaReg60":[6],"1084045240.<java.util.HashMap: java.util.HashMap$HashMapEntry[] table>":[6, 9],"1084044624":[16, 14, 15],"sdaReg169":[0],"1093448552.<android.os.Parcel: int mOwnObject>":[0],"1084045240.<java.util.HashMap: int threshold>":[6],"sdaReg161":[22],"sdaReg162":[22],"sdaReg163":[22],"sdaReg164":[22],"sdaReg165":[22],"sdaReg168":[22],"1093621592":[18],"sdaReg57":[6],"1083997920":[6, 9],"sdaReg56":[6],"sdaReg55":[6],"sdaReg54":[10],"1084045240.<java.util.HashMap: int size>":[6],"sdaReg160":[22],"sdaReg51":[10],"1093618640":[12],"sdaReg50":[10],"sdaReg159":[22],"sdaReg158":[22],"sdaReg152":[21],"sdaReg153":[21],"sdaReg150":[21],"sdaReg151":[21],"sdaReg156":[21],"sdaReg49":[10],"sdaReg157":[22],"sdaReg48":[10],"sdaReg154":[0],"sdaReg45":[10],"sdaReg44":[10],"sdaReg47":[10],"sdaReg46":[10],"sdaReg41":[0],"sdaReg40":[6],"sdaReg43":[10],"sdaReg42":[8],"static.<android.os.Parcel: android.os.Parcel[] sOwnedPool>":[24],"1093623328":[19],"sdaReg148":[21],"sdaReg147":[21],"sdaReg149":[21],"sdaReg143":[21],"sdaReg144":[0, 20],"sdaReg39":[8],"sdaReg145":[21],"sdaReg37":[6, 9],"sdaReg140":[0],"sdaReg141":[0],"sdaReg142":[0, 20],"sdaReg32":[8],"sdaReg31":[8],"1083999984":[0],"sdaReg36":[6, 9],"sdaReg35":[8],"sdaReg34":[8],"sdaReg33":[8],"1084022880":[14],"sdaReg9":[0],"sdaReg6":[0, 2],"sdaReg7":[0, 3],"sdaReg4":[0],"sdaReg5":[0],"sdaReg139":[16, 14, 15],"sdaReg138":[0],"1093959896":[0],"sdaReg137":[16, 14, 15],"1093821864":[0],"sdaReg134":[19],"sdaReg135":[19],"sdaReg26":[7],"1093821864.<java.util.HashMap: int size>":[0],"sdaReg132":[16, 14, 15],"sdaReg29":[7],"1094163136":[23],"sdaReg130":[19],"sdaReg3":[0],"sdaReg2":[0],"sdaReg21":[7],"sdaReg1":[0],"sdaReg20":[7],"sdaReg0":[0, 1],"sdaReg23":[7],"sdaReg22":[7],"sdaReg25":[7],"sdaReg24":[7]},"colorToColor":{"0":[0, 21, 5, 24, 12, 14],"5":[0, 14],"6":[6, 8],"8":[8, 12],"9":[8],"10":[12],"11":[6],"12":[11],"14":[19],"15":[19],"17":[19],"16":[19],"19":[18],"18":[8],"21":[23],"20":[21],"23":[0],"22":[23]},"colorToLabel":{"0":"this","6":"<android.os.Parcel: java.util.HashMap mCreators>","9":"<java.util.HashMap: java.util.Map$Entry[] EMPTY_TABLE>","24":"<android.os.Parcel: android.os.Parcel[] sOwnedPool>","25":"return"}}}

Generated Model
	this-><android.os.Parcel: java.util.HashMap mCreators>
	this-><android.os.Parcel: android.os.Parcel[] sOwnedPool>

