Scanning method <android.os.Bundle: int describeContents()>

All seen event types: BinaryOperationRecord, SimpleAssignmentRecord, MethodReturnRecord, MethodCallRecord, LoadInstanceRecord, MethodStartRecord, MethodEndRecord, IfRecord, 
Ignored event types: IfRecord, 

JSON Encoded Analysis Data (for visualization):{"heapEdges":[{"step":0,"from":"1093959896","to":"1093959896.<android.os.Bundle: boolean mFdsKnown>","type":"load","field":"<android.os.Bundle: boolean mFdsKnown>"},{"step":1,"from":"1093959896","to":"1093959896.<android.os.Bundle: boolean mHasFds>","type":"load","field":"<android.os.Bundle: boolean mHasFds>"}],"parameters":[{"id":"1093959896","name":"this","klass":"android.os.Bundle"}],"returns":[{"id":"sdaReg0","name":"return","klass":"int"}],"colors":{"heapLocToColor":{"1093959896.<android.os.Bundle: boolean mHasFds>":[0],"sdaReg1":[0],"1093959896.<android.os.Bundle: boolean mFdsKnown>":[0],"1093959896":[0]},"colorToColor":{},"colorToLabel":{"0":"this","1":"return"}}}

Generated Model

