Scanning method <android.os.Bundle: boolean isEmpty()>

All seen event types: SimpleAssignmentRecord, MethodReturnRecord, MethodCallRecord, LoadInstanceRecord, MethodStartRecord, MethodEndRecord, IfRecord, 
Ignored event types: IfRecord, 

JSON Encoded Analysis Data (for visualization):{"heapEdges":[{"step":0,"from":"1093488368","to":"1093730224","type":"load","field":"<android.os.Bundle: java.util.Map mMap>"},{"step":1,"from":"1093730224","to":"1093730224.<java.util.HashMap: int size>","type":"load","field":"<java.util.HashMap: int size>"}],"parameters":[{"id":"1093488368","name":"this","klass":"android.os.Bundle"}],"returns":[{"id":"sdaReg2","name":"return","klass":"boolean"}],"colors":{"heapLocToColor":{"1093730224":[0],"1093730224.<java.util.HashMap: int size>":[0],"sdaReg1":[0],"1093488368":[0],"sdaReg0":[0]},"colorToColor":{},"colorToLabel":{"0":"this","1":"return"}}}

Generated Model

