Scanning method <android.text.Html: void withinParagraph(java.lang.StringBuilder,android.text.Spanned,int,int,int,boolean)>

All seen event types: StoreArrayRecord, SimpleAssignmentRecord, MethodStartRecord, LoadInstanceRecord, IfRecord, InstanceOfRecord, LoadStaticRecord, BinaryOperationRecord, MethodCallRecord, MethodReturnRecord, CastRecord, ArrayLengthRecord, LoadArrayRecord, MethodEndRecord, 
Ignored event types: IfRecord, 

JSON Encoded Analysis Data (for visualization):{"heapEdges":[{"step":0,"from":"1093778128","to":"1093778128.<android.text.SpannableStringInternal: int mSpanCount>","type":"load","field":"<android.text.SpannableStringInternal: int mSpanCount>"},{"step":1,"from":"1093778128","to":"1093481264","type":"load","field":"<android.text.SpannableStringInternal: java.lang.Object[] mSpans>"},{"step":2,"from":"1093778128","to":"1093711952","type":"load","field":"<android.text.SpannableStringInternal: int[] mSpanData>"},{"step":3,"from":"1093711952","to":"1093711952.arrayIdx_int:0","type":"load","field":"arrayIdx_int:0"},{"step":4,"from":"1093711952","to":"1093711952.arrayIdx_int:1","type":"load","field":"arrayIdx_int:1"},{"step":5,"from":"1093481264","to":"1093505328","type":"load","field":"arrayIdx_int:0"},{"step":6,"from":"1093778128","to":"1093778128.<android.text.SpannableStringInternal: int mSpanCount>","type":"load","field":"<android.text.SpannableStringInternal: int mSpanCount>"},{"step":7,"from":"1093778128","to":"1093481264","type":"load","field":"<android.text.SpannableStringInternal: java.lang.Object[] mSpans>"},{"step":8,"from":"1093778128","to":"1093711952","type":"load","field":"<android.text.SpannableStringInternal: int[] mSpanData>"},{"step":9,"from":"1093481264","to":"1093505328","type":"load","field":"arrayIdx_int:0"},{"step":10,"from":"1093711952","to":"1093711952.arrayIdx_int:0","type":"load","field":"arrayIdx_int:0"},{"step":11,"from":"1093711952","to":"1093711952.arrayIdx_int:1","type":"load","field":"arrayIdx_int:1"},{"step":12,"from":"1084661656","to":"sdaReg29","type":"model"},{"step":13,"from":"static.<com.android.internal.util.ArrayUtils: java.lang.Object[] sCache>","to":"1084375760","type":"load","field":"<com.android.internal.util.ArrayUtils: java.lang.Object[] sCache>"},{"step":14,"from":"static.<com.android.internal.util.ArrayUtils: java.lang.Object[] sCache>","to":"1084375760","type":"load","field":"<com.android.internal.util.ArrayUtils: java.lang.Object[] sCache>"},{"step":15,"from":"1084375760","to":"1093550768","type":"create","field":"arrayIdx_int:26"},{"step":16,"from":"1093778128","to":"1093778128.<android.text.SpannableStringInternal: java.lang.String mText>","type":"load","field":"<android.text.SpannableStringInternal: java.lang.String mText>"},{"step":17,"from":"1093778128.<android.text.SpannableStringInternal: java.lang.String mText>","to":"sdaReg47","type":"model"},{"step":18,"from":"sdaReg47","to":"1093847240","type":"model"},{"step":19,"from":"1093778128","to":"1093778128.<android.text.SpannableStringInternal: java.lang.String mText>","type":"load","field":"<android.text.SpannableStringInternal: java.lang.String mText>"},{"step":20,"from":"1093778128.<android.text.SpannableStringInternal: java.lang.String mText>","to":"sdaReg49","type":"model"},{"step":21,"from":"sdaReg49","to":"1093847240","type":"model"},{"step":22,"from":"1093778128","to":"1093778128.<android.text.SpannableStringInternal: java.lang.String mText>","type":"load","field":"<android.text.SpannableStringInternal: java.lang.String mText>"},{"step":23,"from":"1093778128.<android.text.SpannableStringInternal: java.lang.String mText>","to":"sdaReg51","type":"model"},{"step":24,"from":"sdaReg51","to":"1093847240","type":"model"},{"step":25,"from":"1093778128","to":"1093778128.<android.text.SpannableStringInternal: java.lang.String mText>","type":"load","field":"<android.text.SpannableStringInternal: java.lang.String mText>"},{"step":26,"from":"1093778128.<android.text.SpannableStringInternal: java.lang.String mText>","to":"sdaReg53","type":"model"},{"step":27,"from":"sdaReg53","to":"1093847240","type":"model"},{"step":28,"from":"1093778128","to":"1093778128.<android.text.SpannableStringInternal: java.lang.String mText>","type":"load","field":"<android.text.SpannableStringInternal: java.lang.String mText>"},{"step":29,"from":"1093778128.<android.text.SpannableStringInternal: java.lang.String mText>","to":"sdaReg55","type":"model"},{"step":30,"from":"sdaReg55","to":"1093847240","type":"model"},{"step":31,"from":"1093778128","to":"1093778128.<android.text.SpannableStringInternal: java.lang.String mText>","type":"load","field":"<android.text.SpannableStringInternal: java.lang.String mText>"},{"step":32,"from":"1093778128.<android.text.SpannableStringInternal: java.lang.String mText>","to":"sdaReg57","type":"model"},{"step":33,"from":"1093778128","to":"1093778128.<android.text.SpannableStringInternal: int mSpanCount>","type":"load","field":"<android.text.SpannableStringInternal: int mSpanCount>"},{"step":34,"from":"1093778128","to":"1093481264","type":"load","field":"<android.text.SpannableStringInternal: java.lang.Object[] mSpans>"},{"step":35,"from":"1093778128","to":"1093711952","type":"load","field":"<android.text.SpannableStringInternal: int[] mSpanData>"},{"step":36,"from":"1093711952","to":"1093711952.arrayIdx_int:0","type":"load","field":"arrayIdx_int:0"},{"step":37,"from":"1093711952","to":"1093711952.arrayIdx_int:1","type":"load","field":"arrayIdx_int:1"},{"step":38,"from":"1093481264","to":"1093505328","type":"load","field":"arrayIdx_int:0"},{"step":39,"from":"1093778128","to":"1093778128.<android.text.SpannableStringInternal: int mSpanCount>","type":"load","field":"<android.text.SpannableStringInternal: int mSpanCount>"},{"step":40,"from":"1093778128","to":"1093481264","type":"load","field":"<android.text.SpannableStringInternal: java.lang.Object[] mSpans>"},{"step":41,"from":"1093778128","to":"1093711952","type":"load","field":"<android.text.SpannableStringInternal: int[] mSpanData>"},{"step":42,"from":"1093481264","to":"1093505328","type":"load","field":"arrayIdx_int:0"},{"step":43,"from":"1093711952","to":"1093711952.arrayIdx_int:0","type":"load","field":"arrayIdx_int:0"},{"step":44,"from":"1093711952","to":"1093711952.arrayIdx_int:1","type":"load","field":"arrayIdx_int:1"},{"step":45,"from":"1093481264","to":"1093505328","type":"load","field":"arrayIdx_int:0"},{"step":46,"from":"1093505328","to":"1094034608","type":"store","field":"arrayIdx_int:0"},{"step":47,"from":"1093505328","to":"1093505328.<android.text.style.StyleSpan: int mStyle>","type":"load","field":"<android.text.style.StyleSpan: int mStyle>"},{"step":48,"from":"1093778128","to":"1093778128.<android.text.SpannableStringInternal: java.lang.String mText>","type":"load","field":"<android.text.SpannableStringInternal: java.lang.String mText>"},{"step":49,"from":"1093778128.<android.text.SpannableStringInternal: java.lang.String mText>","to":"sdaReg110","type":"model"},{"step":50,"from":"sdaReg110","to":"1093847240","type":"model"},{"step":51,"from":"1093778128","to":"1093778128.<android.text.SpannableStringInternal: java.lang.String mText>","type":"load","field":"<android.text.SpannableStringInternal: java.lang.String mText>"},{"step":52,"from":"1093778128.<android.text.SpannableStringInternal: java.lang.String mText>","to":"sdaReg112","type":"model"},{"step":53,"from":"sdaReg112","to":"1093847240","type":"model"},{"step":54,"from":"1093778128","to":"1093778128.<android.text.SpannableStringInternal: java.lang.String mText>","type":"load","field":"<android.text.SpannableStringInternal: java.lang.String mText>"},{"step":55,"from":"1093778128.<android.text.SpannableStringInternal: java.lang.String mText>","to":"sdaReg114","type":"model"},{"step":56,"from":"sdaReg114","to":"1093847240","type":"model"},{"step":57,"from":"1093778128","to":"1093778128.<android.text.SpannableStringInternal: java.lang.String mText>","type":"load","field":"<android.text.SpannableStringInternal: java.lang.String mText>"},{"step":58,"from":"1093778128.<android.text.SpannableStringInternal: java.lang.String mText>","to":"sdaReg116","type":"model"},{"step":59,"from":"sdaReg116","to":"1093847240","type":"model"},{"step":60,"from":"1093505328","to":"1093505328.<android.text.style.StyleSpan: int mStyle>","type":"load","field":"<android.text.style.StyleSpan: int mStyle>"},{"step":61,"from":"1093778128","to":"1093778128.<android.text.SpannableStringInternal: int mSpanCount>","type":"load","field":"<android.text.SpannableStringInternal: int mSpanCount>"},{"step":62,"from":"1093778128","to":"1093481264","type":"load","field":"<android.text.SpannableStringInternal: java.lang.Object[] mSpans>"},{"step":63,"from":"1093778128","to":"1093711952","type":"load","field":"<android.text.SpannableStringInternal: int[] mSpanData>"},{"step":64,"from":"1093711952","to":"1093711952.arrayIdx_int:0","type":"load","field":"arrayIdx_int:0"},{"step":65,"from":"1093711952","to":"1093711952.arrayIdx_int:1","type":"load","field":"arrayIdx_int:1"},{"step":66,"from":"1093778128","to":"1093778128.<android.text.SpannableStringInternal: int mSpanCount>","type":"load","field":"<android.text.SpannableStringInternal: int mSpanCount>"},{"step":67,"from":"1093778128","to":"1093481264","type":"load","field":"<android.text.SpannableStringInternal: java.lang.Object[] mSpans>"},{"step":68,"from":"1093778128","to":"1093711952","type":"load","field":"<android.text.SpannableStringInternal: int[] mSpanData>"},{"step":69,"from":"1093481264","to":"1093505328","type":"load","field":"arrayIdx_int:0"},{"step":70,"from":"1093711952","to":"1093711952.arrayIdx_int:0","type":"load","field":"arrayIdx_int:0"},{"step":71,"from":"1093711952","to":"1093711952.arrayIdx_int:1","type":"load","field":"arrayIdx_int:1"},{"step":72,"from":"1084661656","to":"sdaReg154","type":"model"},{"step":73,"from":"static.<com.android.internal.util.ArrayUtils: java.lang.Object[] sCache>","to":"1084375760","type":"load","field":"<com.android.internal.util.ArrayUtils: java.lang.Object[] sCache>"},{"step":74,"from":"1093550768","to":"1085374624","type":"model"},{"step":75,"from":"1085374624","to":"1084661656","type":"model"},{"step":76,"from":"1093778128","to":"1093778128.<android.text.SpannableStringInternal: java.lang.String mText>","type":"load","field":"<android.text.SpannableStringInternal: java.lang.String mText>"},{"step":77,"from":"1093778128.<android.text.SpannableStringInternal: java.lang.String mText>","to":"sdaReg171","type":"model"},{"step":78,"from":"1093778128","to":"1093778128.<android.text.SpannableStringInternal: java.lang.String mText>","type":"load","field":"<android.text.SpannableStringInternal: java.lang.String mText>"},{"step":79,"from":"1093778128.<android.text.SpannableStringInternal: java.lang.String mText>","to":"sdaReg175","type":"model"},{"step":80,"from":"1093778128","to":"1093778128.<android.text.SpannableStringInternal: java.lang.String mText>","type":"load","field":"<android.text.SpannableStringInternal: java.lang.String mText>"},{"step":81,"from":"1093778128.<android.text.SpannableStringInternal: java.lang.String mText>","to":"sdaReg177","type":"model"},{"step":82,"from":"sdaReg177","to":"1093847240","type":"model"},{"step":83,"from":"1093778128","to":"1093778128.<android.text.SpannableStringInternal: java.lang.String mText>","type":"load","field":"<android.text.SpannableStringInternal: java.lang.String mText>"},{"step":84,"from":"1093778128.<android.text.SpannableStringInternal: java.lang.String mText>","to":"sdaReg179","type":"model"},{"step":85,"from":"sdaReg179","to":"1093847240","type":"model"},{"step":86,"from":"1093778128","to":"1093778128.<android.text.SpannableStringInternal: java.lang.String mText>","type":"load","field":"<android.text.SpannableStringInternal: java.lang.String mText>"},{"step":87,"from":"1093778128.<android.text.SpannableStringInternal: java.lang.String mText>","to":"sdaReg181","type":"model"},{"step":88,"from":"sdaReg181","to":"1093847240","type":"model"},{"step":89,"from":"1093778128","to":"1093778128.<android.text.SpannableStringInternal: java.lang.String mText>","type":"load","field":"<android.text.SpannableStringInternal: java.lang.String mText>"},{"step":90,"from":"1093778128.<android.text.SpannableStringInternal: java.lang.String mText>","to":"sdaReg183","type":"model"},{"step":91,"from":"sdaReg183","to":"1093847240","type":"model"},{"step":92,"from":"1093778128","to":"1093778128.<android.text.SpannableStringInternal: java.lang.String mText>","type":"load","field":"<android.text.SpannableStringInternal: java.lang.String mText>"},{"step":93,"from":"1093778128.<android.text.SpannableStringInternal: java.lang.String mText>","to":"sdaReg185","type":"model"},{"step":94,"from":"sdaReg185","to":"1093847240","type":"model"},{"step":95,"from":"sdaReg188","to":"1093847240","type":"model"}],"parameters":[{"id":"1093847240","name":"arg#0","klass":"java.lang.StringBuilder"},{"id":"1093778128","name":"arg#1","klass":"android.text.Spanned"},{"id":"sdaReg0","name":"arg#2","klass":"int"},{"id":"sdaReg1","name":"arg#3","klass":"int"},{"id":"sdaReg2","name":"arg#4","klass":"int"},{"id":"sdaReg3","name":"arg#5","klass":"boolean"}],"returns":[{"id":null,"name":"return","klass":null}],"colors":{"heapLocToColor":{"1093550768":[10],"sdaReg128":[1],"1093505328.<android.text.style.StyleSpan: int mStyle>":[1],"sdaReg129":[1],"1093711952.arrayIdx_int:1":[1],"1093711952.arrayIdx_int:0":[1],"1093711952":[1],"1093778128.<android.text.SpannableStringInternal: int[] mSpanData>":[1],"sdaReg63":[1],"sdaReg14":[6],"sdaReg71":[1],"sdaReg70":[17],"sdaReg17":[1],"sdaReg15":[1],"sdaReg116":[1, 23],"sdaReg114":[1, 22],"sdaReg115":[1],"sdaReg79":[18],"sdaReg73":[1],"sdaReg113":[1],"sdaReg112":[1, 21],"sdaReg111":[1],"sdaReg110":[1, 20],"sdaReg107":[1],"sdaReg108":[1, 2, 3],"sdaReg109":[1],"sdaReg171":[1, 28],"sdaReg170":[1],"sdaReg106":[0],"sdaReg173":[1, 2, 3],"static.<com.android.internal.util.ArrayUtils: java.lang.Object[] sCache>":[9],"sdaReg86":[19],"sdaReg172":[1, 2, 3],"sdaReg87":[19],"sdaReg175":[1, 29],"sdaReg84":[19],"sdaReg174":[1],"sdaReg85":[19],"sdaReg177":[1, 30],"sdaReg176":[1],"sdaReg179":[1, 31],"sdaReg88":[19],"sdaReg178":[1],"sdaReg89":[19],"sdaReg94":[1],"sdaReg93":[1],"sdaReg182":[1],"sdaReg181":[1, 32],"sdaReg180":[1],"sdaReg95":[1],"sdaReg185":[34, 1],"sdaReg184":[1],"1093778128.<android.text.SpannableStringInternal: int mSpanCount>":[1],"sdaReg183":[1, 33],"1093778128.<android.text.SpannableStringInternal: java.lang.String mText>":[1],"sdaReg61":[1],"sdaReg169":[1, 2, 3],"sdaReg162":[10],"sdaReg163":[10],"sdaReg164":[10],"sdaReg165":[10],"sdaReg167":[0],"1093481264":[1],"sdaReg168":[1],"sdaReg58":[2],"sdaReg57":[1, 16],"sdaReg56":[1],"sdaReg55":[1, 15],"sdaReg54":[1],"sdaReg53":[1, 14],"sdaReg52":[1],"sdaReg51":[1, 13],"sdaReg50":[1],"sdaReg159":[27, 10, 26],"sdaReg158":[10, 26],"1084661656":[10, 27, 26],"sdaReg49":[1, 12],"sdaReg156":[25],"sdaReg48":[1],"sdaReg157":[25],"sdaReg154":[25],"sdaReg155":[25],"sdaReg45":[2],"sdaReg44":[1],"sdaReg47":[1, 11],"1094034608":[19],"sdaReg46":[1],"sdaReg40":[19, 10],"sdaReg43":[0],"1093505328":[1],"sdaReg148":[24],"1085374624":[10, 26],"sdaReg39":[10],"sdaReg38":[10],"sdaReg37":[10],"1084375760":[9],"1093778128":[1],"sdaReg140":[1],"1093481264.arrayIdx_int:0":[1],"sdaReg142":[1],"sdaReg32":[8],"sdaReg31":[8],"sdaReg30":[8],"sdaReg36":[10],"sdaReg35":[10],"sdaReg34":[10],"sdaReg33":[10],"sdaReg7":[1],"sdaReg4":[1, 2, 3],"sdaReg5":[1],"sdaReg29":[8],"sdaReg133":[1],"sdaReg130":[1],"1093778128.<android.text.SpannableStringInternal: java.lang.Object[] mSpans>":[1],"sdaReg131":[1],"sdaReg3":[5],"1093847240":[0],"sdaReg2":[4],"sdaReg1":[1, 3],"sdaReg0":[2],"sdaReg23":[7]},"colorToColor":{"34":[0],"1":[0, 19],"32":[0],"33":[0],"10":[9],"11":[0],"12":[0],"13":[0],"14":[0],"15":[0],"21":[0],"20":[0],"23":[0],"22":[0],"31":[0],"30":[0]},"colorToLabel":{"0":"arg#0","1":"arg#1","2":"arg#2","3":"arg#3","4":"arg#4","5":"arg#5","9":"<com.android.internal.util.ArrayUtils: java.lang.Object[] sCache>","35":"return"}}}

Generated Model
	arg#1->arg#0

