Scanning method <java.io.DataOutputStream: void writeBytes(java.lang.String)>

All seen event types: NewArrayRecord, BinaryOperationRecord, StoreArrayRecord, SimpleAssignmentRecord, MethodReturnRecord, MethodCallRecord, ArrayLengthRecord, LoadInstanceRecord, CastRecord, IfRecord, StoreInstanceRecord, 
Ignored event types: IfRecord, 

JSON Encoded Analysis Data (for visualization):{"heapEdges":[{"step":0,"from":"sdaReg0","to":"sdaReg5","type":"model"},{"step":1,"from":"sdaReg6","to":"1093713512","type":"store","field":"arrayIdx_int:0"},{"step":2,"from":"sdaReg0","to":"sdaReg8","type":"model"},{"step":3,"from":"sdaReg6","to":"1093713512","type":"store","field":"arrayIdx_int:1"},{"step":4,"from":"sdaReg0","to":"sdaReg10","type":"model"},{"step":5,"from":"sdaReg6","to":"1093713512","type":"store","field":"arrayIdx_int:2"},{"step":6,"from":"sdaReg0","to":"sdaReg12","type":"model"},{"step":7,"from":"sdaReg6","to":"1093713512","type":"store","field":"arrayIdx_int:3"},{"step":8,"from":"sdaReg0","to":"sdaReg14","type":"model"},{"step":9,"from":"sdaReg6","to":"1093713512","type":"store","field":"arrayIdx_int:4"},{"step":10,"from":"sdaReg0","to":"sdaReg16","type":"model"},{"step":11,"from":"sdaReg6","to":"1093713512","type":"store","field":"arrayIdx_int:5"},{"step":12,"from":"sdaReg0","to":"sdaReg18","type":"model"},{"step":13,"from":"sdaReg6","to":"1093713512","type":"store","field":"arrayIdx_int:6"},{"step":14,"from":"sdaReg0","to":"sdaReg20","type":"model"},{"step":15,"from":"sdaReg6","to":"1093713512","type":"store","field":"arrayIdx_int:7"},{"step":16,"from":"sdaReg0","to":"sdaReg22","type":"model"},{"step":17,"from":"sdaReg6","to":"1093713512","type":"store","field":"arrayIdx_int:8"},{"step":18,"from":"sdaReg0","to":"sdaReg24","type":"model"},{"step":19,"from":"sdaReg6","to":"1093713512","type":"store","field":"arrayIdx_int:9"},{"step":20,"from":"1093713328","to":"1093713152","type":"load","field":"<java.io.FilterOutputStream: java.io.OutputStream out>"},{"step":21,"from":"1093713152","to":"1093713512","type":"model"},{"step":22,"from":"1093713512","to":"1093713152","type":"model"},{"step":23,"from":"1093713328","to":"1093713328.<java.io.DataOutputStream: int written>","type":"load","field":"<java.io.DataOutputStream: int written>"},{"step":24,"from":"sdaReg27","to":"1093713328","type":"store","field":"<java.io.DataOutputStream: int written>"}],"parameters":[{"id":"1093713328","name":"this","klass":"java.io.DataOutputStream"},{"id":"sdaReg0","name":"arg#1","klass":"string"}],"returns":[{"id":null,"name":"return","klass":null}],"colors":{"heapLocToColor":{"1093713328":[0],"sdaReg13":[13],"sdaReg14":[1, 14],"sdaReg11":[11],"sdaReg12":[1, 12],"sdaReg10":[1, 10],"1093713328.<java.io.DataOutputStream: int written>":[0],"sdaReg19":[19],"sdaReg17":[17],"sdaReg18":[1, 18],"sdaReg15":[15],"sdaReg16":[1, 16],"sdaReg8":[1, 8],"sdaReg9":[9],"1093713512":[0, 4],"sdaReg6":[16, 1, 18, 20, 6, 22, 8, 24, 10, 12, 14],"sdaReg7":[7],"sdaReg4":[5],"sdaReg5":[1, 6],"sdaReg27":[0],"1093713152":[0],"sdaReg2":[3],"sdaReg1":[2],"sdaReg21":[21],"sdaReg0":[1],"sdaReg20":[1, 20],"sdaReg23":[23],"sdaReg22":[1, 22],"sdaReg25":[25],"sdaReg24":[1, 24]},"colorToColor":{"0":[0],"1":[4],"4":[0],"6":[4],"8":[4],"10":[4],"12":[4],"14":[4],"16":[4],"18":[4],"20":[4],"22":[4],"24":[4]},"colorToLabel":{"0":"this","1":"arg#1","26":"return"}}}

Generated Model
	arg#1->this

