Scanning method <java.net.InetAddress: java.net.InetAddress getByAddress(byte[])>

All seen event types: MethodReturnRecord, MethodCallRecord, 
Ignored event types: 

JSON Encoded Analysis Data (for visualization):{"heapEdges":[{"step":0,"from":"1093315680","to":"1093502704","type":"model"}],"parameters":[{"id":"1093315680","name":"arg#0","klass":"byte[]"}],"returns":[{"id":"1093502704","name":"return","klass":"java.net.InetAddress"}],"colors":{"heapLocToColor":{"1093502704":[1],"1093315680":[0],"sdaReg0":[1]},"colorToColor":{"0":[1],"1":[2]},"colorToLabel":{"0":"arg#0","2":"return"}}}

Generated Model
	arg#0->return

