Scanning method <java.io.PrintWriter: void write(char[],int,int)>

All seen event types: SimpleAssignmentRecord, ExitMonitorRecord, MethodStartRecord, LoadInstanceRecord, IfRecord, NewObjectRecord, StoreInstanceRecord, BinaryOperationRecord, MethodCallRecord, MethodReturnRecord, EnterMonitorRecord, ArrayLengthRecord, MethodEndRecord, 
Ignored event types: ExitMonitorRecord, EnterMonitorRecord, IfRecord, 

JSON Encoded Analysis Data (for visualization):{"heapEdges":[{"step":0,"from":"1093596424","to":"1093596456","type":"load","field":"<java.io.Writer: java.lang.Object lock>"},{"step":1,"from":"1093596424","to":"1093596456","type":"load","field":"<java.io.PrintWriter: java.io.Writer out>"},{"step":2,"from":"1093596424","to":"1093596456","type":"load","field":"<java.io.PrintWriter: java.io.Writer out>"},{"step":3,"from":"1093596456","to":"1093596248","type":"load","field":"<java.io.Writer: java.lang.Object lock>"},{"step":4,"from":"1093596456","to":"1093615152","type":"load","field":"<java.io.OutputStreamWriter: java.nio.charset.CharsetEncoder encoder>"},{"step":5,"from":"1093651552","to":"sdaReg28","type":"create","field":"<java.nio.Buffer: int mark>"},{"step":6,"from":"1093651552","to":"sdaReg29","type":"create","field":"<java.nio.Buffer: int position>"},{"step":7,"from":"1093651552","to":"sdaReg26","type":"create","field":"<java.nio.Buffer: int _elementSizeShift>"},{"step":8,"from":"sdaReg20","to":"1093651552","type":"store","field":"<java.nio.Buffer: int limit>"},{"step":9,"from":"sdaReg20","to":"1093651552","type":"store","field":"<java.nio.Buffer: int capacity>"},{"step":10,"from":"1093651504","to":"1093651552","type":"store","field":"<java.nio.CharArrayBuffer: char[] backingArray>"},{"step":11,"from":"1093651552","to":"sdaReg23","type":"create","field":"<java.nio.CharArrayBuffer: int offset>"},{"step":12,"from":"sdaReg0","to":"1093651552","type":"store","field":"<java.nio.Buffer: int position>"},{"step":13,"from":"sdaReg36","to":"1093651552","type":"store","field":"<java.nio.Buffer: int limit>"},{"step":14,"from":"1093596456","to":"1093615152","type":"load","field":"<java.io.OutputStreamWriter: java.nio.charset.CharsetEncoder encoder>"},{"step":15,"from":"1093596456","to":"1093596488","type":"load","field":"<java.io.OutputStreamWriter: java.nio.ByteBuffer bytes>"},{"step":16,"from":"1093615152","to":"1093651552","type":"model"},{"step":17,"from":"1093615152","to":"1093596488","type":"model"},{"step":18,"from":"1093615152","to":"1084215096","type":"model"},{"step":19,"from":"1093651552","to":"1093615152","type":"model"},{"step":20,"from":"1093651552","to":"1093596488","type":"model"},{"step":21,"from":"1093651552","to":"1084215096","type":"model"},{"step":22,"from":"1093596488","to":"1093615152","type":"model"},{"step":23,"from":"1093596488","to":"1093651552","type":"model"},{"step":24,"from":"1093596488","to":"1084215096","type":"model"},{"step":25,"from":"1084215096","to":"1084215096.<java.nio.charset.CoderResult: int type>","type":"load","field":"<java.nio.charset.CoderResult: int type>"},{"step":26,"from":"1084215096","to":"1084215096.<java.nio.charset.CoderResult: int type>","type":"load","field":"<java.nio.charset.CoderResult: int type>"},{"step":27,"from":"1084215096","to":"1084215096.<java.nio.charset.CoderResult: int type>","type":"load","field":"<java.nio.charset.CoderResult: int type>"}],"parameters":[{"id":"1093596424","name":"this","klass":"java.io.PrintWriter"},{"id":"1093651504","name":"arg#1","klass":"char[]"},{"id":"sdaReg0","name":"arg#2","klass":"int"},{"id":"sdaReg1","name":"arg#3","klass":"int"}],"returns":[{"id":null,"name":"return","klass":null}],"colors":{"heapLocToColor":{"1093596424.<java.io.PrintWriter: java.io.Writer out>":[0],"1093615152":[0],"1093596248":[0],"1093596424":[0],"sdaReg39":[4],"sdaReg14":[2, 3],"sdaReg38":[0],"sdaReg11":[2],"sdaReg37":[4],"sdaReg12":[1],"sdaReg10":[2, 3],"sdaReg32":[4],"sdaReg31":[4],"sdaReg30":[4],"sdaReg19":[1],"1084215096.<java.nio.charset.CoderResult: int type>":[0, 5],"1093596488":[0],"sdaReg36":[2, 3],"sdaReg17":[1],"sdaReg35":[4],"sdaReg18":[4],"1093596456.<java.io.OutputStreamWriter: java.nio.charset.CharsetEncoder encoder>":[0],"sdaReg34":[4],"sdaReg15":[2],"sdaReg33":[4],"sdaReg16":[4],"sdaReg8":[0],"sdaReg6":[1],"sdaReg5":[0],"1093651552":[0, 4],"sdaReg27":[4],"1093596456":[0],"1093651504":[1],"1084215096":[0, 5],"sdaReg3":[1],"sdaReg2":[0],"sdaReg1":[3],"sdaReg21":[4],"sdaReg0":[2],"sdaReg41":[0, 5],"sdaReg40":[0, 5],"sdaReg22":[1],"sdaReg43":[0, 5],"sdaReg25":[4],"sdaReg24":[4]},"colorToColor":{"0":[0, 4, 5],"1":[4],"2":[4],"3":[4],"4":[0, 5]},"colorToLabel":{"0":"this","1":"arg#1","2":"arg#2","3":"arg#3","6":"return"}}}

Generated Model
	arg#3->this
	arg#2->this
	arg#1->this

