Scanning method <java.util.AbstractList: java.util.ListIterator listIterator(int)>

All seen event types: BinaryOperationRecord, MethodReturnRecord, MethodCallRecord, LoadInstanceRecord, MethodStartRecord, IfRecord, MethodEndRecord, StoreInstanceRecord, NewObjectRecord, 
Ignored event types: IfRecord, 

JSON Encoded Analysis Data (for visualization):{"heapEdges":[{"step":0,"from":"1093519824","to":"1095037464","type":"store","field":"<java.util.AbstractList$FullListIterator: java.util.AbstractList this$0>"},{"step":1,"from":"1093519824","to":"1095037464","type":"store","field":"<java.util.AbstractList$SimpleListIterator: java.util.AbstractList this$0>"},{"step":2,"from":"1095037464","to":"sdaReg6","type":"create","field":"<java.util.AbstractList$SimpleListIterator: int pos>"},{"step":3,"from":"1095037464","to":"sdaReg7","type":"create","field":"<java.util.AbstractList$SimpleListIterator: int lastPosition>"},{"step":4,"from":"1093519824","to":"1093519824.<java.util.AbstractList: int modCount>","type":"load","field":"<java.util.AbstractList: int modCount>"},{"step":5,"from":"1093519824.<java.util.AbstractList: int modCount>","to":"1095037464","type":"store","field":"<java.util.AbstractList$SimpleListIterator: int expectedModCount>"},{"step":6,"from":"1093519824","to":"1093519824.<java.util.ArrayList: int size>","type":"load","field":"<java.util.ArrayList: int size>"},{"step":7,"from":"sdaReg10","to":"1095037464","type":"store","field":"<java.util.AbstractList$SimpleListIterator: int pos>"}],"parameters":[{"id":"1093519824","name":"this","klass":"java.util.AbstractList"},{"id":"sdaReg0","name":"arg#1","klass":"int"}],"returns":[{"id":"1095037464","name":"return","klass":"java.util.ListIterator"}],"colors":{"heapLocToColor":{"sdaReg8":[2],"sdaReg9":[0],"sdaReg4":[0],"sdaReg5":[2],"1093519824.<java.util.ArrayList: int size>":[0],"sdaReg11":[2],"1093519824":[0],"sdaReg10":[1],"sdaReg3":[2],"sdaReg2":[0],"sdaReg1":[2],"sdaReg0":[1],"1095037464":[2],"1093519824.<java.util.AbstractList: int modCount>":[0]},"colorToColor":{"0":[2],"1":[2],"2":[3]},"colorToLabel":{"0":"this","1":"arg#1","3":"return"}}}

Generated Model
	this->return
	arg#1->return

