Scanning method <java.io.DataInputStream: java.lang.String readUTF(java.io.DataInput)>

All seen event types: NewArrayRecord, SimpleAssignmentRecord, MethodReturnRecord, MethodCallRecord, MethodStartRecord, MethodEndRecord, IfRecord, NewObjectRecord, 
Ignored event types: IfRecord, 

JSON Encoded Analysis Data (for visualization):{"heapEdges":[{"step":0,"from":"1093299112","to":"sdaReg0","type":"model"},{"step":1,"from":"1093231048","to":"1093299112","type":"model"},{"step":2,"from":"1093507600","to":"sdaReg7","type":"model"}],"parameters":[{"id":"1093299112","name":"arg#0","klass":"java.io.DataInput"}],"returns":[{"id":"sdaReg7","name":"return","klass":"string"}],"colors":{"heapLocToColor":{"1093231048":[2],"1093299112":[0],"sdaReg7":[4],"1093507600":[3],"sdaReg3":[3],"sdaReg2":[2],"sdaReg1":[0],"sdaReg0":[0, 1]},"colorToColor":{"2":[0],"3":[4],"4":[5]},"colorToLabel":{"0":"arg#0","5":"return"}}}

Generated Model

