Scanning method <android.os.Bundle: java.lang.CharSequence getCharSequence(java.lang.String)>

All seen event types: BinaryOperationRecord, MethodReturnRecord, MethodCallRecord, CastRecord, ArrayLengthRecord, LoadInstanceRecord, MethodStartRecord, LoadArrayRecord, MethodEndRecord, IfRecord, 
Ignored event types: IfRecord, 

JSON Encoded Analysis Data (for visualization):{"heapEdges":[{"step":0,"from":"1093427032","to":"1093772024","type":"load","field":"<android.os.Bundle: java.util.Map mMap>"},{"step":1,"from":"1093772024","to":"1094115944","type":"load","field":"<java.util.HashMap: java.util.HashMap$HashMapEntry[] table>"},{"step":2,"from":"1094115944","to":"1094153280","type":"load","field":"arrayIdx_int:2"},{"step":3,"from":"1094153280","to":"1093509328","type":"load","field":"<java.util.HashMap$HashMapEntry: java.lang.Object key>"},{"step":4,"from":"1094153280","to":"1093772608","type":"load","field":"<java.util.HashMap$HashMapEntry: java.lang.Object value>"}],"parameters":[{"id":"1093427032","name":"this","klass":"android.os.Bundle"},{"id":"sdaReg0","name":"arg#1","klass":"string"}],"returns":[{"id":"1093772608","name":"return","klass":"java.lang.CharSequence"}],"colors":{"heapLocToColor":{"1094115944":[0],"sdaReg8":[2],"sdaReg9":[2],"sdaReg6":[2],"sdaReg7":[2],"sdaReg4":[2],"sdaReg5":[2],"1094153280":[0],"sdaReg14":[2],"sdaReg11":[2],"sdaReg10":[2],"1093772608":[0],"sdaReg3":[2],"sdaReg2":[0],"sdaReg1":[0],"1093509328":[0],"1093427032":[0],"sdaReg0":[1],"1093772024":[0],"sdaReg15":[0],"sdaReg16":[0]},"colorToColor":{"0":[3]},"colorToLabel":{"0":"this","1":"arg#1","3":"return"}}}

Generated Model
	this->return

