Scanning method <android.os.Bundle: java.lang.CharSequence getCharSequence(java.lang.String)>

All seen event types: StoreArrayRecord, SimpleAssignmentRecord, ExitMonitorRecord, MethodStartRecord, LoadInstanceRecord, IfRecord, InstanceOfRecord, NewObjectRecord, StoreInstanceRecord, NewArrayRecord, LoadStaticRecord, BinaryOperationRecord, MethodCallRecord, MethodReturnRecord, SwitchRecord, EnterMonitorRecord, ArrayLengthRecord, CastRecord, LoadArrayRecord, MethodEndRecord, 
Ignored event types: ExitMonitorRecord, SwitchRecord, EnterMonitorRecord, IfRecord, 

JSON Encoded Analysis Data (for visualization):{"heapEdges":[{"step":0,"from":"1093818736","to":"1093446048","type":"load","field":"<android.os.Bundle: android.os.Parcel mParcelledData>"},{"step":1,"from":"1093818736","to":"1093446048","type":"load","field":"<android.os.Bundle: android.os.Parcel mParcelledData>"},{"step":2,"from":"1093446048","to":"sdaReg2","type":"model"},{"step":3,"from":"static.<java.util.HashMap: java.util.Map$Entry[] EMPTY_TABLE>","to":"1083997920","type":"load","field":"<java.util.HashMap: java.util.Map$Entry[] EMPTY_TABLE>"},{"step":4,"from":"1083997920","to":"1093469344","type":"store","field":"<java.util.HashMap: java.util.HashMap$HashMapEntry[] table>"},{"step":5,"from":"1093469344","to":"sdaReg9","type":"create","field":"<java.util.HashMap: int threshold>"},{"step":6,"from":"1093818736","to":"1093469344","type":"create","field":"<android.os.Bundle: java.util.Map mMap>"},{"step":7,"from":"1093818736","to":"1093446048","type":"load","field":"<android.os.Bundle: android.os.Parcel mParcelledData>"},{"step":8,"from":"1093446048","to":"sdaReg16","type":"model"},{"step":9,"from":"1093446048","to":"sdaReg17","type":"model"},{"step":10,"from":"1093446048","to":"sdaReg21","type":"model"},{"step":11,"from":"static.<android.text.TextUtils: android.os.Parcelable$Creator CHAR_SEQUENCE_CREATOR>","to":"1084850936","type":"load","field":"<android.text.TextUtils: android.os.Parcelable$Creator CHAR_SEQUENCE_CREATOR>"},{"step":12,"from":"1093446048","to":"sdaReg27","type":"model"},{"step":13,"from":"1093446048","to":"sdaReg28","type":"model"},{"step":14,"from":"1093582568","to":"sdaReg36","type":"model"},{"step":15,"from":"sdaReg36","to":"1093584368","type":"store","field":"<android.text.SpannableStringInternal: java.lang.String mText>"},{"step":16,"from":"1093584368","to":"1093824112","type":"create","field":"<android.text.SpannableStringInternal: java.lang.Object[] mSpans>"},{"step":17,"from":"1093584368","to":"1093511408","type":"create","field":"<android.text.SpannableStringInternal: int[] mSpanData>"},{"step":18,"from":"1093446048","to":"sdaReg50","type":"model"},{"step":19,"from":"1093446048","to":"sdaReg56","type":"model"},{"step":20,"from":"sdaReg56","to":"1093566360","type":"store","field":"<android.text.style.ForegroundColorSpan: int mColor>"},{"step":21,"from":"1093446048","to":"sdaReg64","type":"model"},{"step":22,"from":"1093446048","to":"sdaReg65","type":"model"},{"step":23,"from":"1093446048","to":"sdaReg66","type":"model"},{"step":24,"from":"1093584368","to":"1093584368.<android.text.SpannableStringInternal: int mSpanCount>","type":"load","field":"<android.text.SpannableStringInternal: int mSpanCount>"},{"step":25,"from":"1093584368","to":"1093584368.<android.text.SpannableStringInternal: int mSpanCount>","type":"load","field":"<android.text.SpannableStringInternal: int mSpanCount>"},{"step":26,"from":"1093584368","to":"1093584368.<android.text.SpannableStringInternal: int mSpanCount>","type":"load","field":"<android.text.SpannableStringInternal: int mSpanCount>"},{"step":27,"from":"1093584368","to":"1093584368.<android.text.SpannableStringInternal: int mSpanCount>","type":"load","field":"<android.text.SpannableStringInternal: int mSpanCount>"},{"step":28,"from":"1093824112","to":"1094026648","type":"model"},{"step":29,"from":"1093584368","to":"1093584368.<android.text.SpannableStringInternal: int mSpanCount>","type":"load","field":"<android.text.SpannableStringInternal: int mSpanCount>"},{"step":30,"from":"1093511408","to":"1094210048","type":"model"},{"step":31,"from":"1093584368","to":"1094026648","type":"create","field":"<android.text.SpannableStringInternal: java.lang.Object[] mSpans>"},{"step":32,"from":"1093584368","to":"1094210048","type":"create","field":"<android.text.SpannableStringInternal: int[] mSpanData>"},{"step":33,"from":"1093584368","to":"1093584368.<android.text.SpannableStringInternal: int mSpanCount>","type":"load","field":"<android.text.SpannableStringInternal: int mSpanCount>"},{"step":34,"from":"1094026648","to":"1093566360","type":"create","field":"arrayIdx_int:0"},{"step":35,"from":"1093584368","to":"1093584368.<android.text.SpannableStringInternal: int mSpanCount>","type":"load","field":"<android.text.SpannableStringInternal: int mSpanCount>"},{"step":36,"from":"sdaReg64","to":"1094210048","type":"store","field":"arrayIdx_int:0"},{"step":37,"from":"1093584368","to":"1093584368.<android.text.SpannableStringInternal: int mSpanCount>","type":"load","field":"<android.text.SpannableStringInternal: int mSpanCount>"},{"step":38,"from":"sdaReg65","to":"1094210048","type":"store","field":"arrayIdx_int:1"},{"step":39,"from":"1093584368","to":"1093584368.<android.text.SpannableStringInternal: int mSpanCount>","type":"load","field":"<android.text.SpannableStringInternal: int mSpanCount>"},{"step":40,"from":"sdaReg66","to":"1094210048","type":"store","field":"arrayIdx_int:2"},{"step":41,"from":"1093584368","to":"1093584368.<android.text.SpannableStringInternal: int mSpanCount>","type":"load","field":"<android.text.SpannableStringInternal: int mSpanCount>"},{"step":42,"from":"sdaReg97","to":"1093584368","type":"store","field":"<android.text.SpannableStringInternal: int mSpanCount>"},{"step":43,"from":"1084365888","to":"sdaReg111","type":"model"},{"step":44,"from":"static.<com.android.internal.util.ArrayUtils: java.lang.Object[] sCache>","to":"1084375760","type":"load","field":"<com.android.internal.util.ArrayUtils: java.lang.Object[] sCache>"},{"step":45,"from":"1084375760","to":"1093479992","type":"load","field":"arrayIdx_int:66"},{"step":46,"from":"1093479992","to":"1084732504","type":"model"},{"step":47,"from":"1084732504","to":"1084365888","type":"model"},{"step":48,"from":"1093446048","to":"sdaReg126","type":"model"},{"step":49,"from":"1093469344","to":"1093469344.<java.util.HashMap: int modCount>","type":"load","field":"<java.util.HashMap: int modCount>"},{"step":50,"from":"sdaReg147","to":"1093469344","type":"store","field":"<java.util.HashMap: int modCount>"},{"step":51,"from":"1093469344","to":"1093469344.<java.util.HashMap: int size>","type":"load","field":"<java.util.HashMap: int size>"},{"step":52,"from":"sdaReg148","to":"1093469344","type":"store","field":"<java.util.HashMap: int size>"},{"step":53,"from":"1093469344","to":"1093505728","type":"create","field":"<java.util.HashMap: java.util.HashMap$HashMapEntry[] table>"},{"step":54,"from":"sdaReg156","to":"1093469344","type":"store","field":"<java.util.HashMap: int threshold>"},{"step":55,"from":"1093844688","to":"1093817680","type":"store","field":"<java.util.HashMap$HashMapEntry: java.lang.Object key>"},{"step":56,"from":"1093817680","to":"1093584368","type":"create","field":"<java.util.HashMap$HashMapEntry: java.lang.Object value>"},{"step":57,"from":"sdaReg143","to":"1093817680","type":"store","field":"<java.util.HashMap$HashMapEntry: int hash>"},{"step":58,"from":"1093505728","to":"1093817680","type":"create","field":"arrayIdx_int:2"},{"step":59,"from":"1093446048","to":"sdaReg173","type":"model"},{"step":60,"from":"1093446048","to":"sdaReg174","type":"model"},{"step":61,"from":"1093446048","to":"sdaReg178","type":"model"},{"step":62,"from":"1093446048","to":"sdaReg179","type":"model"},{"step":63,"from":"sdaReg196","to":"1093469344","type":"store","field":"<java.util.HashMap: int modCount>"},{"step":64,"from":"sdaReg197","to":"1093469344","type":"store","field":"<java.util.HashMap: int size>"},{"step":65,"from":"1093724600","to":"1093861728","type":"store","field":"<java.util.HashMap$HashMapEntry: java.lang.Object key>"},{"step":66,"from":"1093461112","to":"1093861728","type":"store","field":"<java.util.HashMap$HashMapEntry: java.lang.Object value>"},{"step":67,"from":"sdaReg192","to":"1093861728","type":"store","field":"<java.util.HashMap$HashMapEntry: int hash>"},{"step":68,"from":"1093817680","to":"1093861728","type":"store","field":"<java.util.HashMap$HashMapEntry: java.util.HashMap$HashMapEntry next>"},{"step":69,"from":"1093505728","to":"1093861728","type":"create","field":"arrayIdx_int:2"},{"step":70,"from":"1093818736","to":"1093446048","type":"load","field":"<android.os.Bundle: android.os.Parcel mParcelledData>"},{"step":71,"from":"1093446048","to":"1093446048.<android.os.Parcel: int mOwnObject>","type":"load","field":"<android.os.Parcel: int mOwnObject>"},{"step":72,"from":"static.<android.os.Parcel: android.os.Parcel[] sOwnedPool>","to":"1084044960","type":"load","field":"<android.os.Parcel: android.os.Parcel[] sOwnedPool>"},{"step":73,"from":"1093446048","to":"1084044960","type":"store","field":"arrayIdx_int:0"},{"step":74,"from":"1093818736","to":"sdaReg211","type":"create","field":"<android.os.Bundle: android.os.Parcel mParcelledData>"}],"parameters":[{"id":"1093818736","name":"this","klass":"android.os.Bundle"},{"id":"sdaReg0","name":"arg#1","klass":"string"}],"returns":[{"id":"1093461112","name":"return","klass":"java.lang.CharSequence"}],"colors":{"heapLocToColor":{"sdaReg191":[39],"sdaReg190":[39],"sdaReg126":[0, 31],"1093479992":[28],"sdaReg127":[11],"sdaReg192":[39],"sdaReg128":[11],"sdaReg129":[11],"1084044960":[41],"sdaReg68":[18],"sdaReg198":[3],"1093469344":[3],"1093446048":[0],"sdaReg69":[11],"sdaReg66":[0, 22],"sdaReg67":[11],"sdaReg224":[42],"sdaReg195":[39],"sdaReg64":[0, 20],"sdaReg225":[43],"sdaReg65":[0, 21],"sdaReg62":[11],"1093446048.<android.os.Parcel: int mOwnObject>":[0],"sdaReg63":[18],"sdaReg221":[42],"sdaReg72":[0, 21],"sdaReg220":[42],"sdaReg14":[0],"sdaReg71":[0, 20],"sdaReg11":[0],"sdaReg70":[18],"sdaReg12":[3],"sdaReg10":[3],"sdaReg120":[28],"sdaReg19":[0],"sdaReg122":[28],"sdaReg17":[0, 6],"sdaReg121":[28],"sdaReg123":[28],"sdaReg16":[0, 5],"sdaReg116":[29, 28, 30],"sdaReg114":[27],"sdaReg115":[29, 28],"sdaReg119":[28],"sdaReg219":[42],"sdaReg77":[0, 22],"sdaReg217":[42],"sdaReg79":[11],"sdaReg218":[42],"1093469344.<java.util.HashMap: int size>":[3],"sdaReg215":[42],"sdaReg73":[11],"sdaReg216":[42],"sdaReg213":[42],"sdaReg75":[11],"sdaReg214":[42],"sdaReg76":[23],"sdaReg212":[3],"sdaReg81":[11],"sdaReg82":[11],"sdaReg113":[27],"sdaReg112":[27],"sdaReg111":[27],"1093584368":[11],"1084850936":[8],"sdaReg109":[26],"sdaReg103":[11],"sdaReg171":[0],"sdaReg170":[34],"sdaReg173":[0, 35],"static.<com.android.internal.util.ArrayUtils: java.lang.Object[] sCache>":[28],"sdaReg174":[0, 36],"sdaReg176":[0],"sdaReg179":[0, 38],"sdaReg178":[0, 37],"sdaReg90":[11],"sdaReg94":[11],"sdaReg93":[11],"sdaReg92":[11],"sdaReg91":[11],"sdaReg100":[18],"static.<java.util.HashMap: java.util.Map$Entry[] EMPTY_TABLE>":[4],"sdaReg101":[11],"1093818736":[0],"sdaReg181":[3],"sdaReg186":[39],"sdaReg95":[11],"sdaReg185":[39],"sdaReg96":[11],"sdaReg184":[39],"sdaReg97":[11],"sdaReg99":[11],"sdaReg189":[39],"sdaReg188":[39],"sdaReg187":[39],"sdaReg60":[18],"sdaReg61":[0],"sdaReg169":[34],"1093824112":[15],"sdaReg162":[3],"sdaReg164":[11],"sdaReg165":[34],"sdaReg167":[11],"sdaReg59":[11],"sdaReg58":[0],"sdaReg57":[18],"1083997920":[4],"sdaReg56":[0, 19],"sdaReg55":[18],"sdaReg54":[18],"sdaReg53":[18],"sdaReg52":[0],"sdaReg51":[18],"sdaReg50":[0, 17],"1084732504":[29, 28],"1093584368.<android.text.SpannableStringInternal: int mSpanCount>":[11],"1093469344.<java.util.HashMap: int modCount>":[3],"sdaReg159":[33],"1094026648":[24],"sdaReg152":[3],"sdaReg49":[11],"sdaReg157":[33],"sdaReg48":[11],"sdaReg47":[11],"static.<android.text.TextUtils: android.os.Parcelable$Creator CHAR_SEQUENCE_CREATOR>":[8],"static.<android.os.Parcel: android.os.Parcel[] sOwnedPool>":[41],"1084365888":[29, 28, 30],"1094210048":[25],"sdaReg148":[3],"sdaReg201":[40],"sdaReg147":[3],"sdaReg149":[3],"sdaReg205":[40],"sdaReg143":[32],"sdaReg204":[34],"sdaReg146":[32],"1084375760":[28],"sdaReg209":[41],"sdaReg208":[41],"sdaReg140":[32],"sdaReg207":[0],"sdaReg141":[32],"sdaReg206":[40],"sdaReg142":[32],"1093817680":[34],"sdaReg31":[11],"1093511408":[16],"sdaReg30":[12],"sdaReg36":[14],"sdaReg35":[13],"sdaReg34":[11],"sdaReg8":[4],"sdaReg6":[3],"sdaReg7":[4],"sdaReg4":[3],"sdaReg5":[3],"1093566360":[18],"1093818736.<android.os.Bundle: android.os.Parcel mParcelledData>":[0],"sdaReg139":[32],"sdaReg138":[32],"sdaReg137":[32],"sdaReg136":[32],"sdaReg134":[11],"sdaReg27":[0, 9],"sdaReg135":[32],"sdaReg26":[0],"sdaReg132":[3],"sdaReg29":[11],"sdaReg28":[0, 10],"sdaReg130":[11],"sdaReg131":[11],"sdaReg3":[3],"sdaReg2":[0, 2],"sdaReg1":[0],"sdaReg21":[0, 7],"sdaReg0":[1],"1093505728":[33],"sdaReg23":[8],"1093861728":[40],"sdaReg22":[0],"sdaReg25":[8],"sdaReg24":[0]},"colorToColor":{"34":[33, 40],"0":[18, 25, 41],"32":[34],"33":[3],"3":[0, 3],"4":[3],"39":[40],"40":[33],"11":[34, 11],"14":[11],"15":[24, 11],"16":[25, 11],"19":[18],"18":[24],"21":[25],"20":[25],"22":[25],"25":[11],"24":[11]},"colorToLabel":{"0":"this","1":"arg#1","4":"<java.util.HashMap: java.util.Map$Entry[] EMPTY_TABLE>","8":"<android.text.TextUtils: android.os.Parcelable$Creator CHAR_SEQUENCE_CREATOR>","28":"<com.android.internal.util.ArrayUtils: java.lang.Object[] sCache>","41":"<android.os.Parcel: android.os.Parcel[] sOwnedPool>","44":"return"}}}

Generated Model
	this-><android.os.Parcel: android.os.Parcel[] sOwnedPool>

