Scanning method <java.util.AbstractList$SubAbstractList: java.lang.Object get(int)>

All seen event types: BinaryOperationRecord, MethodReturnRecord, MethodCallRecord, MethodStartRecord, LoadInstanceRecord, LoadArrayRecord, MethodEndRecord, IfRecord, 
Ignored event types: IfRecord, 

JSON Encoded Analysis Data (for visualization):{"heapEdges":[{"step":0,"from":"1093351928","to":"1093351928.<java.util.AbstractList: int modCount>","type":"load","field":"<java.util.AbstractList: int modCount>"},{"step":1,"from":"1093351928","to":"1093519824","type":"load","field":"<java.util.AbstractList$SubAbstractList: java.util.AbstractList fullList>"},{"step":2,"from":"1093519824","to":"1093519824.<java.util.AbstractList: int modCount>","type":"load","field":"<java.util.AbstractList: int modCount>"},{"step":3,"from":"1093351928","to":"1093351928.<java.util.AbstractList$SubAbstractList: int size>","type":"load","field":"<java.util.AbstractList$SubAbstractList: int size>"},{"step":4,"from":"1093351928","to":"1093519824","type":"load","field":"<java.util.AbstractList$SubAbstractList: java.util.AbstractList fullList>"},{"step":5,"from":"1093351928","to":"1093351928.<java.util.AbstractList$SubAbstractList: int offset>","type":"load","field":"<java.util.AbstractList$SubAbstractList: int offset>"},{"step":6,"from":"1093519824","to":"1093519824.<java.util.ArrayList: int size>","type":"load","field":"<java.util.ArrayList: int size>"},{"step":7,"from":"1093519824","to":"1094129696","type":"load","field":"<java.util.ArrayList: java.lang.Object[] array>"},{"step":8,"from":"1094129696","to":"1093626440","type":"load","field":"arrayIdx_int:51"}],"parameters":[{"id":"1093351928","name":"this","klass":"java.util.AbstractList$SubAbstractList"},{"id":"sdaReg0","name":"arg#1","klass":"int"}],"returns":[{"id":"1093626440","name":"return","klass":"java.lang.Object"}],"colors":{"heapLocToColor":{"1094129696":[0],"1093519824.<java.util.ArrayList: int size>":[0],"1093351928":[0],"1093351928.<java.util.AbstractList: int modCount>":[0],"1093351928.<java.util.AbstractList$SubAbstractList: int offset>":[0],"1093519824":[0],"sdaReg3":[0],"1093351928.<java.util.AbstractList$SubAbstractList: int size>":[0],"1093351928.<java.util.AbstractList$SubAbstractList: java.util.AbstractList fullList>":[0],"sdaReg2":[0],"sdaReg1":[0, 1],"sdaReg0":[1],"1093626440":[0],"1093519824.<java.util.AbstractList: int modCount>":[0]},"colorToColor":{"0":[2]},"colorToLabel":{"0":"this","1":"arg#1","2":"return"}}}

Generated Model
	this->return

