Scanning method <java.util.Formatter: java.util.Formatter format(java.lang.String,java.lang.Object[])>

All seen event types: SimpleAssignmentRecord, ExitMonitorRecord, LoadInstanceRecord, MethodStartRecord, IfRecord, InstanceOfRecord, StoreInstanceRecord, NewObjectRecord, LoadStaticRecord, BinaryOperationRecord, SwitchRecord, MethodCallRecord, MethodReturnRecord, EnterMonitorRecord, CastRecord, ArrayLengthRecord, LoadArrayRecord, MethodEndRecord, 
Ignored event types: SwitchRecord, ExitMonitorRecord, EnterMonitorRecord, IfRecord, 

JSON Encoded Analysis Data (for visualization):{"heapEdges":[{"step":0,"from":"1093548080","to":"1093263368","type":"load","field":"<java.util.Formatter: java.util.Locale locale>"},{"step":1,"from":"1093548080","to":"1093263368","type":"load","field":"<java.util.Formatter: java.util.Locale locale>"},{"step":2,"from":"1093263368","to":"1093548080","type":"store","field":"<java.util.Formatter: java.util.Locale locale>"},{"step":3,"from":"1093263368","to":"1093263368.<java.util.Locale: java.lang.String cachedToStringResult>","type":"load","field":"<java.util.Locale: java.lang.String cachedToStringResult>"},{"step":4,"from":"1093263368","to":"1093263368.<java.util.Locale: java.lang.String languageCode>","type":"load","field":"<java.util.Locale: java.lang.String languageCode>"},{"step":5,"from":"1093263368","to":"1093263368.<java.util.Locale: java.lang.String languageCode>","type":"load","field":"<java.util.Locale: java.lang.String languageCode>"},{"step":6,"from":"1093263368.<java.util.Locale: java.lang.String languageCode>","to":"1093363832","type":"model"},{"step":7,"from":"1093263368","to":"1093263368.<java.util.Locale: java.lang.String countryCode>","type":"load","field":"<java.util.Locale: java.lang.String countryCode>"},{"step":8,"from":"1093263368","to":"1093263368.<java.util.Locale: java.lang.String countryCode>","type":"load","field":"<java.util.Locale: java.lang.String countryCode>"},{"step":9,"from":"1093263368.<java.util.Locale: java.lang.String countryCode>","to":"1093363832","type":"model"},{"step":10,"from":"1093263368","to":"1093263368.<java.util.Locale: java.lang.String variantCode>","type":"load","field":"<java.util.Locale: java.lang.String variantCode>"},{"step":11,"from":"1093263368","to":"1093263368.<java.util.Locale: java.lang.String variantCode>","type":"load","field":"<java.util.Locale: java.lang.String variantCode>"},{"step":12,"from":"1093263368.<java.util.Locale: java.lang.String variantCode>","to":"1093363832","type":"model"},{"step":13,"from":"1093363832","to":"sdaReg13","type":"model"},{"step":14,"from":"sdaReg13","to":"1093263368","type":"store","field":"<java.util.Locale: java.lang.String cachedToStringResult>"},{"step":15,"from":"static.<libcore.icu.LocaleData: java.util.HashMap localeDataCache>","to":"1085803528","type":"load","field":"<libcore.icu.LocaleData: java.util.HashMap localeDataCache>"},{"step":16,"from":"static.<libcore.icu.LocaleData: java.util.HashMap localeDataCache>","to":"1085803528","type":"load","field":"<libcore.icu.LocaleData: java.util.HashMap localeDataCache>"},{"step":17,"from":"1085803528","to":"1085760672","type":"load","field":"<java.util.HashMap: java.util.HashMap$HashMapEntry[] table>"},{"step":18,"from":"1085760672","to":"1085767472","type":"load","field":"arrayIdx_int:0"},{"step":19,"from":"1085767472","to":"1085760768","type":"load","field":"<java.util.HashMap$HashMapEntry: java.lang.Object key>"},{"step":20,"from":"1085767472","to":"1085767472.<java.util.HashMap$HashMapEntry: int hash>","type":"load","field":"<java.util.HashMap$HashMapEntry: int hash>"},{"step":21,"from":"1085767472","to":"1085769600","type":"load","field":"<java.util.HashMap$HashMapEntry: java.lang.Object value>"},{"step":22,"from":"1085769600","to":"1093548080","type":"store","field":"<java.util.Formatter: libcore.icu.LocaleData localeData>"},{"step":23,"from":"1093548080","to":"1093548080.<java.util.Formatter: boolean closed>","type":"load","field":"<java.util.Formatter: boolean closed>"},{"step":24,"from":"sdaReg0","to":"1093552880","type":"store","field":"<java.util.Formatter$FormatSpecifierParser: java.lang.String format>"},{"step":25,"from":"sdaReg38","to":"1093552880","type":"store","field":"<java.util.Formatter$FormatSpecifierParser: int length>"},{"step":26,"from":"1093548080","to":"sdaReg0","type":"model"},{"step":27,"from":"1093548080","to":"sdaReg46","type":"model"},{"step":28,"from":"1093548080","to":"sdaReg49","type":"model"},{"step":29,"from":"sdaReg0","to":"1093548080","type":"model"},{"step":30,"from":"sdaReg0","to":"sdaReg46","type":"model"},{"step":31,"from":"sdaReg0","to":"sdaReg49","type":"model"},{"step":32,"from":"sdaReg46","to":"1093548080","type":"model"},{"step":33,"from":"sdaReg46","to":"sdaReg0","type":"model"},{"step":34,"from":"sdaReg46","to":"sdaReg49","type":"model"},{"step":35,"from":"sdaReg49","to":"1093548080","type":"model"},{"step":36,"from":"sdaReg49","to":"sdaReg0","type":"model"},{"step":37,"from":"sdaReg49","to":"sdaReg46","type":"model"},{"step":38,"from":"sdaReg50","to":"1093552880","type":"store","field":"<java.util.Formatter$FormatSpecifierParser: int startIndex>"},{"step":39,"from":"sdaReg50","to":"1093552880","type":"store","field":"<java.util.Formatter$FormatSpecifierParser: int i>"},{"step":40,"from":"1093553136","to":"sdaReg55","type":"create","field":"<java.util.Formatter$FormatToken: int argIndex>"},{"step":41,"from":"1093553136","to":"sdaReg56","type":"create","field":"<java.util.Formatter$FormatToken: char conversionType>"},{"step":42,"from":"1093553136","to":"sdaReg57","type":"create","field":"<java.util.Formatter$FormatToken: int precision>"},{"step":43,"from":"1093553136","to":"sdaReg58","type":"create","field":"<java.util.Formatter$FormatToken: int width>"},{"step":44,"from":"sdaReg77","to":"1093552880","type":"store","field":"<java.util.Formatter$FormatSpecifierParser: int i>"},{"step":45,"from":"sdaReg78","to":"1093553136","type":"store","field":"<java.util.Formatter$FormatToken: char conversionType>"},{"step":46,"from":"1093575616","to":"1093623080","type":"load","field":"arrayIdx_int:0"},{"step":47,"from":"1093548080","to":"1093553136","type":"create","field":"<java.util.Formatter: java.util.Formatter$FormatToken formatToken>"},{"step":48,"from":"1093623080","to":"1093548080","type":"store","field":"<java.util.Formatter: java.lang.Object arg>"},{"step":49,"from":"1093553136","to":"1093553136.<java.util.Formatter$FormatToken: boolean flagComma>","type":"load","field":"<java.util.Formatter$FormatToken: boolean flagComma>"},{"step":50,"from":"1093553136","to":"1093553136.<java.util.Formatter$FormatToken: boolean flagMinus>","type":"load","field":"<java.util.Formatter$FormatToken: boolean flagMinus>"},{"step":51,"from":"1093553136","to":"1093553136.<java.util.Formatter$FormatToken: boolean flagParenthesis>","type":"load","field":"<java.util.Formatter$FormatToken: boolean flagParenthesis>"},{"step":52,"from":"1093553136","to":"1093553136.<java.util.Formatter$FormatToken: boolean flagPlus>","type":"load","field":"<java.util.Formatter$FormatToken: boolean flagPlus>"},{"step":53,"from":"1093553136","to":"1093553136.<java.util.Formatter$FormatToken: boolean flagSharp>","type":"load","field":"<java.util.Formatter$FormatToken: boolean flagSharp>"},{"step":54,"from":"1093553136","to":"1093553136.<java.util.Formatter$FormatToken: boolean flagSpace>","type":"load","field":"<java.util.Formatter$FormatToken: boolean flagSpace>"},{"step":55,"from":"1093553136","to":"1093553136.<java.util.Formatter$FormatToken: boolean flagZero>","type":"load","field":"<java.util.Formatter$FormatToken: boolean flagZero>"},{"step":56,"from":"1093623080","to":"sdaReg104","type":"model"},{"step":57,"from":"1093548080","to":"1093487848","type":"load","field":"<java.util.Formatter: java.lang.Appendable out>"},{"step":58,"from":"1093623080","to":"1093487848","type":"model"},{"step":59,"from":"1093548080","to":"sdaReg0","type":"model"},{"step":60,"from":"1093548080","to":"sdaReg46","type":"model"},{"step":61,"from":"1093548080","to":"sdaReg49","type":"model"},{"step":62,"from":"sdaReg0","to":"1093548080","type":"model"},{"step":63,"from":"sdaReg0","to":"sdaReg46","type":"model"},{"step":64,"from":"sdaReg0","to":"sdaReg49","type":"model"},{"step":65,"from":"sdaReg46","to":"1093548080","type":"model"},{"step":66,"from":"sdaReg46","to":"sdaReg0","type":"model"},{"step":67,"from":"sdaReg46","to":"sdaReg49","type":"model"},{"step":68,"from":"sdaReg49","to":"1093548080","type":"model"},{"step":69,"from":"sdaReg49","to":"sdaReg0","type":"model"},{"step":70,"from":"sdaReg49","to":"sdaReg46","type":"model"},{"step":71,"from":"1093263368","to":"1093548080","type":"store","field":"<java.util.Formatter: java.util.Locale locale>"}],"parameters":[{"id":"1093548080","name":"this","klass":"java.util.Formatter"},{"id":"sdaReg0","name":"arg#1","klass":"string"},{"id":"1093575616","name":"arg#2","klass":"java.lang.Object[]"}],"returns":[{"id":"1093548080","name":"return","klass":"java.util.Formatter"}],"colors":{"heapLocToColor":{"sdaReg68":[15],"sdaReg66":[11],"sdaReg67":[18],"sdaReg64":[16],"1093553136":[15],"sdaReg65":[17],"sdaReg62":[15],"sdaReg63":[11],"sdaReg13":[4, 7],"sdaReg72":[19],"sdaReg14":[4, 7],"sdaReg71":[11],"sdaReg11":[5],"sdaReg12":[6],"sdaReg10":[4],"1093553136.<java.util.Formatter$FormatToken: boolean flagSpace>":[15],"sdaReg19":[9],"sdaReg17":[9],"sdaReg18":[9],"sdaReg15":[8],"sdaReg16":[8],"1093553136.<java.util.Formatter$FormatToken: boolean flagParenthesis>":[15],"1093263368.<java.util.Locale: java.lang.String languageCode>":[0],"sdaReg78":[21],"sdaReg79":[15],"sdaReg73":[20],"sdaReg74":[11],"sdaReg75":[15],"sdaReg76":[11],"sdaReg81":[15],"sdaReg80":[15],"sdaReg82":[15],"sdaReg113":[0],"1093553136.<java.util.Formatter$FormatToken: boolean flagComma>":[15],"sdaReg112":[24],"sdaReg111":[0, 13, 14],"1093263368.<java.util.Locale: java.lang.String variantCode>":[0],"sdaReg110":[11],"sdaReg107":[0],"sdaReg108":[2],"1085760672":[8],"sdaReg104":[2, 22],"sdaReg105":[2],"sdaReg106":[23],"sdaReg86":[15],"sdaReg84":[15],"sdaReg90":[0],"1093553136.<java.util.Formatter$FormatToken: boolean flagMinus>":[15],"1093553136.<java.util.Formatter$FormatToken: boolean flagZero>":[15],"static.<libcore.icu.LocaleData: java.util.HashMap localeDataCache>":[8],"sdaReg92":[11],"sdaReg91":[2],"sdaReg101":[15],"1085767472":[8],"1093263368.<java.util.Locale: java.lang.String cachedToStringResult>":[0],"1093548080":[0],"1093363832":[4],"sdaReg95":[2],"sdaReg96":[0],"sdaReg97":[15],"sdaReg98":[2],"sdaReg99":[15],"1085760768":[8],"sdaReg60":[15],"sdaReg61":[11],"sdaReg59":[15],"sdaReg54":[15],"sdaReg53":[15],"sdaReg52":[15],"sdaReg51":[11],"sdaReg50":[0, 14],"1093553136.<java.util.Formatter$FormatToken: boolean flagPlus>":[15],"1093548080.<java.util.Formatter: java.util.Locale locale>":[0],"1085767472.<java.util.HashMap$HashMapEntry: int hash>":[8],"sdaReg49":[0, 13, 14],"sdaReg48":[13, 14],"sdaReg45":[0, 14],"sdaReg44":[13],"sdaReg47":[14],"sdaReg46":[0],"1093487848":[0],"sdaReg40":[11],"sdaReg42":[2],"sdaReg39":[11],"sdaReg38":[12],"sdaReg37":[11],"1093553136.<java.util.Formatter$FormatToken: boolean flagSharp>":[15],"sdaReg32":[8],"sdaReg31":[8],"sdaReg30":[8],"sdaReg36":[11],"sdaReg35":[0],"sdaReg34":[2],"sdaReg33":[0],"sdaReg8":[3],"sdaReg9":[4],"sdaReg6":[0],"sdaReg7":[0],"1093623080":[2],"sdaReg4":[0],"sdaReg5":[0],"1093552880":[11],"1085803528":[8],"sdaReg29":[10],"sdaReg28":[9],"1093548080.<java.util.Formatter: boolean closed>":[0],"1093575616":[2],"1085769600":[8],"sdaReg3":[2],"sdaReg2":[0],"sdaReg21":[9],"sdaReg1":[0],"1093263368":[0],"1093263368.<java.util.Locale: java.lang.String countryCode>":[0],"sdaReg20":[9],"sdaReg0":[0, 1],"sdaReg23":[9],"sdaReg22":[9],"sdaReg25":[9],"sdaReg24":[9]},"colorToColor":{"0":[0, 1, 4, 25, 11, 13, 14],"1":[0, 11, 13, 14],"2":[0],"21":[15],"4":[0],"7":[0],"8":[0],"12":[11],"13":[0, 1],"14":[0, 1, 11],"15":[0]},"colorToLabel":{"0":"this","1":"arg#1","2":"arg#2","8":"<libcore.icu.LocaleData: java.util.HashMap localeDataCache>","25":"return"}}}

Generated Model
	this->return
	this->arg#1
	arg#2->this
	arg#2->return
	arg#2->arg#1
	arg#1->this
	arg#1->return

