Scanning method <java.util.HashMap$KeyIterator: java.lang.Object next()>

All seen event types: MethodReturnRecord, MethodCallRecord, LoadInstanceRecord, MethodStartRecord, MethodEndRecord, IfRecord, StoreInstanceRecord, 
Ignored event types: IfRecord, 

JSON Encoded Analysis Data (for visualization):{"heapEdges":[{"step":0,"from":"1093641288","to":"1093562344","type":"load","field":"<java.util.HashMap$HashIterator: java.util.HashMap this$0>"},{"step":1,"from":"1093562344","to":"1093562344.<java.util.HashMap: int modCount>","type":"load","field":"<java.util.HashMap: int modCount>"},{"step":2,"from":"1093641288","to":"1093641288.<java.util.HashMap$HashIterator: int expectedModCount>","type":"load","field":"<java.util.HashMap$HashIterator: int expectedModCount>"},{"step":3,"from":"1093641288","to":"1093619712","type":"load","field":"<java.util.HashMap$HashIterator: java.util.HashMap$HashMapEntry nextEntry>"},{"step":4,"from":"1093641288","to":"1093619712","type":"load","field":"<java.util.HashMap$HashIterator: java.util.HashMap$HashMapEntry nextEntry>"},{"step":5,"from":"1093641288","to":"1093562344","type":"load","field":"<java.util.HashMap$HashIterator: java.util.HashMap this$0>"},{"step":6,"from":"1093562344","to":"1093569536","type":"load","field":"<java.util.HashMap: java.util.HashMap$HashMapEntry[] table>"},{"step":7,"from":"1093619712","to":"1093569576","type":"load","field":"<java.util.HashMap$HashMapEntry: java.util.HashMap$HashMapEntry next>"},{"step":8,"from":"1093569576","to":"1093641288","type":"store","field":"<java.util.HashMap$HashIterator: java.util.HashMap$HashMapEntry nextEntry>"},{"step":9,"from":"1093619712","to":"1093641288","type":"store","field":"<java.util.HashMap$HashIterator: java.util.HashMap$HashMapEntry lastEntryReturned>"},{"step":10,"from":"1093619712","to":"1093619592","type":"load","field":"<java.util.HashMap$HashMapEntry: java.lang.Object key>"}],"parameters":[{"id":"1093641288","name":"this","klass":"java.util.HashMap$KeyIterator"}],"returns":[{"id":"1093619592","name":"return","klass":"java.lang.Object"}],"colors":{"heapLocToColor":{"1093641288":[0],"1093619712":[0],"1093562344.<java.util.HashMap: int modCount>":[0],"1093619592":[0],"1093641288.<java.util.HashMap$HashIterator: int expectedModCount>":[0],"1093569536":[0],"sdaReg1":[0],"1093641288.<java.util.HashMap$HashIterator: java.util.HashMap$HashMapEntry nextEntry>":[0],"sdaReg0":[0],"1093569576":[0],"1093641288.<java.util.HashMap$HashIterator: java.util.HashMap this$0>":[0],"1093562344":[0]},"colorToColor":{"0":[0, 1]},"colorToLabel":{"0":"this","1":"return"}}}

Generated Model
	this->return

