Scanning method <java.util.Collections: boolean addAll(java.util.Collection,java.lang.Object[])>

All seen event types: BinaryOperationRecord, StoreArrayRecord, SimpleAssignmentRecord, MethodReturnRecord, MethodCallRecord, LoadInstanceRecord, MethodStartRecord, ArrayLengthRecord, LoadArrayRecord, MethodEndRecord, IfRecord, StoreInstanceRecord, 
Ignored event types: IfRecord, 

JSON Encoded Analysis Data (for visualization):{"heapEdges":[{"step":0,"from":"1093615912","to":"1093571712","type":"load","field":"arrayIdx_int:0"},{"step":1,"from":"1093615936","to":"1093615960","type":"load","field":"<java.util.ArrayList: java.lang.Object[] array>"},{"step":2,"from":"1093615936","to":"1093615936.<java.util.ArrayList: int size>","type":"load","field":"<java.util.ArrayList: int size>"},{"step":3,"from":"1093571712","to":"1093615960","type":"store","field":"arrayIdx_int:0"},{"step":4,"from":"sdaReg6","to":"1093615936","type":"store","field":"<java.util.ArrayList: int size>"},{"step":5,"from":"1093615936","to":"1093615936.<java.util.AbstractList: int modCount>","type":"load","field":"<java.util.AbstractList: int modCount>"},{"step":6,"from":"sdaReg7","to":"1093615936","type":"store","field":"<java.util.AbstractList: int modCount>"}],"parameters":[{"id":"1093615936","name":"arg#0","klass":"java.util.Collection"},{"id":"1093615912","name":"arg#1","klass":"java.lang.Object[]"}],"returns":[{"id":"sdaReg0","name":"return","klass":"boolean"}],"colors":{"heapLocToColor":{"1093615912":[1],"sdaReg6":[0],"1093615936":[0],"sdaReg7":[0],"sdaReg4":[1],"1093615936.<java.util.ArrayList: int size>":[0],"1093615960":[0],"sdaReg3":[0],"1093615936.<java.util.AbstractList: int modCount>":[0],"1093571712":[1]},"colorToColor":{"0":[0],"1":[0]},"colorToLabel":{"0":"arg#0","1":"arg#1","2":"return"}}}

Generated Model
	arg#1->arg#0

