Scanning method <android.location.Address: java.lang.String getThoroughfare()>

All seen event types: LoadInstanceRecord, 
Ignored event types: 

JSON Encoded Analysis Data (for visualization):{"heapEdges":[{"step":0,"from":"1093654816","to":"1093654816.<android.location.Address: java.lang.String mThoroughfare>","type":"load","field":"<android.location.Address: java.lang.String mThoroughfare>"}],"parameters":[{"id":"1093654816","name":"this","klass":"android.location.Address"}],"returns":[{"id":"1093654816.<android.location.Address: java.lang.String mThoroughfare>","name":"return","klass":"string"}],"colors":{"heapLocToColor":{"1093654816.<android.location.Address: java.lang.String mThoroughfare>":[0],"1093654816":[0]},"colorToColor":{"0":[1]},"colorToLabel":{"0":"this","1":"return"}}}

Generated Model
	this->return

