Scanning method <java.io.ObjectInputStream: byte[] readBlockData()>

All seen event types: NewArrayRecord, BinaryOperationRecord, MethodReturnRecord, MethodCallRecord, ArrayLengthRecord, CastRecord, MethodStartRecord, LoadInstanceRecord, LoadArrayRecord, MethodEndRecord, IfRecord, StoreInstanceRecord, 
Ignored event types: IfRecord, 

JSON Encoded Analysis Data (for visualization):{"heapEdges":[{"step":0,"from":"1093463232","to":"1093463584","type":"load","field":"<java.io.ObjectInputStream: java.io.DataInputStream input>"},{"step":1,"from":"1093463584","to":"1093463432","type":"load","field":"<java.io.FilterInputStream: java.io.InputStream in>"},{"step":2,"from":"1093463432","to":"1093463432.<java.io.ByteArrayInputStream: int pos>","type":"load","field":"<java.io.ByteArrayInputStream: int pos>"},{"step":3,"from":"1093463432","to":"1093463432.<java.io.ByteArrayInputStream: int count>","type":"load","field":"<java.io.ByteArrayInputStream: int count>"},{"step":4,"from":"1093463432","to":"1093463464","type":"load","field":"<java.io.ByteArrayInputStream: byte[] buf>"},{"step":5,"from":"1093463432","to":"1093463432.<java.io.ByteArrayInputStream: int pos>","type":"load","field":"<java.io.ByteArrayInputStream: int pos>"},{"step":6,"from":"sdaReg2","to":"1093463432","type":"store","field":"<java.io.ByteArrayInputStream: int pos>"},{"step":7,"from":"1093463464","to":"1093463464.arrayIdx_int:5","type":"load","field":"arrayIdx_int:5"},{"step":8,"from":"1093463232","to":"1093463584","type":"load","field":"<java.io.ObjectInputStream: java.io.DataInputStream input>"},{"step":9,"from":"1093463584","to":"1093463432","type":"load","field":"<java.io.FilterInputStream: java.io.InputStream in>"},{"step":10,"from":"1093463432","to":"1093549504","type":"model"}],"parameters":[{"id":"1093463232","name":"this","klass":"java.io.ObjectInputStream"}],"returns":[{"id":"1093549504","name":"return","klass":"byte[]"}],"colors":{"heapLocToColor":{"1093463464":[0],"sdaReg9":[0],"sdaReg6":[0],"sdaReg7":[1],"1093463432.<java.io.ByteArrayInputStream: int pos>":[0],"sdaReg4":[0],"sdaReg5":[0],"1093463464.arrayIdx_int:5":[0],"1093463232.<java.io.ObjectInputStream: java.io.DataInputStream input>":[0],"1093463584":[0],"1093463584.<java.io.FilterInputStream: java.io.InputStream in>":[0],"1093463232":[0],"sdaReg10":[1],"1093549504":[1],"1093463432.<java.io.ByteArrayInputStream: int count>":[0],"sdaReg3":[0],"1093463432":[0],"sdaReg2":[0],"sdaReg1":[0],"sdaReg0":[0]},"colorToColor":{"0":[0, 1],"1":[2]},"colorToLabel":{"0":"this","2":"return"}}}

Generated Model
	this->return

