Scanning method <java.io.ObjectInputStream: byte[] readBlockData()>

All seen event types: NewArrayRecord, BinaryOperationRecord, MethodReturnRecord, MethodCallRecord, ArrayLengthRecord, CastRecord, MethodStartRecord, LoadInstanceRecord, LoadArrayRecord, MethodEndRecord, IfRecord, StoreInstanceRecord, 
Ignored event types: IfRecord, 

JSON Encoded Analysis Data (for visualization):{"heapEdges":[{"step":0,"from":"1093460840","to":"1093331400","type":"load","field":"<java.io.ObjectInputStream: java.io.DataInputStream input>"},{"step":1,"from":"1093331400","to":"1093461040","type":"load","field":"<java.io.FilterInputStream: java.io.InputStream in>"},{"step":2,"from":"1093461040","to":"1093461040.<java.io.ByteArrayInputStream: int pos>","type":"load","field":"<java.io.ByteArrayInputStream: int pos>"},{"step":3,"from":"1093461040","to":"1093461040.<java.io.ByteArrayInputStream: int count>","type":"load","field":"<java.io.ByteArrayInputStream: int count>"},{"step":4,"from":"1093461040","to":"1093461072","type":"load","field":"<java.io.ByteArrayInputStream: byte[] buf>"},{"step":5,"from":"1093461040","to":"1093461040.<java.io.ByteArrayInputStream: int pos>","type":"load","field":"<java.io.ByteArrayInputStream: int pos>"},{"step":6,"from":"sdaReg2","to":"1093461040","type":"store","field":"<java.io.ByteArrayInputStream: int pos>"},{"step":7,"from":"1093461072","to":"1093461072.arrayIdx_int:5","type":"load","field":"arrayIdx_int:5"},{"step":8,"from":"1093460840","to":"1093331400","type":"load","field":"<java.io.ObjectInputStream: java.io.DataInputStream input>"},{"step":9,"from":"1093331400","to":"1093461040","type":"load","field":"<java.io.FilterInputStream: java.io.InputStream in>"},{"step":10,"from":"1093461040","to":"1093313952","type":"model"}],"parameters":[{"id":"1093460840","name":"this","klass":"java.io.ObjectInputStream"}],"returns":[{"id":"1093313952","name":"return","klass":"byte[]"}],"colors":{"heapLocToColor":{"1093331400.<java.io.FilterInputStream: java.io.InputStream in>":[0],"sdaReg9":[0],"sdaReg6":[0],"sdaReg7":[1],"sdaReg4":[0],"sdaReg5":[0],"1093460840":[0],"1093461072":[0],"1093461040":[0],"1093313952":[1],"1093331400":[0],"1093461040.<java.io.ByteArrayInputStream: int count>":[0],"sdaReg10":[1],"sdaReg3":[0],"sdaReg2":[0],"sdaReg1":[0],"sdaReg0":[0],"1093461072.arrayIdx_int:5":[0],"1093460840.<java.io.ObjectInputStream: java.io.DataInputStream input>":[0],"1093461040.<java.io.ByteArrayInputStream: int pos>":[0]},"colorToColor":{"0":[0, 1],"1":[2]},"colorToLabel":{"0":"this","2":"return"}}}

Generated Model
	this->return

