Scanning method <java.util.Formatter$FormatToken: int getArgIndex()>

All seen event types: LoadInstanceRecord, 
Ignored event types: 

JSON Encoded Analysis Data (for visualization):{"heapEdges":[{"step":0,"from":"1093487784","to":"1093487784.<java.util.Formatter$FormatToken: int argIndex>","type":"load","field":"<java.util.Formatter$FormatToken: int argIndex>"}],"parameters":[{"id":"1093487784","name":"this","klass":"java.util.Formatter$FormatToken"}],"returns":[{"id":"1093487784.<java.util.Formatter$FormatToken: int argIndex>","name":"return","klass":"int"}],"colors":{"heapLocToColor":{"1093487784.<java.util.Formatter$FormatToken: int argIndex>":[0],"1093487784":[0]},"colorToColor":{"0":[1]},"colorToLabel":{"0":"this","1":"return"}}}

Generated Model
	this->return

