Scanning method <java.util.Arrays$ArrayList: java.lang.Object[] toArray()>

All seen event types: MethodReturnRecord, MethodCallRecord, CastRecord, LoadInstanceRecord, 
Ignored event types: 

JSON Encoded Analysis Data (for visualization):{"heapEdges":[{"step":0,"from":"1093834832","to":"1093834136","type":"load","field":"<java.util.Arrays$ArrayList: java.lang.Object[] a>"},{"step":1,"from":"1093834136","to":"1093834856","type":"model"}],"parameters":[{"id":"1093834832","name":"this","klass":"java.util.Arrays$ArrayList"}],"returns":[{"id":"1093834856","name":"return","klass":"java.lang.Object[]"}],"colors":{"heapLocToColor":{"1093834832":[0],"1093834136":[0],"sdaReg1":[0, 1],"1093834856":[0, 1],"sdaReg0":[0, 1]},"colorToColor":{"0":[2],"1":[2]},"colorToLabel":{"0":"this","2":"return"}}}

Generated Model
	this->return

