Scanning method <java.util.Locale: java.lang.String toNewString()>

All seen event types: SimpleAssignmentRecord, MethodReturnRecord, MethodCallRecord, LoadInstanceRecord, IfRecord, NewObjectRecord, 
Ignored event types: IfRecord, 

JSON Encoded Analysis Data (for visualization):{"heapEdges":[{"step":0,"from":"1093263120","to":"1093263120.<java.util.Locale: java.lang.String languageCode>","type":"load","field":"<java.util.Locale: java.lang.String languageCode>"},{"step":1,"from":"1093263120","to":"1093263120.<java.util.Locale: java.lang.String languageCode>","type":"load","field":"<java.util.Locale: java.lang.String languageCode>"},{"step":2,"from":"1093263120.<java.util.Locale: java.lang.String languageCode>","to":"1093322456","type":"model"},{"step":3,"from":"1093263120","to":"1093263120.<java.util.Locale: java.lang.String countryCode>","type":"load","field":"<java.util.Locale: java.lang.String countryCode>"},{"step":4,"from":"1093263120","to":"1093263120.<java.util.Locale: java.lang.String countryCode>","type":"load","field":"<java.util.Locale: java.lang.String countryCode>"},{"step":5,"from":"1093263120.<java.util.Locale: java.lang.String countryCode>","to":"1093322456","type":"model"},{"step":6,"from":"1093263120","to":"1093263120.<java.util.Locale: java.lang.String variantCode>","type":"load","field":"<java.util.Locale: java.lang.String variantCode>"},{"step":7,"from":"1093263120","to":"1093263120.<java.util.Locale: java.lang.String variantCode>","type":"load","field":"<java.util.Locale: java.lang.String variantCode>"},{"step":8,"from":"1093263120.<java.util.Locale: java.lang.String variantCode>","to":"1093322456","type":"model"},{"step":9,"from":"1093322456","to":"sdaReg5","type":"model"}],"parameters":[{"id":"1093263120","name":"this","klass":"java.util.Locale"}],"returns":[{"id":"sdaReg5","name":"return","klass":"string"}],"colors":{"heapLocToColor":{"1093322456":[2],"1093263120.<java.util.Locale: java.lang.String variantCode>":[0],"sdaReg4":[4],"sdaReg5":[2, 5],"1093263120.<java.util.Locale: java.lang.String languageCode>":[0],"sdaReg3":[3],"sdaReg2":[2],"sdaReg1":[2],"sdaReg0":[1],"1093263120.<java.util.Locale: java.lang.String countryCode>":[0],"1093263120":[0]},"colorToColor":{"0":[2],"2":[6],"5":[6]},"colorToLabel":{"0":"this","6":"return"}}}

Generated Model
	this->return

