Scanning method <java.io.BufferedReader: void checkNotClosed()>

All seen event types: SimpleAssignmentRecord, MethodReturnRecord, MethodCallRecord, LoadInstanceRecord, MethodStartRecord, MethodEndRecord, IfRecord, 
Ignored event types: IfRecord, 

JSON Encoded Analysis Data (for visualization):{"heapEdges":[{"step":0,"from":"1093393280","to":"1093593408","type":"load","field":"<java.io.BufferedReader: char[] buf>"}],"parameters":[{"id":"1093393280","name":"this","klass":"java.io.BufferedReader"}],"returns":[{"id":null,"name":"return","klass":null}],"colors":{"heapLocToColor":{"1093593408":[0],"sdaReg0":[0],"1093393280":[0]},"colorToColor":{},"colorToLabel":{"0":"this","1":"return"}}}

Generated Model

