Scanning method <android.util.Base64: byte[] decode(byte[],int)>

All seen event types: StoreArrayRecord, SimpleAssignmentRecord, MethodStartRecord, LoadInstanceRecord, IfRecord, NewObjectRecord, StoreInstanceRecord, NewArrayRecord, LoadStaticRecord, BinaryOperationRecord, SwitchRecord, MethodCallRecord, MethodReturnRecord, CastRecord, ArrayLengthRecord, LoadArrayRecord, MethodEndRecord, 
Ignored event types: SwitchRecord, IfRecord, 

JSON Encoded Analysis Data (for visualization):{"heapEdges":[{"step":0,"from":"1093807392","to":"1093807424","type":"create","field":"<android.util.Base64$Coder: byte[] output>"},{"step":1,"from":"static.<android.util.Base64$Decoder: int[] DECODE_WEBSAFE>","to":"1093755832","type":"load","field":"<android.util.Base64$Decoder: int[] DECODE_WEBSAFE>"},{"step":2,"from":"1093755832","to":"1093807392","type":"store","field":"<android.util.Base64$Decoder: int[] alphabet>"},{"step":3,"from":"1093807392","to":"sdaReg12","type":"create","field":"<android.util.Base64$Decoder: int state>"},{"step":4,"from":"1093807392","to":"sdaReg13","type":"create","field":"<android.util.Base64$Decoder: int value>"},{"step":5,"from":"1093819528","to":"1093819528.arrayIdx_int:0","type":"load","field":"arrayIdx_int:0"},{"step":6,"from":"1093755832","to":"1093755832.arrayIdx_int:95","type":"load","field":"arrayIdx_int:95"},{"step":7,"from":"1093819528","to":"1093819528.arrayIdx_int:1","type":"load","field":"arrayIdx_int:1"},{"step":8,"from":"1093755832","to":"1093755832.arrayIdx_int:45","type":"load","field":"arrayIdx_int:45"},{"step":9,"from":"1093819528","to":"1093819528.arrayIdx_int:2","type":"load","field":"arrayIdx_int:2"},{"step":10,"from":"1093755832","to":"1093755832.arrayIdx_int:55","type":"load","field":"arrayIdx_int:55"},{"step":11,"from":"1093819528","to":"1093819528.arrayIdx_int:3","type":"load","field":"arrayIdx_int:3"},{"step":12,"from":"1093755832","to":"1093755832.arrayIdx_int:100","type":"load","field":"arrayIdx_int:100"},{"step":13,"from":"sdaReg38","to":"1093807424","type":"store","field":"arrayIdx_int:2"},{"step":14,"from":"sdaReg41","to":"1093807424","type":"store","field":"arrayIdx_int:1"},{"step":15,"from":"sdaReg43","to":"1093807424","type":"store","field":"arrayIdx_int:0"},{"step":16,"from":"1093819528","to":"1093819528.arrayIdx_int:4","type":"load","field":"arrayIdx_int:4"},{"step":17,"from":"1093755832","to":"1093755832.arrayIdx_int:122","type":"load","field":"arrayIdx_int:122"},{"step":18,"from":"1093819528","to":"1093819528.arrayIdx_int:5","type":"load","field":"arrayIdx_int:5"},{"step":19,"from":"1093755832","to":"1093755832.arrayIdx_int:76","type":"load","field":"arrayIdx_int:76"},{"step":20,"from":"1093819528","to":"1093819528.arrayIdx_int:6","type":"load","field":"arrayIdx_int:6"},{"step":21,"from":"1093755832","to":"1093755832.arrayIdx_int:115","type":"load","field":"arrayIdx_int:115"},{"step":22,"from":"1093819528","to":"1093819528.arrayIdx_int:7","type":"load","field":"arrayIdx_int:7"},{"step":23,"from":"1093755832","to":"1093755832.arrayIdx_int:61","type":"load","field":"arrayIdx_int:61"},{"step":24,"from":"1093819528","to":"1093819528.arrayIdx_int:4","type":"load","field":"arrayIdx_int:4"},{"step":25,"from":"1093755832","to":"1093755832.arrayIdx_int:122","type":"load","field":"arrayIdx_int:122"},{"step":26,"from":"1093819528","to":"1093819528.arrayIdx_int:5","type":"load","field":"arrayIdx_int:5"},{"step":27,"from":"1093755832","to":"1093755832.arrayIdx_int:76","type":"load","field":"arrayIdx_int:76"},{"step":28,"from":"1093819528","to":"1093819528.arrayIdx_int:6","type":"load","field":"arrayIdx_int:6"},{"step":29,"from":"1093755832","to":"1093755832.arrayIdx_int:115","type":"load","field":"arrayIdx_int:115"},{"step":30,"from":"1093819528","to":"1093819528.arrayIdx_int:7","type":"load","field":"arrayIdx_int:7"},{"step":31,"from":"1093755832","to":"1093755832.arrayIdx_int:61","type":"load","field":"arrayIdx_int:61"},{"step":32,"from":"sdaReg51","to":"1093807424","type":"store","field":"arrayIdx_int:4"},{"step":33,"from":"sdaReg53","to":"1093807424","type":"store","field":"arrayIdx_int:3"},{"step":34,"from":"sdaReg46","to":"1093807392","type":"store","field":"<android.util.Base64$Decoder: int state>"},{"step":35,"from":"sdaReg21","to":"1093807392","type":"store","field":"<android.util.Base64$Coder: int op>"},{"step":36,"from":"1093807424","to":"1093427104","type":"model"}],"parameters":[{"id":"1093819528","name":"arg#0","klass":"byte[]"},{"id":"sdaReg0","name":"arg#1","klass":"int"}],"returns":[{"id":"1093427104","name":"return","klass":"byte[]"}],"colors":{"heapLocToColor":{"1093427104":[5],"1093755832.arrayIdx_int:76":[4],"1093755832.arrayIdx_int:55":[4],"1093755832.arrayIdx_int:115":[4],"sdaReg14":[2],"sdaReg11":[1],"1093819528":[0],"sdaReg10":[2],"sdaReg56":[5],"sdaReg17":[0],"sdaReg53":[4],"sdaReg52":[4],"sdaReg15":[2],"sdaReg51":[4],"sdaReg16":[2],"1093807424":[3],"1093755832.arrayIdx_int:100":[4],"sdaReg50":[4],"1093807392":[2],"1093755832.arrayIdx_int:45":[4],"sdaReg48":[4],"sdaReg45":[0],"sdaReg47":[4],"static.<android.util.Base64$Decoder: int[] DECODE_WEBSAFE>":[4],"1093755832.arrayIdx_int:61":[4],"sdaReg41":[4],"sdaReg40":[4],"sdaReg43":[4],"sdaReg42":[4],"sdaReg38":[4],"1093755832":[4],"sdaReg32":[4],"sdaReg31":[4],"sdaReg30":[0],"sdaReg36":[4],"1093755832.arrayIdx_int:95":[4],"sdaReg35":[4],"sdaReg34":[0],"sdaReg8":[2],"sdaReg9":[2],"sdaReg6":[2],"sdaReg7":[3],"sdaReg27":[4],"sdaReg26":[0],"sdaReg28":[4],"1093819528.arrayIdx_int:1":[0],"1093819528.arrayIdx_int:0":[0],"1093819528.arrayIdx_int:3":[0],"1093819528.arrayIdx_int:2":[0],"1093819528.arrayIdx_int:5":[0],"sdaReg2":[0],"1093819528.arrayIdx_int:4":[0],"1093819528.arrayIdx_int:7":[0],"sdaReg0":[1],"1093819528.arrayIdx_int:6":[0],"sdaReg23":[0],"sdaReg24":[4],"1093755832.arrayIdx_int:122":[4]},"colorToColor":{"3":[2, 5],"4":[2, 3],"5":[6]},"colorToLabel":{"0":"arg#0","1":"arg#1","4":"<android.util.Base64$Decoder: int[] DECODE_WEBSAFE>","6":"return"}}}

Generated Model

