Scanning method <java.util.TreeMap: java.lang.Object putInternal(java.lang.Object,java.lang.Object)>

All seen event types: SimpleAssignmentRecord, MethodStartRecord, LoadInstanceRecord, IfRecord, NewObjectRecord, StoreInstanceRecord, LoadStaticRecord, BinaryOperationRecord, MethodCallRecord, MethodReturnRecord, SwitchRecord, CastRecord, LoadArrayRecord, MethodEndRecord, 
Ignored event types: SwitchRecord, IfRecord, 

JSON Encoded Analysis Data (for visualization):{"heapEdges":[{"step":0,"from":"static.<java.util.TreeMap$Relation: java.util.TreeMap$Relation CREATE>","to":"1085707192","type":"load","field":"<java.util.TreeMap$Relation: java.util.TreeMap$Relation CREATE>"},{"step":1,"from":"1093233072","to":"1093533024","type":"load","field":"<java.util.TreeMap: java.util.TreeMap$Node root>"},{"step":2,"from":"1093233072","to":"1083970648","type":"load","field":"<java.util.TreeMap: java.util.Comparator comparator>"},{"step":3,"from":"static.<java.util.TreeMap: java.util.Comparator NATURAL_ORDER>","to":"1083970648","type":"load","field":"<java.util.TreeMap: java.util.Comparator NATURAL_ORDER>"},{"step":4,"from":"1093233072","to":"1093533024","type":"load","field":"<java.util.TreeMap: java.util.TreeMap$Node root>"},{"step":5,"from":"1093533024","to":"1093342360","type":"load","field":"<java.util.TreeMap$Node: java.lang.Object key>"},{"step":6,"from":"1093250392","to":"1093342360","type":"model"},{"step":7,"from":"1093250392","to":"sdaReg5","type":"model"},{"step":8,"from":"1093342360","to":"1093250392","type":"model"},{"step":9,"from":"1093342360","to":"sdaReg5","type":"model"},{"step":10,"from":"1093533024","to":"1093544664","type":"load","field":"<java.util.TreeMap$Node: java.util.TreeMap$Node right>"},{"step":11,"from":"1093544664","to":"1093594080","type":"load","field":"<java.util.TreeMap$Node: java.lang.Object key>"},{"step":12,"from":"1093250392","to":"1093594080","type":"model"},{"step":13,"from":"1093250392","to":"sdaReg8","type":"model"},{"step":14,"from":"1093594080","to":"1093250392","type":"model"},{"step":15,"from":"1093594080","to":"sdaReg8","type":"model"},{"step":16,"from":"1093544664","to":"1095563624","type":"load","field":"<java.util.TreeMap$Node: java.util.TreeMap$Node right>"},{"step":17,"from":"1095563624","to":"1093254744","type":"load","field":"<java.util.TreeMap$Node: java.lang.Object key>"},{"step":18,"from":"1093250392","to":"1093254744","type":"model"},{"step":19,"from":"1093250392","to":"sdaReg9","type":"model"},{"step":20,"from":"1093254744","to":"1093250392","type":"model"},{"step":21,"from":"1093254744","to":"sdaReg9","type":"model"},{"step":22,"from":"1095563624","to":"1095477992","type":"load","field":"<java.util.TreeMap$Node: java.util.TreeMap$Node right>"},{"step":23,"from":"1095477992","to":"1093447440","type":"load","field":"<java.util.TreeMap$Node: java.lang.Object key>"},{"step":24,"from":"1093250392","to":"1093447440","type":"model"},{"step":25,"from":"1093250392","to":"sdaReg10","type":"model"},{"step":26,"from":"1093447440","to":"1093250392","type":"model"},{"step":27,"from":"1093447440","to":"sdaReg10","type":"model"},{"step":28,"from":"1095477992","to":"1097517960","type":"load","field":"<java.util.TreeMap$Node: java.util.TreeMap$Node right>"},{"step":29,"from":"1097517960","to":"1093472464","type":"load","field":"<java.util.TreeMap$Node: java.lang.Object key>"},{"step":30,"from":"1093250392","to":"1093472464","type":"model"},{"step":31,"from":"1093250392","to":"sdaReg11","type":"model"},{"step":32,"from":"1093472464","to":"1093250392","type":"model"},{"step":33,"from":"1093472464","to":"sdaReg11","type":"model"},{"step":34,"from":"static.<java.util.TreeMap$2: int[] $SwitchMap$java$util$TreeMap$Relation>","to":"1085752200","type":"load","field":"<java.util.TreeMap$2: int[] $SwitchMap$java$util$TreeMap$Relation>"},{"step":35,"from":"1085707192","to":"sdaReg12","type":"model"},{"step":36,"from":"1085752200","to":"1085752200.arrayIdx_int:3","type":"load","field":"arrayIdx_int:3"},{"step":37,"from":"1097517960","to":"1097092104","type":"store","field":"<java.util.TreeMap$Node: java.util.TreeMap$Node parent>"},{"step":38,"from":"1093250392","to":"1097092104","type":"store","field":"<java.util.TreeMap$Node: java.lang.Object key>"},{"step":39,"from":"1097092104","to":"sdaReg17","type":"create","field":"<java.util.TreeMap$Node: int height>"},{"step":40,"from":"1097517960","to":"1097092104","type":"create","field":"<java.util.TreeMap$Node: java.util.TreeMap$Node right>"},{"step":41,"from":"1093233072","to":"1093233072.<java.util.TreeMap: int size>","type":"load","field":"<java.util.TreeMap: int size>"},{"step":42,"from":"sdaReg20","to":"1093233072","type":"store","field":"<java.util.TreeMap: int size>"},{"step":43,"from":"1093233072","to":"1093233072.<java.util.TreeMap: int modCount>","type":"load","field":"<java.util.TreeMap: int modCount>"},{"step":44,"from":"sdaReg21","to":"1093233072","type":"store","field":"<java.util.TreeMap: int modCount>"},{"step":45,"from":"static.<java.util.TreeMap: boolean $assertionsDisabled>","to":"static.<java.util.TreeMap: boolean $assertionsDisabled>","type":"load","field":"<java.util.TreeMap: boolean $assertionsDisabled>"},{"step":46,"from":"sdaReg27","to":"sdaReg28","type":"model"},{"step":47,"from":"sdaReg27","to":"sdaReg30","type":"model"},{"step":48,"from":"sdaReg28","to":"sdaReg27","type":"model"},{"step":49,"from":"sdaReg28","to":"sdaReg30","type":"model"},{"step":50,"from":"sdaReg31","to":"1097517960","type":"store","field":"<java.util.TreeMap$Node: int height>"},{"step":51,"from":"1097517960","to":"1095477992","type":"load","field":"<java.util.TreeMap$Node: java.util.TreeMap$Node parent>"},{"step":52,"from":"1095477992","to":"1095477952","type":"load","field":"<java.util.TreeMap$Node: java.util.TreeMap$Node left>"},{"step":53,"from":"1095477992","to":"1097517960","type":"load","field":"<java.util.TreeMap$Node: java.util.TreeMap$Node right>"},{"step":54,"from":"1095477952","to":"1095477952.<java.util.TreeMap$Node: int height>","type":"load","field":"<java.util.TreeMap$Node: int height>"},{"step":55,"from":"static.<java.util.TreeMap: boolean $assertionsDisabled>","to":"static.<java.util.TreeMap: boolean $assertionsDisabled>","type":"load","field":"<java.util.TreeMap: boolean $assertionsDisabled>"},{"step":56,"from":"sdaReg27","to":"sdaReg28","type":"model"},{"step":57,"from":"sdaReg27","to":"sdaReg32","type":"model"},{"step":58,"from":"sdaReg28","to":"sdaReg27","type":"model"},{"step":59,"from":"sdaReg28","to":"sdaReg32","type":"model"},{"step":60,"from":"sdaReg31","to":"1095477992","type":"store","field":"<java.util.TreeMap$Node: int height>"},{"step":61,"from":"1095477992","to":"1095563624","type":"load","field":"<java.util.TreeMap$Node: java.util.TreeMap$Node parent>"},{"step":62,"from":"1095563624","to":"1096045000","type":"load","field":"<java.util.TreeMap$Node: java.util.TreeMap$Node left>"},{"step":63,"from":"1095563624","to":"1095477992","type":"load","field":"<java.util.TreeMap$Node: java.util.TreeMap$Node right>"},{"step":64,"from":"1096045000","to":"1096045000.<java.util.TreeMap$Node: int height>","type":"load","field":"<java.util.TreeMap$Node: int height>"},{"step":65,"from":"static.<java.util.TreeMap: boolean $assertionsDisabled>","to":"static.<java.util.TreeMap: boolean $assertionsDisabled>","type":"load","field":"<java.util.TreeMap: boolean $assertionsDisabled>"},{"step":66,"from":"sdaReg27","to":"sdaReg28","type":"model"},{"step":67,"from":"sdaReg27","to":"sdaReg33","type":"model"},{"step":68,"from":"sdaReg28","to":"sdaReg27","type":"model"},{"step":69,"from":"sdaReg28","to":"sdaReg33","type":"model"},{"step":70,"from":"sdaReg31","to":"1095563624","type":"store","field":"<java.util.TreeMap$Node: int height>"},{"step":71,"from":"1095563624","to":"1093544664","type":"load","field":"<java.util.TreeMap$Node: java.util.TreeMap$Node parent>"},{"step":72,"from":"1093544664","to":"1094090032","type":"load","field":"<java.util.TreeMap$Node: java.util.TreeMap$Node left>"},{"step":73,"from":"1093544664","to":"1095563624","type":"load","field":"<java.util.TreeMap$Node: java.util.TreeMap$Node right>"},{"step":74,"from":"1094090032","to":"1094090032.<java.util.TreeMap$Node: int height>","type":"load","field":"<java.util.TreeMap$Node: int height>"},{"step":75,"from":"1095563624","to":"1096045000","type":"load","field":"<java.util.TreeMap$Node: java.util.TreeMap$Node left>"},{"step":76,"from":"1095563624","to":"1095477992","type":"load","field":"<java.util.TreeMap$Node: java.util.TreeMap$Node right>"},{"step":77,"from":"1096045000","to":"1096045000.<java.util.TreeMap$Node: int height>","type":"load","field":"<java.util.TreeMap$Node: int height>"},{"step":78,"from":"1093544664","to":"1094090032","type":"load","field":"<java.util.TreeMap$Node: java.util.TreeMap$Node left>"},{"step":79,"from":"1093544664","to":"1095563624","type":"load","field":"<java.util.TreeMap$Node: java.util.TreeMap$Node right>"},{"step":80,"from":"1095563624","to":"1096045000","type":"load","field":"<java.util.TreeMap$Node: java.util.TreeMap$Node left>"},{"step":81,"from":"1095563624","to":"1095477992","type":"load","field":"<java.util.TreeMap$Node: java.util.TreeMap$Node right>"},{"step":82,"from":"1096045000","to":"1093544664","type":"store","field":"<java.util.TreeMap$Node: java.util.TreeMap$Node right>"},{"step":83,"from":"1093544664","to":"1096045000","type":"store","field":"<java.util.TreeMap$Node: java.util.TreeMap$Node parent>"},{"step":84,"from":"1093544664","to":"1093533024","type":"load","field":"<java.util.TreeMap$Node: java.util.TreeMap$Node parent>"},{"step":85,"from":"1093544664","to":"sdaReg42","type":"create","field":"<java.util.TreeMap$Node: java.util.TreeMap$Node parent>"},{"step":86,"from":"1093533024","to":"1095563624","type":"store","field":"<java.util.TreeMap$Node: java.util.TreeMap$Node parent>"},{"step":87,"from":"1093533024","to":"1093447784","type":"load","field":"<java.util.TreeMap$Node: java.util.TreeMap$Node left>"},{"step":88,"from":"static.<java.util.TreeMap: boolean $assertionsDisabled>","to":"static.<java.util.TreeMap: boolean $assertionsDisabled>","type":"load","field":"<java.util.TreeMap: boolean $assertionsDisabled>"},{"step":89,"from":"1095563624","to":"1093533024","type":"store","field":"<java.util.TreeMap$Node: java.util.TreeMap$Node right>"},{"step":90,"from":"1093544664","to":"1095563624","type":"store","field":"<java.util.TreeMap$Node: java.util.TreeMap$Node left>"},{"step":91,"from":"1095563624","to":"1093544664","type":"store","field":"<java.util.TreeMap$Node: java.util.TreeMap$Node parent>"},{"step":92,"from":"1094090032","to":"1094090032.<java.util.TreeMap$Node: int height>","type":"load","field":"<java.util.TreeMap$Node: int height>"},{"step":93,"from":"1096045000","to":"1096045000.<java.util.TreeMap$Node: int height>","type":"load","field":"<java.util.TreeMap$Node: int height>"},{"step":94,"from":"1094090032.<java.util.TreeMap$Node: int height>","to":"1096045000.<java.util.TreeMap$Node: int height>","type":"model"},{"step":95,"from":"1094090032.<java.util.TreeMap$Node: int height>","to":"sdaReg43","type":"model"},{"step":96,"from":"1096045000.<java.util.TreeMap$Node: int height>","to":"1094090032.<java.util.TreeMap$Node: int height>","type":"model"},{"step":97,"from":"1096045000.<java.util.TreeMap$Node: int height>","to":"sdaReg43","type":"model"},{"step":98,"from":"sdaReg44","to":"1093544664","type":"store","field":"<java.util.TreeMap$Node: int height>"},{"step":99,"from":"sdaReg46","to":"1095563624","type":"store","field":"<java.util.TreeMap$Node: int height>"},{"step":100,"from":"1085638584","to":"1097092104","type":"store","field":"<java.util.TreeMap$Node: java.lang.Object value>"}],"parameters":[{"id":"1093233072","name":"this","klass":"java.util.TreeMap"},{"id":"1093250392","name":"arg#1","klass":"java.lang.Object"},{"id":"1085638584","name":"arg#2","klass":"java.lang.Object"}],"returns":[{"id":"0","name":"return","klass":"java.lang.Object"}],"colors":{"heapLocToColor":{"1093544664.<java.util.TreeMap$Node: java.util.TreeMap$Node right>":[0],"sdaReg13":[12],"1093233072.<java.util.TreeMap: int size>":[0],"sdaReg14":[0],"sdaReg11":[1, 9],"sdaReg12":[3, 11],"1095563624":[0],"sdaReg10":[1, 8],"1085707192":[3],"sdaReg19":[12],"1095477992.<java.util.TreeMap$Node: java.util.TreeMap$Node parent>":[0],"1095477992.<java.util.TreeMap$Node: java.util.TreeMap$Node right>":[0],"sdaReg18":[12],"sdaReg15":[1],"sdaReg16":[12],"1094090032":[0],"1085752200":[10],"1093544664":[0],"1093233072":[0],"static.<java.util.TreeMap$2: int[] $SwitchMap$java$util$TreeMap$Relation>":[10],"1094090032.<java.util.TreeMap$Node: int height>":[0],"static.<java.util.TreeMap: boolean $assertionsDisabled>":[13],"sdaReg45":[18],"sdaReg44":[17],"sdaReg47":[12],"1095563624.<java.util.TreeMap$Node: java.util.TreeMap$Node left>":[0],"1085638584":[2],"sdaReg46":[18],"sdaReg41":[0],"sdaReg40":[0],"sdaReg43":[17],"1093544664.<java.util.TreeMap$Node: java.util.TreeMap$Node parent>":[0],"1083970648":[0, 4],"1093342360":[0, 1],"1093233072.<java.util.TreeMap: java.util.TreeMap$Node root>":[0],"static.<java.util.TreeMap: java.util.Comparator NATURAL_ORDER>":[0, 4],"1093254744":[0, 1],"1093447784":[0],"1085752200.arrayIdx_int:3":[10],"1095563624.<java.util.TreeMap$Node: java.util.TreeMap$Node right>":[0],"sdaReg39":[0],"sdaReg38":[0],"sdaReg37":[0],"1093447440":[0, 1],"sdaReg32":[15],"1093544664.<java.util.TreeMap$Node: java.util.TreeMap$Node left>":[0],"sdaReg31":[16, 14, 15],"sdaReg30":[14],"sdaReg36":[0],"1096045000":[0],"sdaReg35":[0],"1097517960.<java.util.TreeMap$Node: java.util.TreeMap$Node parent>":[0],"sdaReg33":[16],"sdaReg8":[1, 6],"sdaReg9":[1, 7],"sdaReg6":[1, 5, 6, 7, 8, 9],"sdaReg4":[1],"sdaReg5":[1, 5],"static.<java.util.TreeMap$Relation: java.util.TreeMap$Relation CREATE>":[3],"1095563624.<java.util.TreeMap$Node: java.util.TreeMap$Node parent>":[0],"1093233072.<java.util.TreeMap: int modCount>":[0],"1097092104":[12],"1097517960":[0],"1093472464":[0, 1],"sdaReg27":[0],"sdaReg29":[0],"1093594080":[0, 1],"1095477952.<java.util.TreeMap$Node: int height>":[0],"1096045000.<java.util.TreeMap$Node: int height>":[0],"1095477952":[0],"1093250392":[1],"sdaReg3":[1],"sdaReg2":[3],"sdaReg1":[1],"sdaReg21":[0],"1095477992":[0],"sdaReg0":[0],"1093533024":[0],"sdaReg20":[0],"sdaReg23":[0],"sdaReg22":[0],"sdaReg25":[0]},"colorToColor":{"17":[0],"0":[17, 0, 16, 1, 5, 6, 7, 8, 9, 12, 15],"16":[0],"1":[1, 5, 6, 7, 8, 9, 12],"2":[12],"18":[0],"12":[0],"14":[0],"15":[0]},"colorToLabel":{"0":"this","1":"arg#1","2":"arg#2","3":"<java.util.TreeMap$Relation: java.util.TreeMap$Relation CREATE>","4":"<java.util.TreeMap: java.util.Comparator NATURAL_ORDER>","10":"<java.util.TreeMap$2: int[] $SwitchMap$java$util$TreeMap$Relation>","13":"<java.util.TreeMap: boolean $assertionsDisabled>","19":"return"}}}

Generated Model
	this->arg#1
	arg#2->this
	arg#2->arg#1
	arg#1->this

