Scanning method <java.io.FilterInputStream: int read()>

All seen event types: BinaryOperationRecord, SimpleAssignmentRecord, MethodReturnRecord, MethodCallRecord, ArrayLengthRecord, MethodStartRecord, LoadInstanceRecord, LoadArrayRecord, MethodEndRecord, IfRecord, StoreInstanceRecord, 
Ignored event types: IfRecord, 

JSON Encoded Analysis Data (for visualization):{"heapEdges":[{"step":0,"from":"1093497528","to":"1093266320","type":"load","field":"<java.io.FilterInputStream: java.io.InputStream in>"},{"step":1,"from":"1093266320","to":"1093266320.<java.io.PipedInputStream: boolean isConnected>","type":"load","field":"<java.io.PipedInputStream: boolean isConnected>"},{"step":2,"from":"1093266320","to":"1093271696","type":"load","field":"<java.io.PipedInputStream: byte[] buffer>"},{"step":3,"from":"1093266320","to":"1093451856","type":"create","field":"<java.io.PipedInputStream: java.lang.Thread lastReader>"},{"step":4,"from":"1093266320","to":"1093266320.<java.io.PipedInputStream: int in>","type":"load","field":"<java.io.PipedInputStream: int in>"},{"step":5,"from":"1093266320","to":"1093271696","type":"load","field":"<java.io.PipedInputStream: byte[] buffer>"},{"step":6,"from":"1093266320","to":"1093266320.<java.io.PipedInputStream: int out>","type":"load","field":"<java.io.PipedInputStream: int out>"},{"step":7,"from":"sdaReg3","to":"1093266320","type":"store","field":"<java.io.PipedInputStream: int out>"},{"step":8,"from":"1093271696","to":"1093271696.arrayIdx_int:105","type":"load","field":"arrayIdx_int:105"},{"step":9,"from":"1093266320","to":"1093271696","type":"load","field":"<java.io.PipedInputStream: byte[] buffer>"},{"step":10,"from":"1093266320","to":"1093266320.<java.io.PipedInputStream: int in>","type":"load","field":"<java.io.PipedInputStream: int in>"}],"parameters":[{"id":"1093497528","name":"this","klass":"java.io.FilterInputStream"}],"returns":[{"id":"sdaReg4","name":"return","klass":"int"}],"colors":{"heapLocToColor":{"1093271696.arrayIdx_int:105":[0],"1093266320.<java.io.PipedInputStream: byte[] buffer>":[0],"sdaReg4":[0],"1093451856":[1],"1093266320":[0],"1093266320.<java.io.PipedInputStream: int in>":[0],"1093497528":[0],"1093266320.<java.io.PipedInputStream: boolean isConnected>":[0],"1093271696":[0],"1093266320.<java.io.PipedInputStream: int out>":[0],"sdaReg3":[0],"sdaReg1":[1],"sdaReg0":[0]},"colorToColor":{"0":[0, 2],"1":[0]},"colorToLabel":{"0":"this","2":"return"}}}

Generated Model
	this->return

