Scanning method <android.os.Bundle: void putInt(java.lang.String,int)>

All seen event types: BinaryOperationRecord, StoreArrayRecord, MethodReturnRecord, MethodCallRecord, ArrayLengthRecord, LoadInstanceRecord, MethodStartRecord, LoadArrayRecord, MethodEndRecord, IfRecord, NewObjectRecord, StoreInstanceRecord, 
Ignored event types: IfRecord, 

JSON Encoded Analysis Data (for visualization):{"heapEdges":[{"step":0,"from":"1093709944","to":"1093715600","type":"load","field":"<android.os.Bundle: java.util.Map mMap>"},{"step":1,"from":"sdaReg1","to":"1083976944","type":"model"},{"step":2,"from":"1093715600","to":"1093728312","type":"load","field":"<java.util.HashMap: java.util.HashMap$HashMapEntry[] table>"},{"step":3,"from":"1093715600","to":"1093715600.<java.util.HashMap: int modCount>","type":"load","field":"<java.util.HashMap: int modCount>"},{"step":4,"from":"sdaReg18","to":"1093715600","type":"store","field":"<java.util.HashMap: int modCount>"},{"step":5,"from":"1093715600","to":"1093715600.<java.util.HashMap: int size>","type":"load","field":"<java.util.HashMap: int size>"},{"step":6,"from":"sdaReg19","to":"1093715600","type":"store","field":"<java.util.HashMap: int size>"},{"step":7,"from":"1093715600","to":"1093715600.<java.util.HashMap: int threshold>","type":"load","field":"<java.util.HashMap: int threshold>"},{"step":8,"from":"1093715600","to":"1093728312","type":"load","field":"<java.util.HashMap: java.util.HashMap$HashMapEntry[] table>"},{"step":9,"from":"1093715600","to":"1093728312","type":"load","field":"<java.util.HashMap: java.util.HashMap$HashMapEntry[] table>"},{"step":10,"from":"1093487792","to":"1093740272","type":"store","field":"<java.util.HashMap$HashMapEntry: java.lang.Object key>"},{"step":11,"from":"1093740272","to":"1083976944","type":"create","field":"<java.util.HashMap$HashMapEntry: java.lang.Object value>"},{"step":12,"from":"sdaReg14","to":"1093740272","type":"store","field":"<java.util.HashMap$HashMapEntry: int hash>"},{"step":13,"from":"1093728312","to":"1093740272","type":"create","field":"arrayIdx_int:3"}],"parameters":[{"id":"1093709944","name":"this","klass":"android.os.Bundle"},{"id":"sdaReg0","name":"arg#1","klass":"string"},{"id":"sdaReg1","name":"arg#2","klass":"int"}],"returns":[{"id":null,"name":"return","klass":null}],"colors":{"heapLocToColor":{"1093715600":[0],"sdaReg13":[4],"1083976944":[3],"sdaReg14":[4],"sdaReg11":[4],"sdaReg12":[4],"sdaReg10":[4],"1093728312":[0],"sdaReg19":[0],"1093715600.<java.util.HashMap: java.util.HashMap$HashMapEntry[] table>":[0],"sdaReg17":[4],"sdaReg18":[0],"1093715600.<java.util.HashMap: int size>":[0],"sdaReg8":[4],"sdaReg9":[4],"sdaReg6":[4],"sdaReg7":[4],"sdaReg4":[0],"sdaReg5":[3],"1093740272":[5],"1093709944":[0],"sdaReg27":[5],"1093715600.<java.util.HashMap: int modCount>":[0],"1093715600.<java.util.HashMap: int threshold>":[0],"sdaReg28":[5],"sdaReg3":[3],"sdaReg2":[0],"sdaReg1":[2],"sdaReg20":[0],"sdaReg0":[1],"sdaReg23":[5],"sdaReg22":[3],"sdaReg25":[3]},"colorToColor":{"0":[0],"2":[3],"3":[5],"4":[5],"5":[0]},"colorToLabel":{"0":"this","1":"arg#1","2":"arg#2","6":"return"}}}

Generated Model
	arg#2->this

