Scanning method <java.util.Vector: java.lang.Object elementAt(int)>

All seen event types: LoadInstanceRecord, LoadArrayRecord, IfRecord, 
Ignored event types: IfRecord, 

JSON Encoded Analysis Data (for visualization):{"heapEdges":[{"step":0,"from":"1093368616","to":"1093368616.<java.util.Vector: int elementCount>","type":"load","field":"<java.util.Vector: int elementCount>"},{"step":1,"from":"1093368616","to":"1096262136","type":"load","field":"<java.util.Vector: java.lang.Object[] elementData>"},{"step":2,"from":"1096262136","to":"1095589056","type":"load","field":"arrayIdx_int:51"}],"parameters":[{"id":"1093368616","name":"this","klass":"java.util.Vector"},{"id":"sdaReg0","name":"arg#1","klass":"int"}],"returns":[{"id":"1095589056","name":"return","klass":"java.lang.Object"}],"colors":{"heapLocToColor":{"1093368616":[0],"sdaReg0":[1],"1095589056":[0],"1096262136":[0],"1093368616.<java.util.Vector: int elementCount>":[0]},"colorToColor":{"0":[2]},"colorToLabel":{"0":"this","1":"arg#1","2":"return"}}}

Generated Model
	this->return

