Scanning method <java.util.Vector: java.lang.Object elementAt(int)>

All seen event types: LoadInstanceRecord, LoadArrayRecord, IfRecord, 
Ignored event types: IfRecord, 

JSON Encoded Analysis Data (for visualization):{"heapEdges":[{"step":0,"from":"1093627976","to":"1093627976.<java.util.Vector: int elementCount>","type":"load","field":"<java.util.Vector: int elementCount>"},{"step":1,"from":"1093627976","to":"1093556408","type":"load","field":"<java.util.Vector: java.lang.Object[] elementData>"},{"step":2,"from":"1093556408","to":"1093837216","type":"load","field":"arrayIdx_int:54"}],"parameters":[{"id":"1093627976","name":"this","klass":"java.util.Vector"},{"id":"sdaReg0","name":"arg#1","klass":"int"}],"returns":[{"id":"1093837216","name":"return","klass":"java.lang.Object"}],"colors":{"heapLocToColor":{"1093627976.<java.util.Vector: int elementCount>":[0],"1093837216":[0],"1093627976":[0],"sdaReg0":[1],"1093556408":[0]},"colorToColor":{"0":[2]},"colorToLabel":{"0":"this","1":"arg#1","2":"return"}}}

Generated Model
	this->return

