Scanning method <android.os.Bundle: int size()>

All seen event types: MethodReturnRecord, MethodCallRecord, LoadInstanceRecord, MethodStartRecord, MethodEndRecord, IfRecord, 
Ignored event types: IfRecord, 

JSON Encoded Analysis Data (for visualization):{"heapEdges":[{"step":0,"from":"1093867504","to":"1093428472","type":"load","field":"<android.os.Bundle: java.util.Map mMap>"},{"step":1,"from":"1093428472","to":"1093428472.<java.util.HashMap: int size>","type":"load","field":"<java.util.HashMap: int size>"}],"parameters":[{"id":"1093867504","name":"this","klass":"android.os.Bundle"}],"returns":[{"id":"1093428472.<java.util.HashMap: int size>","name":"return","klass":"int"}],"colors":{"heapLocToColor":{"1093428472.<java.util.HashMap: int size>":[0],"1093428472":[0],"sdaReg1":[0],"sdaReg0":[0],"1093867504":[0]},"colorToColor":{"0":[1]},"colorToLabel":{"0":"this","1":"return"}}}

Generated Model
	this->return

