Scanning method <java.util.Arrays: java.lang.String toString(java.lang.Object[])>

All seen event types: BinaryOperationRecord, SimpleAssignmentRecord, MethodReturnRecord, MethodCallRecord, ArrayLengthRecord, LoadArrayRecord, IfRecord, NewObjectRecord, 
Ignored event types: IfRecord, 

JSON Encoded Analysis Data (for visualization):{"heapEdges":[{"step":0,"from":"1093311408","to":"1083912376","type":"load","field":"arrayIdx_int:0"},{"step":1,"from":"1083912376","to":"1093318912","type":"model"},{"step":2,"from":"1093318912","to":"sdaReg7","type":"model"}],"parameters":[{"id":"1093311408","name":"arg#0","klass":"java.lang.Object[]"}],"returns":[{"id":"sdaReg7","name":"return","klass":"string"}],"colors":{"heapLocToColor":{"sdaReg7":[1, 2],"1093318912":[1],"sdaReg4":[1],"sdaReg3":[1],"1083912376":[0],"1093311408":[0]},"colorToColor":{"0":[1],"1":[3],"2":[3]},"colorToLabel":{"0":"arg#0","3":"return"}}}

Generated Model
	arg#0->return

