Scanning method <java.net.URI: void <init>(java.lang.String)>

All seen event types: LoadStaticRecord, BinaryOperationRecord, CaughtExceptionRecord, SimpleAssignmentRecord, MethodReturnRecord, MethodCallRecord, LoadInstanceRecord, MethodStartRecord, MethodEndRecord, IfRecord, StoreInstanceRecord, 
Ignored event types: IfRecord, 

JSON Encoded Analysis Data (for visualization):{"heapEdges":[{"step":0,"from":"1093658456","to":"sdaReg2","type":"create","field":"<java.net.URI: int port>"},{"step":1,"from":"1093658456","to":"sdaReg3","type":"create","field":"<java.net.URI: boolean serverAuthority>"},{"step":2,"from":"1093658456","to":"sdaReg4","type":"create","field":"<java.net.URI: int hash>"},{"step":3,"from":"sdaReg0","to":"1093658456","type":"store","field":"<java.net.URI: java.lang.String string>"},{"step":4,"from":"sdaReg0","to":"sdaReg11","type":"model"},{"step":5,"from":"sdaReg0","to":"sdaReg13","type":"model"},{"step":6,"from":"sdaReg0","to":"sdaReg15","type":"model"},{"step":7,"from":"sdaReg0","to":"sdaReg17","type":"model"},{"step":8,"from":"sdaReg0","to":"sdaReg19","type":"model"},{"step":9,"from":"sdaReg0","to":"sdaReg21","type":"model"},{"step":10,"from":"sdaReg0","to":"sdaReg23","type":"model"},{"step":11,"from":"sdaReg0","to":"sdaReg25","type":"model"},{"step":12,"from":"sdaReg0","to":"sdaReg27","type":"model"},{"step":13,"from":"sdaReg0","to":"sdaReg29","type":"model"},{"step":14,"from":"sdaReg0","to":"sdaReg31","type":"model"},{"step":15,"from":"sdaReg0","to":"sdaReg33","type":"model"},{"step":16,"from":"sdaReg0","to":"sdaReg35","type":"model"},{"step":17,"from":"sdaReg0","to":"sdaReg37","type":"model"},{"step":18,"from":"sdaReg0","to":"sdaReg39","type":"model"},{"step":19,"from":"sdaReg0","to":"sdaReg41","type":"model"},{"step":20,"from":"sdaReg0","to":"sdaReg43","type":"model"},{"step":21,"from":"sdaReg0","to":"sdaReg45","type":"model"},{"step":22,"from":"sdaReg0","to":"sdaReg47","type":"model"},{"step":23,"from":"sdaReg0","to":"sdaReg49","type":"model"},{"step":24,"from":"sdaReg0","to":"sdaReg51","type":"model"},{"step":25,"from":"sdaReg0","to":"sdaReg53","type":"model"},{"step":26,"from":"sdaReg0","to":"sdaReg55","type":"model"},{"step":27,"from":"sdaReg0","to":"sdaReg57","type":"model"},{"step":28,"from":"sdaReg0","to":"sdaReg59","type":"model"},{"step":29,"from":"sdaReg0","to":"sdaReg61","type":"model"},{"step":30,"from":"sdaReg0","to":"sdaReg63","type":"model"},{"step":31,"from":"sdaReg0","to":"sdaReg65","type":"model"},{"step":32,"from":"sdaReg0","to":"sdaReg67","type":"model"},{"step":33,"from":"sdaReg0","to":"sdaReg69","type":"model"},{"step":34,"from":"sdaReg0","to":"sdaReg71","type":"model"},{"step":35,"from":"sdaReg0","to":"sdaReg73","type":"model"},{"step":36,"from":"sdaReg0","to":"sdaReg75","type":"model"},{"step":37,"from":"sdaReg0","to":"sdaReg77","type":"model"},{"step":38,"from":"sdaReg0","to":"sdaReg79","type":"model"},{"step":39,"from":"sdaReg0","to":"sdaReg81","type":"model"},{"step":40,"from":"sdaReg0","to":"sdaReg83","type":"model"},{"step":41,"from":"sdaReg0","to":"sdaReg85","type":"model"},{"step":42,"from":"sdaReg0","to":"sdaReg91","type":"model"},{"step":43,"from":"sdaReg0","to":"sdaReg93","type":"model"},{"step":44,"from":"sdaReg0","to":"sdaReg95","type":"model"},{"step":45,"from":"sdaReg0","to":"sdaReg97","type":"model"},{"step":46,"from":"sdaReg0","to":"sdaReg99","type":"model"},{"step":47,"from":"sdaReg0","to":"sdaReg104","type":"model"},{"step":48,"from":"sdaReg0","to":"sdaReg106","type":"model"},{"step":49,"from":"sdaReg0","to":"sdaReg108","type":"model"},{"step":50,"from":"sdaReg0","to":"sdaReg110","type":"model"},{"step":51,"from":"sdaReg0","to":"sdaReg112","type":"model"},{"step":52,"from":"sdaReg0","to":"sdaReg114","type":"model"},{"step":53,"from":"1093658456","to":"sdaReg116","type":"create","field":"<java.net.URI: boolean absolute>"},{"step":54,"from":"sdaReg0","to":"sdaReg119","type":"model"},{"step":55,"from":"sdaReg0","to":"sdaReg121","type":"model"},{"step":56,"from":"sdaReg0","to":"sdaReg123","type":"model"},{"step":57,"from":"sdaReg0","to":"sdaReg125","type":"model"},{"step":58,"from":"sdaReg0","to":"sdaReg127","type":"model"},{"step":59,"from":"sdaReg127","to":"1093658456","type":"store","field":"<java.net.URI: java.lang.String scheme>"},{"step":60,"from":"1093658456","to":"sdaReg130","type":"create","field":"<java.net.URI: boolean opaque>"},{"step":61,"from":"sdaReg0","to":"sdaReg131","type":"model"},{"step":62,"from":"sdaReg131","to":"1093658456","type":"store","field":"<java.net.URI: java.lang.String schemeSpecificPart>"},{"step":63,"from":"sdaReg0","to":"sdaReg136","type":"model"},{"step":64,"from":"sdaReg0","to":"sdaReg138","type":"model"},{"step":65,"from":"sdaReg0","to":"sdaReg140","type":"model"},{"step":66,"from":"sdaReg0","to":"sdaReg142","type":"model"},{"step":67,"from":"sdaReg0","to":"sdaReg144","type":"model"},{"step":68,"from":"sdaReg0","to":"sdaReg146","type":"model"},{"step":69,"from":"sdaReg0","to":"sdaReg148","type":"model"},{"step":70,"from":"sdaReg0","to":"sdaReg150","type":"model"},{"step":71,"from":"sdaReg0","to":"sdaReg152","type":"model"},{"step":72,"from":"sdaReg0","to":"sdaReg154","type":"model"},{"step":73,"from":"sdaReg0","to":"sdaReg156","type":"model"},{"step":74,"from":"sdaReg0","to":"sdaReg158","type":"model"},{"step":75,"from":"sdaReg0","to":"sdaReg160","type":"model"},{"step":76,"from":"sdaReg0","to":"sdaReg162","type":"model"},{"step":77,"from":"sdaReg0","to":"sdaReg164","type":"model"},{"step":78,"from":"sdaReg0","to":"sdaReg166","type":"model"},{"step":79,"from":"sdaReg0","to":"sdaReg168","type":"model"},{"step":80,"from":"sdaReg0","to":"sdaReg170","type":"model"},{"step":81,"from":"sdaReg0","to":"sdaReg172","type":"model"},{"step":82,"from":"sdaReg0","to":"sdaReg174","type":"model"},{"step":83,"from":"sdaReg0","to":"sdaReg176","type":"model"},{"step":84,"from":"sdaReg0","to":"sdaReg178","type":"model"},{"step":85,"from":"sdaReg0","to":"sdaReg180","type":"model"},{"step":86,"from":"sdaReg0","to":"sdaReg182","type":"model"},{"step":87,"from":"sdaReg0","to":"sdaReg184","type":"model"},{"step":88,"from":"sdaReg0","to":"sdaReg186","type":"model"},{"step":89,"from":"sdaReg0","to":"sdaReg188","type":"model"},{"step":90,"from":"sdaReg0","to":"sdaReg190","type":"model"},{"step":91,"from":"sdaReg0","to":"sdaReg192","type":"model"},{"step":92,"from":"sdaReg0","to":"sdaReg194","type":"model"},{"step":93,"from":"sdaReg0","to":"sdaReg196","type":"model"},{"step":94,"from":"static.<java.net.URI: libcore.net.UriCodec AUTHORITY_ENCODER>","to":"1085536376","type":"load","field":"<java.net.URI: libcore.net.UriCodec AUTHORITY_ENCODER>"},{"step":95,"from":"sdaReg0","to":"sdaReg202","type":"model"},{"step":96,"from":"sdaReg0","to":"sdaReg203","type":"model"},{"step":97,"from":"sdaReg0","to":"sdaReg204","type":"model"},{"step":98,"from":"sdaReg0","to":"sdaReg205","type":"model"},{"step":99,"from":"sdaReg0","to":"sdaReg206","type":"model"},{"step":100,"from":"1085536376","to":"1085536376.<java.net.URI$PartEncoder: java.lang.String extraLegalCharacters>","type":"load","field":"<java.net.URI$PartEncoder: java.lang.String extraLegalCharacters>"},{"step":101,"from":"sdaReg0","to":"sdaReg214","type":"model"},{"step":102,"from":"sdaReg0","to":"sdaReg215","type":"model"},{"step":103,"from":"sdaReg0","to":"sdaReg216","type":"model"},{"step":104,"from":"sdaReg0","to":"sdaReg217","type":"model"},{"step":105,"from":"sdaReg0","to":"sdaReg218","type":"model"},{"step":106,"from":"sdaReg0","to":"sdaReg219","type":"model"},{"step":107,"from":"sdaReg0","to":"sdaReg220","type":"model"},{"step":108,"from":"sdaReg0","to":"sdaReg221","type":"model"},{"step":109,"from":"sdaReg0","to":"sdaReg222","type":"model"},{"step":110,"from":"sdaReg0","to":"sdaReg227","type":"model"},{"step":111,"from":"sdaReg0","to":"sdaReg228","type":"model"},{"step":112,"from":"sdaReg0","to":"sdaReg229","type":"model"},{"step":113,"from":"sdaReg0","to":"sdaReg230","type":"model"},{"step":114,"from":"sdaReg0","to":"sdaReg237","type":"model"},{"step":115,"from":"sdaReg0","to":"sdaReg238","type":"model"},{"step":116,"from":"sdaReg0","to":"sdaReg239","type":"model"},{"step":117,"from":"sdaReg0","to":"sdaReg240","type":"model"},{"step":118,"from":"sdaReg0","to":"sdaReg241","type":"model"},{"step":119,"from":"sdaReg0","to":"sdaReg242","type":"model"},{"step":120,"from":"sdaReg0","to":"sdaReg243","type":"model"},{"step":121,"from":"sdaReg0","to":"sdaReg244","type":"model"},{"step":122,"from":"sdaReg0","to":"sdaReg245","type":"model"},{"step":123,"from":"1085536376","to":"1085536376.<java.net.URI$PartEncoder: java.lang.String extraLegalCharacters>","type":"load","field":"<java.net.URI$PartEncoder: java.lang.String extraLegalCharacters>"},{"step":124,"from":"sdaReg0","to":"sdaReg253","type":"model"},{"step":125,"from":"sdaReg0","to":"sdaReg254","type":"model"},{"step":126,"from":"sdaReg0","to":"sdaReg255","type":"model"},{"step":127,"from":"sdaReg0","to":"sdaReg256","type":"model"},{"step":128,"from":"sdaReg0","to":"sdaReg257","type":"model"},{"step":129,"from":"sdaReg257","to":"1093658456","type":"store","field":"<java.net.URI: java.lang.String authority>"},{"step":130,"from":"static.<java.net.URI: libcore.net.UriCodec PATH_ENCODER>","to":"1085474672","type":"load","field":"<java.net.URI: libcore.net.UriCodec PATH_ENCODER>"},{"step":131,"from":"sdaReg0","to":"sdaReg263","type":"model"},{"step":132,"from":"sdaReg263","to":"1093658456","type":"store","field":"<java.net.URI: java.lang.String path>"},{"step":133,"from":"sdaReg268","to":"sdaReg274","type":"model"},{"step":134,"from":"sdaReg268","to":"sdaReg276","type":"model"},{"step":135,"from":"sdaReg268","to":"sdaReg278","type":"model"},{"step":136,"from":"sdaReg268","to":"sdaReg280","type":"model"},{"step":137,"from":"sdaReg283","to":"sdaReg284","type":"model"},{"step":138,"from":"sdaReg283","to":"sdaReg287","type":"model"},{"step":139,"from":"sdaReg283","to":"sdaReg291","type":"model"},{"step":140,"from":"sdaReg291","to":"1093317624","type":"model"}],"parameters":[{"id":"1093658456","name":"this","klass":"java.net.URI"},{"id":"sdaReg0","name":"arg#1","klass":"string"}],"returns":[{"id":"1093658456","name":"return","klass":"java.net.URI"}],"colors":{"heapLocToColor":{"sdaReg191":[165],"sdaReg190":[1, 164],"sdaReg193":[167],"sdaReg192":[1, 166],"sdaReg199":[173],"sdaReg198":[172],"sdaReg290":[229, 228],"sdaReg195":[169],"sdaReg194":[1, 168],"sdaReg197":[171],"sdaReg291":[233, 228],"sdaReg196":[1, 170],"sdaReg13":[1, 5],"sdaReg14":[6],"sdaReg11":[1, 3],"sdaReg12":[4],"sdaReg19":[1, 11],"sdaReg17":[1, 9],"sdaReg18":[10],"sdaReg15":[1, 7],"sdaReg16":[8],"sdaReg171":[145],"sdaReg170":[1, 144],"sdaReg173":[147],"sdaReg172":[1, 146],"sdaReg175":[149],"sdaReg174":[1, 148],"sdaReg177":[151],"sdaReg176":[1, 150],"sdaReg179":[153],"sdaReg178":[152, 1],"sdaReg182":[1, 156],"sdaReg181":[155],"sdaReg180":[1, 154],"sdaReg186":[1, 160],"sdaReg185":[159],"sdaReg184":[1, 158],"sdaReg183":[157],"sdaReg189":[163],"sdaReg188":[1, 162],"sdaReg187":[161],"1093658456":[0],"sdaReg60":[52],"sdaReg61":[1, 53],"sdaReg59":[51, 1],"sdaReg58":[50],"sdaReg57":[1, 49],"sdaReg56":[48],"sdaReg55":[1, 47],"sdaReg54":[46],"sdaReg53":[1, 45],"sdaReg52":[44],"sdaReg51":[1, 43],"sdaReg50":[42],"sdaReg49":[1, 41],"sdaReg48":[40],"sdaReg45":[1, 37],"sdaReg44":[36],"sdaReg47":[1, 39],"sdaReg46":[38],"sdaReg41":[1, 33],"sdaReg40":[32],"sdaReg43":[1, 35],"sdaReg42":[34],"static.<java.net.URI: libcore.net.UriCodec AUTHORITY_ENCODER>":[173],"sdaReg205":[1, 177],"sdaReg39":[1, 31],"sdaReg204":[1, 176],"1085474672":[215],"sdaReg38":[30],"sdaReg203":[1, 175],"sdaReg37":[1, 29],"sdaReg202":[1, 174],"sdaReg209":[179],"sdaReg207":[173],"sdaReg206":[1, 178],"sdaReg32":[24],"1085536376.<java.net.URI$PartEncoder: java.lang.String extraLegalCharacters>":[173],"sdaReg31":[1, 23],"sdaReg30":[22],"sdaReg36":[28],"sdaReg35":[1, 27],"sdaReg34":[26],"sdaReg33":[1, 25],"sdaReg7":[2],"sdaReg5":[0],"sdaReg27":[1, 19],"sdaReg26":[18],"sdaReg29":[1, 21],"sdaReg28":[20],"sdaReg21":[1, 13],"sdaReg1":[0],"sdaReg20":[12],"sdaReg0":[1],"sdaReg23":[1, 15],"sdaReg22":[14],"sdaReg25":[17, 1],"sdaReg24":[16],"sdaReg125":[1, 105],"sdaReg127":[1, 106],"sdaReg129":[107],"sdaReg228":[1, 193],"sdaReg68":[60],"sdaReg229":[1, 194],"sdaReg69":[1, 61],"sdaReg66":[58],"sdaReg67":[1, 59],"sdaReg64":[56],"sdaReg225":[191],"sdaReg65":[1, 57],"sdaReg62":[54],"sdaReg227":[1, 192],"sdaReg63":[1, 55],"sdaReg221":[1, 189],"sdaReg72":[64],"sdaReg220":[1, 188],"sdaReg71":[1, 63],"sdaReg223":[173],"sdaReg70":[62],"sdaReg222":[1, 190],"sdaReg121":[1, 103],"sdaReg123":[1, 104],"sdaReg117":[0],"sdaReg114":[1, 100],"sdaReg115":[101],"sdaReg119":[102, 1],"sdaReg219":[1, 187],"sdaReg77":[1, 69],"sdaReg78":[70],"sdaReg79":[1, 71],"sdaReg217":[1, 185],"sdaReg218":[186, 1],"sdaReg73":[1, 65],"sdaReg215":[1, 183],"sdaReg74":[66],"sdaReg216":[1, 184],"sdaReg75":[1, 67],"sdaReg76":[68],"sdaReg214":[1, 182],"sdaReg81":[1, 73],"sdaReg212":[181],"sdaReg80":[72],"sdaReg211":[180],"sdaReg83":[1, 75],"sdaReg82":[74],"sdaReg113":[99],"sdaReg112":[1, 98],"sdaReg111":[97],"sdaReg110":[1, 96],"sdaReg107":[93],"sdaReg108":[1, 94],"sdaReg109":[95],"sdaReg104":[1, 90],"sdaReg105":[91],"sdaReg106":[1, 92],"sdaReg246":[173],"sdaReg86":[78],"sdaReg87":[79],"sdaReg248":[207],"sdaReg84":[76],"sdaReg85":[1, 77],"sdaReg241":[1, 202],"sdaReg240":[1, 201],"sdaReg243":[1, 204],"sdaReg94":[83],"sdaReg242":[1, 203],"sdaReg93":[1, 82],"sdaReg245":[1, 206],"sdaReg92":[81],"sdaReg244":[205, 1],"sdaReg91":[1, 80],"sdaReg100":[89],"sdaReg237":[1, 198],"sdaReg95":[1, 84],"sdaReg238":[1, 199],"sdaReg96":[85],"sdaReg235":[197],"sdaReg97":[1, 86],"sdaReg98":[87],"sdaReg99":[1, 88],"1085536376":[173],"sdaReg239":[1, 200],"sdaReg230":[1, 195],"static.<java.net.URI: libcore.net.UriCodec PATH_ENCODER>":[215],"sdaReg233":[196],"sdaReg231":[173],"sdaReg269":[0],"sdaReg268":[218],"sdaReg169":[143],"sdaReg161":[135],"sdaReg162":[1, 136],"sdaReg163":[137],"sdaReg164":[1, 138],"sdaReg165":[139],"sdaReg166":[1, 140],"sdaReg167":[141],"sdaReg168":[1, 142],"sdaReg264":[0],"sdaReg266":[217],"sdaReg267":[217],"sdaReg260":[215],"sdaReg262":[2],"sdaReg263":[1, 216],"sdaReg160":[1, 134],"sdaReg259":[2],"sdaReg257":[1, 214],"sdaReg159":[133],"sdaReg158":[1, 132],"sdaReg152":[1, 126],"sdaReg153":[127],"sdaReg150":[1, 124],"sdaReg151":[125],"sdaReg156":[1, 130],"sdaReg157":[131],"sdaReg154":[1, 128],"sdaReg155":[129],"sdaReg255":[1, 212],"sdaReg256":[1, 213],"sdaReg253":[1, 210],"sdaReg254":[1, 211],"sdaReg251":[209],"sdaReg250":[208],"sdaReg148":[1, 122],"sdaReg147":[121],"sdaReg149":[123],"sdaReg143":[117],"sdaReg144":[1, 118],"sdaReg145":[119],"sdaReg146":[1, 120],"sdaReg140":[1, 114],"sdaReg280":[218, 226],"sdaReg141":[115],"sdaReg281":[227],"sdaReg142":[1, 116],"sdaReg282":[217],"sdaReg283":[228],"sdaReg284":[229, 228],"sdaReg285":[230],"sdaReg287":[231, 228],"sdaReg288":[232],"sdaReg289":[232],"sdaReg279":[225],"sdaReg139":[113],"sdaReg138":[1, 112],"sdaReg137":[111],"sdaReg136":[1, 110],"sdaReg132":[109],"sdaReg131":[1, 108],"sdaReg273":[219],"sdaReg274":[220, 218],"sdaReg277":[223],"sdaReg278":[218, 224],"sdaReg275":[221],"sdaReg276":[222, 218]},"colorToColor":{"0":[234],"1":[0],"216":[0],"214":[0],"108":[0],"106":[0]},"colorToLabel":{"0":"this","1":"arg#1","173":"<java.net.URI: libcore.net.UriCodec AUTHORITY_ENCODER>","215":"<java.net.URI: libcore.net.UriCodec PATH_ENCODER>","234":"return"}}}

Generated Model
	this->return
	arg#1->this
	arg#1->return

