Scanning method <java.net.URI: void <init>(java.lang.String)>

All seen event types: LoadStaticRecord, BinaryOperationRecord, SimpleAssignmentRecord, MethodReturnRecord, MethodCallRecord, ArrayLengthRecord, LoadInstanceRecord, MethodStartRecord, LoadArrayRecord, MethodEndRecord, IfRecord, StoreInstanceRecord, 
Ignored event types: IfRecord, 

JSON Encoded Analysis Data (for visualization):{"heapEdges":[{"step":0,"from":"1093675344","to":"sdaReg2","type":"create","field":"<java.net.URI: int port>"},{"step":1,"from":"1093675344","to":"sdaReg3","type":"create","field":"<java.net.URI: boolean serverAuthority>"},{"step":2,"from":"1093675344","to":"sdaReg4","type":"create","field":"<java.net.URI: int hash>"},{"step":3,"from":"sdaReg0","to":"1093675344","type":"store","field":"<java.net.URI: java.lang.String string>"},{"step":4,"from":"sdaReg0","to":"sdaReg11","type":"model"},{"step":5,"from":"sdaReg0","to":"sdaReg13","type":"model"},{"step":6,"from":"sdaReg0","to":"sdaReg15","type":"model"},{"step":7,"from":"sdaReg0","to":"sdaReg17","type":"model"},{"step":8,"from":"sdaReg0","to":"sdaReg19","type":"model"},{"step":9,"from":"sdaReg0","to":"sdaReg21","type":"model"},{"step":10,"from":"sdaReg0","to":"sdaReg23","type":"model"},{"step":11,"from":"sdaReg0","to":"sdaReg25","type":"model"},{"step":12,"from":"sdaReg0","to":"sdaReg27","type":"model"},{"step":13,"from":"sdaReg0","to":"sdaReg29","type":"model"},{"step":14,"from":"sdaReg0","to":"sdaReg31","type":"model"},{"step":15,"from":"sdaReg0","to":"sdaReg33","type":"model"},{"step":16,"from":"sdaReg0","to":"sdaReg35","type":"model"},{"step":17,"from":"sdaReg0","to":"sdaReg37","type":"model"},{"step":18,"from":"sdaReg0","to":"sdaReg39","type":"model"},{"step":19,"from":"sdaReg0","to":"sdaReg41","type":"model"},{"step":20,"from":"sdaReg0","to":"sdaReg43","type":"model"},{"step":21,"from":"sdaReg0","to":"sdaReg45","type":"model"},{"step":22,"from":"sdaReg0","to":"sdaReg47","type":"model"},{"step":23,"from":"sdaReg0","to":"sdaReg49","type":"model"},{"step":24,"from":"sdaReg0","to":"sdaReg51","type":"model"},{"step":25,"from":"sdaReg0","to":"sdaReg53","type":"model"},{"step":26,"from":"sdaReg0","to":"sdaReg59","type":"model"},{"step":27,"from":"sdaReg0","to":"sdaReg61","type":"model"},{"step":28,"from":"sdaReg0","to":"sdaReg63","type":"model"},{"step":29,"from":"sdaReg0","to":"sdaReg65","type":"model"},{"step":30,"from":"sdaReg0","to":"sdaReg67","type":"model"},{"step":31,"from":"sdaReg0","to":"sdaReg72","type":"model"},{"step":32,"from":"sdaReg0","to":"sdaReg74","type":"model"},{"step":33,"from":"sdaReg0","to":"sdaReg76","type":"model"},{"step":34,"from":"sdaReg0","to":"sdaReg78","type":"model"},{"step":35,"from":"sdaReg0","to":"sdaReg80","type":"model"},{"step":36,"from":"sdaReg0","to":"sdaReg82","type":"model"},{"step":37,"from":"1093675344","to":"sdaReg84","type":"create","field":"<java.net.URI: boolean absolute>"},{"step":38,"from":"sdaReg0","to":"sdaReg87","type":"model"},{"step":39,"from":"sdaReg0","to":"sdaReg89","type":"model"},{"step":40,"from":"sdaReg0","to":"sdaReg91","type":"model"},{"step":41,"from":"sdaReg0","to":"sdaReg93","type":"model"},{"step":42,"from":"sdaReg0","to":"sdaReg95","type":"model"},{"step":43,"from":"sdaReg95","to":"1093675344","type":"store","field":"<java.net.URI: java.lang.String scheme>"},{"step":44,"from":"1093675344","to":"sdaReg98","type":"create","field":"<java.net.URI: boolean opaque>"},{"step":45,"from":"sdaReg0","to":"sdaReg99","type":"model"},{"step":46,"from":"sdaReg99","to":"1093675344","type":"store","field":"<java.net.URI: java.lang.String schemeSpecificPart>"},{"step":47,"from":"sdaReg0","to":"sdaReg104","type":"model"},{"step":48,"from":"sdaReg0","to":"sdaReg106","type":"model"},{"step":49,"from":"sdaReg0","to":"sdaReg108","type":"model"},{"step":50,"from":"sdaReg0","to":"sdaReg110","type":"model"},{"step":51,"from":"sdaReg0","to":"sdaReg112","type":"model"},{"step":52,"from":"static.<java.net.URI: libcore.net.UriCodec AUTHORITY_ENCODER>","to":"1085536376","type":"load","field":"<java.net.URI: libcore.net.UriCodec AUTHORITY_ENCODER>"},{"step":53,"from":"sdaReg0","to":"sdaReg118","type":"model"},{"step":54,"from":"sdaReg0","to":"sdaReg119","type":"model"},{"step":55,"from":"sdaReg0","to":"sdaReg120","type":"model"},{"step":56,"from":"sdaReg0","to":"sdaReg121","type":"model"},{"step":57,"from":"sdaReg0","to":"sdaReg122","type":"model"},{"step":58,"from":"sdaReg122","to":"1093675344","type":"store","field":"<java.net.URI: java.lang.String authority>"},{"step":59,"from":"sdaReg0","to":"sdaReg125","type":"model"},{"step":60,"from":"sdaReg0","to":"sdaReg127","type":"model"},{"step":61,"from":"sdaReg0","to":"sdaReg129","type":"model"},{"step":62,"from":"sdaReg0","to":"sdaReg131","type":"model"},{"step":63,"from":"sdaReg0","to":"sdaReg133","type":"model"},{"step":64,"from":"sdaReg0","to":"sdaReg135","type":"model"},{"step":65,"from":"sdaReg0","to":"sdaReg137","type":"model"},{"step":66,"from":"sdaReg0","to":"sdaReg139","type":"model"},{"step":67,"from":"sdaReg0","to":"sdaReg141","type":"model"},{"step":68,"from":"sdaReg0","to":"sdaReg143","type":"model"},{"step":69,"from":"sdaReg0","to":"sdaReg145","type":"model"},{"step":70,"from":"static.<java.net.URI: libcore.net.UriCodec PATH_ENCODER>","to":"1085474672","type":"load","field":"<java.net.URI: libcore.net.UriCodec PATH_ENCODER>"},{"step":71,"from":"sdaReg0","to":"sdaReg150","type":"model"},{"step":72,"from":"1085474672","to":"1085474672.<java.net.URI$PartEncoder: java.lang.String extraLegalCharacters>","type":"load","field":"<java.net.URI$PartEncoder: java.lang.String extraLegalCharacters>"},{"step":73,"from":"sdaReg0","to":"sdaReg158","type":"model"},{"step":74,"from":"sdaReg0","to":"sdaReg159","type":"model"},{"step":75,"from":"sdaReg0","to":"sdaReg160","type":"model"},{"step":76,"from":"sdaReg0","to":"sdaReg161","type":"model"},{"step":77,"from":"sdaReg0","to":"sdaReg162","type":"model"},{"step":78,"from":"sdaReg0","to":"sdaReg169","type":"model"},{"step":79,"from":"sdaReg0","to":"sdaReg170","type":"model"},{"step":80,"from":"sdaReg0","to":"sdaReg171","type":"model"},{"step":81,"from":"sdaReg0","to":"sdaReg172","type":"model"},{"step":82,"from":"sdaReg0","to":"sdaReg173","type":"model"},{"step":83,"from":"sdaReg0","to":"sdaReg174","type":"model"},{"step":84,"from":"sdaReg174","to":"1093675344","type":"store","field":"<java.net.URI: java.lang.String path>"},{"step":85,"from":"sdaReg182","to":"sdaReg188","type":"model"},{"step":86,"from":"sdaReg182","to":"sdaReg193","type":"model"},{"step":87,"from":"sdaReg182","to":"sdaReg195","type":"model"},{"step":88,"from":"sdaReg182","to":"sdaReg197","type":"model"},{"step":89,"from":"sdaReg182","to":"sdaReg199","type":"model"},{"step":90,"from":"sdaReg182","to":"1093572456","type":"model"},{"step":91,"from":"1093572456","to":"1093572456.arrayIdx_int:0","type":"load","field":"arrayIdx_int:0"},{"step":92,"from":"sdaReg176","to":"1093675344","type":"store","field":"<java.net.URI: java.lang.String userInfo>"},{"step":93,"from":"sdaReg182","to":"1093675344","type":"store","field":"<java.net.URI: java.lang.String host>"},{"step":94,"from":"sdaReg181","to":"1093675344","type":"store","field":"<java.net.URI: int port>"},{"step":95,"from":"1093675344","to":"sdaReg210","type":"create","field":"<java.net.URI: boolean serverAuthority>"}],"parameters":[{"id":"1093675344","name":"this","klass":"java.net.URI"},{"id":"sdaReg0","name":"arg#1","klass":"string"}],"returns":[{"id":"1093675344","name":"return","klass":"java.net.URI"}],"colors":{"heapLocToColor":{"sdaReg125":[1, 95],"sdaReg126":[96],"sdaReg193":[144],"sdaReg127":[1, 97],"sdaReg192":[143],"sdaReg128":[98],"sdaReg129":[1, 99],"sdaReg199":[150],"sdaReg68":[57],"sdaReg198":[149],"sdaReg66":[55],"sdaReg67":[1, 56],"sdaReg195":[146],"sdaReg64":[53],"sdaReg194":[145],"sdaReg65":[1, 54],"sdaReg197":[148],"sdaReg62":[51],"sdaReg196":[147],"sdaReg63":[1, 52],"sdaReg13":[1, 5],"sdaReg72":[1, 58],"sdaReg14":[6],"sdaReg11":[1, 3],"sdaReg12":[4],"sdaReg120":[1, 92],"sdaReg19":[1, 11],"sdaReg122":[1, 94],"sdaReg17":[1, 9],"sdaReg121":[1, 93],"sdaReg18":[10],"sdaReg15":[1, 7],"sdaReg16":[8],"sdaReg114":[88],"sdaReg115":[89],"sdaReg118":[1, 90],"sdaReg119":[1, 91],"sdaReg77":[63],"sdaReg78":[1, 64],"sdaReg79":[65],"sdaReg73":[59],"sdaReg74":[1, 60],"sdaReg75":[61],"sdaReg76":[1, 62],"sdaReg81":[67],"sdaReg80":[1, 66],"sdaReg83":[69],"sdaReg82":[68, 1],"sdaReg113":[87],"sdaReg112":[1, 86],"sdaReg111":[85],"sdaReg110":[1, 84],"sdaReg107":[81],"sdaReg108":[1, 82],"sdaReg109":[83],"1093675344":[0],"sdaReg104":[1, 78],"sdaReg171":[1, 131],"sdaReg105":[79],"sdaReg170":[1, 130],"sdaReg106":[1, 80],"sdaReg173":[1, 133],"sdaReg172":[1, 132],"sdaReg87":[1, 70],"sdaReg175":[0],"sdaReg174":[1, 134],"sdaReg85":[0],"sdaReg177":[135],"sdaReg179":[136],"sdaReg89":[1, 71],"sdaReg93":[1, 73],"sdaReg91":[1, 72],"sdaReg100":[77],"sdaReg180":[137],"1085474672.<java.net.URI$PartEncoder: java.lang.String extraLegalCharacters>":[117],"sdaReg186":[140],"sdaReg95":[1, 74],"sdaReg185":[139],"sdaReg184":[0],"sdaReg97":[75],"sdaReg183":[138],"sdaReg99":[1, 76],"1085536376":[89],"sdaReg189":[0],"sdaReg188":[142],"sdaReg187":[141],"static.<java.net.URI: libcore.net.UriCodec PATH_ENCODER>":[117],"1093572456":[152],"sdaReg60":[49],"sdaReg61":[1, 50],"sdaReg169":[1, 129],"sdaReg161":[1, 125],"sdaReg162":[1, 126],"sdaReg163":[117],"sdaReg165":[127],"sdaReg167":[128],"sdaReg59":[1, 48],"sdaReg55":[47],"sdaReg54":[46],"sdaReg53":[1, 45],"sdaReg52":[44],"sdaReg160":[1, 124],"sdaReg51":[1, 43],"sdaReg50":[42],"sdaReg159":[1, 123],"sdaReg158":[1, 122],"sdaReg153":[119],"sdaReg150":[1, 118],"sdaReg151":[117],"sdaReg156":[121],"sdaReg49":[1, 41],"sdaReg48":[40],"sdaReg155":[120],"sdaReg45":[1, 37],"sdaReg44":[36],"sdaReg47":[1, 39],"sdaReg46":[38],"sdaReg41":[1, 33],"sdaReg40":[32],"sdaReg43":[1, 35],"sdaReg42":[34],"static.<java.net.URI: libcore.net.UriCodec AUTHORITY_ENCODER>":[89],"sdaReg200":[151],"sdaReg201":[152],"sdaReg147":[117],"sdaReg205":[153],"sdaReg143":[1, 113],"sdaReg144":[114],"sdaReg39":[1, 31],"1085474672":[117],"sdaReg145":[1, 115],"sdaReg38":[30],"sdaReg202":[152],"sdaReg146":[116],"sdaReg37":[1, 29],"sdaReg140":[110],"sdaReg207":[155],"sdaReg141":[1, 111],"sdaReg206":[154],"sdaReg142":[112],"sdaReg32":[24],"sdaReg31":[1, 23],"sdaReg30":[22],"sdaReg36":[28],"sdaReg35":[1, 27],"sdaReg34":[26],"sdaReg33":[1, 25],"sdaReg7":[2],"sdaReg5":[0],"sdaReg139":[1, 109],"sdaReg138":[108],"1093572456.arrayIdx_int:0":[152],"sdaReg137":[1, 107],"sdaReg136":[106],"sdaReg134":[104],"sdaReg27":[1, 19],"sdaReg135":[1, 105],"sdaReg26":[18],"sdaReg132":[102],"sdaReg29":[1, 21],"sdaReg133":[1, 103],"sdaReg28":[20],"sdaReg130":[100],"sdaReg131":[1, 101],"sdaReg1":[0],"sdaReg21":[1, 13],"sdaReg0":[1],"sdaReg20":[12],"sdaReg23":[1, 15],"sdaReg22":[14],"sdaReg25":[17, 1],"sdaReg24":[16]},"colorToColor":{"0":[156],"1":[0],"76":[0],"94":[0],"74":[0],"134":[0]},"colorToLabel":{"0":"this","1":"arg#1","89":"<java.net.URI: libcore.net.UriCodec AUTHORITY_ENCODER>","117":"<java.net.URI: libcore.net.UriCodec PATH_ENCODER>","156":"return"}}}

Generated Model
	this->return
	arg#1->this
	arg#1->return

