Scanning method <java.net.URI: void <init>(java.lang.String)>

All seen event types: LoadStaticRecord, BinaryOperationRecord, SimpleAssignmentRecord, MethodReturnRecord, MethodCallRecord, ArrayLengthRecord, LoadInstanceRecord, MethodStartRecord, LoadArrayRecord, MethodEndRecord, IfRecord, StoreInstanceRecord, 
Ignored event types: IfRecord, 

JSON Encoded Analysis Data (for visualization):{"heapEdges":[{"step":0,"from":"1093229360","to":"sdaReg2","type":"create","field":"<java.net.URI: int port>"},{"step":1,"from":"1093229360","to":"sdaReg3","type":"create","field":"<java.net.URI: boolean serverAuthority>"},{"step":2,"from":"1093229360","to":"sdaReg4","type":"create","field":"<java.net.URI: int hash>"},{"step":3,"from":"sdaReg0","to":"1093229360","type":"store","field":"<java.net.URI: java.lang.String string>"},{"step":4,"from":"sdaReg0","to":"sdaReg11","type":"model"},{"step":5,"from":"sdaReg0","to":"sdaReg13","type":"model"},{"step":6,"from":"sdaReg0","to":"sdaReg15","type":"model"},{"step":7,"from":"sdaReg0","to":"sdaReg21","type":"model"},{"step":8,"from":"sdaReg0","to":"sdaReg23","type":"model"},{"step":9,"from":"sdaReg0","to":"sdaReg25","type":"model"},{"step":10,"from":"sdaReg0","to":"sdaReg30","type":"model"},{"step":11,"from":"1093229360","to":"sdaReg32","type":"create","field":"<java.net.URI: boolean absolute>"},{"step":12,"from":"1093229360","to":"sdaReg34","type":"create","field":"<java.net.URI: boolean opaque>"},{"step":13,"from":"sdaReg0","to":"sdaReg35","type":"model"},{"step":14,"from":"sdaReg35","to":"1093229360","type":"store","field":"<java.net.URI: java.lang.String schemeSpecificPart>"},{"step":15,"from":"sdaReg0","to":"sdaReg40","type":"model"},{"step":16,"from":"static.<java.net.URI: libcore.net.UriCodec AUTHORITY_ENCODER>","to":"1085536376","type":"load","field":"<java.net.URI: libcore.net.UriCodec AUTHORITY_ENCODER>"},{"step":17,"from":"sdaReg0","to":"sdaReg46","type":"model"},{"step":18,"from":"sdaReg0","to":"sdaReg47","type":"model"},{"step":19,"from":"sdaReg47","to":"1093229360","type":"store","field":"<java.net.URI: java.lang.String authority>"},{"step":20,"from":"static.<java.net.URI: libcore.net.UriCodec PATH_ENCODER>","to":"1085474672","type":"load","field":"<java.net.URI: libcore.net.UriCodec PATH_ENCODER>"},{"step":21,"from":"sdaReg0","to":"sdaReg53","type":"model"},{"step":22,"from":"sdaReg53","to":"1093229360","type":"store","field":"<java.net.URI: java.lang.String path>"},{"step":23,"from":"sdaReg61","to":"sdaReg67","type":"model"},{"step":24,"from":"sdaReg61","to":"sdaReg72","type":"model"},{"step":25,"from":"sdaReg61","to":"1093348296","type":"model"},{"step":26,"from":"1093348296","to":"1093348296.arrayIdx_int:0","type":"load","field":"arrayIdx_int:0"},{"step":27,"from":"sdaReg55","to":"1093229360","type":"store","field":"<java.net.URI: java.lang.String userInfo>"},{"step":28,"from":"sdaReg61","to":"1093229360","type":"store","field":"<java.net.URI: java.lang.String host>"},{"step":29,"from":"sdaReg60","to":"1093229360","type":"store","field":"<java.net.URI: int port>"},{"step":30,"from":"1093229360","to":"sdaReg83","type":"create","field":"<java.net.URI: boolean serverAuthority>"}],"parameters":[{"id":"1093229360","name":"this","klass":"java.net.URI"},{"id":"sdaReg0","name":"arg#1","klass":"string"}],"returns":[{"id":"1093229360","name":"return","klass":"java.net.URI"}],"colors":{"heapLocToColor":{"sdaReg68":[0],"sdaReg66":[34],"sdaReg67":[35],"sdaReg64":[32],"sdaReg65":[33],"sdaReg62":[31],"sdaReg63":[0],"sdaReg13":[1, 5],"sdaReg72":[37],"sdaReg14":[6],"sdaReg71":[36],"sdaReg11":[1, 3],"sdaReg12":[4],"1093229360":[0],"sdaReg59":[30],"sdaReg58":[29],"sdaReg56":[28],"sdaReg17":[9],"sdaReg54":[0],"sdaReg53":[1, 27],"sdaReg15":[1, 7],"sdaReg52":[2],"sdaReg16":[8],"sdaReg50":[26],"sdaReg78":[40],"sdaReg79":[41],"1093348296.arrayIdx_int:0":[39],"sdaReg73":[38],"sdaReg74":[39],"sdaReg75":[39],"sdaReg80":[42],"sdaReg49":[2],"sdaReg47":[1, 25],"sdaReg46":[1, 24],"sdaReg41":[21],"sdaReg40":[1, 20],"sdaReg43":[23],"sdaReg42":[22],"static.<java.net.URI: libcore.net.UriCodec AUTHORITY_ENCODER>":[23],"1085474672":[26],"sdaReg31":[17],"sdaReg30":[1, 16],"sdaReg36":[19],"sdaReg35":[1, 18],"1093348296":[39],"sdaReg7":[2],"sdaReg5":[0],"1085536376":[23],"sdaReg26":[15],"static.<java.net.URI: libcore.net.UriCodec PATH_ENCODER>":[26],"sdaReg1":[0],"sdaReg21":[1, 10],"sdaReg0":[1],"sdaReg23":[1, 12],"sdaReg22":[11],"sdaReg25":[1, 14],"sdaReg24":[13]},"colorToColor":{"0":[43],"1":[0],"18":[0],"25":[0],"27":[0]},"colorToLabel":{"0":"this","1":"arg#1","23":"<java.net.URI: libcore.net.UriCodec AUTHORITY_ENCODER>","26":"<java.net.URI: libcore.net.UriCodec PATH_ENCODER>","43":"return"}}}

Generated Model
	this->return
	arg#1->this
	arg#1->return

