Scanning method <java.net.URI: void <init>(java.lang.String)>

All seen event types: LoadStaticRecord, BinaryOperationRecord, SimpleAssignmentRecord, MethodReturnRecord, MethodCallRecord, ArrayLengthRecord, LoadInstanceRecord, MethodStartRecord, LoadArrayRecord, MethodEndRecord, IfRecord, StoreInstanceRecord, 
Ignored event types: IfRecord, 

JSON Encoded Analysis Data (for visualization):{"heapEdges":[{"step":0,"from":"1093477312","to":"sdaReg2","type":"create","field":"<java.net.URI: int port>"},{"step":1,"from":"1093477312","to":"sdaReg3","type":"create","field":"<java.net.URI: boolean serverAuthority>"},{"step":2,"from":"1093477312","to":"sdaReg4","type":"create","field":"<java.net.URI: int hash>"},{"step":3,"from":"sdaReg0","to":"1093477312","type":"store","field":"<java.net.URI: java.lang.String string>"},{"step":4,"from":"sdaReg0","to":"sdaReg11","type":"model"},{"step":5,"from":"sdaReg0","to":"sdaReg13","type":"model"},{"step":6,"from":"sdaReg0","to":"sdaReg15","type":"model"},{"step":7,"from":"sdaReg0","to":"sdaReg17","type":"model"},{"step":8,"from":"sdaReg0","to":"sdaReg19","type":"model"},{"step":9,"from":"sdaReg0","to":"sdaReg21","type":"model"},{"step":10,"from":"sdaReg0","to":"sdaReg23","type":"model"},{"step":11,"from":"sdaReg0","to":"sdaReg25","type":"model"},{"step":12,"from":"sdaReg0","to":"sdaReg27","type":"model"},{"step":13,"from":"sdaReg0","to":"sdaReg29","type":"model"},{"step":14,"from":"sdaReg0","to":"sdaReg31","type":"model"},{"step":15,"from":"sdaReg0","to":"sdaReg33","type":"model"},{"step":16,"from":"sdaReg0","to":"sdaReg35","type":"model"},{"step":17,"from":"sdaReg0","to":"sdaReg37","type":"model"},{"step":18,"from":"sdaReg0","to":"sdaReg39","type":"model"},{"step":19,"from":"sdaReg0","to":"sdaReg41","type":"model"},{"step":20,"from":"sdaReg0","to":"sdaReg43","type":"model"},{"step":21,"from":"sdaReg0","to":"sdaReg45","type":"model"},{"step":22,"from":"sdaReg0","to":"sdaReg47","type":"model"},{"step":23,"from":"sdaReg0","to":"sdaReg49","type":"model"},{"step":24,"from":"sdaReg0","to":"sdaReg51","type":"model"},{"step":25,"from":"sdaReg0","to":"sdaReg53","type":"model"},{"step":26,"from":"sdaReg0","to":"sdaReg55","type":"model"},{"step":27,"from":"sdaReg0","to":"sdaReg57","type":"model"},{"step":28,"from":"sdaReg0","to":"sdaReg59","type":"model"},{"step":29,"from":"sdaReg0","to":"sdaReg61","type":"model"},{"step":30,"from":"sdaReg0","to":"sdaReg63","type":"model"},{"step":31,"from":"sdaReg0","to":"sdaReg65","type":"model"},{"step":32,"from":"sdaReg0","to":"sdaReg67","type":"model"},{"step":33,"from":"sdaReg0","to":"sdaReg73","type":"model"},{"step":34,"from":"sdaReg0","to":"sdaReg75","type":"model"},{"step":35,"from":"sdaReg0","to":"sdaReg77","type":"model"},{"step":36,"from":"sdaReg0","to":"sdaReg79","type":"model"},{"step":37,"from":"sdaReg0","to":"sdaReg81","type":"model"},{"step":38,"from":"sdaReg0","to":"sdaReg86","type":"model"},{"step":39,"from":"sdaReg0","to":"sdaReg88","type":"model"},{"step":40,"from":"sdaReg0","to":"sdaReg90","type":"model"},{"step":41,"from":"sdaReg0","to":"sdaReg92","type":"model"},{"step":42,"from":"sdaReg0","to":"sdaReg94","type":"model"},{"step":43,"from":"sdaReg0","to":"sdaReg96","type":"model"},{"step":44,"from":"1093477312","to":"sdaReg98","type":"create","field":"<java.net.URI: boolean absolute>"},{"step":45,"from":"sdaReg0","to":"sdaReg101","type":"model"},{"step":46,"from":"sdaReg0","to":"sdaReg103","type":"model"},{"step":47,"from":"sdaReg0","to":"sdaReg105","type":"model"},{"step":48,"from":"sdaReg0","to":"sdaReg107","type":"model"},{"step":49,"from":"sdaReg0","to":"sdaReg109","type":"model"},{"step":50,"from":"sdaReg109","to":"1093477312","type":"store","field":"<java.net.URI: java.lang.String scheme>"},{"step":51,"from":"1093477312","to":"sdaReg112","type":"create","field":"<java.net.URI: boolean opaque>"},{"step":52,"from":"sdaReg0","to":"sdaReg113","type":"model"},{"step":53,"from":"sdaReg113","to":"1093477312","type":"store","field":"<java.net.URI: java.lang.String schemeSpecificPart>"},{"step":54,"from":"sdaReg0","to":"sdaReg118","type":"model"},{"step":55,"from":"sdaReg0","to":"sdaReg120","type":"model"},{"step":56,"from":"sdaReg0","to":"sdaReg122","type":"model"},{"step":57,"from":"sdaReg0","to":"sdaReg124","type":"model"},{"step":58,"from":"sdaReg0","to":"sdaReg126","type":"model"},{"step":59,"from":"sdaReg0","to":"sdaReg128","type":"model"},{"step":60,"from":"sdaReg0","to":"sdaReg130","type":"model"},{"step":61,"from":"sdaReg0","to":"sdaReg132","type":"model"},{"step":62,"from":"sdaReg0","to":"sdaReg134","type":"model"},{"step":63,"from":"sdaReg0","to":"sdaReg136","type":"model"},{"step":64,"from":"sdaReg0","to":"sdaReg138","type":"model"},{"step":65,"from":"sdaReg0","to":"sdaReg140","type":"model"},{"step":66,"from":"static.<java.net.URI: libcore.net.UriCodec AUTHORITY_ENCODER>","to":"1085536376","type":"load","field":"<java.net.URI: libcore.net.UriCodec AUTHORITY_ENCODER>"},{"step":67,"from":"sdaReg0","to":"sdaReg146","type":"model"},{"step":68,"from":"sdaReg0","to":"sdaReg147","type":"model"},{"step":69,"from":"sdaReg0","to":"sdaReg148","type":"model"},{"step":70,"from":"sdaReg0","to":"sdaReg149","type":"model"},{"step":71,"from":"sdaReg0","to":"sdaReg150","type":"model"},{"step":72,"from":"sdaReg0","to":"sdaReg151","type":"model"},{"step":73,"from":"sdaReg0","to":"sdaReg152","type":"model"},{"step":74,"from":"sdaReg0","to":"sdaReg153","type":"model"},{"step":75,"from":"sdaReg0","to":"sdaReg158","type":"model"},{"step":76,"from":"sdaReg0","to":"sdaReg159","type":"model"},{"step":77,"from":"sdaReg0","to":"sdaReg160","type":"model"},{"step":78,"from":"sdaReg0","to":"sdaReg161","type":"model"},{"step":79,"from":"sdaReg161","to":"1093477312","type":"store","field":"<java.net.URI: java.lang.String authority>"},{"step":80,"from":"sdaReg0","to":"sdaReg164","type":"model"},{"step":81,"from":"sdaReg0","to":"sdaReg166","type":"model"},{"step":82,"from":"sdaReg0","to":"sdaReg168","type":"model"},{"step":83,"from":"sdaReg0","to":"sdaReg170","type":"model"},{"step":84,"from":"sdaReg0","to":"sdaReg172","type":"model"},{"step":85,"from":"sdaReg0","to":"sdaReg174","type":"model"},{"step":86,"from":"sdaReg0","to":"sdaReg176","type":"model"},{"step":87,"from":"sdaReg0","to":"sdaReg178","type":"model"},{"step":88,"from":"sdaReg0","to":"sdaReg180","type":"model"},{"step":89,"from":"sdaReg0","to":"sdaReg182","type":"model"},{"step":90,"from":"sdaReg0","to":"sdaReg184","type":"model"},{"step":91,"from":"static.<java.net.URI: libcore.net.UriCodec PATH_ENCODER>","to":"1085474672","type":"load","field":"<java.net.URI: libcore.net.UriCodec PATH_ENCODER>"},{"step":92,"from":"sdaReg0","to":"sdaReg189","type":"model"},{"step":93,"from":"1085474672","to":"1085474672.<java.net.URI$PartEncoder: java.lang.String extraLegalCharacters>","type":"load","field":"<java.net.URI$PartEncoder: java.lang.String extraLegalCharacters>"},{"step":94,"from":"sdaReg0","to":"sdaReg197","type":"model"},{"step":95,"from":"sdaReg0","to":"sdaReg198","type":"model"},{"step":96,"from":"sdaReg0","to":"sdaReg199","type":"model"},{"step":97,"from":"sdaReg0","to":"sdaReg200","type":"model"},{"step":98,"from":"sdaReg0","to":"sdaReg201","type":"model"},{"step":99,"from":"sdaReg0","to":"sdaReg202","type":"model"},{"step":100,"from":"sdaReg0","to":"sdaReg203","type":"model"},{"step":101,"from":"sdaReg0","to":"sdaReg208","type":"model"},{"step":102,"from":"sdaReg0","to":"sdaReg209","type":"model"},{"step":103,"from":"sdaReg0","to":"sdaReg210","type":"model"},{"step":104,"from":"sdaReg0","to":"sdaReg211","type":"model"},{"step":105,"from":"sdaReg211","to":"1093477312","type":"store","field":"<java.net.URI: java.lang.String path>"},{"step":106,"from":"sdaReg219","to":"sdaReg225","type":"model"},{"step":107,"from":"sdaReg219","to":"sdaReg229","type":"model"},{"step":108,"from":"sdaReg229","to":"sdaReg230","type":"model"},{"step":109,"from":"sdaReg219","to":"sdaReg235","type":"model"},{"step":110,"from":"sdaReg219","to":"sdaReg237","type":"model"},{"step":111,"from":"sdaReg219","to":"sdaReg239","type":"model"},{"step":112,"from":"sdaReg219","to":"sdaReg241","type":"model"},{"step":113,"from":"sdaReg219","to":"sdaReg243","type":"model"},{"step":114,"from":"sdaReg219","to":"sdaReg245","type":"model"},{"step":115,"from":"sdaReg219","to":"sdaReg247","type":"model"},{"step":116,"from":"sdaReg219","to":"sdaReg249","type":"model"},{"step":117,"from":"sdaReg219","to":"sdaReg252","type":"model"},{"step":118,"from":"sdaReg219","to":"sdaReg254","type":"model"},{"step":119,"from":"sdaReg219","to":"sdaReg256","type":"model"},{"step":120,"from":"sdaReg219","to":"1093314944","type":"model"},{"step":121,"from":"1093314944","to":"1093314944.arrayIdx_int:0","type":"load","field":"arrayIdx_int:0"},{"step":122,"from":"1093314944","to":"1093314944.arrayIdx_int:1","type":"load","field":"arrayIdx_int:1"},{"step":123,"from":"sdaReg258","to":"sdaReg267","type":"model"},{"step":124,"from":"sdaReg213","to":"1093477312","type":"store","field":"<java.net.URI: java.lang.String userInfo>"},{"step":125,"from":"sdaReg219","to":"1093477312","type":"store","field":"<java.net.URI: java.lang.String host>"},{"step":126,"from":"sdaReg218","to":"1093477312","type":"store","field":"<java.net.URI: int port>"},{"step":127,"from":"1093477312","to":"sdaReg270","type":"create","field":"<java.net.URI: boolean serverAuthority>"}],"parameters":[{"id":"1093477312","name":"this","klass":"java.net.URI"},{"id":"sdaReg0","name":"arg#1","klass":"string"}],"returns":[{"id":"1093477312","name":"return","klass":"java.net.URI"}],"colors":{"heapLocToColor":{"sdaReg190":[153],"sdaReg192":[155],"sdaReg199":[1, 160],"sdaReg198":[1, 159],"sdaReg195":[157],"sdaReg194":[156],"sdaReg197":[1, 158],"sdaReg13":[1, 5],"sdaReg14":[6],"sdaReg11":[1, 3],"sdaReg12":[4],"sdaReg19":[1, 11],"sdaReg17":[1, 9],"sdaReg18":[10],"sdaReg15":[1, 7],"sdaReg16":[8],"sdaReg171":[138],"sdaReg170":[137, 1],"sdaReg173":[140],"sdaReg172":[1, 139],"sdaReg175":[142],"sdaReg174":[1, 141],"sdaReg177":[144],"sdaReg176":[1, 143],"sdaReg179":[146],"sdaReg178":[1, 145],"sdaReg182":[1, 149],"sdaReg181":[148],"sdaReg180":[1, 147],"sdaReg186":[153],"sdaReg185":[152],"sdaReg184":[1, 151],"sdaReg183":[150],"sdaReg189":[1, 154],"1093477312":[0],"sdaReg60":[52],"sdaReg61":[1, 53],"1093314944":[205],"sdaReg59":[51, 1],"sdaReg58":[50],"sdaReg57":[1, 49],"sdaReg56":[48],"sdaReg55":[1, 47],"sdaReg54":[46],"sdaReg53":[1, 45],"sdaReg52":[44],"sdaReg51":[1, 43],"sdaReg50":[42],"sdaReg49":[1, 41],"sdaReg48":[40],"sdaReg45":[1, 37],"sdaReg44":[36],"sdaReg47":[1, 39],"sdaReg46":[38],"sdaReg41":[1, 33],"sdaReg40":[32],"sdaReg43":[1, 35],"sdaReg42":[34],"static.<java.net.URI: libcore.net.UriCodec AUTHORITY_ENCODER>":[117],"sdaReg200":[1, 161],"sdaReg201":[1, 162],"sdaReg39":[1, 31],"sdaReg204":[153],"sdaReg38":[30],"1085474672":[153],"sdaReg203":[1, 164],"sdaReg37":[1, 29],"sdaReg202":[1, 163],"sdaReg209":[1, 167],"sdaReg208":[1, 166],"sdaReg206":[165],"sdaReg32":[24],"sdaReg31":[1, 23],"sdaReg30":[22],"sdaReg36":[28],"sdaReg35":[1, 27],"sdaReg34":[26],"sdaReg33":[1, 25],"sdaReg7":[2],"sdaReg5":[0],"sdaReg27":[1, 19],"sdaReg26":[18],"sdaReg29":[1, 21],"sdaReg28":[20],"sdaReg21":[1, 13],"sdaReg1":[0],"sdaReg20":[12],"sdaReg0":[1],"sdaReg23":[1, 15],"sdaReg22":[14],"sdaReg25":[17, 1],"sdaReg24":[16],"sdaReg125":[99],"sdaReg126":[1, 100],"sdaReg127":[101],"sdaReg128":[102, 1],"sdaReg129":[103],"sdaReg228":[177],"sdaReg68":[60],"sdaReg229":[179],"sdaReg69":[61],"sdaReg66":[58],"sdaReg67":[1, 59],"sdaReg64":[56],"sdaReg224":[176],"sdaReg65":[1, 57],"sdaReg225":[177],"sdaReg62":[54],"sdaReg226":[178],"sdaReg63":[1, 55],"sdaReg227":[178],"sdaReg221":[0],"sdaReg220":[173],"sdaReg223":[175],"sdaReg222":[174],"sdaReg120":[1, 94],"sdaReg122":[1, 96],"sdaReg121":[95],"sdaReg124":[1, 98],"sdaReg123":[97],"sdaReg114":[91],"sdaReg118":[1, 92],"sdaReg119":[93],"sdaReg77":[1, 66],"sdaReg78":[67],"sdaReg79":[68, 1],"sdaReg217":[172],"sdaReg73":[1, 62],"sdaReg74":[63],"sdaReg216":[171],"sdaReg75":[1, 64],"sdaReg76":[65],"sdaReg214":[170],"sdaReg81":[1, 70],"sdaReg212":[0],"sdaReg80":[69],"sdaReg211":[1, 169],"sdaReg210":[1, 168],"sdaReg82":[71],"sdaReg113":[1, 90],"sdaReg111":[89],"sdaReg107":[1, 87],"sdaReg109":[1, 88],"sdaReg103":[85, 1],"sdaReg105":[1, 86],"sdaReg246":[193],"sdaReg86":[1, 72],"sdaReg247":[194],"sdaReg87":[73],"sdaReg248":[195],"sdaReg249":[196],"sdaReg88":[1, 74],"sdaReg89":[75],"sdaReg90":[1, 76],"sdaReg241":[188],"sdaReg240":[187],"sdaReg243":[190],"sdaReg94":[1, 80],"sdaReg242":[189],"sdaReg93":[79],"sdaReg245":[192],"sdaReg92":[1, 78],"sdaReg244":[191],"sdaReg91":[77],"sdaReg101":[1, 84],"1085474672.<java.net.URI$PartEncoder: java.lang.String extraLegalCharacters>":[153],"sdaReg237":[184],"sdaReg95":[81],"sdaReg238":[185],"sdaReg96":[1, 82],"sdaReg235":[182],"sdaReg97":[83],"sdaReg236":[183],"sdaReg99":[0],"1085536376":[117],"sdaReg239":[186],"sdaReg230":[180],"static.<java.net.URI: libcore.net.UriCodec PATH_ENCODER>":[153],"sdaReg234":[181],"sdaReg231":[0],"sdaReg169":[136],"sdaReg161":[1, 130],"sdaReg164":[1, 131],"sdaReg165":[132],"sdaReg166":[1, 133],"sdaReg167":[134],"sdaReg168":[1, 135],"sdaReg264":[208],"sdaReg265":[209],"sdaReg266":[210],"sdaReg267":[205, 211],"sdaReg262":[206],"sdaReg263":[207],"sdaReg160":[1, 129],"sdaReg259":[205],"sdaReg258":[205],"sdaReg257":[204],"sdaReg159":[1, 128],"sdaReg158":[1, 127],"sdaReg152":[1, 124],"sdaReg153":[1, 125],"sdaReg150":[1, 122],"sdaReg151":[1, 123],"sdaReg156":[126],"sdaReg154":[117],"sdaReg255":[202],"sdaReg256":[203],"sdaReg253":[200],"sdaReg254":[201],"sdaReg251":[198],"sdaReg252":[199],"1093314944.arrayIdx_int:1":[205],"1093314944.arrayIdx_int:0":[205],"sdaReg250":[197],"sdaReg148":[1, 120],"sdaReg147":[119, 1],"sdaReg149":[1, 121],"sdaReg143":[117],"sdaReg146":[1, 118],"sdaReg140":[1, 114],"sdaReg141":[115],"sdaReg142":[116],"sdaReg139":[113],"sdaReg138":[1, 112],"sdaReg137":[111],"sdaReg136":[1, 110],"sdaReg134":[1, 108],"sdaReg135":[109],"sdaReg132":[1, 106],"sdaReg133":[107],"sdaReg130":[1, 104],"sdaReg131":[105]},"colorToColor":{"0":[212],"1":[0],"169":[0],"179":[180],"130":[0],"88":[0],"90":[0]},"colorToLabel":{"0":"this","1":"arg#1","117":"<java.net.URI: libcore.net.UriCodec AUTHORITY_ENCODER>","153":"<java.net.URI: libcore.net.UriCodec PATH_ENCODER>","212":"return"}}}

Generated Model
	this->return
	arg#1->this
	arg#1->return

