Scanning method <java.net.URI: void <init>(java.lang.String)>

All seen event types: LoadStaticRecord, BinaryOperationRecord, SimpleAssignmentRecord, MethodReturnRecord, MethodCallRecord, ArrayLengthRecord, LoadInstanceRecord, MethodStartRecord, LoadArrayRecord, MethodEndRecord, IfRecord, StoreInstanceRecord, 
Ignored event types: IfRecord, 

JSON Encoded Analysis Data (for visualization):{"heapEdges":[{"step":0,"from":"1093620856","to":"sdaReg2","type":"create","field":"<java.net.URI: int port>"},{"step":1,"from":"1093620856","to":"sdaReg3","type":"create","field":"<java.net.URI: boolean serverAuthority>"},{"step":2,"from":"1093620856","to":"sdaReg4","type":"create","field":"<java.net.URI: int hash>"},{"step":3,"from":"sdaReg0","to":"1093620856","type":"store","field":"<java.net.URI: java.lang.String string>"},{"step":4,"from":"sdaReg0","to":"sdaReg11","type":"model"},{"step":5,"from":"sdaReg0","to":"sdaReg13","type":"model"},{"step":6,"from":"sdaReg0","to":"sdaReg15","type":"model"},{"step":7,"from":"sdaReg0","to":"sdaReg17","type":"model"},{"step":8,"from":"sdaReg0","to":"sdaReg19","type":"model"},{"step":9,"from":"sdaReg0","to":"sdaReg21","type":"model"},{"step":10,"from":"sdaReg0","to":"sdaReg23","type":"model"},{"step":11,"from":"sdaReg0","to":"sdaReg25","type":"model"},{"step":12,"from":"sdaReg0","to":"sdaReg27","type":"model"},{"step":13,"from":"sdaReg0","to":"sdaReg29","type":"model"},{"step":14,"from":"sdaReg0","to":"sdaReg31","type":"model"},{"step":15,"from":"sdaReg0","to":"sdaReg33","type":"model"},{"step":16,"from":"sdaReg0","to":"sdaReg35","type":"model"},{"step":17,"from":"sdaReg0","to":"sdaReg37","type":"model"},{"step":18,"from":"sdaReg0","to":"sdaReg39","type":"model"},{"step":19,"from":"sdaReg0","to":"sdaReg41","type":"model"},{"step":20,"from":"sdaReg0","to":"sdaReg43","type":"model"},{"step":21,"from":"sdaReg0","to":"sdaReg45","type":"model"},{"step":22,"from":"sdaReg0","to":"sdaReg47","type":"model"},{"step":23,"from":"sdaReg0","to":"sdaReg49","type":"model"},{"step":24,"from":"sdaReg0","to":"sdaReg51","type":"model"},{"step":25,"from":"sdaReg0","to":"sdaReg53","type":"model"},{"step":26,"from":"sdaReg0","to":"sdaReg55","type":"model"},{"step":27,"from":"sdaReg0","to":"sdaReg57","type":"model"},{"step":28,"from":"sdaReg0","to":"sdaReg59","type":"model"},{"step":29,"from":"sdaReg0","to":"sdaReg61","type":"model"},{"step":30,"from":"sdaReg0","to":"sdaReg63","type":"model"},{"step":31,"from":"sdaReg0","to":"sdaReg69","type":"model"},{"step":32,"from":"sdaReg0","to":"sdaReg71","type":"model"},{"step":33,"from":"sdaReg0","to":"sdaReg73","type":"model"},{"step":34,"from":"sdaReg0","to":"sdaReg75","type":"model"},{"step":35,"from":"sdaReg0","to":"sdaReg77","type":"model"},{"step":36,"from":"sdaReg0","to":"sdaReg82","type":"model"},{"step":37,"from":"sdaReg0","to":"sdaReg84","type":"model"},{"step":38,"from":"sdaReg0","to":"sdaReg86","type":"model"},{"step":39,"from":"sdaReg0","to":"sdaReg88","type":"model"},{"step":40,"from":"sdaReg0","to":"sdaReg90","type":"model"},{"step":41,"from":"sdaReg0","to":"sdaReg92","type":"model"},{"step":42,"from":"1093620856","to":"sdaReg94","type":"create","field":"<java.net.URI: boolean absolute>"},{"step":43,"from":"sdaReg0","to":"sdaReg97","type":"model"},{"step":44,"from":"sdaReg0","to":"sdaReg99","type":"model"},{"step":45,"from":"sdaReg0","to":"sdaReg101","type":"model"},{"step":46,"from":"sdaReg0","to":"sdaReg103","type":"model"},{"step":47,"from":"sdaReg0","to":"sdaReg105","type":"model"},{"step":48,"from":"sdaReg105","to":"1093620856","type":"store","field":"<java.net.URI: java.lang.String scheme>"},{"step":49,"from":"1093620856","to":"sdaReg108","type":"create","field":"<java.net.URI: boolean opaque>"},{"step":50,"from":"sdaReg0","to":"sdaReg109","type":"model"},{"step":51,"from":"sdaReg109","to":"1093620856","type":"store","field":"<java.net.URI: java.lang.String schemeSpecificPart>"},{"step":52,"from":"sdaReg0","to":"sdaReg114","type":"model"},{"step":53,"from":"sdaReg0","to":"sdaReg116","type":"model"},{"step":54,"from":"sdaReg0","to":"sdaReg118","type":"model"},{"step":55,"from":"sdaReg0","to":"sdaReg120","type":"model"},{"step":56,"from":"sdaReg0","to":"sdaReg122","type":"model"},{"step":57,"from":"static.<java.net.URI: libcore.net.UriCodec AUTHORITY_ENCODER>","to":"1085536376","type":"load","field":"<java.net.URI: libcore.net.UriCodec AUTHORITY_ENCODER>"},{"step":58,"from":"sdaReg0","to":"sdaReg128","type":"model"},{"step":59,"from":"sdaReg0","to":"sdaReg129","type":"model"},{"step":60,"from":"sdaReg0","to":"sdaReg130","type":"model"},{"step":61,"from":"sdaReg0","to":"sdaReg131","type":"model"},{"step":62,"from":"sdaReg0","to":"sdaReg132","type":"model"},{"step":63,"from":"sdaReg132","to":"1093620856","type":"store","field":"<java.net.URI: java.lang.String authority>"},{"step":64,"from":"sdaReg0","to":"sdaReg135","type":"model"},{"step":65,"from":"sdaReg0","to":"sdaReg137","type":"model"},{"step":66,"from":"sdaReg0","to":"sdaReg139","type":"model"},{"step":67,"from":"sdaReg0","to":"sdaReg141","type":"model"},{"step":68,"from":"sdaReg0","to":"sdaReg143","type":"model"},{"step":69,"from":"sdaReg0","to":"sdaReg145","type":"model"},{"step":70,"from":"static.<java.net.URI: libcore.net.UriCodec PATH_ENCODER>","to":"1085474672","type":"load","field":"<java.net.URI: libcore.net.UriCodec PATH_ENCODER>"},{"step":71,"from":"sdaReg0","to":"sdaReg150","type":"model"},{"step":72,"from":"1085474672","to":"1085474672.<java.net.URI$PartEncoder: java.lang.String extraLegalCharacters>","type":"load","field":"<java.net.URI$PartEncoder: java.lang.String extraLegalCharacters>"},{"step":73,"from":"sdaReg0","to":"sdaReg158","type":"model"},{"step":74,"from":"sdaReg0","to":"sdaReg159","type":"model"},{"step":75,"from":"sdaReg0","to":"sdaReg160","type":"model"},{"step":76,"from":"sdaReg0","to":"sdaReg161","type":"model"},{"step":77,"from":"sdaReg0","to":"sdaReg162","type":"model"},{"step":78,"from":"sdaReg162","to":"1093620856","type":"store","field":"<java.net.URI: java.lang.String path>"},{"step":79,"from":"static.<java.net.URI: libcore.net.UriCodec ALL_LEGAL_ENCODER>","to":"1085538000","type":"load","field":"<java.net.URI: libcore.net.UriCodec ALL_LEGAL_ENCODER>"},{"step":80,"from":"sdaReg0","to":"sdaReg167","type":"model"},{"step":81,"from":"sdaReg0","to":"sdaReg168","type":"model"},{"step":82,"from":"sdaReg0","to":"sdaReg169","type":"model"},{"step":83,"from":"sdaReg0","to":"sdaReg170","type":"model"},{"step":84,"from":"sdaReg0","to":"sdaReg171","type":"model"},{"step":85,"from":"sdaReg0","to":"sdaReg172","type":"model"},{"step":86,"from":"1085538000","to":"1085538000.<java.net.URI$PartEncoder: java.lang.String extraLegalCharacters>","type":"load","field":"<java.net.URI$PartEncoder: java.lang.String extraLegalCharacters>"},{"step":87,"from":"sdaReg0","to":"sdaReg180","type":"model"},{"step":88,"from":"sdaReg0","to":"sdaReg181","type":"model"},{"step":89,"from":"sdaReg0","to":"sdaReg182","type":"model"},{"step":90,"from":"sdaReg0","to":"sdaReg183","type":"model"},{"step":91,"from":"sdaReg0","to":"sdaReg184","type":"model"},{"step":92,"from":"sdaReg184","to":"1093620856","type":"store","field":"<java.net.URI: java.lang.String query>"},{"step":93,"from":"sdaReg192","to":"sdaReg198","type":"model"},{"step":94,"from":"sdaReg192","to":"sdaReg203","type":"model"},{"step":95,"from":"sdaReg192","to":"sdaReg205","type":"model"},{"step":96,"from":"sdaReg192","to":"sdaReg207","type":"model"},{"step":97,"from":"sdaReg192","to":"sdaReg209","type":"model"},{"step":98,"from":"sdaReg192","to":"1093247928","type":"model"},{"step":99,"from":"1093247928","to":"1093247928.arrayIdx_int:0","type":"load","field":"arrayIdx_int:0"},{"step":100,"from":"sdaReg186","to":"1093620856","type":"store","field":"<java.net.URI: java.lang.String userInfo>"},{"step":101,"from":"sdaReg192","to":"1093620856","type":"store","field":"<java.net.URI: java.lang.String host>"},{"step":102,"from":"sdaReg191","to":"1093620856","type":"store","field":"<java.net.URI: int port>"},{"step":103,"from":"1093620856","to":"sdaReg220","type":"create","field":"<java.net.URI: boolean serverAuthority>"}],"parameters":[{"id":"1093620856","name":"this","klass":"java.net.URI"},{"id":"sdaReg0","name":"arg#1","klass":"string"}],"returns":[{"id":"1093620856","name":"return","klass":"java.net.URI"}],"colors":{"heapLocToColor":{"sdaReg125":[99],"sdaReg190":[144],"sdaReg193":[145],"sdaReg128":[1, 100],"sdaReg129":[1, 101],"sdaReg199":[0],"sdaReg198":[149],"sdaReg69":[1, 58],"sdaReg195":[146],"sdaReg64":[56],"sdaReg194":[0],"sdaReg65":[57],"sdaReg197":[148],"sdaReg62":[54],"sdaReg196":[147],"sdaReg63":[1, 55],"sdaReg13":[1, 5],"sdaReg72":[61],"sdaReg14":[6],"sdaReg71":[1, 60],"sdaReg11":[1, 3],"sdaReg70":[59],"sdaReg12":[4],"sdaReg120":[1, 94],"sdaReg19":[1, 11],"sdaReg122":[1, 96],"sdaReg17":[1, 9],"sdaReg121":[95],"sdaReg18":[10],"sdaReg124":[98],"sdaReg15":[1, 7],"sdaReg123":[97],"sdaReg16":[8],"sdaReg116":[1, 90],"sdaReg117":[91],"sdaReg114":[1, 88],"sdaReg115":[89],"sdaReg118":[1, 92],"sdaReg119":[93],"sdaReg77":[1, 66],"sdaReg78":[67],"sdaReg217":[162],"sdaReg215":[160],"sdaReg73":[1, 62],"sdaReg216":[161],"sdaReg74":[63],"sdaReg75":[1, 64],"sdaReg76":[65],"sdaReg212":[159],"sdaReg211":[159],"sdaReg210":[158],"sdaReg83":[69],"sdaReg82":[68, 1],"sdaReg110":[87],"sdaReg107":[85],"sdaReg109":[1, 86],"sdaReg103":[1, 83],"sdaReg171":[1, 132],"sdaReg105":[1, 84],"sdaReg170":[1, 131],"sdaReg173":[127],"sdaReg86":[1, 72],"sdaReg172":[1, 133],"sdaReg87":[73],"sdaReg175":[134],"sdaReg84":[1, 70],"sdaReg85":[71],"sdaReg177":[135],"sdaReg88":[1, 74],"sdaReg178":[136],"sdaReg89":[75],"sdaReg90":[1, 76],"sdaReg93":[79],"sdaReg92":[1, 78],"sdaReg91":[77],"sdaReg101":[1, 82],"sdaReg182":[1, 139],"sdaReg181":[1, 138],"sdaReg180":[137, 1],"1085474672.<java.net.URI$PartEncoder: java.lang.String extraLegalCharacters>":[117],"sdaReg95":[0],"sdaReg185":[0],"sdaReg184":[1, 141],"sdaReg97":[1, 80],"sdaReg183":[1, 140],"1085536376":[99],"sdaReg99":[1, 81],"sdaReg189":[143],"1093247928.arrayIdx_int:0":[159],"sdaReg187":[142],"1085538000.<java.net.URI$PartEncoder: java.lang.String extraLegalCharacters>":[127],"static.<java.net.URI: libcore.net.UriCodec PATH_ENCODER>":[117],"sdaReg60":[52],"sdaReg61":[1, 53],"sdaReg169":[1, 130],"sdaReg161":[1, 125],"sdaReg162":[1, 126],"sdaReg164":[127],"sdaReg167":[1, 128],"sdaReg168":[1, 129],"sdaReg59":[51, 1],"sdaReg58":[50],"1093247928":[159],"sdaReg57":[1, 49],"sdaReg56":[48],"sdaReg55":[1, 47],"sdaReg54":[46],"sdaReg53":[1, 45],"sdaReg52":[44],"sdaReg160":[1, 124],"sdaReg51":[1, 43],"sdaReg50":[42],"sdaReg159":[1, 123],"sdaReg158":[1, 122],"static.<java.net.URI: libcore.net.UriCodec ALL_LEGAL_ENCODER>":[127],"sdaReg153":[119],"sdaReg150":[1, 118],"sdaReg151":[117],"sdaReg156":[121],"sdaReg49":[1, 41],"sdaReg48":[40],"sdaReg155":[120],"sdaReg45":[1, 37],"sdaReg44":[36],"sdaReg47":[1, 39],"sdaReg46":[38],"sdaReg41":[1, 33],"sdaReg40":[32],"sdaReg43":[1, 35],"sdaReg42":[34],"static.<java.net.URI: libcore.net.UriCodec AUTHORITY_ENCODER>":[99],"sdaReg147":[117],"sdaReg205":[153],"sdaReg143":[1, 113],"sdaReg204":[152],"sdaReg144":[114],"sdaReg39":[1, 31],"sdaReg203":[151],"1085474672":[117],"sdaReg145":[1, 115],"sdaReg38":[30],"sdaReg202":[150],"sdaReg146":[116],"sdaReg37":[1, 29],"sdaReg209":[157],"sdaReg208":[156],"sdaReg140":[110],"sdaReg207":[155],"sdaReg141":[1, 111],"sdaReg206":[154],"sdaReg142":[112],"1085538000":[127],"sdaReg32":[24],"sdaReg31":[1, 23],"sdaReg30":[22],"sdaReg36":[28],"sdaReg35":[1, 27],"sdaReg34":[26],"sdaReg33":[1, 25],"sdaReg7":[2],"sdaReg5":[0],"sdaReg139":[1, 109],"sdaReg138":[108],"sdaReg137":[1, 107],"sdaReg136":[106],"sdaReg27":[1, 19],"sdaReg135":[1, 105],"sdaReg26":[18],"sdaReg132":[1, 104],"sdaReg29":[1, 21],"sdaReg28":[20],"sdaReg130":[102, 1],"sdaReg131":[1, 103],"1093620856":[0],"sdaReg1":[0],"sdaReg21":[1, 13],"sdaReg0":[1],"sdaReg20":[12],"sdaReg23":[1, 15],"sdaReg22":[14],"sdaReg25":[17, 1],"sdaReg24":[16]},"colorToColor":{"0":[163],"84":[0],"1":[0],"86":[0],"141":[0],"126":[0],"104":[0]},"colorToLabel":{"0":"this","1":"arg#1","99":"<java.net.URI: libcore.net.UriCodec AUTHORITY_ENCODER>","117":"<java.net.URI: libcore.net.UriCodec PATH_ENCODER>","127":"<java.net.URI: libcore.net.UriCodec ALL_LEGAL_ENCODER>","163":"return"}}}

Generated Model
	this->return
	arg#1->this
	arg#1->return

