Scanning method <java.net.URI: void <init>(java.lang.String)>

All seen event types: LoadStaticRecord, BinaryOperationRecord, SimpleAssignmentRecord, MethodReturnRecord, MethodCallRecord, LoadInstanceRecord, MethodStartRecord, MethodEndRecord, IfRecord, StoreInstanceRecord, 
Ignored event types: IfRecord, 

JSON Encoded Analysis Data (for visualization):{"heapEdges":[{"step":0,"from":"1093448216","to":"sdaReg2","type":"create","field":"<java.net.URI: int port>"},{"step":1,"from":"1093448216","to":"sdaReg3","type":"create","field":"<java.net.URI: boolean serverAuthority>"},{"step":2,"from":"1093448216","to":"sdaReg4","type":"create","field":"<java.net.URI: int hash>"},{"step":3,"from":"sdaReg0","to":"1093448216","type":"store","field":"<java.net.URI: java.lang.String string>"},{"step":4,"from":"sdaReg0","to":"sdaReg11","type":"model"},{"step":5,"from":"sdaReg0","to":"sdaReg13","type":"model"},{"step":6,"from":"sdaReg0","to":"sdaReg15","type":"model"},{"step":7,"from":"sdaReg0","to":"sdaReg17","type":"model"},{"step":8,"from":"sdaReg0","to":"sdaReg19","type":"model"},{"step":9,"from":"sdaReg0","to":"sdaReg21","type":"model"},{"step":10,"from":"sdaReg0","to":"sdaReg23","type":"model"},{"step":11,"from":"sdaReg0","to":"sdaReg25","type":"model"},{"step":12,"from":"sdaReg0","to":"sdaReg27","type":"model"},{"step":13,"from":"sdaReg0","to":"sdaReg29","type":"model"},{"step":14,"from":"sdaReg0","to":"sdaReg31","type":"model"},{"step":15,"from":"sdaReg0","to":"sdaReg33","type":"model"},{"step":16,"from":"sdaReg0","to":"sdaReg35","type":"model"},{"step":17,"from":"sdaReg0","to":"sdaReg41","type":"model"},{"step":18,"from":"sdaReg0","to":"sdaReg43","type":"model"},{"step":19,"from":"sdaReg0","to":"sdaReg45","type":"model"},{"step":20,"from":"sdaReg0","to":"sdaReg47","type":"model"},{"step":21,"from":"sdaReg0","to":"sdaReg49","type":"model"},{"step":22,"from":"sdaReg0","to":"sdaReg51","type":"model"},{"step":23,"from":"sdaReg0","to":"sdaReg53","type":"model"},{"step":24,"from":"sdaReg0","to":"sdaReg55","type":"model"},{"step":25,"from":"sdaReg0","to":"sdaReg57","type":"model"},{"step":26,"from":"sdaReg0","to":"sdaReg59","type":"model"},{"step":27,"from":"sdaReg0","to":"sdaReg61","type":"model"},{"step":28,"from":"sdaReg0","to":"sdaReg63","type":"model"},{"step":29,"from":"sdaReg0","to":"sdaReg65","type":"model"},{"step":30,"from":"sdaReg0","to":"sdaReg70","type":"model"},{"step":31,"from":"sdaReg0","to":"sdaReg72","type":"model"},{"step":32,"from":"sdaReg0","to":"sdaReg74","type":"model"},{"step":33,"from":"1093448216","to":"sdaReg76","type":"create","field":"<java.net.URI: boolean absolute>"},{"step":34,"from":"1093448216","to":"sdaReg78","type":"create","field":"<java.net.URI: boolean opaque>"},{"step":35,"from":"sdaReg0","to":"sdaReg79","type":"model"},{"step":36,"from":"sdaReg79","to":"1093448216","type":"store","field":"<java.net.URI: java.lang.String schemeSpecificPart>"},{"step":37,"from":"sdaReg0","to":"sdaReg84","type":"model"},{"step":38,"from":"sdaReg0","to":"sdaReg86","type":"model"},{"step":39,"from":"sdaReg0","to":"sdaReg88","type":"model"},{"step":40,"from":"sdaReg0","to":"sdaReg90","type":"model"},{"step":41,"from":"sdaReg0","to":"sdaReg92","type":"model"},{"step":42,"from":"sdaReg0","to":"sdaReg94","type":"model"},{"step":43,"from":"sdaReg0","to":"sdaReg96","type":"model"},{"step":44,"from":"sdaReg0","to":"sdaReg98","type":"model"},{"step":45,"from":"sdaReg0","to":"sdaReg100","type":"model"},{"step":46,"from":"sdaReg0","to":"sdaReg102","type":"model"},{"step":47,"from":"sdaReg0","to":"sdaReg104","type":"model"},{"step":48,"from":"sdaReg0","to":"sdaReg106","type":"model"},{"step":49,"from":"sdaReg0","to":"sdaReg108","type":"model"},{"step":50,"from":"static.<java.net.URI: libcore.net.UriCodec PATH_ENCODER>","to":"1085474672","type":"load","field":"<java.net.URI: libcore.net.UriCodec PATH_ENCODER>"},{"step":51,"from":"sdaReg0","to":"sdaReg113","type":"model"},{"step":52,"from":"sdaReg0","to":"sdaReg118","type":"model"},{"step":53,"from":"sdaReg0","to":"sdaReg123","type":"model"},{"step":54,"from":"1085474672","to":"1085474672.<java.net.URI$PartEncoder: java.lang.String extraLegalCharacters>","type":"load","field":"<java.net.URI$PartEncoder: java.lang.String extraLegalCharacters>"},{"step":55,"from":"sdaReg0","to":"sdaReg131","type":"model"},{"step":56,"from":"sdaReg0","to":"sdaReg136","type":"model"},{"step":57,"from":"sdaReg0","to":"sdaReg141","type":"model"},{"step":58,"from":"1085474672","to":"1085474672.<java.net.URI$PartEncoder: java.lang.String extraLegalCharacters>","type":"load","field":"<java.net.URI$PartEncoder: java.lang.String extraLegalCharacters>"},{"step":59,"from":"sdaReg0","to":"sdaReg149","type":"model"},{"step":60,"from":"sdaReg0","to":"sdaReg154","type":"model"},{"step":61,"from":"sdaReg0","to":"sdaReg159","type":"model"},{"step":62,"from":"1085474672","to":"1085474672.<java.net.URI$PartEncoder: java.lang.String extraLegalCharacters>","type":"load","field":"<java.net.URI$PartEncoder: java.lang.String extraLegalCharacters>"},{"step":63,"from":"sdaReg0","to":"sdaReg167","type":"model"},{"step":64,"from":"sdaReg0","to":"sdaReg172","type":"model"},{"step":65,"from":"sdaReg0","to":"sdaReg177","type":"model"},{"step":66,"from":"1085474672","to":"1085474672.<java.net.URI$PartEncoder: java.lang.String extraLegalCharacters>","type":"load","field":"<java.net.URI$PartEncoder: java.lang.String extraLegalCharacters>"},{"step":67,"from":"sdaReg0","to":"sdaReg185","type":"model"},{"step":68,"from":"sdaReg0","to":"sdaReg186","type":"model"},{"step":69,"from":"sdaReg186","to":"1093448216","type":"store","field":"<java.net.URI: java.lang.String path>"},{"step":70,"from":"1093448216","to":"1093448216.<java.net.URI: java.lang.String authority>","type":"load","field":"<java.net.URI: java.lang.String authority>"}],"parameters":[{"id":"1093448216","name":"this","klass":"java.net.URI"},{"id":"sdaReg0","name":"arg#1","klass":"string"}],"returns":[{"id":"1093448216","name":"return","klass":"java.net.URI"}],"colors":{"heapLocToColor":{"sdaReg126":[96],"sdaReg128":[97],"sdaReg129":[98],"sdaReg66":[55],"sdaReg64":[53],"sdaReg65":[1, 54],"sdaReg62":[51],"sdaReg63":[1, 52],"sdaReg13":[1, 5],"sdaReg72":[1, 58],"sdaReg14":[6],"sdaReg71":[57],"sdaReg11":[1, 3],"sdaReg70":[1, 56],"sdaReg12":[4],"sdaReg19":[1, 11],"sdaReg17":[1, 9],"sdaReg121":[94],"sdaReg18":[10],"sdaReg124":[90],"sdaReg15":[1, 7],"sdaReg123":[1, 95],"sdaReg16":[8],"sdaReg116":[92],"sdaReg114":[90],"sdaReg118":[1, 93],"sdaReg119":[90],"sdaReg79":[1, 62],"sdaReg73":[59],"sdaReg74":[1, 60],"sdaReg75":[61],"sdaReg80":[63],"sdaReg113":[1, 91],"sdaReg110":[90],"sdaReg107":[87],"sdaReg108":[1, 88],"sdaReg109":[89],"sdaReg103":[83],"sdaReg104":[1, 84],"sdaReg105":[85],"sdaReg170":[116],"sdaReg106":[1, 86],"sdaReg173":[90],"sdaReg86":[1, 66],"sdaReg172":[1, 117],"sdaReg87":[67],"sdaReg175":[118],"sdaReg84":[1, 64],"sdaReg85":[65],"sdaReg177":[119, 1],"sdaReg88":[68, 1],"sdaReg178":[90],"sdaReg89":[69],"sdaReg90":[1, 70],"sdaReg94":[1, 74],"sdaReg93":[73],"sdaReg92":[1, 72],"sdaReg91":[71],"sdaReg100":[1, 80],"sdaReg102":[1, 82],"sdaReg101":[81],"sdaReg182":[121],"sdaReg180":[120],"1085474672.<java.net.URI$PartEncoder: java.lang.String extraLegalCharacters>":[90],"sdaReg186":[1, 124],"sdaReg95":[75],"1093448216.<java.net.URI: java.lang.String authority>":[0],"sdaReg185":[1, 123],"sdaReg96":[1, 76],"sdaReg97":[77],"sdaReg183":[122],"sdaReg98":[1, 78],"sdaReg99":[79],"sdaReg187":[0],"static.<java.net.URI: libcore.net.UriCodec PATH_ENCODER>":[90],"sdaReg60":[49],"sdaReg61":[1, 50],"sdaReg162":[112],"sdaReg164":[113],"sdaReg165":[114],"sdaReg167":[1, 115],"sdaReg168":[90],"sdaReg59":[1, 48],"sdaReg58":[47],"sdaReg57":[1, 46],"sdaReg56":[45],"sdaReg55":[1, 44],"sdaReg54":[43],"sdaReg53":[1, 42],"sdaReg52":[41],"sdaReg160":[90],"sdaReg51":[1, 40],"sdaReg50":[39],"sdaReg159":[1, 111],"sdaReg152":[108],"sdaReg150":[90],"sdaReg49":[1, 38],"sdaReg157":[110],"sdaReg48":[37],"sdaReg154":[1, 109],"sdaReg155":[90],"sdaReg45":[34, 1],"sdaReg44":[33],"sdaReg47":[1, 36],"sdaReg46":[35],"sdaReg41":[1, 30],"sdaReg43":[1, 32],"sdaReg42":[31],"sdaReg147":[106],"sdaReg149":[1, 107],"sdaReg144":[104],"1093448216":[0],"1085474672":[90],"sdaReg146":[105],"sdaReg37":[29],"sdaReg141":[1, 103],"sdaReg142":[90],"sdaReg32":[24],"sdaReg31":[1, 23],"sdaReg30":[22],"sdaReg36":[28],"sdaReg35":[1, 27],"sdaReg34":[26],"sdaReg33":[1, 25],"sdaReg7":[2],"sdaReg5":[0],"sdaReg139":[102],"sdaReg137":[90],"sdaReg136":[1, 101],"sdaReg134":[100],"sdaReg27":[1, 19],"sdaReg26":[18],"sdaReg132":[90],"sdaReg29":[1, 21],"sdaReg28":[20],"sdaReg131":[1, 99],"sdaReg1":[0],"sdaReg21":[1, 13],"sdaReg0":[1],"sdaReg20":[12],"sdaReg23":[1, 15],"sdaReg22":[14],"sdaReg25":[17, 1],"sdaReg24":[16]},"colorToColor":{"0":[125],"1":[0],"124":[0],"62":[0]},"colorToLabel":{"0":"this","1":"arg#1","90":"<java.net.URI: libcore.net.UriCodec PATH_ENCODER>","125":"return"}}}

Generated Model
	this->return
	arg#1->this
	arg#1->return

