Scanning method <java.net.URLConnection: boolean getDefaultAllowUserInteraction()>

All seen event types: LoadStaticRecord, 
Ignored event types: 

JSON Encoded Analysis Data (for visualization):{"heapEdges":[{"step":0,"from":"static.<java.net.URLConnection: boolean defaultAllowUserInteraction>","to":"static.<java.net.URLConnection: boolean defaultAllowUserInteraction>","type":"load","field":"<java.net.URLConnection: boolean defaultAllowUserInteraction>"}],"parameters":[],"returns":[{"id":"static.<java.net.URLConnection: boolean defaultAllowUserInteraction>","name":"return","klass":"boolean"}],"colors":{"heapLocToColor":{"static.<java.net.URLConnection: boolean defaultAllowUserInteraction>":[0]},"colorToColor":{"0":[1]},"colorToLabel":{"0":"<java.net.URLConnection: boolean defaultAllowUserInteraction>","1":"return"}}}

Generated Model

