Scanning method <android.text.Html: java.lang.String toHtml(android.text.Spanned)>

All seen event types: StoreArrayRecord, SimpleAssignmentRecord, MethodStartRecord, LoadInstanceRecord, IfRecord, NewObjectRecord, LoadStaticRecord, BinaryOperationRecord, MethodCallRecord, MethodReturnRecord, CastRecord, ArrayLengthRecord, LoadArrayRecord, MethodEndRecord, 
Ignored event types: IfRecord, 

JSON Encoded Analysis Data (for visualization):{"heapEdges":[{"step":0,"from":"1093498320","to":"1093498320.<android.text.SpannableStringInternal: java.lang.String mText>","type":"load","field":"<android.text.SpannableStringInternal: java.lang.String mText>"},{"step":1,"from":"1093498320","to":"1093498320.<android.text.SpannableStringInternal: java.lang.String mText>","type":"load","field":"<android.text.SpannableStringInternal: java.lang.String mText>"},{"step":2,"from":"1093498320","to":"1093498320.<android.text.SpannableStringInternal: int mSpanCount>","type":"load","field":"<android.text.SpannableStringInternal: int mSpanCount>"},{"step":3,"from":"1093498320","to":"1093835088","type":"load","field":"<android.text.SpannableStringInternal: java.lang.Object[] mSpans>"},{"step":4,"from":"1093498320","to":"1093668608","type":"load","field":"<android.text.SpannableStringInternal: int[] mSpanData>"},{"step":5,"from":"1093498320","to":"1093498320.<android.text.SpannableStringInternal: int mSpanCount>","type":"load","field":"<android.text.SpannableStringInternal: int mSpanCount>"},{"step":6,"from":"1093498320","to":"1093835088","type":"load","field":"<android.text.SpannableStringInternal: java.lang.Object[] mSpans>"},{"step":7,"from":"1093498320","to":"1093668608","type":"load","field":"<android.text.SpannableStringInternal: int[] mSpanData>"},{"step":8,"from":"1084659448","to":"sdaReg23","type":"model"},{"step":9,"from":"static.<com.android.internal.util.ArrayUtils: java.lang.Object[] sCache>","to":"1084375760","type":"load","field":"<com.android.internal.util.ArrayUtils: java.lang.Object[] sCache>"},{"step":10,"from":"1084375760","to":"1085268040","type":"load","field":"arrayIdx_int:42"},{"step":11,"from":"1085268040","to":"1084833288","type":"model"},{"step":12,"from":"1084833288","to":"1084659448","type":"model"},{"step":13,"from":"1093498320","to":"1093498320.<android.text.SpannableStringInternal: int mSpanCount>","type":"load","field":"<android.text.SpannableStringInternal: int mSpanCount>"},{"step":14,"from":"1093498320","to":"1093835088","type":"load","field":"<android.text.SpannableStringInternal: java.lang.Object[] mSpans>"},{"step":15,"from":"1093498320","to":"1093668608","type":"load","field":"<android.text.SpannableStringInternal: int[] mSpanData>"},{"step":16,"from":"1093498320","to":"1093498320.<android.text.SpannableStringInternal: int mSpanCount>","type":"load","field":"<android.text.SpannableStringInternal: int mSpanCount>"},{"step":17,"from":"1093498320","to":"1093835088","type":"load","field":"<android.text.SpannableStringInternal: java.lang.Object[] mSpans>"},{"step":18,"from":"1093498320","to":"1093668608","type":"load","field":"<android.text.SpannableStringInternal: int[] mSpanData>"},{"step":19,"from":"1084853880","to":"sdaReg57","type":"model"},{"step":20,"from":"static.<com.android.internal.util.ArrayUtils: java.lang.Object[] sCache>","to":"1084375760","type":"load","field":"<com.android.internal.util.ArrayUtils: java.lang.Object[] sCache>"},{"step":21,"from":"static.<com.android.internal.util.ArrayUtils: java.lang.Object[] sCache>","to":"1084375760","type":"load","field":"<com.android.internal.util.ArrayUtils: java.lang.Object[] sCache>"},{"step":22,"from":"1084375760","to":"1093993560","type":"create","field":"arrayIdx_int:37"},{"step":23,"from":"1093498320","to":"1093498320.<android.text.SpannableStringInternal: int mSpanCount>","type":"load","field":"<android.text.SpannableStringInternal: int mSpanCount>"},{"step":24,"from":"1093498320","to":"1093835088","type":"load","field":"<android.text.SpannableStringInternal: java.lang.Object[] mSpans>"},{"step":25,"from":"1093498320","to":"1093668608","type":"load","field":"<android.text.SpannableStringInternal: int[] mSpanData>"},{"step":26,"from":"1093498320","to":"1093498320.<android.text.SpannableStringInternal: int mSpanCount>","type":"load","field":"<android.text.SpannableStringInternal: int mSpanCount>"},{"step":27,"from":"1093498320","to":"1093835088","type":"load","field":"<android.text.SpannableStringInternal: java.lang.Object[] mSpans>"},{"step":28,"from":"1093498320","to":"1093668608","type":"load","field":"<android.text.SpannableStringInternal: int[] mSpanData>"},{"step":29,"from":"1084661656","to":"sdaReg98","type":"model"},{"step":30,"from":"static.<com.android.internal.util.ArrayUtils: java.lang.Object[] sCache>","to":"1084375760","type":"load","field":"<com.android.internal.util.ArrayUtils: java.lang.Object[] sCache>"},{"step":31,"from":"static.<com.android.internal.util.ArrayUtils: java.lang.Object[] sCache>","to":"1084375760","type":"load","field":"<com.android.internal.util.ArrayUtils: java.lang.Object[] sCache>"},{"step":32,"from":"1084375760","to":"1093528904","type":"create","field":"arrayIdx_int:26"},{"step":33,"from":"1093498320","to":"1093498320.<android.text.SpannableStringInternal: java.lang.String mText>","type":"load","field":"<android.text.SpannableStringInternal: java.lang.String mText>"},{"step":34,"from":"1093498320.<android.text.SpannableStringInternal: java.lang.String mText>","to":"sdaReg116","type":"model"},{"step":35,"from":"sdaReg116","to":"1093514304","type":"model"},{"step":36,"from":"1093498320","to":"1093498320.<android.text.SpannableStringInternal: java.lang.String mText>","type":"load","field":"<android.text.SpannableStringInternal: java.lang.String mText>"},{"step":37,"from":"1093498320.<android.text.SpannableStringInternal: java.lang.String mText>","to":"sdaReg118","type":"model"},{"step":38,"from":"sdaReg118","to":"1093514304","type":"model"},{"step":39,"from":"1093498320","to":"1093498320.<android.text.SpannableStringInternal: java.lang.String mText>","type":"load","field":"<android.text.SpannableStringInternal: java.lang.String mText>"},{"step":40,"from":"1093498320.<android.text.SpannableStringInternal: java.lang.String mText>","to":"sdaReg120","type":"model"},{"step":41,"from":"sdaReg120","to":"1093514304","type":"model"},{"step":42,"from":"1093498320","to":"1093498320.<android.text.SpannableStringInternal: java.lang.String mText>","type":"load","field":"<android.text.SpannableStringInternal: java.lang.String mText>"},{"step":43,"from":"1093498320.<android.text.SpannableStringInternal: java.lang.String mText>","to":"sdaReg122","type":"model"},{"step":44,"from":"sdaReg122","to":"1093514304","type":"model"},{"step":45,"from":"1093498320","to":"1093498320.<android.text.SpannableStringInternal: java.lang.String mText>","type":"load","field":"<android.text.SpannableStringInternal: java.lang.String mText>"},{"step":46,"from":"1093498320.<android.text.SpannableStringInternal: java.lang.String mText>","to":"sdaReg124","type":"model"},{"step":47,"from":"sdaReg124","to":"1093514304","type":"model"},{"step":48,"from":"1093498320","to":"1093498320.<android.text.SpannableStringInternal: java.lang.String mText>","type":"load","field":"<android.text.SpannableStringInternal: java.lang.String mText>"},{"step":49,"from":"1093498320.<android.text.SpannableStringInternal: java.lang.String mText>","to":"sdaReg126","type":"model"},{"step":50,"from":"1093498320","to":"1093498320.<android.text.SpannableStringInternal: java.lang.String mText>","type":"load","field":"<android.text.SpannableStringInternal: java.lang.String mText>"},{"step":51,"from":"1093498320.<android.text.SpannableStringInternal: java.lang.String mText>","to":"sdaReg130","type":"model"},{"step":52,"from":"1093498320","to":"1093498320.<android.text.SpannableStringInternal: java.lang.String mText>","type":"load","field":"<android.text.SpannableStringInternal: java.lang.String mText>"},{"step":53,"from":"1093498320.<android.text.SpannableStringInternal: java.lang.String mText>","to":"sdaReg132","type":"model"},{"step":54,"from":"sdaReg132","to":"1093514304","type":"model"},{"step":55,"from":"1093498320","to":"1093498320.<android.text.SpannableStringInternal: java.lang.String mText>","type":"load","field":"<android.text.SpannableStringInternal: java.lang.String mText>"},{"step":56,"from":"1093498320.<android.text.SpannableStringInternal: java.lang.String mText>","to":"sdaReg134","type":"model"},{"step":57,"from":"sdaReg134","to":"1093514304","type":"model"},{"step":58,"from":"1093498320","to":"1093498320.<android.text.SpannableStringInternal: java.lang.String mText>","type":"load","field":"<android.text.SpannableStringInternal: java.lang.String mText>"},{"step":59,"from":"1093498320.<android.text.SpannableStringInternal: java.lang.String mText>","to":"sdaReg136","type":"model"},{"step":60,"from":"sdaReg136","to":"1093514304","type":"model"},{"step":61,"from":"1093498320","to":"1093498320.<android.text.SpannableStringInternal: java.lang.String mText>","type":"load","field":"<android.text.SpannableStringInternal: java.lang.String mText>"},{"step":62,"from":"1093498320.<android.text.SpannableStringInternal: java.lang.String mText>","to":"sdaReg138","type":"model"},{"step":63,"from":"sdaReg138","to":"1093514304","type":"model"},{"step":64,"from":"1093498320","to":"1093498320.<android.text.SpannableStringInternal: java.lang.String mText>","type":"load","field":"<android.text.SpannableStringInternal: java.lang.String mText>"},{"step":65,"from":"1093498320.<android.text.SpannableStringInternal: java.lang.String mText>","to":"sdaReg140","type":"model"},{"step":66,"from":"sdaReg140","to":"1093514304","type":"model"},{"step":67,"from":"sdaReg144","to":"1093514304","type":"model"},{"step":68,"from":"1093498320","to":"1093498320.<android.text.SpannableStringInternal: java.lang.String mText>","type":"load","field":"<android.text.SpannableStringInternal: java.lang.String mText>"},{"step":69,"from":"1093514304","to":"sdaReg151","type":"model"}],"parameters":[{"id":"1093498320","name":"arg#0","klass":"android.text.Spanned"}],"returns":[{"id":"sdaReg151","name":"return","klass":"string"}],"colors":{"heapLocToColor":{"sdaReg125":[0],"sdaReg126":[0, 18],"sdaReg129":[0],"sdaReg68":[9],"sdaReg69":[9],"sdaReg66":[9],"sdaReg67":[9],"sdaReg64":[9],"sdaReg65":[9],"sdaReg62":[9],"sdaReg63":[9],"sdaReg72":[1],"sdaReg14":[0],"sdaReg11":[0],"1093835088":[0],"1093498320.<android.text.SpannableStringInternal: int[] mSpanData>":[0],"sdaReg120":[0, 15],"sdaReg122":[0, 16],"sdaReg121":[0],"sdaReg124":[0, 17],"sdaReg16":[0],"sdaReg123":[0],"sdaReg116":[0, 13],"sdaReg117":[0],"sdaReg115":[0],"sdaReg118":[0, 14],"sdaReg119":[0],"sdaReg78":[2, 10],"sdaReg73":[0],"sdaReg74":[2, 10],"sdaReg75":[2, 10],"sdaReg81":[1],"sdaReg83":[2, 10],"1085268040":[5],"sdaReg82":[0],"sdaReg113":[0],"sdaReg112":[1],"sdaReg107":[12],"sdaReg108":[12],"sdaReg109":[12],"sdaReg103":[12],"sdaReg104":[12],"sdaReg105":[12],"sdaReg106":[12],"static.<com.android.internal.util.ArrayUtils: java.lang.Object[] sCache>":[5],"sdaReg86":[0],"sdaReg84":[0],"sdaReg89":[0],"sdaReg91":[0],"sdaReg100":[11],"sdaReg102":[12],"sdaReg101":[11],"1093514304":[1],"1093498320.<android.text.SpannableStringInternal: int mSpanCount>":[0],"sdaReg98":[11],"sdaReg99":[11],"sdaReg60":[8],"sdaReg61":[9],"1093993560":[9],"1093528904":[12],"sdaReg59":[8],"sdaReg58":[8],"sdaReg57":[8],"1093498320.<android.text.SpannableStringInternal: java.lang.Object[] mSpans>":[0],"sdaReg50":[0],"1084833288":[5, 6],"1093498320":[0],"sdaReg150":[25],"sdaReg151":[1, 26],"sdaReg48":[0],"sdaReg45":[0],"1084659448":[5, 6, 7],"1093668608":[0],"sdaReg41":[0],"sdaReg40":[1],"sdaReg43":[0],"sdaReg42":[2],"sdaReg149":[0],"1093498320.<android.text.SpannableStringInternal: java.lang.String mText>":[0],"sdaReg146":[9],"1084375760":[5],"sdaReg140":[0, 24],"sdaReg32":[5],"sdaReg31":[5],"sdaReg35":[5],"sdaReg34":[5],"sdaReg33":[5],"sdaReg8":[3],"sdaReg9":[0],"sdaReg6":[2],"sdaReg7":[0],"sdaReg4":[0],"sdaReg5":[2],"sdaReg139":[0],"sdaReg138":[0, 23],"sdaReg137":[0],"sdaReg136":[0, 22],"sdaReg134":[0, 21],"sdaReg27":[5, 6],"sdaReg135":[0],"sdaReg26":[4],"sdaReg132":[0, 20],"sdaReg133":[0],"sdaReg28":[5, 6, 7],"sdaReg130":[0, 19],"sdaReg131":[0],"sdaReg3":[0],"sdaReg2":[1],"sdaReg1":[1],"sdaReg0":[1],"sdaReg23":[4],"sdaReg25":[4],"sdaReg24":[4]},"colorToColor":{"0":[1],"1":[27],"9":[5],"12":[5],"13":[1],"14":[1],"15":[1],"17":[1],"16":[1],"21":[1],"20":[1],"23":[1],"22":[1],"24":[1],"26":[27]},"colorToLabel":{"0":"arg#0","5":"<com.android.internal.util.ArrayUtils: java.lang.Object[] sCache>","27":"return"}}}

Generated Model
	arg#0->return

