Scanning method <java.util.HashSet: boolean remove(java.lang.Object)>

All seen event types: BinaryOperationRecord, SimpleAssignmentRecord, MethodReturnRecord, MethodCallRecord, ArrayLengthRecord, MethodStartRecord, LoadInstanceRecord, LoadArrayRecord, MethodEndRecord, IfRecord, 
Ignored event types: IfRecord, 

JSON Encoded Analysis Data (for visualization):{"heapEdges":[{"step":0,"from":"1093525472","to":"1093523776","type":"load","field":"<java.util.HashSet: java.util.HashMap backingMap>"},{"step":1,"from":"1093523776","to":"1083997920","type":"load","field":"<java.util.HashMap: java.util.HashMap$HashMapEntry[] table>"}],"parameters":[{"id":"1093525472","name":"this","klass":"java.util.HashSet"},{"id":"1093843704","name":"arg#1","klass":"java.lang.Object"}],"returns":[{"id":"sdaReg16","name":"return","klass":"boolean"}],"colors":{"heapLocToColor":{"1093523776":[0],"sdaReg8":[2],"sdaReg9":[2],"sdaReg6":[2],"1093525472":[0],"sdaReg7":[2],"sdaReg4":[2],"sdaReg5":[2],"sdaReg13":[2],"sdaReg10":[2],"1093843704":[1],"sdaReg3":[2],"sdaReg2":[2],"1083997920":[0],"sdaReg1":[1],"sdaReg0":[0]},"colorToColor":{},"colorToLabel":{"0":"this","1":"arg#1","3":"return"}}}

Generated Model

