Scanning method <java.net.URLConnection: int getReadTimeout()>

All seen event types: LoadInstanceRecord, 
Ignored event types: 

JSON Encoded Analysis Data (for visualization):{"heapEdges":[{"step":0,"from":"1093388240","to":"1093388240.<java.net.URLConnection: int readTimeout>","type":"load","field":"<java.net.URLConnection: int readTimeout>"}],"parameters":[{"id":"1093388240","name":"this","klass":"java.net.URLConnection"}],"returns":[{"id":"1093388240.<java.net.URLConnection: int readTimeout>","name":"return","klass":"int"}],"colors":{"heapLocToColor":{"1093388240":[0],"1093388240.<java.net.URLConnection: int readTimeout>":[0]},"colorToColor":{"0":[1]},"colorToLabel":{"0":"this","1":"return"}}}

Generated Model
	this->return

