Scanning method <java.io.PrintWriter: void setError()>

All seen event types: SimpleAssignmentRecord, ExitMonitorRecord, EnterMonitorRecord, LoadInstanceRecord, StoreInstanceRecord, 
Ignored event types: ExitMonitorRecord, EnterMonitorRecord, 

JSON Encoded Analysis Data (for visualization):{"heapEdges":[{"step":0,"from":"1093692904","to":"1093701048","type":"load","field":"<java.io.Writer: java.lang.Object lock>"},{"step":1,"from":"1093692904","to":"sdaReg1","type":"create","field":"<java.io.PrintWriter: boolean ioError>"}],"parameters":[{"id":"1093692904","name":"this","klass":"java.io.PrintWriter"}],"returns":[{"id":null,"name":"return","klass":null}],"colors":{"heapLocToColor":{"1093701048":[0],"1093692904":[0]},"colorToColor":{},"colorToLabel":{"0":"this","1":"return"}}}

Generated Model

