Scanning method <java.io.ObjectInputStream: void checkReadPrimitiveTypes()>

All seen event types: SimpleAssignmentRecord, LoadInstanceRecord, MethodStartRecord, IfRecord, StoreInstanceRecord, NewObjectRecord, NewArrayRecord, BinaryOperationRecord, MethodCallRecord, MethodReturnRecord, SwitchRecord, ArrayLengthRecord, CastRecord, LoadArrayRecord, MethodEndRecord, 
Ignored event types: SwitchRecord, IfRecord, 

JSON Encoded Analysis Data (for visualization):{"heapEdges":[{"step":0,"from":"1093522368","to":"1093363240","type":"load","field":"<java.io.ObjectInputStream: java.io.InputStream primitiveData>"},{"step":1,"from":"1093522368","to":"1093590232","type":"load","field":"<java.io.ObjectInputStream: java.io.DataInputStream input>"},{"step":2,"from":"1093522368","to":"1093363240","type":"load","field":"<java.io.ObjectInputStream: java.io.InputStream primitiveData>"},{"step":3,"from":"1093363240","to":"1093363240.<java.io.ByteArrayInputStream: int count>","type":"load","field":"<java.io.ByteArrayInputStream: int count>"},{"step":4,"from":"1093363240","to":"1093363240.<java.io.ByteArrayInputStream: int pos>","type":"load","field":"<java.io.ByteArrayInputStream: int pos>"},{"step":5,"from":"1093522368","to":"1093522368.<java.io.ObjectInputStream: boolean hasPushbackTC>","type":"load","field":"<java.io.ObjectInputStream: boolean hasPushbackTC>"},{"step":6,"from":"1093522368","to":"1093590232","type":"load","field":"<java.io.ObjectInputStream: java.io.DataInputStream input>"},{"step":7,"from":"1093590232","to":"1093510520","type":"load","field":"<java.io.FilterInputStream: java.io.InputStream in>"},{"step":8,"from":"1093510520","to":"1093510520.<java.io.ByteArrayInputStream: int pos>","type":"load","field":"<java.io.ByteArrayInputStream: int pos>"},{"step":9,"from":"1093510520","to":"1093510520.<java.io.ByteArrayInputStream: int count>","type":"load","field":"<java.io.ByteArrayInputStream: int count>"},{"step":10,"from":"1093510520","to":"1093510552","type":"load","field":"<java.io.ByteArrayInputStream: byte[] buf>"},{"step":11,"from":"1093510520","to":"1093510520.<java.io.ByteArrayInputStream: int pos>","type":"load","field":"<java.io.ByteArrayInputStream: int pos>"},{"step":12,"from":"sdaReg5","to":"1093510520","type":"store","field":"<java.io.ByteArrayInputStream: int pos>"},{"step":13,"from":"1093510552","to":"1093510552.arrayIdx_int:4","type":"load","field":"arrayIdx_int:4"},{"step":14,"from":"sdaReg7","to":"1093522368","type":"store","field":"<java.io.ObjectInputStream: byte pushbackTC>"},{"step":15,"from":"1093522368","to":"1093590232","type":"load","field":"<java.io.ObjectInputStream: java.io.DataInputStream input>"},{"step":16,"from":"1093590232","to":"1093510520","type":"load","field":"<java.io.FilterInputStream: java.io.InputStream in>"},{"step":17,"from":"1093510520","to":"1093510520.<java.io.ByteArrayInputStream: int count>","type":"load","field":"<java.io.ByteArrayInputStream: int count>"},{"step":18,"from":"1093510520","to":"1093510552","type":"load","field":"<java.io.ByteArrayInputStream: byte[] buf>"},{"step":19,"from":"sdaReg11","to":"1093510520","type":"store","field":"<java.io.ByteArrayInputStream: int pos>"},{"step":20,"from":"1093510552","to":"1093510552.arrayIdx_int:5","type":"load","field":"arrayIdx_int:5"},{"step":21,"from":"1093522368","to":"1093590232","type":"load","field":"<java.io.ObjectInputStream: java.io.DataInputStream input>"},{"step":22,"from":"1093590232","to":"1093510520","type":"load","field":"<java.io.FilterInputStream: java.io.InputStream in>"},{"step":23,"from":"1093510520","to":"1093292216","type":"model"},{"step":24,"from":"1093295088","to":"sdaReg27","type":"create","field":"<java.io.ByteArrayInputStream: int mark>"},{"step":25,"from":"1093295088","to":"1093292216","type":"create","field":"<java.io.ByteArrayInputStream: byte[] buf>"},{"step":26,"from":"sdaReg28","to":"1093295088","type":"store","field":"<java.io.ByteArrayInputStream: int count>"},{"step":27,"from":"1093522368","to":"1093295088","type":"create","field":"<java.io.ObjectInputStream: java.io.InputStream primitiveData>"}],"parameters":[{"id":"1093522368","name":"this","klass":"java.io.ObjectInputStream"}],"returns":[{"id":null,"name":"return","klass":null}],"colors":{"heapLocToColor":{"1093510552":[0],"1093510520.<java.io.ByteArrayInputStream: int count>":[0],"sdaReg13":[0],"sdaReg14":[0],"sdaReg12":[0],"1093363240.<java.io.ByteArrayInputStream: int count>":[0],"1093590232.<java.io.FilterInputStream: java.io.InputStream in>":[0],"sdaReg10":[0],"sdaReg19":[2],"1093363240.<java.io.ByteArrayInputStream: int pos>":[0],"sdaReg18":[0],"sdaReg15":[0],"sdaReg16":[2],"1093522368.<java.io.ObjectInputStream: java.io.InputStream primitiveData>":[0],"sdaReg8":[0],"1093510520":[0],"1093522368.<java.io.ObjectInputStream: java.io.DataInputStream input>":[0],"sdaReg9":[0],"1093292216":[2],"sdaReg6":[0],"1093363240":[0],"sdaReg7":[0],"sdaReg4":[0],"sdaReg5":[0],"1093510520.<java.io.ByteArrayInputStream: byte[] buf>":[0],"1093522368":[0],"1093295088":[1],"1093510552.arrayIdx_int:4":[0],"sdaReg26":[1],"sdaReg29":[1],"1093510552.arrayIdx_int:5":[0],"1093590232":[0],"sdaReg3":[0],"sdaReg21":[2],"sdaReg1":[0],"sdaReg0":[0],"1093510520.<java.io.ByteArrayInputStream: int pos>":[0],"sdaReg23":[2],"sdaReg22":[1],"sdaReg25":[1],"sdaReg24":[1],"1093522368.<java.io.ObjectInputStream: boolean hasPushbackTC>":[0]},"colorToColor":{"0":[0, 2],"1":[0],"2":[1]},"colorToLabel":{"0":"this","3":"return"}}}

Generated Model

