Scanning method <java.io.PrintWriter: java.io.PrintWriter format(java.util.Locale,java.lang.String,java.lang.Object[])>

All seen event types: SimpleAssignmentRecord, ExitMonitorRecord, MethodStartRecord, LoadInstanceRecord, IfRecord, InstanceOfRecord, NewObjectRecord, StoreInstanceRecord, LoadStaticRecord, BinaryOperationRecord, SwitchRecord, MethodCallRecord, MethodReturnRecord, EnterMonitorRecord, CastRecord, ArrayLengthRecord, LoadArrayRecord, MethodEndRecord, 
Ignored event types: SwitchRecord, ExitMonitorRecord, EnterMonitorRecord, IfRecord, 

JSON Encoded Analysis Data (for visualization):{"heapEdges":[{"step":0,"from":"1093664736","to":"sdaReg5","type":"create","field":"<java.util.Formatter: boolean closed>"},{"step":1,"from":"1093654752","to":"1093664736","type":"store","field":"<java.util.Formatter: java.lang.Appendable out>"},{"step":2,"from":"1084317688","to":"1093664736","type":"store","field":"<java.util.Formatter: java.util.Locale locale>"},{"step":3,"from":"1084317688","to":"1093664736","type":"store","field":"<java.util.Formatter: java.util.Locale locale>"},{"step":4,"from":"1084317688","to":"1084317688.<java.util.Locale: java.lang.String cachedToStringResult>","type":"load","field":"<java.util.Locale: java.lang.String cachedToStringResult>"},{"step":5,"from":"static.<libcore.icu.LocaleData: java.util.HashMap localeDataCache>","to":"1085803528","type":"load","field":"<libcore.icu.LocaleData: java.util.HashMap localeDataCache>"},{"step":6,"from":"static.<libcore.icu.LocaleData: java.util.HashMap localeDataCache>","to":"1085803528","type":"load","field":"<libcore.icu.LocaleData: java.util.HashMap localeDataCache>"},{"step":7,"from":"1085803528","to":"1085760672","type":"load","field":"<java.util.HashMap: java.util.HashMap$HashMapEntry[] table>"},{"step":8,"from":"1085760672","to":"1085767472","type":"load","field":"arrayIdx_int:0"},{"step":9,"from":"1085767472","to":"1085760768","type":"load","field":"<java.util.HashMap$HashMapEntry: java.lang.Object key>"},{"step":10,"from":"1085767472","to":"1085769600","type":"load","field":"<java.util.HashMap$HashMapEntry: java.lang.Object value>"},{"step":11,"from":"1085769600","to":"1093664736","type":"store","field":"<java.util.Formatter: libcore.icu.LocaleData localeData>"},{"step":12,"from":"sdaReg0","to":"1093252456","type":"store","field":"<java.util.Formatter$FormatSpecifierParser: java.lang.String format>"},{"step":13,"from":"sdaReg38","to":"1093252456","type":"store","field":"<java.util.Formatter$FormatSpecifierParser: int length>"},{"step":14,"from":"sdaReg50","to":"1093252456","type":"store","field":"<java.util.Formatter$FormatSpecifierParser: int startIndex>"},{"step":15,"from":"sdaReg50","to":"1093252456","type":"store","field":"<java.util.Formatter$FormatSpecifierParser: int i>"},{"step":16,"from":"1093242720","to":"sdaReg55","type":"create","field":"<java.util.Formatter$FormatToken: int argIndex>"},{"step":17,"from":"1093242720","to":"sdaReg56","type":"create","field":"<java.util.Formatter$FormatToken: char conversionType>"},{"step":18,"from":"1093242720","to":"sdaReg57","type":"create","field":"<java.util.Formatter$FormatToken: int precision>"},{"step":19,"from":"1093242720","to":"sdaReg58","type":"create","field":"<java.util.Formatter$FormatToken: int width>"},{"step":20,"from":"sdaReg77","to":"1093252456","type":"store","field":"<java.util.Formatter$FormatSpecifierParser: int i>"},{"step":21,"from":"sdaReg78","to":"1093242720","type":"store","field":"<java.util.Formatter$FormatToken: char conversionType>"},{"step":22,"from":"1093262128","to":"1093262160","type":"load","field":"arrayIdx_int:0"},{"step":23,"from":"1093664736","to":"1093242720","type":"create","field":"<java.util.Formatter: java.util.Formatter$FormatToken formatToken>"},{"step":24,"from":"1093262160","to":"1093664736","type":"store","field":"<java.util.Formatter: java.lang.Object arg>"},{"step":25,"from":"1093242720","to":"1093242720.<java.util.Formatter$FormatToken: boolean flagComma>","type":"load","field":"<java.util.Formatter$FormatToken: boolean flagComma>"},{"step":26,"from":"1093242720","to":"1093242720.<java.util.Formatter$FormatToken: boolean flagMinus>","type":"load","field":"<java.util.Formatter$FormatToken: boolean flagMinus>"},{"step":27,"from":"1093242720","to":"1093242720.<java.util.Formatter$FormatToken: boolean flagParenthesis>","type":"load","field":"<java.util.Formatter$FormatToken: boolean flagParenthesis>"},{"step":28,"from":"1093242720","to":"1093242720.<java.util.Formatter$FormatToken: boolean flagPlus>","type":"load","field":"<java.util.Formatter$FormatToken: boolean flagPlus>"},{"step":29,"from":"1093242720","to":"1093242720.<java.util.Formatter$FormatToken: boolean flagSharp>","type":"load","field":"<java.util.Formatter$FormatToken: boolean flagSharp>"},{"step":30,"from":"1093242720","to":"1093242720.<java.util.Formatter$FormatToken: boolean flagSpace>","type":"load","field":"<java.util.Formatter$FormatToken: boolean flagSpace>"},{"step":31,"from":"1093242720","to":"1093242720.<java.util.Formatter$FormatToken: boolean flagZero>","type":"load","field":"<java.util.Formatter$FormatToken: boolean flagZero>"},{"step":32,"from":"1093262160","to":"sdaReg104","type":"model"},{"step":33,"from":"1093262160","to":"sdaReg115","type":"model"},{"step":34,"from":"sdaReg115","to":"sdaReg120","type":"model"},{"step":35,"from":"sdaReg120","to":"1093367152","type":"model"},{"step":36,"from":"1093654752","to":"1093654784","type":"load","field":"<java.io.Writer: java.lang.Object lock>"},{"step":37,"from":"1093654752","to":"1093654784","type":"load","field":"<java.io.PrintWriter: java.io.Writer out>"},{"step":38,"from":"1093654752","to":"1093654784","type":"load","field":"<java.io.PrintWriter: java.io.Writer out>"},{"step":39,"from":"1093654784","to":"1093654576","type":"load","field":"<java.io.Writer: java.lang.Object lock>"},{"step":40,"from":"1093654784","to":"1093663336","type":"load","field":"<java.io.OutputStreamWriter: java.nio.charset.CharsetEncoder encoder>"},{"step":41,"from":"1093295752","to":"sdaReg154","type":"create","field":"<java.nio.Buffer: int mark>"},{"step":42,"from":"1093295752","to":"sdaReg155","type":"create","field":"<java.nio.Buffer: int position>"},{"step":43,"from":"1093295752","to":"sdaReg152","type":"create","field":"<java.nio.Buffer: int _elementSizeShift>"},{"step":44,"from":"sdaReg146","to":"1093295752","type":"store","field":"<java.nio.Buffer: int limit>"},{"step":45,"from":"sdaReg146","to":"1093295752","type":"store","field":"<java.nio.Buffer: int capacity>"},{"step":46,"from":"1093295752","to":"1093367152","type":"create","field":"<java.nio.CharArrayBuffer: char[] backingArray>"},{"step":47,"from":"1093295752","to":"sdaReg149","type":"create","field":"<java.nio.CharArrayBuffer: int offset>"},{"step":48,"from":"1093295752","to":"sdaReg127","type":"create","field":"<java.nio.Buffer: int position>"},{"step":49,"from":"sdaReg162","to":"1093295752","type":"store","field":"<java.nio.Buffer: int limit>"},{"step":50,"from":"1093654784","to":"1093663336","type":"load","field":"<java.io.OutputStreamWriter: java.nio.charset.CharsetEncoder encoder>"},{"step":51,"from":"1093654784","to":"1093654816","type":"load","field":"<java.io.OutputStreamWriter: java.nio.ByteBuffer bytes>"},{"step":52,"from":"1093663336","to":"1093295752","type":"model"},{"step":53,"from":"1093663336","to":"1093654816","type":"model"},{"step":54,"from":"1093663336","to":"1084215096","type":"model"},{"step":55,"from":"1093295752","to":"1093663336","type":"model"},{"step":56,"from":"1093295752","to":"1093654816","type":"model"},{"step":57,"from":"1093295752","to":"1084215096","type":"model"},{"step":58,"from":"1093654816","to":"1093663336","type":"model"},{"step":59,"from":"1093654816","to":"1093295752","type":"model"},{"step":60,"from":"1093654816","to":"1084215096","type":"model"},{"step":61,"from":"1084215096","to":"1084215096.<java.nio.charset.CoderResult: int type>","type":"load","field":"<java.nio.charset.CoderResult: int type>"},{"step":62,"from":"1084215096","to":"1084215096.<java.nio.charset.CoderResult: int type>","type":"load","field":"<java.nio.charset.CoderResult: int type>"},{"step":63,"from":"1084215096","to":"1084215096.<java.nio.charset.CoderResult: int type>","type":"load","field":"<java.nio.charset.CoderResult: int type>"},{"step":64,"from":"1093664736","to":"sdaReg0","type":"model"},{"step":65,"from":"1093664736","to":"sdaReg46","type":"model"},{"step":66,"from":"1093664736","to":"sdaReg49","type":"model"},{"step":67,"from":"sdaReg0","to":"1093664736","type":"model"},{"step":68,"from":"sdaReg0","to":"sdaReg46","type":"model"},{"step":69,"from":"sdaReg0","to":"sdaReg49","type":"model"},{"step":70,"from":"sdaReg46","to":"1093664736","type":"model"},{"step":71,"from":"sdaReg46","to":"sdaReg0","type":"model"},{"step":72,"from":"sdaReg46","to":"sdaReg49","type":"model"},{"step":73,"from":"sdaReg49","to":"1093664736","type":"model"},{"step":74,"from":"sdaReg49","to":"sdaReg0","type":"model"},{"step":75,"from":"sdaReg49","to":"sdaReg46","type":"model"},{"step":76,"from":"sdaReg50","to":"1093252456","type":"store","field":"<java.util.Formatter$FormatSpecifierParser: int startIndex>"},{"step":77,"from":"sdaReg50","to":"1093252456","type":"store","field":"<java.util.Formatter$FormatSpecifierParser: int i>"},{"step":78,"from":"1093664592","to":"sdaReg179","type":"create","field":"<java.util.Formatter$FormatToken: int argIndex>"},{"step":79,"from":"1093664592","to":"sdaReg180","type":"create","field":"<java.util.Formatter$FormatToken: char conversionType>"},{"step":80,"from":"1093664592","to":"sdaReg181","type":"create","field":"<java.util.Formatter$FormatToken: int precision>"},{"step":81,"from":"1093664592","to":"sdaReg182","type":"create","field":"<java.util.Formatter$FormatToken: int width>"},{"step":82,"from":"sdaReg201","to":"1093252456","type":"store","field":"<java.util.Formatter$FormatSpecifierParser: int i>"},{"step":83,"from":"sdaReg202","to":"1093664592","type":"store","field":"<java.util.Formatter$FormatToken: char conversionType>"},{"step":84,"from":"1093262128","to":"1093674912","type":"load","field":"arrayIdx_int:1"},{"step":85,"from":"1093664736","to":"1093664592","type":"create","field":"<java.util.Formatter: java.util.Formatter$FormatToken formatToken>"},{"step":86,"from":"1093674912","to":"1093664736","type":"store","field":"<java.util.Formatter: java.lang.Object arg>"},{"step":87,"from":"1093664592","to":"1093664592.<java.util.Formatter$FormatToken: boolean flagComma>","type":"load","field":"<java.util.Formatter$FormatToken: boolean flagComma>"},{"step":88,"from":"1093664592","to":"1093664592.<java.util.Formatter$FormatToken: boolean flagMinus>","type":"load","field":"<java.util.Formatter$FormatToken: boolean flagMinus>"},{"step":89,"from":"1093664592","to":"1093664592.<java.util.Formatter$FormatToken: boolean flagParenthesis>","type":"load","field":"<java.util.Formatter$FormatToken: boolean flagParenthesis>"},{"step":90,"from":"1093664592","to":"1093664592.<java.util.Formatter$FormatToken: boolean flagPlus>","type":"load","field":"<java.util.Formatter$FormatToken: boolean flagPlus>"},{"step":91,"from":"1093664592","to":"1093664592.<java.util.Formatter$FormatToken: boolean flagSharp>","type":"load","field":"<java.util.Formatter$FormatToken: boolean flagSharp>"},{"step":92,"from":"1093664592","to":"1093664592.<java.util.Formatter$FormatToken: boolean flagSpace>","type":"load","field":"<java.util.Formatter$FormatToken: boolean flagSpace>"},{"step":93,"from":"1093664592","to":"1093664592.<java.util.Formatter$FormatToken: boolean flagZero>","type":"load","field":"<java.util.Formatter$FormatToken: boolean flagZero>"},{"step":94,"from":"1093674912","to":"sdaReg225","type":"model"},{"step":95,"from":"1093674912","to":"sdaReg236","type":"model"},{"step":96,"from":"sdaReg236","to":"sdaReg241","type":"model"},{"step":97,"from":"sdaReg241","to":"1093253536","type":"model"},{"step":98,"from":"1093654752","to":"1093654784","type":"load","field":"<java.io.Writer: java.lang.Object lock>"},{"step":99,"from":"1093654752","to":"1093654784","type":"load","field":"<java.io.PrintWriter: java.io.Writer out>"},{"step":100,"from":"1093654752","to":"1093654784","type":"load","field":"<java.io.PrintWriter: java.io.Writer out>"},{"step":101,"from":"1093654784","to":"1093654576","type":"load","field":"<java.io.Writer: java.lang.Object lock>"},{"step":102,"from":"1093654784","to":"1093663336","type":"load","field":"<java.io.OutputStreamWriter: java.nio.charset.CharsetEncoder encoder>"},{"step":103,"from":"1093305984","to":"sdaReg275","type":"create","field":"<java.nio.Buffer: int mark>"},{"step":104,"from":"1093305984","to":"sdaReg276","type":"create","field":"<java.nio.Buffer: int position>"},{"step":105,"from":"1093305984","to":"sdaReg273","type":"create","field":"<java.nio.Buffer: int _elementSizeShift>"},{"step":106,"from":"sdaReg267","to":"1093305984","type":"store","field":"<java.nio.Buffer: int limit>"},{"step":107,"from":"sdaReg267","to":"1093305984","type":"store","field":"<java.nio.Buffer: int capacity>"},{"step":108,"from":"1093305984","to":"1093253536","type":"create","field":"<java.nio.CharArrayBuffer: char[] backingArray>"},{"step":109,"from":"1093305984","to":"sdaReg270","type":"create","field":"<java.nio.CharArrayBuffer: int offset>"},{"step":110,"from":"1093305984","to":"sdaReg248","type":"create","field":"<java.nio.Buffer: int position>"},{"step":111,"from":"sdaReg283","to":"1093305984","type":"store","field":"<java.nio.Buffer: int limit>"},{"step":112,"from":"1093654784","to":"1093663336","type":"load","field":"<java.io.OutputStreamWriter: java.nio.charset.CharsetEncoder encoder>"},{"step":113,"from":"1093654784","to":"1093654816","type":"load","field":"<java.io.OutputStreamWriter: java.nio.ByteBuffer bytes>"},{"step":114,"from":"1093663336","to":"1093305984","type":"model"},{"step":115,"from":"1093663336","to":"1093654816","type":"model"},{"step":116,"from":"1093663336","to":"1084215096","type":"model"},{"step":117,"from":"1093305984","to":"1093663336","type":"model"},{"step":118,"from":"1093305984","to":"1093654816","type":"model"},{"step":119,"from":"1093305984","to":"1084215096","type":"model"},{"step":120,"from":"1093654816","to":"1093663336","type":"model"},{"step":121,"from":"1093654816","to":"1093305984","type":"model"},{"step":122,"from":"1093654816","to":"1084215096","type":"model"},{"step":123,"from":"1084215096","to":"1084215096.<java.nio.charset.CoderResult: int type>","type":"load","field":"<java.nio.charset.CoderResult: int type>"},{"step":124,"from":"1084215096","to":"1084215096.<java.nio.charset.CoderResult: int type>","type":"load","field":"<java.nio.charset.CoderResult: int type>"},{"step":125,"from":"1084215096","to":"1084215096.<java.nio.charset.CoderResult: int type>","type":"load","field":"<java.nio.charset.CoderResult: int type>"},{"step":126,"from":"1084317688","to":"1093664736","type":"store","field":"<java.util.Formatter: java.util.Locale locale>"},{"step":127,"from":"1093654752","to":"1093654752.<java.io.PrintWriter: boolean autoFlush>","type":"load","field":"<java.io.PrintWriter: boolean autoFlush>"}],"parameters":[{"id":"1093654752","name":"this","klass":"java.io.PrintWriter"},{"id":"1084317688","name":"arg#1","klass":"java.util.Locale"},{"id":"sdaReg0","name":"arg#2","klass":"string"},{"id":"1093262128","name":"arg#3","klass":"java.lang.Object[]"}],"returns":[{"id":"1093654752","name":"return","klass":"java.io.PrintWriter"}],"colors":{"heapLocToColor":{"sdaReg191":[30],"sdaReg293":[7],"sdaReg190":[7],"1093654816":[0],"sdaReg295":[4],"sdaReg192":[27],"1093262128":[3],"sdaReg199":[27],"sdaReg198":[7],"sdaReg290":[0, 25],"sdaReg195":[7],"sdaReg292":[0],"sdaReg197":[32],"sdaReg196":[31],"sdaReg13":[1],"sdaReg14":[1],"sdaReg11":[3],"sdaReg12":[1],"sdaReg10":[1],"sdaReg19":[6],"1093664592.<java.util.Formatter$FormatToken: boolean flagParenthesis>":[27],"sdaReg17":[5],"sdaReg18":[6],"sdaReg15":[1],"sdaReg16":[5],"1093305984":[0, 40],"1093242720.<java.util.Formatter$FormatToken: boolean flagMinus>":[11],"1093664592.<java.util.Formatter$FormatToken: boolean flagZero>":[27],"1093664592.<java.util.Formatter$FormatToken: boolean flagSharp>":[27],"sdaReg171":[0],"sdaReg173":[4, 10, 26],"sdaReg172":[7],"sdaReg175":[7],"sdaReg174":[26],"sdaReg177":[27],"1093654576":[0],"sdaReg176":[27],"sdaReg178":[27],"static.<libcore.icu.LocaleData: java.util.HashMap localeDataCache>":[5],"1093664592.<java.util.Formatter$FormatToken: boolean flagSpace>":[27],"1093295752":[0, 24],"1093242720.<java.util.Formatter$FormatToken: boolean flagParenthesis>":[11],"sdaReg186":[27],"sdaReg185":[7],"sdaReg184":[27],"sdaReg183":[27],"sdaReg189":[29],"sdaReg188":[28],"sdaReg187":[7],"sdaReg60":[11],"sdaReg61":[7],"1093242720.<java.util.Formatter$FormatToken: boolean flagPlus>":[11],"sdaReg59":[11],"1093367152":[3, 20, 23, 22],"sdaReg54":[11],"sdaReg53":[11],"sdaReg52":[11],"sdaReg51":[7],"sdaReg50":[4, 10, 26],"1084317688":[1],"sdaReg49":[4, 10, 26],"sdaReg48":[10, 26],"sdaReg45":[10],"sdaReg44":[9],"sdaReg47":[10],"sdaReg46":[4],"sdaReg40":[7],"sdaReg42":[3],"sdaReg200":[7],"sdaReg205":[27],"sdaReg39":[7],"sdaReg204":[27],"sdaReg38":[8],"sdaReg203":[27],"sdaReg37":[7],"sdaReg202":[33],"sdaReg209":[27],"sdaReg207":[27],"sdaReg206":[27],"sdaReg32":[5],"sdaReg31":[5],"sdaReg30":[5],"1084215096.<java.nio.charset.CoderResult: int type>":[0, 25],"sdaReg36":[7],"sdaReg35":[4],"sdaReg34":[3],"sdaReg33":[4],"sdaReg8":[3],"sdaReg9":[4],"sdaReg6":[4],"sdaReg7":[4],"sdaReg4":[4],"1093674912":[3],"1093663336":[0],"1093654784.<java.io.Writer: java.lang.Object lock>":[0],"sdaReg26":[6],"sdaReg29":[6],"sdaReg3":[1],"sdaReg2":[0],"sdaReg1":[4],"sdaReg21":[6],"sdaReg0":[2, 4],"sdaReg20":[6],"sdaReg23":[6],"sdaReg22":[6],"sdaReg25":[6],"sdaReg24":[6],"1093242720.<java.util.Formatter$FormatToken: boolean flagSharp>":[11],"sdaReg125":[0],"sdaReg126":[3, 20, 23, 22],"1093242720.<java.util.Formatter$FormatToken: boolean flagComma>":[11],"sdaReg128":[0],"sdaReg129":[3, 20, 23, 22],"sdaReg228":[4],"sdaReg68":[11],"sdaReg229":[3],"sdaReg66":[7],"sdaReg67":[14],"sdaReg64":[12],"sdaReg225":[34, 3],"sdaReg65":[13],"sdaReg226":[3],"sdaReg62":[11],"sdaReg227":[35],"sdaReg63":[7],"sdaReg72":[15],"sdaReg220":[27],"sdaReg71":[7],"1093664592.<java.util.Formatter$FormatToken: boolean flagMinus>":[27],"sdaReg222":[27],"sdaReg120":[3, 20, 22],"sdaReg122":[0],"sdaReg121":[3, 20, 23, 22],"sdaReg123":[3, 20, 23, 22],"sdaReg116":[21],"sdaReg117":[0],"sdaReg114":[3],"sdaReg115":[3, 20],"sdaReg119":[21],"sdaReg219":[3],"sdaReg78":[17],"sdaReg217":[4],"sdaReg79":[11],"sdaReg218":[27],"sdaReg73":[16],"1093654784.<java.io.OutputStreamWriter: java.nio.ByteBuffer bytes>":[0],"sdaReg216":[3],"sdaReg74":[7],"sdaReg213":[7],"sdaReg75":[11],"sdaReg214":[3],"sdaReg76":[7],"sdaReg212":[3],"sdaReg81":[11],"sdaReg80":[11],"sdaReg211":[4],"sdaReg82":[11],"1084215096":[0, 25],"sdaReg113":[3],"sdaReg112":[0],"sdaReg111":[3],"sdaReg110":[0],"sdaReg107":[4],"sdaReg108":[3],"1085760672":[5],"sdaReg104":[3, 18],"sdaReg105":[3],"sdaReg106":[19],"sdaReg246":[0],"1093664592.<java.util.Formatter$FormatToken: boolean flagComma>":[27],"sdaReg86":[11],"sdaReg247":[3, 38, 39, 36],"sdaReg84":[11],"sdaReg249":[0],"1093654752.<java.io.Writer: java.lang.Object lock>":[0],"sdaReg90":[4],"sdaReg241":[3, 38, 36],"sdaReg240":[37],"sdaReg243":[0],"sdaReg242":[3, 38, 39, 36],"sdaReg92":[7],"1093252456":[7],"sdaReg244":[3, 38, 39, 36],"sdaReg91":[3],"sdaReg101":[11],"1093664592.<java.util.Formatter$FormatToken: boolean flagPlus>":[27],"1093664592":[27],"1085767472":[5],"sdaReg237":[37],"sdaReg95":[3],"sdaReg238":[0],"sdaReg96":[4],"sdaReg235":[3],"sdaReg97":[11],"sdaReg236":[3, 36],"sdaReg98":[3],"1093654784":[0],"sdaReg99":[11],"1093654784.<java.io.OutputStreamWriter: java.nio.charset.CharsetEncoder encoder>":[0],"sdaReg234":[3],"sdaReg233":[0],"sdaReg232":[3],"sdaReg231":[0],"1085760768":[5],"sdaReg269":[3, 38, 39, 36],"sdaReg268":[40],"sdaReg169":[0, 25],"1093654752":[0],"sdaReg161":[24],"sdaReg163":[24],"sdaReg164":[0],"sdaReg165":[24],"sdaReg166":[0, 25],"sdaReg167":[0, 25],"1093654752.<java.io.PrintWriter: boolean autoFlush>":[0],"sdaReg264":[3, 38, 39, 36],"sdaReg265":[40],"sdaReg266":[3, 38, 39, 36],"sdaReg263":[40],"sdaReg160":[24],"sdaReg259":[3, 38, 39, 36],"sdaReg159":[24],"sdaReg158":[24],"sdaReg153":[24],"sdaReg150":[24],"sdaReg151":[24],"sdaReg156":[24],"sdaReg157":[24],"sdaReg255":[0],"sdaReg253":[3, 38, 39, 36],"sdaReg254":[0],"sdaReg251":[0],"sdaReg252":[0],"sdaReg250":[3, 38, 39, 36],"sdaReg148":[3, 20, 23, 22],"sdaReg147":[24],"1093664736":[4],"sdaReg143":[3, 20, 23, 22],"sdaReg144":[24],"sdaReg145":[3, 20, 23, 22],"sdaReg280":[40],"sdaReg281":[40],"sdaReg142":[24],"sdaReg282":[40],"sdaReg284":[40],"sdaReg285":[0],"sdaReg286":[40],"sdaReg287":[0, 25],"sdaReg288":[0, 25],"1093242720.<java.util.Formatter$FormatToken: boolean flagSpace>":[11],"1093242720":[11],"1093242720.<java.util.Formatter$FormatToken: boolean flagZero>":[11],"1093253536":[3, 38, 39, 36],"sdaReg279":[40],"1085803528":[5],"sdaReg138":[3, 20, 23, 22],"1093262160":[3],"sdaReg134":[0],"1093654752.<java.io.PrintWriter: java.io.Writer out>":[0],"sdaReg132":[3, 20, 23, 22],"sdaReg131":[0],"1085769600":[5],"sdaReg274":[40],"1084317688.<java.util.Locale: java.lang.String cachedToStringResult>":[1],"sdaReg271":[40],"sdaReg272":[40],"sdaReg277":[40],"sdaReg278":[40]},"colorToColor":{"0":[0, 4, 25, 24, 40, 41],"1":[4],"2":[4, 7, 10, 26],"33":[27],"3":[4, 24, 40],"38":[40],"4":[2, 4, 7, 10, 26],"39":[40],"5":[4],"36":[40],"8":[7],"40":[0, 25],"10":[2, 4, 7],"11":[4],"17":[11],"20":[24],"23":[24],"22":[24],"24":[0, 25],"27":[4],"26":[2, 4, 7]},"colorToLabel":{"0":"this","1":"arg#1","2":"arg#2","3":"arg#3","5":"<libcore.icu.LocaleData: java.util.HashMap localeDataCache>","41":"return"}}}

Generated Model
	this->return
	this->arg#2
	arg#3->this
	arg#3->return
	arg#3->arg#2
	arg#1->arg#2

