Scanning method <java.nio.ByteBuffer: byte[] array()>

All seen event types: MethodReturnRecord, MethodCallRecord, LoadInstanceRecord, MethodStartRecord, MethodEndRecord, 
Ignored event types: 

JSON Encoded Analysis Data (for visualization):{"heapEdges":[{"step":0,"from":"1093639688","to":"1093490504","type":"load","field":"<java.nio.HeapByteBuffer: byte[] backingArray>"}],"parameters":[{"id":"1093639688","name":"this","klass":"java.nio.ByteBuffer"}],"returns":[{"id":"1093490504","name":"return","klass":"byte[]"}],"colors":{"heapLocToColor":{"1093639688":[0],"sdaReg1":[0],"sdaReg0":[0],"1093490504":[0]},"colorToColor":{"0":[1]},"colorToLabel":{"0":"this","1":"return"}}}

Generated Model
	this->return

