Scanning method <java.net.InetSocketAddress: int getPort()>

All seen event types: LoadInstanceRecord, 
Ignored event types: 

JSON Encoded Analysis Data (for visualization):{"heapEdges":[{"step":0,"from":"1093690656","to":"1093690656.<java.net.InetSocketAddress: int port>","type":"load","field":"<java.net.InetSocketAddress: int port>"}],"parameters":[{"id":"1093690656","name":"this","klass":"java.net.InetSocketAddress"}],"returns":[{"id":"1093690656.<java.net.InetSocketAddress: int port>","name":"return","klass":"int"}],"colors":{"heapLocToColor":{"1093690656.<java.net.InetSocketAddress: int port>":[0],"1093690656":[0]},"colorToColor":{"0":[1]},"colorToLabel":{"0":"this","1":"return"}}}

Generated Model
	this->return

