Scanning method <java.io.RandomAccessFile: void <init>(java.lang.String,java.lang.String)>

All seen event types: LoadStaticRecord, NewArrayRecord, MethodReturnRecord, MethodCallRecord, LoadInstanceRecord, MethodStartRecord, MethodEndRecord, IfRecord, StoreInstanceRecord, NewObjectRecord, 
Ignored event types: IfRecord, 

JSON Encoded Analysis Data (for visualization):{"heapEdges":[{"step":0,"from":"1093482792","to":"sdaReg0","type":"model"},{"step":1,"from":"sdaReg0","to":"1093482792","type":"model"},{"step":2,"from":"sdaReg0","to":"1093482792","type":"model"},{"step":3,"from":"1093335552","to":"sdaReg6","type":"create","field":"<java.io.RandomAccessFile: boolean syncMetadata>"},{"step":4,"from":"1093335552","to":"1083966016","type":"create","field":"<java.io.RandomAccessFile: dalvik.system.CloseGuard guard>"},{"step":5,"from":"1093335552","to":"1093302432","type":"create","field":"<java.io.RandomAccessFile: byte[] scratch>"},{"step":6,"from":"static.<libcore.io.OsConstants: int O_RDONLY>","to":"static.<libcore.io.OsConstants: int O_RDONLY>","type":"load","field":"<libcore.io.OsConstants: int O_RDONLY>"},{"step":7,"from":"static.<libcore.io.OsConstants: int O_RDONLY>","to":"1093335552","type":"store","field":"<java.io.RandomAccessFile: int mode>"},{"step":8,"from":"1093482792","to":"sdaReg9","type":"model"},{"step":9,"from":"sdaReg9","to":"1093299528","type":"model"},{"step":10,"from":"1093335552","to":"1093299528","type":"create","field":"<java.io.RandomAccessFile: java.io.FileDescriptor fd>"}],"parameters":[{"id":"1093335552","name":"this","klass":"java.io.RandomAccessFile"},{"id":"sdaReg0","name":"arg#1","klass":"string"},{"id":"sdaReg1","name":"arg#2","klass":"string"}],"returns":[{"id":"1093335552","name":"return","klass":"java.io.RandomAccessFile"}],"colors":{"heapLocToColor":{"1093482792":[3],"sdaReg8":[6],"sdaReg9":[3, 8],"sdaReg7":[4],"sdaReg4":[3],"sdaReg5":[0],"1093302432":[5],"1093299528":[9],"sdaReg11":[0],"1093335552":[0],"sdaReg10":[9],"sdaReg3":[0],"sdaReg2":[3],"sdaReg1":[2],"sdaReg0":[1, 3],"1083966016":[4],"static.<libcore.io.OsConstants: int O_RDONLY>":[7]},"colorToColor":{"0":[10],"1":[3],"3":[3, 9],"4":[0],"5":[0],"7":[0],"8":[9],"9":[0]},"colorToLabel":{"0":"this","1":"arg#1","2":"arg#2","7":"<libcore.io.OsConstants: int O_RDONLY>","10":"return"}}}

Generated Model
	this->return
	arg#1->this
	arg#1->return

