Scanning method <android.os.Bundle: java.util.ArrayList getCharSequenceArrayList(java.lang.String)>

All seen event types: StoreArrayRecord, SimpleAssignmentRecord, ExitMonitorRecord, MethodStartRecord, LoadInstanceRecord, IfRecord, InstanceOfRecord, NewObjectRecord, StoreInstanceRecord, LoadStaticRecord, NewArrayRecord, BinaryOperationRecord, MethodCallRecord, MethodReturnRecord, SwitchRecord, EnterMonitorRecord, ArrayLengthRecord, CastRecord, LoadArrayRecord, MethodEndRecord, 
Ignored event types: ExitMonitorRecord, SwitchRecord, EnterMonitorRecord, IfRecord, 

JSON Encoded Analysis Data (for visualization):{"heapEdges":[{"step":0,"from":"1094429944","to":"1094113688","type":"load","field":"<android.os.Bundle: android.os.Parcel mParcelledData>"},{"step":1,"from":"1094429944","to":"1094113688","type":"load","field":"<android.os.Bundle: android.os.Parcel mParcelledData>"},{"step":2,"from":"1094113688","to":"sdaReg2","type":"model"},{"step":3,"from":"static.<java.util.HashMap: java.util.Map$Entry[] EMPTY_TABLE>","to":"1083997920","type":"load","field":"<java.util.HashMap: java.util.Map$Entry[] EMPTY_TABLE>"},{"step":4,"from":"1083997920","to":"1094296880","type":"store","field":"<java.util.HashMap: java.util.HashMap$HashMapEntry[] table>"},{"step":5,"from":"1094296880","to":"sdaReg9","type":"create","field":"<java.util.HashMap: int threshold>"},{"step":6,"from":"1094429944","to":"1094296880","type":"create","field":"<android.os.Bundle: java.util.Map mMap>"},{"step":7,"from":"1094429944","to":"1094113688","type":"load","field":"<android.os.Bundle: android.os.Parcel mParcelledData>"},{"step":8,"from":"1094113688","to":"sdaReg16","type":"model"},{"step":9,"from":"1094113688","to":"sdaReg17","type":"model"},{"step":10,"from":"1094113688","to":"sdaReg21","type":"model"},{"step":11,"from":"1094113688","to":"sdaReg24","type":"model"},{"step":12,"from":"1094058744","to":"1094034440","type":"create","field":"<java.util.ArrayList: java.lang.Object[] array>"},{"step":13,"from":"1094113688","to":"sdaReg38","type":"model"},{"step":14,"from":"1094113688","to":"sdaReg39","type":"model"},{"step":15,"from":"1094058744","to":"1094058744.<java.util.ArrayList: int size>","type":"load","field":"<java.util.ArrayList: int size>"},{"step":16,"from":"1093680168","to":"1094034440","type":"store","field":"arrayIdx_int:0"},{"step":17,"from":"sdaReg44","to":"1094058744","type":"store","field":"<java.util.ArrayList: int size>"},{"step":18,"from":"1094058744","to":"1094058744.<java.util.AbstractList: int modCount>","type":"load","field":"<java.util.AbstractList: int modCount>"},{"step":19,"from":"sdaReg45","to":"1094058744","type":"store","field":"<java.util.AbstractList: int modCount>"},{"step":20,"from":"1094113688","to":"sdaReg49","type":"model"},{"step":21,"from":"1094113688","to":"sdaReg50","type":"model"},{"step":22,"from":"1093845432","to":"1094034440","type":"store","field":"arrayIdx_int:1"},{"step":23,"from":"sdaReg55","to":"1094058744","type":"store","field":"<java.util.ArrayList: int size>"},{"step":24,"from":"sdaReg56","to":"1094058744","type":"store","field":"<java.util.AbstractList: int modCount>"},{"step":25,"from":"1094113688","to":"sdaReg60","type":"model"},{"step":26,"from":"1094113688","to":"sdaReg61","type":"model"},{"step":27,"from":"1093885040","to":"1094034440","type":"store","field":"arrayIdx_int:2"},{"step":28,"from":"sdaReg66","to":"1094058744","type":"store","field":"<java.util.ArrayList: int size>"},{"step":29,"from":"sdaReg67","to":"1094058744","type":"store","field":"<java.util.AbstractList: int modCount>"},{"step":30,"from":"1094113688","to":"sdaReg71","type":"model"},{"step":31,"from":"static.<android.text.TextUtils: android.os.Parcelable$Creator CHAR_SEQUENCE_CREATOR>","to":"1084850936","type":"load","field":"<android.text.TextUtils: android.os.Parcelable$Creator CHAR_SEQUENCE_CREATOR>"},{"step":32,"from":"1094113688","to":"sdaReg77","type":"model"},{"step":33,"from":"1094113688","to":"sdaReg78","type":"model"},{"step":34,"from":"1093948032","to":"sdaReg86","type":"model"},{"step":35,"from":"sdaReg86","to":"1093948136","type":"store","field":"<android.text.SpannableStringInternal: java.lang.String mText>"},{"step":36,"from":"1093948136","to":"1093779608","type":"create","field":"<android.text.SpannableStringInternal: java.lang.Object[] mSpans>"},{"step":37,"from":"1093948136","to":"1093681160","type":"create","field":"<android.text.SpannableStringInternal: int[] mSpanData>"},{"step":38,"from":"1094113688","to":"sdaReg100","type":"model"},{"step":39,"from":"1094113688","to":"sdaReg106","type":"model"},{"step":40,"from":"sdaReg106","to":"1093501216","type":"store","field":"<android.text.style.ForegroundColorSpan: int mColor>"},{"step":41,"from":"1094113688","to":"sdaReg114","type":"model"},{"step":42,"from":"1094113688","to":"sdaReg115","type":"model"},{"step":43,"from":"1094113688","to":"sdaReg116","type":"model"},{"step":44,"from":"1093948136","to":"1093948136.<android.text.SpannableStringInternal: int mSpanCount>","type":"load","field":"<android.text.SpannableStringInternal: int mSpanCount>"},{"step":45,"from":"1093948136","to":"1093948136.<android.text.SpannableStringInternal: int mSpanCount>","type":"load","field":"<android.text.SpannableStringInternal: int mSpanCount>"},{"step":46,"from":"1093948136","to":"1093948136.<android.text.SpannableStringInternal: int mSpanCount>","type":"load","field":"<android.text.SpannableStringInternal: int mSpanCount>"},{"step":47,"from":"1093948136","to":"1093948136.<android.text.SpannableStringInternal: int mSpanCount>","type":"load","field":"<android.text.SpannableStringInternal: int mSpanCount>"},{"step":48,"from":"1093779608","to":"1094334664","type":"model"},{"step":49,"from":"1093948136","to":"1093948136.<android.text.SpannableStringInternal: int mSpanCount>","type":"load","field":"<android.text.SpannableStringInternal: int mSpanCount>"},{"step":50,"from":"1093681160","to":"1094250088","type":"model"},{"step":51,"from":"1093948136","to":"1094334664","type":"create","field":"<android.text.SpannableStringInternal: java.lang.Object[] mSpans>"},{"step":52,"from":"1093948136","to":"1094250088","type":"create","field":"<android.text.SpannableStringInternal: int[] mSpanData>"},{"step":53,"from":"1093948136","to":"1093948136.<android.text.SpannableStringInternal: int mSpanCount>","type":"load","field":"<android.text.SpannableStringInternal: int mSpanCount>"},{"step":54,"from":"1094334664","to":"1093501216","type":"create","field":"arrayIdx_int:0"},{"step":55,"from":"1093948136","to":"1093948136.<android.text.SpannableStringInternal: int mSpanCount>","type":"load","field":"<android.text.SpannableStringInternal: int mSpanCount>"},{"step":56,"from":"sdaReg114","to":"1094250088","type":"store","field":"arrayIdx_int:0"},{"step":57,"from":"1093948136","to":"1093948136.<android.text.SpannableStringInternal: int mSpanCount>","type":"load","field":"<android.text.SpannableStringInternal: int mSpanCount>"},{"step":58,"from":"sdaReg115","to":"1094250088","type":"store","field":"arrayIdx_int:1"},{"step":59,"from":"1093948136","to":"1093948136.<android.text.SpannableStringInternal: int mSpanCount>","type":"load","field":"<android.text.SpannableStringInternal: int mSpanCount>"},{"step":60,"from":"sdaReg116","to":"1094250088","type":"store","field":"arrayIdx_int:2"},{"step":61,"from":"1093948136","to":"1093948136.<android.text.SpannableStringInternal: int mSpanCount>","type":"load","field":"<android.text.SpannableStringInternal: int mSpanCount>"},{"step":62,"from":"sdaReg147","to":"1093948136","type":"store","field":"<android.text.SpannableStringInternal: int mSpanCount>"},{"step":63,"from":"1084365888","to":"sdaReg161","type":"model"},{"step":64,"from":"static.<com.android.internal.util.ArrayUtils: java.lang.Object[] sCache>","to":"1084375760","type":"load","field":"<com.android.internal.util.ArrayUtils: java.lang.Object[] sCache>"},{"step":65,"from":"1084375760","to":"1093924280","type":"load","field":"arrayIdx_int:66"},{"step":66,"from":"1093924280","to":"1084732504","type":"model"},{"step":67,"from":"1084732504","to":"1084365888","type":"model"},{"step":68,"from":"1094113688","to":"sdaReg176","type":"model"},{"step":69,"from":"1094034440","to":"1093948136","type":"create","field":"arrayIdx_int:3"},{"step":70,"from":"sdaReg185","to":"1094058744","type":"store","field":"<java.util.ArrayList: int size>"},{"step":71,"from":"sdaReg186","to":"1094058744","type":"store","field":"<java.util.AbstractList: int modCount>"},{"step":72,"from":"1094296880","to":"1094296880.<java.util.HashMap: int modCount>","type":"load","field":"<java.util.HashMap: int modCount>"},{"step":73,"from":"sdaReg205","to":"1094296880","type":"store","field":"<java.util.HashMap: int modCount>"},{"step":74,"from":"1094296880","to":"1094296880.<java.util.HashMap: int size>","type":"load","field":"<java.util.HashMap: int size>"},{"step":75,"from":"sdaReg206","to":"1094296880","type":"store","field":"<java.util.HashMap: int size>"},{"step":76,"from":"1094296880","to":"1094254496","type":"create","field":"<java.util.HashMap: java.util.HashMap$HashMapEntry[] table>"},{"step":77,"from":"sdaReg214","to":"1094296880","type":"store","field":"<java.util.HashMap: int threshold>"},{"step":78,"from":"1093695784","to":"1094254536","type":"store","field":"<java.util.HashMap$HashMapEntry: java.lang.Object key>"},{"step":79,"from":"1094254536","to":"1094058744","type":"create","field":"<java.util.HashMap$HashMapEntry: java.lang.Object value>"},{"step":80,"from":"sdaReg201","to":"1094254536","type":"store","field":"<java.util.HashMap$HashMapEntry: int hash>"},{"step":81,"from":"1094254496","to":"1094254536","type":"create","field":"arrayIdx_int:2"},{"step":82,"from":"1094429944","to":"1094113688","type":"load","field":"<android.os.Bundle: android.os.Parcel mParcelledData>"},{"step":83,"from":"1094113688","to":"1094113688.<android.os.Parcel: int mOwnObject>","type":"load","field":"<android.os.Parcel: int mOwnObject>"},{"step":84,"from":"static.<android.os.Parcel: android.os.Parcel[] sOwnedPool>","to":"1084044960","type":"load","field":"<android.os.Parcel: android.os.Parcel[] sOwnedPool>"},{"step":85,"from":"1094113688","to":"1084044960","type":"store","field":"arrayIdx_int:0"},{"step":86,"from":"1094429944","to":"sdaReg233","type":"create","field":"<android.os.Bundle: android.os.Parcel mParcelledData>"}],"parameters":[{"id":"1094429944","name":"this","klass":"android.os.Bundle"},{"id":"sdaReg0","name":"arg#1","klass":"string"}],"returns":[{"id":"1094058744","name":"return","klass":"java.util.ArrayList"}],"colors":{"heapLocToColor":{"sdaReg190":[3],"sdaReg193":[42],"sdaReg192":[9],"sdaReg199":[42],"sdaReg198":[42],"sdaReg195":[42],"sdaReg194":[42],"sdaReg197":[42],"sdaReg196":[42],"sdaReg14":[0],"sdaReg11":[0],"sdaReg12":[3],"sdaReg10":[3],"1094250088":[35],"sdaReg19":[0],"sdaReg17":[0, 6],"sdaReg16":[0, 5],"sdaReg171":[38],"sdaReg170":[38],"sdaReg173":[38],"sdaReg172":[38],"sdaReg177":[21],"sdaReg176":[0, 41],"sdaReg179":[21],"sdaReg178":[21],"1094429944":[0],"static.<java.util.HashMap: java.util.Map$Entry[] EMPTY_TABLE>":[4],"1094334664":[34],"sdaReg182":[9],"sdaReg181":[21],"sdaReg180":[21],"sdaReg183":[21],"sdaReg189":[9],"sdaReg188":[9],"sdaReg60":[0, 15],"sdaReg61":[0, 16],"1094254496":[43],"sdaReg58":[0],"1083997920":[4],"sdaReg52":[9],"sdaReg50":[0, 14],"1094296880.<java.util.HashMap: int modCount>":[3],"1093924280":[38],"sdaReg49":[0, 13],"sdaReg45":[9],"sdaReg44":[9],"sdaReg47":[0],"sdaReg41":[9],"1094034440":[10],"1084365888":[38, 39, 40],"1094113688.<android.os.Parcel: int mOwnObject>":[0],"sdaReg200":[42],"sdaReg201":[42],"sdaReg205":[3],"sdaReg39":[0, 12],"sdaReg204":[42],"1093681160":[26],"sdaReg38":[0, 11],"sdaReg207":[3],"sdaReg206":[3],"sdaReg32":[9],"sdaReg31":[9],"sdaReg30":[9],"1094058744.<java.util.ArrayList: int size>":[9],"sdaReg36":[0],"sdaReg34":[9],"sdaReg33":[0],"sdaReg8":[4],"sdaReg6":[3],"sdaReg7":[4],"sdaReg4":[3],"sdaReg5":[3],"sdaReg27":[9],"sdaReg26":[9],"sdaReg29":[9],"sdaReg28":[9],"sdaReg3":[3],"sdaReg2":[0, 2],"sdaReg21":[0, 7],"sdaReg1":[0],"sdaReg0":[1],"sdaReg22":[0],"sdaReg25":[9],"sdaReg24":[0, 8],"sdaReg125":[21],"sdaReg126":[33],"sdaReg127":[0, 32],"sdaReg129":[21],"1084044960":[45],"1094058744.<java.util.AbstractList: int modCount>":[9],"sdaReg228":[44],"sdaReg69":[0],"sdaReg229":[0],"sdaReg225":[9],"sdaReg63":[9],"sdaReg227":[44],"sdaReg72":[0],"sdaReg71":[0, 17],"sdaReg220":[3],"sdaReg223":[44],"sdaReg222":[9],"sdaReg120":[28],"sdaReg122":[0, 31],"sdaReg121":[0, 30],"sdaReg123":[21],"sdaReg116":[0, 32],"1094058744":[9],"sdaReg117":[21],"sdaReg114":[0, 30],"1094113688":[0],"sdaReg115":[0, 31],"1094429944.<android.os.Bundle: android.os.Parcel mParcelledData>":[0],"sdaReg118":[28],"sdaReg119":[21],"sdaReg77":[0, 19],"sdaReg78":[0, 20],"sdaReg79":[21],"sdaReg217":[43],"sdaReg73":[18],"sdaReg215":[43],"sdaReg74":[0],"sdaReg75":[18],"sdaReg76":[0],"sdaReg81":[21],"sdaReg80":[22],"sdaReg210":[3],"sdaReg113":[28],"sdaReg112":[21],"sdaReg111":[0],"sdaReg110":[28],"sdaReg107":[28],"sdaReg108":[0],"sdaReg109":[21],"1084850936":[18],"sdaReg103":[28],"sdaReg104":[28],"sdaReg105":[28],"sdaReg106":[0, 29],"sdaReg246":[46],"sdaReg86":[24],"static.<com.android.internal.util.ArrayUtils: java.lang.Object[] sCache>":[38],"sdaReg247":[47],"sdaReg248":[9],"sdaReg84":[21],"sdaReg249":[9],"sdaReg85":[23],"sdaReg241":[46],"sdaReg240":[46],"sdaReg243":[46],"sdaReg242":[46],"sdaReg100":[0, 27],"sdaReg102":[0],"sdaReg101":[28],"sdaReg237":[46],"sdaReg238":[46],"sdaReg97":[21],"sdaReg235":[46],"sdaReg98":[21],"sdaReg236":[46],"sdaReg99":[21],"sdaReg239":[46],"sdaReg230":[45],"1094296880":[3],"sdaReg234":[3],"sdaReg231":[45],"1093501216":[28],"sdaReg169":[38],"1094254536":[44],"sdaReg161":[37],"sdaReg162":[37],"sdaReg163":[37],"sdaReg164":[37],"sdaReg165":[38, 39],"sdaReg166":[38, 39, 40],"1084732504":[38, 39],"sdaReg159":[36],"1093948136":[21],"sdaReg153":[21],"sdaReg150":[28],"sdaReg151":[21],"1094296880.<java.util.HashMap: int size>":[3],"static.<android.text.TextUtils: android.os.Parcelable$Creator CHAR_SEQUENCE_CREATOR>":[18],"static.<android.os.Parcel: android.os.Parcel[] sOwnedPool>":[45],"1093948136.<android.text.SpannableStringInternal: int mSpanCount>":[21],"sdaReg147":[21],"sdaReg149":[21],"sdaReg143":[21],"sdaReg144":[21],"sdaReg145":[21],"sdaReg146":[21],"1084375760":[38],"sdaReg140":[21],"sdaReg141":[21],"sdaReg142":[21],"sdaReg132":[21],"sdaReg131":[21],"1093779608":[25]},"colorToColor":{"0":[35, 28, 45],"34":[21],"35":[21],"32":[35],"3":[0, 3],"4":[3],"42":[44],"43":[3],"9":[48, 9, 44],"10":[9],"44":[43],"21":[21, 10],"25":[34, 21],"24":[21],"26":[35, 21],"29":[28],"28":[34],"31":[35],"30":[35]},"colorToLabel":{"0":"this","1":"arg#1","4":"<java.util.HashMap: java.util.Map$Entry[] EMPTY_TABLE>","18":"<android.text.TextUtils: android.os.Parcelable$Creator CHAR_SEQUENCE_CREATOR>","38":"<com.android.internal.util.ArrayUtils: java.lang.Object[] sCache>","45":"<android.os.Parcel: android.os.Parcel[] sOwnedPool>","48":"return"}}}

Generated Model
	this->return
	this-><android.os.Parcel: android.os.Parcel[] sOwnedPool>

