Scanning method <java.io.StringReader: void <init>(java.lang.String)>

All seen event types: MethodReturnRecord, MethodCallRecord, MethodStartRecord, MethodEndRecord, StoreInstanceRecord, 
Ignored event types: 

JSON Encoded Analysis Data (for visualization):{"heapEdges":[{"step":0,"from":"1093650048","to":"1093650048","type":"store","field":"<java.io.Reader: java.lang.Object lock>"},{"step":1,"from":"1093650048","to":"sdaReg4","type":"create","field":"<java.io.StringReader: int markpos>"},{"step":2,"from":"sdaReg0","to":"1093650048","type":"store","field":"<java.io.StringReader: java.lang.String str>"},{"step":3,"from":"sdaReg5","to":"1093650048","type":"store","field":"<java.io.StringReader: int count>"}],"parameters":[{"id":"1093650048","name":"this","klass":"java.io.StringReader"},{"id":"sdaReg0","name":"arg#1","klass":"string"}],"returns":[{"id":"1093650048","name":"return","klass":"java.io.StringReader"}],"colors":{"heapLocToColor":{"1093650048":[0],"sdaReg5":[2],"sdaReg3":[0],"sdaReg2":[0],"sdaReg1":[0],"sdaReg0":[1]},"colorToColor":{"0":[0, 3],"1":[0],"2":[0]},"colorToLabel":{"0":"this","1":"arg#1","3":"return"}}}

Generated Model
	this->return
	arg#1->this
	arg#1->return

