Scanning method <java.io.BufferedReader: int read()>

All seen event types: BinaryOperationRecord, SimpleAssignmentRecord, ExitMonitorRecord, MethodReturnRecord, MethodCallRecord, EnterMonitorRecord, ArrayLengthRecord, MethodStartRecord, LoadInstanceRecord, MethodEndRecord, IfRecord, 
Ignored event types: ExitMonitorRecord, EnterMonitorRecord, IfRecord, 

JSON Encoded Analysis Data (for visualization):{"heapEdges":[{"step":0,"from":"1093478240","to":"1093478552","type":"load","field":"<java.io.Reader: java.lang.Object lock>"},{"step":1,"from":"1093478240","to":"1093410840","type":"load","field":"<java.io.BufferedReader: char[] buf>"},{"step":2,"from":"1093478240","to":"1093478240.<java.io.BufferedReader: int pos>","type":"load","field":"<java.io.BufferedReader: int pos>"},{"step":3,"from":"1093478240","to":"1093478240.<java.io.BufferedReader: int end>","type":"load","field":"<java.io.BufferedReader: int end>"},{"step":4,"from":"1093478240","to":"1093478240.<java.io.BufferedReader: int mark>","type":"load","field":"<java.io.BufferedReader: int mark>"},{"step":5,"from":"1093478240","to":"1093478552","type":"load","field":"<java.io.BufferedReader: java.io.Reader in>"},{"step":6,"from":"1093478240","to":"1093410840","type":"load","field":"<java.io.BufferedReader: char[] buf>"},{"step":7,"from":"1093478240","to":"1093410840","type":"load","field":"<java.io.BufferedReader: char[] buf>"},{"step":8,"from":"1093478552","to":"1093478552","type":"load","field":"<java.io.Reader: java.lang.Object lock>"},{"step":9,"from":"1093478552","to":"1093486536","type":"load","field":"<java.io.CharArrayReader: char[] buf>"},{"step":10,"from":"1093478552","to":"1093478552.<java.io.CharArrayReader: int pos>","type":"load","field":"<java.io.CharArrayReader: int pos>"},{"step":11,"from":"1093478552","to":"1093478552.<java.io.CharArrayReader: int count>","type":"load","field":"<java.io.CharArrayReader: int count>"}],"parameters":[{"id":"1093478240","name":"this","klass":"java.io.BufferedReader"}],"returns":[{"id":"sdaReg17","name":"return","klass":"int"}],"colors":{"heapLocToColor":{"1093478552.<java.io.CharArrayReader: int pos>":[0],"1093478552.<java.io.CharArrayReader: int count>":[0],"sdaReg6":[0],"sdaReg7":[0],"sdaReg4":[0],"1093478552":[0],"1093478240":[0],"1093478240.<java.io.BufferedReader: int mark>":[0],"1093478240.<java.io.BufferedReader: java.io.Reader in>":[0],"1093478240.<java.io.BufferedReader: char[] buf>":[0],"1093478552.<java.io.Reader: java.lang.Object lock>":[0],"sdaReg13":[0],"1093410840":[0],"sdaReg14":[0],"sdaReg12":[0],"1093478240.<java.io.BufferedReader: int end>":[0],"1093486536":[0],"sdaReg2":[0],"sdaReg1":[0],"1093478240.<java.io.BufferedReader: int pos>":[0]},"colorToColor":{},"colorToLabel":{"0":"this","1":"return"}}}

Generated Model

