arg#3->return
arg#3-><android.os.Message: android.os.Message sPool>
arg#2->return
arg#2-><android.os.Message: android.os.Message sPool>
arg#1->return
arg#1-><android.os.Message: android.os.Message sPool>
arg#0->return
arg#0-><android.os.Message: android.os.Message sPool>

