Scanning method <java.io.FileOutputStream: void finalize()>

All seen event types: SimpleAssignmentRecord, ExitMonitorRecord, MethodReturnRecord, MethodCallRecord, EnterMonitorRecord, MethodStartRecord, LoadInstanceRecord, MethodEndRecord, IfRecord, 
Ignored event types: ExitMonitorRecord, EnterMonitorRecord, IfRecord, 

JSON Encoded Analysis Data (for visualization):{"heapEdges":[{"step":0,"from":"1093666872","to":"1083966016","type":"load","field":"<java.io.FileOutputStream: dalvik.system.CloseGuard guard>"},{"step":1,"from":"1093666872","to":"1083966016","type":"load","field":"<java.io.FileOutputStream: dalvik.system.CloseGuard guard>"},{"step":2,"from":"1093666872","to":"1083966016","type":"load","field":"<java.io.FileOutputStream: dalvik.system.CloseGuard guard>"},{"step":3,"from":"1093666872","to":"1093677368","type":"load","field":"<java.io.FileOutputStream: java.nio.channels.FileChannel channel>"},{"step":4,"from":"1093666872","to":"1093677368","type":"load","field":"<java.io.FileOutputStream: java.nio.channels.FileChannel channel>"},{"step":5,"from":"1093677368","to":"1093677368.<java.nio.channels.spi.AbstractInterruptibleChannel: boolean closed>","type":"load","field":"<java.nio.channels.spi.AbstractInterruptibleChannel: boolean closed>"},{"step":6,"from":"1093666872","to":"1093666872.<java.io.FileOutputStream: boolean shouldClose>","type":"load","field":"<java.io.FileOutputStream: boolean shouldClose>"},{"step":7,"from":"1093666872","to":"1093677216","type":"load","field":"<java.io.FileOutputStream: java.io.FileDescriptor fd>"}],"parameters":[{"id":"1093666872","name":"this","klass":"java.io.FileOutputStream"}],"returns":[{"id":null,"name":"return","klass":null}],"colors":{"heapLocToColor":{"1093666872.<java.io.FileOutputStream: java.nio.channels.FileChannel channel>":[0],"1093666872":[0],"1093677216":[0],"1093677368.<java.nio.channels.spi.AbstractInterruptibleChannel: boolean closed>":[0],"1093677368":[0],"1093666872.<java.io.FileOutputStream: boolean shouldClose>":[0],"sdaReg2":[0],"1093666872.<java.io.FileOutputStream: dalvik.system.CloseGuard guard>":[0],"sdaReg1":[0],"sdaReg0":[0],"1083966016":[0]},"colorToColor":{},"colorToLabel":{"0":"this","1":"return"}}}

Generated Model

