Scanning method <java.io.ObjectInputStream: int nextHandle()>

All seen event types: BinaryOperationRecord, LoadInstanceRecord, StoreInstanceRecord, 
Ignored event types: 

JSON Encoded Analysis Data (for visualization):{"heapEdges":[{"step":0,"from":"1093282712","to":"1093282712.<java.io.ObjectInputStream: int nextHandle>","type":"load","field":"<java.io.ObjectInputStream: int nextHandle>"},{"step":1,"from":"sdaReg0","to":"1093282712","type":"store","field":"<java.io.ObjectInputStream: int nextHandle>"}],"parameters":[{"id":"1093282712","name":"this","klass":"java.io.ObjectInputStream"}],"returns":[{"id":"1093282712.<java.io.ObjectInputStream: int nextHandle>","name":"return","klass":"int"}],"colors":{"heapLocToColor":{"1093282712":[0],"1093282712.<java.io.ObjectInputStream: int nextHandle>":[0],"sdaReg0":[0]},"colorToColor":{"0":[0, 1]},"colorToLabel":{"0":"this","1":"return"}}}

Generated Model
	this->return

