Scanning method <java.net.InetAddress: java.net.InetAddress getByAddress(java.lang.String,byte[],int)>

All seen event types: SimpleAssignmentRecord, MethodStartRecord, IfRecord, NewObjectRecord, StoreInstanceRecord, LoadStaticRecord, BinaryOperationRecord, MethodCallRecord, MethodReturnRecord, ArrayLengthRecord, CastRecord, LoadArrayRecord, MethodEndRecord, 
Ignored event types: IfRecord, 

JSON Encoded Analysis Data (for visualization):{"heapEdges":[{"step":0,"from":"1093389648","to":"1093389648.arrayIdx_int:0","type":"load","field":"arrayIdx_int:0"},{"step":1,"from":"1093389648","to":"1093389648.arrayIdx_int:1","type":"load","field":"arrayIdx_int:1"},{"step":2,"from":"1093389648","to":"1093389648.arrayIdx_int:2","type":"load","field":"arrayIdx_int:2"},{"step":3,"from":"1093389648","to":"1093389648.arrayIdx_int:3","type":"load","field":"arrayIdx_int:3"},{"step":4,"from":"1093389648","to":"1093389648.arrayIdx_int:4","type":"load","field":"arrayIdx_int:4"},{"step":5,"from":"1093389648","to":"1093389648.arrayIdx_int:5","type":"load","field":"arrayIdx_int:5"},{"step":6,"from":"1093389648","to":"1093389648.arrayIdx_int:6","type":"load","field":"arrayIdx_int:6"},{"step":7,"from":"1093389648","to":"1093389648.arrayIdx_int:7","type":"load","field":"arrayIdx_int:7"},{"step":8,"from":"1093389648","to":"1093389648.arrayIdx_int:8","type":"load","field":"arrayIdx_int:8"},{"step":9,"from":"1093389648","to":"1093389648.arrayIdx_int:9","type":"load","field":"arrayIdx_int:9"},{"step":10,"from":"1093389648","to":"1093389648.arrayIdx_int:10","type":"load","field":"arrayIdx_int:10"},{"step":11,"from":"1093389648","to":"1093264544","type":"model"},{"step":12,"from":"static.<libcore.io.OsConstants: int AF_INET6>","to":"static.<libcore.io.OsConstants: int AF_INET6>","type":"load","field":"<libcore.io.OsConstants: int AF_INET6>"},{"step":13,"from":"static.<libcore.io.OsConstants: int AF_INET6>","to":"1093264504","type":"store","field":"<java.net.InetAddress: int family>"},{"step":14,"from":"1093264504","to":"1093264544","type":"create","field":"<java.net.InetAddress: byte[] ipaddress>"},{"step":15,"from":"sdaReg0","to":"1093264504","type":"store","field":"<java.net.InetAddress: java.lang.String hostName>"},{"step":16,"from":"sdaReg1","to":"1093264504","type":"store","field":"<java.net.Inet6Address: int scope_id>"},{"step":17,"from":"sdaReg16","to":"1093264504","type":"store","field":"<java.net.Inet6Address: boolean scope_id_set>"}],"parameters":[{"id":"sdaReg0","name":"arg#0","klass":"string"},{"id":"1093389648","name":"arg#1","klass":"byte[]"},{"id":"sdaReg1","name":"arg#2","klass":"int"}],"returns":[{"id":"1093264504","name":"return","klass":"java.net.InetAddress"}],"colors":{"heapLocToColor":{"1093389648.arrayIdx_int:10":[1],"1093389648":[1],"1093264504":[3],"1093389648.arrayIdx_int:9":[1],"1093389648.arrayIdx_int:8":[1],"1093389648.arrayIdx_int:7":[1],"sdaReg13":[1, 4],"sdaReg14":[3],"sdaReg11":[1, 4],"sdaReg12":[3],"sdaReg10":[3],"sdaReg17":[3],"sdaReg15":[3],"sdaReg8":[1, 4],"sdaReg9":[1, 4],"sdaReg4":[1],"static.<libcore.io.OsConstants: int AF_INET6>":[5],"1093389648.arrayIdx_int:3":[1],"1093389648.arrayIdx_int:4":[1],"1093389648.arrayIdx_int:5":[1],"1093389648.arrayIdx_int:6":[1],"1093389648.arrayIdx_int:0":[1],"1093389648.arrayIdx_int:1":[1],"1093389648.arrayIdx_int:2":[1],"sdaReg1":[2],"sdaReg0":[0],"1093264544":[1, 4]},"colorToColor":{"0":[3],"1":[3],"2":[3],"3":[6],"4":[3],"5":[3]},"colorToLabel":{"0":"arg#0","1":"arg#1","2":"arg#2","5":"<libcore.io.OsConstants: int AF_INET6>","6":"return"}}}

Generated Model
	arg#2->return
	arg#1->return
	arg#0->return

