Scanning method <java.util.TreeMap: int size()>

All seen event types: LoadInstanceRecord, 
Ignored event types: 

JSON Encoded Analysis Data (for visualization):{"heapEdges":[{"step":0,"from":"1099705064","to":"1099705064.<java.util.TreeMap: int size>","type":"load","field":"<java.util.TreeMap: int size>"}],"parameters":[{"id":"1099705064","name":"this","klass":"java.util.TreeMap"}],"returns":[{"id":"1099705064.<java.util.TreeMap: int size>","name":"return","klass":"int"}],"colors":{"heapLocToColor":{"1099705064":[0],"1099705064.<java.util.TreeMap: int size>":[0]},"colorToColor":{"0":[1]},"colorToLabel":{"0":"this","1":"return"}}}

Generated Model
	this->return

