Scanning method <java.io.ByteArrayInputStream: void reset()>

All seen event types: LoadInstanceRecord, StoreInstanceRecord, 
Ignored event types: 

JSON Encoded Analysis Data (for visualization):{"heapEdges":[{"step":0,"from":"1093604000","to":"1093604000.<java.io.ByteArrayInputStream: int mark>","type":"load","field":"<java.io.ByteArrayInputStream: int mark>"},{"step":1,"from":"1093604000.<java.io.ByteArrayInputStream: int mark>","to":"1093604000","type":"store","field":"<java.io.ByteArrayInputStream: int pos>"}],"parameters":[{"id":"1093604000","name":"this","klass":"java.io.ByteArrayInputStream"}],"returns":[{"id":null,"name":"return","klass":null}],"colors":{"heapLocToColor":{"1093604000":[0],"1093604000.<java.io.ByteArrayInputStream: int mark>":[0]},"colorToColor":{"0":[0]},"colorToLabel":{"0":"this","1":"return"}}}

Generated Model

