Scanning method <java.util.Vector: void <init>()>

All seen event types: NewArrayRecord, MethodReturnRecord, MethodCallRecord, CastRecord, MethodStartRecord, IfRecord, MethodEndRecord, StoreInstanceRecord, 
Ignored event types: IfRecord, 

JSON Encoded Analysis Data (for visualization):{"heapEdges":[{"step":0,"from":"1093397240","to":"1093396552","type":"create","field":"<java.util.Vector: java.lang.Object[] elementData>"},{"step":1,"from":"1093397240","to":"sdaReg11","type":"create","field":"<java.util.Vector: int elementCount>"},{"step":2,"from":"1093397240","to":"sdaReg2","type":"create","field":"<java.util.Vector: int capacityIncrement>"}],"parameters":[{"id":"1093397240","name":"this","klass":"java.util.Vector"}],"returns":[{"id":"1093397240","name":"return","klass":"java.util.Vector"}],"colors":{"heapLocToColor":{"sdaReg8":[0],"sdaReg12":[0],"1093397240":[0],"sdaReg6":[0],"sdaReg10":[1],"sdaReg7":[0],"sdaReg4":[0],"1093396552":[1],"sdaReg5":[0],"sdaReg3":[0],"sdaReg0":[0]},"colorToColor":{"0":[2],"1":[0]},"colorToLabel":{"0":"this","2":"return"}}}

Generated Model
	this->return

