Scanning method <java.util.ArrayList: boolean add(java.lang.Object)>

All seen event types: NewArrayRecord, BinaryOperationRecord, StoreArrayRecord, SimpleAssignmentRecord, MethodReturnRecord, MethodCallRecord, ArrayLengthRecord, LoadInstanceRecord, IfRecord, StoreInstanceRecord, 
Ignored event types: IfRecord, 

JSON Encoded Analysis Data (for visualization):{"heapEdges":[{"step":0,"from":"1093432520","to":"1083994088","type":"load","field":"<java.util.ArrayList: java.lang.Object[] array>"},{"step":1,"from":"1093432520","to":"1093432520.<java.util.ArrayList: int size>","type":"load","field":"<java.util.ArrayList: int size>"},{"step":2,"from":"1083994088","to":"1093684880","type":"model"},{"step":3,"from":"1093432520","to":"1093684880","type":"create","field":"<java.util.ArrayList: java.lang.Object[] array>"},{"step":4,"from":"1093348352","to":"1093684880","type":"store","field":"arrayIdx_int:0"},{"step":5,"from":"sdaReg3","to":"1093432520","type":"store","field":"<java.util.ArrayList: int size>"},{"step":6,"from":"1093432520","to":"1093432520.<java.util.AbstractList: int modCount>","type":"load","field":"<java.util.AbstractList: int modCount>"},{"step":7,"from":"sdaReg4","to":"1093432520","type":"store","field":"<java.util.AbstractList: int modCount>"}],"parameters":[{"id":"1093432520","name":"this","klass":"java.util.ArrayList"},{"id":"1093348352","name":"arg#1","klass":"java.lang.Object"}],"returns":[{"id":null,"name":"return","klass":"boolean"}],"colors":{"heapLocToColor":{"1093684880":[2],"1093432520.<java.util.AbstractList: int modCount>":[0],"1093432520":[0],"1083994088":[0],"1093348352":[1],"sdaReg4":[0],"sdaReg3":[0],"sdaReg2":[0],"1093432520.<java.util.ArrayList: int size>":[0]},"colorToColor":{"0":[0, 2],"1":[2],"2":[0]},"colorToLabel":{"0":"this","1":"arg#1","3":"return"}}}

Generated Model
	arg#1->this

