Scanning method <java.util.ArrayList: boolean add(java.lang.Object)>

All seen event types: BinaryOperationRecord, StoreArrayRecord, ArrayLengthRecord, LoadInstanceRecord, IfRecord, StoreInstanceRecord, 
Ignored event types: IfRecord, 

JSON Encoded Analysis Data (for visualization):{"heapEdges":[{"step":0,"from":"1093283664","to":"1093269504","type":"load","field":"<java.util.ArrayList: java.lang.Object[] array>"},{"step":1,"from":"1093283664","to":"1093283664.<java.util.ArrayList: int size>","type":"load","field":"<java.util.ArrayList: int size>"},{"step":2,"from":"1093328376","to":"1093269504","type":"store","field":"arrayIdx_int:11"},{"step":3,"from":"sdaReg1","to":"1093283664","type":"store","field":"<java.util.ArrayList: int size>"},{"step":4,"from":"1093283664","to":"1093283664.<java.util.AbstractList: int modCount>","type":"load","field":"<java.util.AbstractList: int modCount>"},{"step":5,"from":"sdaReg2","to":"1093283664","type":"store","field":"<java.util.AbstractList: int modCount>"}],"parameters":[{"id":"1093283664","name":"this","klass":"java.util.ArrayList"},{"id":"1093328376","name":"arg#1","klass":"java.lang.Object"}],"returns":[{"id":null,"name":"return","klass":"boolean"}],"colors":{"heapLocToColor":{"1093283664.<java.util.AbstractList: int modCount>":[0],"1093328376":[1],"1093269504":[0],"1093283664":[0],"sdaReg2":[0],"sdaReg1":[0],"1093283664.<java.util.ArrayList: int size>":[0]},"colorToColor":{"0":[0],"1":[0]},"colorToLabel":{"0":"this","1":"arg#1","2":"return"}}}

Generated Model
	arg#1->this

