Scanning method <java.io.PrintWriter: void write(char[])>

All seen event types: SimpleAssignmentRecord, ExitMonitorRecord, MethodReturnRecord, MethodCallRecord, EnterMonitorRecord, LoadInstanceRecord, MethodStartRecord, ArrayLengthRecord, MethodEndRecord, IfRecord, 
Ignored event types: ExitMonitorRecord, EnterMonitorRecord, IfRecord, 

JSON Encoded Analysis Data (for visualization):{"heapEdges":[{"step":0,"from":"1093658288","to":"1093659224","type":"load","field":"<java.io.Writer: java.lang.Object lock>"},{"step":1,"from":"1093658288","to":"1093659224","type":"load","field":"<java.io.PrintWriter: java.io.Writer out>"},{"step":2,"from":"1093658288","to":"1093659224","type":"load","field":"<java.io.PrintWriter: java.io.Writer out>"},{"step":3,"from":"1093659224","to":"1093667744","type":"model"},{"step":4,"from":"1093659224","to":"sdaReg3","type":"model"},{"step":5,"from":"1093659224","to":"sdaReg0","type":"model"},{"step":6,"from":"1093667744","to":"1093659224","type":"model"},{"step":7,"from":"1093667744","to":"sdaReg3","type":"model"},{"step":8,"from":"1093667744","to":"sdaReg0","type":"model"},{"step":9,"from":"sdaReg3","to":"1093659224","type":"model"},{"step":10,"from":"sdaReg3","to":"1093667744","type":"model"},{"step":11,"from":"sdaReg3","to":"sdaReg0","type":"model"},{"step":12,"from":"sdaReg0","to":"1093659224","type":"model"},{"step":13,"from":"sdaReg0","to":"1093667744","type":"model"},{"step":14,"from":"sdaReg0","to":"sdaReg3","type":"model"}],"parameters":[{"id":"1093658288","name":"this","klass":"java.io.PrintWriter"},{"id":"1093667744","name":"arg#1","klass":"char[]"}],"returns":[{"id":null,"name":"return","klass":null}],"colors":{"heapLocToColor":{"1093658288.<java.io.PrintWriter: java.io.Writer out>":[0],"1093658288":[0],"sdaReg4":[0],"1093667744":[0, 1],"sdaReg5":[1],"sdaReg3":[0],"sdaReg2":[1],"sdaReg1":[0],"sdaReg0":[0],"1093659224":[0]},"colorToColor":{"0":[0, 1],"1":[0]},"colorToLabel":{"0":"this","1":"arg#1","2":"return"}}}

Generated Model
	this->arg#1
	arg#1->this

