Scanning method <java.io.PrintWriter: void write(char[])>

All seen event types: SimpleAssignmentRecord, ExitMonitorRecord, MethodStartRecord, LoadInstanceRecord, IfRecord, NewObjectRecord, StoreInstanceRecord, BinaryOperationRecord, MethodCallRecord, MethodReturnRecord, EnterMonitorRecord, ArrayLengthRecord, MethodEndRecord, 
Ignored event types: ExitMonitorRecord, EnterMonitorRecord, IfRecord, 

JSON Encoded Analysis Data (for visualization):{"heapEdges":[{"step":0,"from":"1093637608","to":"1093637640","type":"load","field":"<java.io.Writer: java.lang.Object lock>"},{"step":1,"from":"1093637608","to":"1093637640","type":"load","field":"<java.io.PrintWriter: java.io.Writer out>"},{"step":2,"from":"1093637608","to":"1093637640","type":"load","field":"<java.io.PrintWriter: java.io.Writer out>"},{"step":3,"from":"1093637640","to":"1093637432","type":"load","field":"<java.io.Writer: java.lang.Object lock>"},{"step":4,"from":"1093637640","to":"1093646192","type":"load","field":"<java.io.OutputStreamWriter: java.nio.charset.CharsetEncoder encoder>"},{"step":5,"from":"1093703040","to":"sdaReg30","type":"create","field":"<java.nio.Buffer: int mark>"},{"step":6,"from":"1093703040","to":"sdaReg31","type":"create","field":"<java.nio.Buffer: int position>"},{"step":7,"from":"1093703040","to":"sdaReg28","type":"create","field":"<java.nio.Buffer: int _elementSizeShift>"},{"step":8,"from":"sdaReg22","to":"1093703040","type":"store","field":"<java.nio.Buffer: int limit>"},{"step":9,"from":"sdaReg22","to":"1093703040","type":"store","field":"<java.nio.Buffer: int capacity>"},{"step":10,"from":"1093703008","to":"1093703040","type":"store","field":"<java.nio.CharArrayBuffer: char[] backingArray>"},{"step":11,"from":"1093703040","to":"sdaReg25","type":"create","field":"<java.nio.CharArrayBuffer: int offset>"},{"step":12,"from":"1093703040","to":"sdaReg3","type":"create","field":"<java.nio.Buffer: int position>"},{"step":13,"from":"sdaReg38","to":"1093703040","type":"store","field":"<java.nio.Buffer: int limit>"},{"step":14,"from":"1093637640","to":"1093646192","type":"load","field":"<java.io.OutputStreamWriter: java.nio.charset.CharsetEncoder encoder>"},{"step":15,"from":"1093637640","to":"1093637672","type":"load","field":"<java.io.OutputStreamWriter: java.nio.ByteBuffer bytes>"},{"step":16,"from":"1093646192","to":"1093703040","type":"model"},{"step":17,"from":"1093646192","to":"1093637672","type":"model"},{"step":18,"from":"1093646192","to":"1084215096","type":"model"},{"step":19,"from":"1093703040","to":"1093646192","type":"model"},{"step":20,"from":"1093703040","to":"1093637672","type":"model"},{"step":21,"from":"1093703040","to":"1084215096","type":"model"},{"step":22,"from":"1093637672","to":"1093646192","type":"model"},{"step":23,"from":"1093637672","to":"1093703040","type":"model"},{"step":24,"from":"1093637672","to":"1084215096","type":"model"},{"step":25,"from":"1084215096","to":"1084215096.<java.nio.charset.CoderResult: int type>","type":"load","field":"<java.nio.charset.CoderResult: int type>"},{"step":26,"from":"1084215096","to":"1084215096.<java.nio.charset.CoderResult: int type>","type":"load","field":"<java.nio.charset.CoderResult: int type>"},{"step":27,"from":"1084215096","to":"1084215096.<java.nio.charset.CoderResult: int type>","type":"load","field":"<java.nio.charset.CoderResult: int type>"}],"parameters":[{"id":"1093637608","name":"this","klass":"java.io.PrintWriter"},{"id":"1093703008","name":"arg#1","klass":"char[]"}],"returns":[{"id":null,"name":"return","klass":null}],"colors":{"heapLocToColor":{"1093703008":[1],"1093637640.<java.io.OutputStreamWriter: java.nio.charset.CharsetEncoder encoder>":[0],"1093637608.<java.io.PrintWriter: java.io.Writer out>":[0],"sdaReg39":[2],"sdaReg14":[1],"sdaReg37":[2],"sdaReg10":[0],"1093703040":[0, 2],"sdaReg32":[2],"1093637672":[0],"sdaReg19":[1],"1084215096.<java.nio.charset.CoderResult: int type>":[0, 3],"sdaReg36":[2],"sdaReg35":[2],"sdaReg18":[2],"sdaReg34":[2],"sdaReg33":[2],"1093646192":[0],"sdaReg8":[1],"sdaReg7":[0],"sdaReg4":[0],"sdaReg5":[1],"1093637432":[0],"sdaReg27":[2],"sdaReg26":[2],"sdaReg29":[2],"1084215096":[0, 3],"sdaReg45":[0, 3],"sdaReg2":[1],"sdaReg1":[0],"sdaReg21":[1],"1093637608":[0],"sdaReg20":[2],"sdaReg41":[2],"sdaReg23":[2],"sdaReg40":[0],"sdaReg43":[0, 3],"1093637640":[0],"sdaReg42":[0, 3],"sdaReg24":[1]},"colorToColor":{"0":[0, 2, 3],"1":[2],"2":[0, 3]},"colorToLabel":{"0":"this","1":"arg#1","4":"return"}}}

Generated Model
	arg#1->this

