Scanning method <java.net.InetAddress: byte[] ipv4MappedToIPv4(byte[])>

All seen event types: NewArrayRecord, BinaryOperationRecord, StoreArrayRecord, SimpleAssignmentRecord, LoadArrayRecord, IfRecord, 
Ignored event types: IfRecord, 

JSON Encoded Analysis Data (for visualization):{"heapEdges":[{"step":0,"from":"1093661752","to":"1093661752.arrayIdx_int:12","type":"load","field":"arrayIdx_int:12"},{"step":1,"from":"1093661752.arrayIdx_int:12","to":"1093661944","type":"store","field":"arrayIdx_int:0"},{"step":2,"from":"1093661752","to":"1093661752.arrayIdx_int:13","type":"load","field":"arrayIdx_int:13"},{"step":3,"from":"1093661752.arrayIdx_int:13","to":"1093661944","type":"store","field":"arrayIdx_int:1"},{"step":4,"from":"1093661752","to":"1093661752.arrayIdx_int:14","type":"load","field":"arrayIdx_int:14"},{"step":5,"from":"1093661752.arrayIdx_int:14","to":"1093661944","type":"store","field":"arrayIdx_int:2"},{"step":6,"from":"1093661752","to":"1093661752.arrayIdx_int:15","type":"load","field":"arrayIdx_int:15"},{"step":7,"from":"1093661752.arrayIdx_int:15","to":"1093661944","type":"store","field":"arrayIdx_int:3"}],"parameters":[{"id":"1093661752","name":"arg#0","klass":"byte[]"}],"returns":[{"id":"1093661944","name":"return","klass":"byte[]"}],"colors":{"heapLocToColor":{"1093661752.arrayIdx_int:15":[0],"1093661752.arrayIdx_int:12":[0],"1093661944":[1],"1093661752.arrayIdx_int:14":[0],"1093661752.arrayIdx_int:13":[0],"1093661752":[0]},"colorToColor":{"0":[1],"1":[2]},"colorToLabel":{"0":"arg#0","2":"return"}}}

Generated Model
	arg#0->return

