Scanning method <java.util.Formatter$FormatSpecifierParser: char advance()>

All seen event types: BinaryOperationRecord, MethodReturnRecord, MethodCallRecord, LoadInstanceRecord, IfRecord, StoreInstanceRecord, 
Ignored event types: IfRecord, 

JSON Encoded Analysis Data (for visualization):{"heapEdges":[{"step":0,"from":"1093279024","to":"1093279024.<java.util.Formatter$FormatSpecifierParser: int i>","type":"load","field":"<java.util.Formatter$FormatSpecifierParser: int i>"},{"step":1,"from":"1093279024","to":"1093279024.<java.util.Formatter$FormatSpecifierParser: int length>","type":"load","field":"<java.util.Formatter$FormatSpecifierParser: int length>"},{"step":2,"from":"1093279024","to":"1093279024.<java.util.Formatter$FormatSpecifierParser: java.lang.String format>","type":"load","field":"<java.util.Formatter$FormatSpecifierParser: java.lang.String format>"},{"step":3,"from":"1093279024","to":"1093279024.<java.util.Formatter$FormatSpecifierParser: int i>","type":"load","field":"<java.util.Formatter$FormatSpecifierParser: int i>"},{"step":4,"from":"sdaReg0","to":"1093279024","type":"store","field":"<java.util.Formatter$FormatSpecifierParser: int i>"},{"step":5,"from":"1093279024.<java.util.Formatter$FormatSpecifierParser: java.lang.String format>","to":"sdaReg1","type":"model"}],"parameters":[{"id":"1093279024","name":"this","klass":"java.util.Formatter$FormatSpecifierParser"}],"returns":[{"id":"sdaReg1","name":"return","klass":"char"}],"colors":{"heapLocToColor":{"1093279024":[0],"1093279024.<java.util.Formatter$FormatSpecifierParser: int length>":[0],"sdaReg1":[0, 1],"1093279024.<java.util.Formatter$FormatSpecifierParser: java.lang.String format>":[0],"sdaReg0":[0],"1093279024.<java.util.Formatter$FormatSpecifierParser: int i>":[0]},"colorToColor":{"0":[0, 2],"1":[2]},"colorToLabel":{"0":"this","2":"return"}}}

Generated Model
	this->return

