Scanning method <java.net.URL: void <init>(java.lang.String)>

All seen event types: SimpleAssignmentRecord, MethodStartRecord, LoadInstanceRecord, IfRecord, StoreInstanceRecord, LoadStaticRecord, BinaryOperationRecord, SwitchRecord, MethodCallRecord, MethodReturnRecord, CastRecord, ArrayLengthRecord, LoadArrayRecord, MethodEndRecord, 
Ignored event types: SwitchRecord, IfRecord, 

JSON Encoded Analysis Data (for visualization):{"heapEdges":[{"step":0,"from":"1093691296","to":"sdaReg5","type":"create","field":"<java.net.URL: int port>"},{"step":1,"from":"sdaReg0","to":"sdaReg6","type":"model"},{"step":2,"from":"sdaReg6","to":"sdaReg7","type":"model"},{"step":3,"from":"sdaReg6","to":"sdaReg9","type":"model"},{"step":4,"from":"sdaReg6","to":"sdaReg11","type":"model"},{"step":5,"from":"sdaReg6","to":"sdaReg13","type":"model"},{"step":6,"from":"sdaReg6","to":"sdaReg15","type":"model"},{"step":7,"from":"sdaReg6","to":"sdaReg17","type":"model"},{"step":8,"from":"static.<java.util.Locale: java.util.Locale US>","to":"1084317688","type":"load","field":"<java.util.Locale: java.util.Locale US>"},{"step":9,"from":"sdaReg17","to":"1084317688","type":"model"},{"step":10,"from":"sdaReg17","to":"sdaReg18","type":"model"},{"step":11,"from":"1084317688","to":"sdaReg17","type":"model"},{"step":12,"from":"1084317688","to":"sdaReg18","type":"model"},{"step":13,"from":"sdaReg18","to":"1093691296","type":"store","field":"<java.net.URL: java.lang.String protocol>"},{"step":14,"from":"static.<java.net.URL: java.util.Hashtable streamHandlers>","to":"1084315112","type":"load","field":"<java.net.URL: java.util.Hashtable streamHandlers>"},{"step":15,"from":"1084315112","to":"1084321912","type":"load","field":"<java.util.Hashtable: java.util.Hashtable$HashtableEntry[] table>"},{"step":16,"from":"1084321912","to":"1093691264","type":"load","field":"arrayIdx_int:1"},{"step":17,"from":"1093691264","to":"1084321368","type":"load","field":"<java.util.Hashtable$HashtableEntry: java.lang.Object key>"},{"step":18,"from":"1093691264","to":"1093691264.<java.util.Hashtable$HashtableEntry: int hash>","type":"load","field":"<java.util.Hashtable$HashtableEntry: int hash>"},{"step":19,"from":"1093691264","to":"1093681040","type":"load","field":"<java.util.Hashtable$HashtableEntry: java.lang.Object value>"},{"step":20,"from":"1093681040","to":"1093691296","type":"store","field":"<java.net.URL: java.net.URLStreamHandler streamHandler>"},{"step":21,"from":"sdaReg6","to":"sdaReg21","type":"model"},{"step":22,"from":"sdaReg6","to":"sdaReg44","type":"model"},{"step":23,"from":"sdaReg21","to":"sdaReg6","type":"model"},{"step":24,"from":"sdaReg21","to":"sdaReg44","type":"model"},{"step":25,"from":"1093691296","to":"1093691296.<java.net.URL: java.lang.String authority>","type":"load","field":"<java.net.URL: java.lang.String authority>"},{"step":26,"from":"1093691296","to":"1093691296.<java.net.URL: java.lang.String userInfo>","type":"load","field":"<java.net.URL: java.lang.String userInfo>"},{"step":27,"from":"1093691296","to":"1093691296.<java.net.URL: java.lang.String host>","type":"load","field":"<java.net.URL: java.lang.String host>"},{"step":28,"from":"1093691296","to":"1093691296.<java.net.URL: java.lang.String path>","type":"load","field":"<java.net.URL: java.lang.String path>"},{"step":29,"from":"1093691296","to":"1093691296.<java.net.URL: java.lang.String query>","type":"load","field":"<java.net.URL: java.lang.String query>"},{"step":30,"from":"1093691296","to":"1093691296.<java.net.URL: java.lang.String ref>","type":"load","field":"<java.net.URL: java.lang.String ref>"},{"step":31,"from":"sdaReg6","to":"sdaReg55","type":"model"},{"step":32,"from":"sdaReg6","to":"sdaReg58","type":"model"},{"step":33,"from":"sdaReg56","to":"sdaReg58","type":"model"},{"step":34,"from":"sdaReg56","to":"sdaReg59","type":"model"},{"step":35,"from":"sdaReg58","to":"sdaReg56","type":"model"},{"step":36,"from":"sdaReg58","to":"sdaReg59","type":"model"},{"step":37,"from":"sdaReg6","to":"sdaReg60","type":"model"},{"step":38,"from":"sdaReg56","to":"sdaReg60","type":"model"},{"step":39,"from":"sdaReg56","to":"sdaReg61","type":"model"},{"step":40,"from":"sdaReg60","to":"sdaReg56","type":"model"},{"step":41,"from":"sdaReg60","to":"sdaReg61","type":"model"},{"step":42,"from":"sdaReg6","to":"sdaReg62","type":"model"},{"step":43,"from":"sdaReg56","to":"sdaReg62","type":"model"},{"step":44,"from":"sdaReg56","to":"sdaReg63","type":"model"},{"step":45,"from":"sdaReg62","to":"sdaReg56","type":"model"},{"step":46,"from":"sdaReg62","to":"sdaReg63","type":"model"},{"step":47,"from":"sdaReg6","to":"sdaReg64","type":"model"},{"step":48,"from":"sdaReg64","to":"sdaReg65","type":"model"},{"step":49,"from":"sdaReg64","to":"sdaReg72","type":"model"},{"step":50,"from":"sdaReg64","to":"sdaReg78","type":"model"},{"step":51,"from":"sdaReg64","to":"sdaReg81","type":"model"},{"step":52,"from":"sdaReg64","to":"sdaReg67","type":"model"},{"step":53,"from":"sdaReg64","to":"sdaReg82","type":"model"},{"step":54,"from":"sdaReg67","to":"sdaReg64","type":"model"},{"step":55,"from":"sdaReg67","to":"sdaReg82","type":"model"},{"step":56,"from":"1093691296.<java.net.URL: java.lang.String host>","to":"1093691296","type":"store","field":"<java.net.URL: java.lang.String host>"},{"step":57,"from":"sdaReg91","to":"1093691296","type":"store","field":"<java.net.URL: java.lang.String file>"},{"step":58,"from":"sdaReg50","to":"1093691296","type":"store","field":"<java.net.URL: int port>"},{"step":59,"from":"1093691296.<java.net.URL: java.lang.String ref>","to":"1093691296","type":"store","field":"<java.net.URL: java.lang.String ref>"},{"step":60,"from":"1093691296","to":"sdaReg93","type":"create","field":"<java.net.URL: int hashCode>"},{"step":61,"from":"1093691296","to":"sdaReg99","type":"create","field":"<java.net.URL: java.lang.String userInfo>"},{"step":62,"from":"1093691296","to":"sdaReg102","type":"create","field":"<java.net.URL: java.lang.String query>"},{"step":63,"from":"sdaReg103","to":"1093691296","type":"store","field":"<java.net.URL: java.lang.String path>"},{"step":64,"from":"1093691296.<java.net.URL: java.lang.String authority>","to":"1093691296","type":"store","field":"<java.net.URL: java.lang.String authority>"},{"step":65,"from":"1093691296.<java.net.URL: java.lang.String userInfo>","to":"1093691296","type":"store","field":"<java.net.URL: java.lang.String userInfo>"},{"step":66,"from":"sdaReg64","to":"1093691296","type":"store","field":"<java.net.URL: java.lang.String path>"},{"step":67,"from":"1093691296.<java.net.URL: java.lang.String query>","to":"1093691296","type":"store","field":"<java.net.URL: java.lang.String query>"}],"parameters":[{"id":"1093691296","name":"this","klass":"java.net.URL"},{"id":"sdaReg0","name":"arg#1","klass":"string"}],"returns":[{"id":"1093691296","name":"return","klass":"java.net.URL"}],"colors":{"heapLocToColor":{"sdaReg67":[1, 2, 24],"1093691296.<java.net.URL: java.lang.String ref>":[0],"sdaReg64":[1, 2, 24],"sdaReg65":[1, 2, 25, 24],"sdaReg62":[1, 2, 22],"sdaReg63":[23],"sdaReg13":[1, 2, 6],"sdaReg72":[1, 2, 24, 28],"sdaReg71":[27],"sdaReg11":[1, 2, 5],"sdaReg70":[26],"1093691296.<java.net.URL: java.lang.String host>":[0],"sdaReg19":[11],"sdaReg17":[1, 2, 8],"sdaReg18":[1, 2, 8, 10],"sdaReg15":[1, 2, 7],"1093691296.<java.net.URL: java.lang.String query>":[0],"sdaReg77":[30],"sdaReg78":[1, 2, 24, 31],"sdaReg79":[32],"sdaReg74":[1, 2, 24],"sdaReg75":[1, 2, 24],"sdaReg76":[29],"sdaReg81":[34, 1, 2, 24],"1084321912":[12],"sdaReg80":[33],"sdaReg83":[36],"sdaReg82":[1, 35, 2, 24],"1093691296":[0],"1084315112":[12],"static.<java.net.URL: java.util.Hashtable streamHandlers>":[12],"sdaReg104":[0],"sdaReg86":[0],"sdaReg84":[37],"sdaReg85":[38],"sdaReg88":[12],"sdaReg89":[0],"sdaReg90":[0],"1093691264":[12],"sdaReg94":[0],"sdaReg92":[0],"sdaReg91":[1, 2, 24],"sdaReg100":[41],"sdaReg101":[41],"sdaReg96":[39],"sdaReg97":[40],"sdaReg98":[40],"1093691296.<java.net.URL: java.lang.String authority>":[0],"sdaReg60":[1, 2, 20],"1093691264.<java.util.Hashtable$HashtableEntry: int hash>":[12],"sdaReg61":[21],"1084321368":[12],"sdaReg59":[19],"sdaReg58":[1, 2, 18],"1093681040":[12],"sdaReg57":[1, 2, 11],"sdaReg55":[17, 1, 2],"sdaReg54":[1, 2, 11, 15],"sdaReg53":[0],"sdaReg52":[0],"sdaReg51":[0],"1084317688":[1, 2, 8, 9],"sdaReg49":[0],"sdaReg48":[0],"sdaReg45":[1, 2, 11],"sdaReg44":[1, 16, 2],"sdaReg47":[0],"sdaReg46":[0],"sdaReg41":[12],"sdaReg40":[15],"sdaReg42":[0],"1093691296.<java.net.URL: java.lang.String userInfo>":[0],"1093691296.<java.net.URL: java.lang.String path>":[0],"sdaReg39":[12],"sdaReg38":[12],"sdaReg37":[14],"sdaReg32":[13],"sdaReg31":[13],"sdaReg30":[13],"sdaReg36":[13],"sdaReg33":[13],"sdaReg9":[1, 2, 4],"sdaReg6":[1, 2],"sdaReg7":[1, 2, 3],"sdaReg4":[0],"sdaReg27":[13],"sdaReg26":[13],"sdaReg29":[13],"static.<java.util.Locale: java.util.Locale US>":[9],"sdaReg28":[13],"sdaReg2":[0],"sdaReg21":[1, 2, 11],"sdaReg0":[1],"sdaReg20":[11],"sdaReg23":[12],"sdaReg22":[0],"sdaReg25":[13]},"colorToColor":{"0":[0, 42],"1":[0, 35, 16, 1, 19, 2, 21, 23, 8, 24, 10],"2":[0, 35, 16, 1, 19, 2, 21, 23, 8, 24, 10],"18":[19],"20":[21],"22":[23],"8":[0, 1, 2, 8, 10],"24":[0, 35, 1, 2, 24],"9":[1, 2, 8, 10],"10":[0],"11":[16, 1, 2],"12":[0]},"colorToLabel":{"0":"this","1":"arg#1","9":"<java.util.Locale: java.util.Locale US>","12":"<java.net.URL: java.util.Hashtable streamHandlers>","42":"return"}}}

Generated Model
	this->return
	arg#1->this
	arg#1->return

