Scanning method <java.net.URL: void <init>(java.lang.String)>

All seen event types: StoreArrayRecord, SimpleAssignmentRecord, MethodStartRecord, LoadInstanceRecord, IfRecord, NewObjectRecord, StoreInstanceRecord, LoadStaticRecord, BinaryOperationRecord, SwitchRecord, MethodCallRecord, MethodReturnRecord, CastRecord, ArrayLengthRecord, LoadArrayRecord, MethodEndRecord, 
Ignored event types: SwitchRecord, IfRecord, 

JSON Encoded Analysis Data (for visualization):{"heapEdges":[{"step":0,"from":"1093638224","to":"sdaReg5","type":"create","field":"<java.net.URL: int port>"},{"step":1,"from":"sdaReg0","to":"sdaReg6","type":"model"},{"step":2,"from":"sdaReg6","to":"sdaReg7","type":"model"},{"step":3,"from":"sdaReg6","to":"sdaReg9","type":"model"},{"step":4,"from":"sdaReg6","to":"sdaReg11","type":"model"},{"step":5,"from":"sdaReg6","to":"sdaReg13","type":"model"},{"step":6,"from":"sdaReg6","to":"sdaReg15","type":"model"},{"step":7,"from":"sdaReg6","to":"sdaReg17","type":"model"},{"step":8,"from":"static.<java.util.Locale: java.util.Locale US>","to":"1084317688","type":"load","field":"<java.util.Locale: java.util.Locale US>"},{"step":9,"from":"sdaReg17","to":"1084317688","type":"model"},{"step":10,"from":"sdaReg17","to":"sdaReg18","type":"model"},{"step":11,"from":"1084317688","to":"sdaReg17","type":"model"},{"step":12,"from":"1084317688","to":"sdaReg18","type":"model"},{"step":13,"from":"sdaReg18","to":"1093638224","type":"store","field":"<java.net.URL: java.lang.String protocol>"},{"step":14,"from":"static.<java.net.URL: java.util.Hashtable streamHandlers>","to":"1084315112","type":"load","field":"<java.net.URL: java.util.Hashtable streamHandlers>"},{"step":15,"from":"1084315112","to":"1084321912","type":"load","field":"<java.util.Hashtable: java.util.Hashtable$HashtableEntry[] table>"},{"step":16,"from":"1093447936","to":"1093274184","type":"model"},{"step":17,"from":"1093638224","to":"1093660400","type":"create","field":"<java.net.URL: java.net.URLStreamHandler streamHandler>"},{"step":18,"from":"static.<java.net.URL: java.util.Hashtable streamHandlers>","to":"1084315112","type":"load","field":"<java.net.URL: java.util.Hashtable streamHandlers>"},{"step":19,"from":"1084315112","to":"1084321912","type":"load","field":"<java.util.Hashtable: java.util.Hashtable$HashtableEntry[] table>"},{"step":20,"from":"1084315112","to":"1084315112.<java.util.Hashtable: int modCount>","type":"load","field":"<java.util.Hashtable: int modCount>"},{"step":21,"from":"sdaReg66","to":"1084315112","type":"store","field":"<java.util.Hashtable: int modCount>"},{"step":22,"from":"1084315112","to":"1084315112.<java.util.Hashtable: int size>","type":"load","field":"<java.util.Hashtable: int size>"},{"step":23,"from":"sdaReg67","to":"1084315112","type":"store","field":"<java.util.Hashtable: int size>"},{"step":24,"from":"1084315112","to":"1084315112.<java.util.Hashtable: int threshold>","type":"load","field":"<java.util.Hashtable: int threshold>"},{"step":25,"from":"1093638800","to":"1093660480","type":"store","field":"<java.util.Hashtable$HashtableEntry: java.lang.Object key>"},{"step":26,"from":"1093660400","to":"1093660480","type":"store","field":"<java.util.Hashtable$HashtableEntry: java.lang.Object value>"},{"step":27,"from":"sdaReg61","to":"1093660480","type":"store","field":"<java.util.Hashtable$HashtableEntry: int hash>"},{"step":28,"from":"1084321912","to":"1093660480","type":"create","field":"arrayIdx_int:1"},{"step":29,"from":"sdaReg6","to":"sdaReg21","type":"model"},{"step":30,"from":"sdaReg6","to":"sdaReg78","type":"model"},{"step":31,"from":"sdaReg21","to":"sdaReg6","type":"model"},{"step":32,"from":"sdaReg21","to":"sdaReg78","type":"model"},{"step":33,"from":"sdaReg6","to":"sdaReg82","type":"model"},{"step":34,"from":"sdaReg80","to":"sdaReg82","type":"model"},{"step":35,"from":"sdaReg80","to":"sdaReg83","type":"model"},{"step":36,"from":"sdaReg82","to":"sdaReg80","type":"model"},{"step":37,"from":"sdaReg82","to":"sdaReg83","type":"model"},{"step":38,"from":"sdaReg6","to":"sdaReg84","type":"model"},{"step":39,"from":"sdaReg80","to":"sdaReg84","type":"model"},{"step":40,"from":"sdaReg80","to":"sdaReg85","type":"model"},{"step":41,"from":"sdaReg84","to":"sdaReg80","type":"model"},{"step":42,"from":"sdaReg84","to":"sdaReg85","type":"model"},{"step":43,"from":"sdaReg6","to":"sdaReg86","type":"model"},{"step":44,"from":"sdaReg6","to":"sdaReg89","type":"model"},{"step":45,"from":"sdaReg87","to":"sdaReg89","type":"model"},{"step":46,"from":"sdaReg87","to":"sdaReg90","type":"model"},{"step":47,"from":"sdaReg89","to":"sdaReg87","type":"model"},{"step":48,"from":"sdaReg89","to":"sdaReg90","type":"model"},{"step":49,"from":"sdaReg6","to":"sdaReg96","type":"model"},{"step":50,"from":"sdaReg94","to":"sdaReg96","type":"model"},{"step":51,"from":"sdaReg94","to":"sdaReg97","type":"model"},{"step":52,"from":"sdaReg96","to":"sdaReg94","type":"model"},{"step":53,"from":"sdaReg96","to":"sdaReg97","type":"model"},{"step":54,"from":"sdaReg6","to":"sdaReg100","type":"model"},{"step":55,"from":"sdaReg98","to":"sdaReg100","type":"model"},{"step":56,"from":"sdaReg98","to":"sdaReg101","type":"model"},{"step":57,"from":"sdaReg100","to":"sdaReg98","type":"model"},{"step":58,"from":"sdaReg100","to":"sdaReg101","type":"model"},{"step":59,"from":"sdaReg6","to":"sdaReg102","type":"model"},{"step":60,"from":"sdaReg6","to":"sdaReg108","type":"model"},{"step":61,"from":"sdaReg6","to":"sdaReg111","type":"model"},{"step":62,"from":"sdaReg109","to":"sdaReg111","type":"model"},{"step":63,"from":"sdaReg109","to":"sdaReg112","type":"model"},{"step":64,"from":"sdaReg111","to":"sdaReg109","type":"model"},{"step":65,"from":"sdaReg111","to":"sdaReg112","type":"model"},{"step":66,"from":"sdaReg6","to":"sdaReg113","type":"model"},{"step":67,"from":"sdaReg113","to":"sdaReg114","type":"model"},{"step":68,"from":"sdaReg113","to":"sdaReg121","type":"model"},{"step":69,"from":"sdaReg86","to":"sdaReg128","type":"model"},{"step":70,"from":"sdaReg113","to":"sdaReg129","type":"model"},{"step":71,"from":"sdaReg113","to":"sdaReg130","type":"model"},{"step":72,"from":"sdaReg102","to":"1093638224","type":"store","field":"<java.net.URL: java.lang.String host>"},{"step":73,"from":"sdaReg136","to":"1093638224","type":"store","field":"<java.net.URL: java.lang.String file>"},{"step":74,"from":"sdaReg77","to":"1093638224","type":"store","field":"<java.net.URL: int port>"},{"step":75,"from":"sdaReg106","to":"1093638224","type":"store","field":"<java.net.URL: java.lang.String ref>"},{"step":76,"from":"1093638224","to":"sdaReg138","type":"create","field":"<java.net.URL: int hashCode>"},{"step":77,"from":"sdaReg142","to":"1093638224","type":"store","field":"<java.net.URL: java.lang.String authority>"},{"step":78,"from":"1093638224","to":"sdaReg145","type":"create","field":"<java.net.URL: java.lang.String userInfo>"},{"step":79,"from":"1093638224","to":"sdaReg148","type":"create","field":"<java.net.URL: java.lang.String query>"},{"step":80,"from":"sdaReg149","to":"1093638224","type":"store","field":"<java.net.URL: java.lang.String path>"},{"step":81,"from":"sdaReg86","to":"1093638224","type":"store","field":"<java.net.URL: java.lang.String authority>"},{"step":82,"from":"sdaReg91","to":"1093638224","type":"store","field":"<java.net.URL: java.lang.String userInfo>"},{"step":83,"from":"sdaReg113","to":"1093638224","type":"store","field":"<java.net.URL: java.lang.String path>"},{"step":84,"from":"sdaReg105","to":"1093638224","type":"store","field":"<java.net.URL: java.lang.String query>"}],"parameters":[{"id":"1093638224","name":"this","klass":"java.net.URL"},{"id":"sdaReg0","name":"arg#1","klass":"string"}],"returns":[{"id":"1093638224","name":"return","klass":"java.net.URL"}],"colors":{"heapLocToColor":{"sdaReg125":[46],"sdaReg126":[47],"1084315112.<java.util.Hashtable: int modCount>":[12],"sdaReg127":[48],"sdaReg128":[1, 2, 49, 30],"sdaReg129":[1, 50, 2, 41],"sdaReg68":[23],"sdaReg66":[12],"sdaReg67":[12],"sdaReg64":[22],"sdaReg13":[1, 2, 6],"sdaReg72":[23],"sdaReg11":[1, 2, 5],"sdaReg70":[21],"sdaReg120":[44],"sdaReg19":[11],"sdaReg17":[1, 2, 8],"sdaReg121":[1, 2, 41, 45],"sdaReg18":[1, 2, 8, 10],"sdaReg15":[1, 2, 7],"sdaReg114":[1, 2, 42, 41],"sdaReg119":[43],"1084315112.<java.util.Hashtable: int size>":[12],"sdaReg78":[1, 2, 25],"sdaReg79":[1, 2, 11],"sdaReg73":[23],"sdaReg74":[24],"sdaReg75":[21],"sdaReg76":[0],"sdaReg81":[1, 2, 11],"1084321912":[12],"sdaReg83":[27],"sdaReg82":[1, 2, 26],"sdaReg113":[1, 2, 41],"sdaReg112":[40],"sdaReg111":[1, 2, 39],"1084315112":[12],"sdaReg110":[1, 2, 11],"static.<java.net.URL: java.util.Hashtable streamHandlers>":[12],"sdaReg107":[1, 2, 24, 11],"sdaReg108":[1, 2, 38],"sdaReg103":[1, 2, 11],"sdaReg86":[1, 2, 30],"sdaReg84":[1, 2, 28],"sdaReg85":[29],"sdaReg88":[1, 2, 11],"sdaReg89":[1, 2, 31],"sdaReg90":[32],"1084315112.<java.util.Hashtable: java.util.Hashtable$HashtableEntry[] table>":[12],"sdaReg93":[1, 2, 11],"sdaReg92":[1, 2, 11],"sdaReg100":[1, 35, 2],"sdaReg102":[1, 2, 37],"sdaReg101":[36],"1093638224":[0],"1093274184":[17, 16],"sdaReg95":[1, 2, 11],"sdaReg96":[1, 2, 33],"sdaReg97":[34],"sdaReg99":[1, 2, 11],"static.<java.net.URL: java.net.URLStreamHandlerFactory streamHandlerFactory>":[14],"sdaReg60":[22],"sdaReg61":[22],"1084315112.<java.util.Hashtable: int threshold>":[12],"1093660400":[21],"1093660480":[23],"sdaReg59":[22],"sdaReg58":[22],"sdaReg57":[22],"sdaReg56":[22],"sdaReg55":[22],"sdaReg54":[22],"sdaReg53":[22],"sdaReg52":[21],"sdaReg50":[12],"1084317688":[1, 2, 8, 9],"sdaReg150":[0],"sdaReg49":[21],"sdaReg48":[21],"sdaReg45":[21],"sdaReg44":[20],"sdaReg47":[21],"sdaReg46":[21],"sdaReg41":[17, 16],"sdaReg40":[16],"sdaReg43":[19],"sdaReg42":[18],"sdaReg147":[54],"sdaReg143":[53],"sdaReg144":[53],"sdaReg39":[15],"sdaReg146":[54],"sdaReg141":[52],"sdaReg32":[13],"sdaReg31":[13],"sdaReg30":[13],"sdaReg36":[13],"sdaReg33":[13],"sdaReg9":[1, 2, 4],"sdaReg6":[1, 2],"sdaReg7":[1, 2, 3],"sdaReg4":[0],"sdaReg139":[0],"sdaReg137":[0],"sdaReg136":[1, 2, 41],"sdaReg134":[0],"sdaReg27":[13],"sdaReg135":[0],"sdaReg26":[13],"sdaReg29":[13],"sdaReg133":[21],"static.<java.util.Locale: java.util.Locale US>":[9],"sdaReg28":[13],"sdaReg130":[51, 1, 2, 41],"sdaReg131":[0],"sdaReg2":[0],"sdaReg21":[1, 2, 11],"sdaReg0":[1],"sdaReg20":[11],"sdaReg23":[12],"sdaReg22":[0],"1093447936":[16],"sdaReg25":[13]},"colorToColor":{"0":[55],"35":[36],"1":[34, 0, 1, 32, 2, 36, 25, 8, 40, 27, 10, 29],"2":[34, 0, 1, 32, 2, 36, 25, 8, 40, 27, 10, 29],"33":[34],"39":[40],"37":[0],"8":[0, 1, 2, 8, 10],"9":[1, 2, 8, 10],"10":[0],"41":[0],"11":[1, 2, 25],"12":[12],"21":[0, 23],"23":[12],"22":[23],"26":[27],"28":[29],"31":[32],"30":[0]},"colorToLabel":{"0":"this","1":"arg#1","9":"<java.util.Locale: java.util.Locale US>","12":"<java.net.URL: java.util.Hashtable streamHandlers>","14":"<java.net.URL: java.net.URLStreamHandlerFactory streamHandlerFactory>","55":"return"}}}

Generated Model
	this->return
	arg#1->this
	arg#1->return

