Scanning method <java.net.URL: void <init>(java.lang.String)>

All seen event types: StoreArrayRecord, SimpleAssignmentRecord, MethodStartRecord, LoadInstanceRecord, IfRecord, NewObjectRecord, StoreInstanceRecord, LoadStaticRecord, BinaryOperationRecord, MethodCallRecord, MethodReturnRecord, CastRecord, ArrayLengthRecord, LoadArrayRecord, MethodEndRecord, 
Ignored event types: IfRecord, 

JSON Encoded Analysis Data (for visualization):{"heapEdges":[{"step":0,"from":"1093651992","to":"sdaReg5","type":"create","field":"<java.net.URL: int port>"},{"step":1,"from":"sdaReg0","to":"sdaReg6","type":"model"},{"step":2,"from":"sdaReg6","to":"sdaReg7","type":"model"},{"step":3,"from":"sdaReg6","to":"sdaReg9","type":"model"},{"step":4,"from":"sdaReg6","to":"sdaReg11","type":"model"},{"step":5,"from":"sdaReg6","to":"sdaReg13","type":"model"},{"step":6,"from":"sdaReg6","to":"sdaReg15","type":"model"},{"step":7,"from":"sdaReg6","to":"sdaReg17","type":"model"},{"step":8,"from":"static.<java.util.Locale: java.util.Locale US>","to":"1084317688","type":"load","field":"<java.util.Locale: java.util.Locale US>"},{"step":9,"from":"sdaReg17","to":"1084317688","type":"model"},{"step":10,"from":"sdaReg17","to":"sdaReg18","type":"model"},{"step":11,"from":"1084317688","to":"sdaReg17","type":"model"},{"step":12,"from":"1084317688","to":"sdaReg18","type":"model"},{"step":13,"from":"sdaReg18","to":"1093651992","type":"store","field":"<java.net.URL: java.lang.String protocol>"},{"step":14,"from":"static.<java.net.URL: java.util.Hashtable streamHandlers>","to":"1084315112","type":"load","field":"<java.net.URL: java.util.Hashtable streamHandlers>"},{"step":15,"from":"1084315112","to":"1084321912","type":"load","field":"<java.util.Hashtable: java.util.Hashtable$HashtableEntry[] table>"},{"step":16,"from":"1093472352","to":"1093298752","type":"model"},{"step":17,"from":"1093651992","to":"1093653880","type":"create","field":"<java.net.URL: java.net.URLStreamHandler streamHandler>"},{"step":18,"from":"static.<java.net.URL: java.util.Hashtable streamHandlers>","to":"1084315112","type":"load","field":"<java.net.URL: java.util.Hashtable streamHandlers>"},{"step":19,"from":"1084315112","to":"1084321912","type":"load","field":"<java.util.Hashtable: java.util.Hashtable$HashtableEntry[] table>"},{"step":20,"from":"1084315112","to":"1084315112.<java.util.Hashtable: int modCount>","type":"load","field":"<java.util.Hashtable: int modCount>"},{"step":21,"from":"sdaReg66","to":"1084315112","type":"store","field":"<java.util.Hashtable: int modCount>"},{"step":22,"from":"1084315112","to":"1084315112.<java.util.Hashtable: int size>","type":"load","field":"<java.util.Hashtable: int size>"},{"step":23,"from":"sdaReg67","to":"1084315112","type":"store","field":"<java.util.Hashtable: int size>"},{"step":24,"from":"1084315112","to":"1084315112.<java.util.Hashtable: int threshold>","type":"load","field":"<java.util.Hashtable: int threshold>"},{"step":25,"from":"1093652688","to":"1093653960","type":"store","field":"<java.util.Hashtable$HashtableEntry: java.lang.Object key>"},{"step":26,"from":"1093653880","to":"1093653960","type":"store","field":"<java.util.Hashtable$HashtableEntry: java.lang.Object value>"},{"step":27,"from":"sdaReg61","to":"1093653960","type":"store","field":"<java.util.Hashtable$HashtableEntry: int hash>"},{"step":28,"from":"1084321912","to":"1093653960","type":"create","field":"arrayIdx_int:1"},{"step":29,"from":"sdaReg6","to":"sdaReg21","type":"model"},{"step":30,"from":"sdaReg6","to":"sdaReg78","type":"model"},{"step":31,"from":"sdaReg21","to":"sdaReg6","type":"model"},{"step":32,"from":"sdaReg21","to":"sdaReg78","type":"model"},{"step":33,"from":"sdaReg6","to":"sdaReg82","type":"model"},{"step":34,"from":"sdaReg80","to":"sdaReg82","type":"model"},{"step":35,"from":"sdaReg80","to":"sdaReg83","type":"model"},{"step":36,"from":"sdaReg82","to":"sdaReg80","type":"model"},{"step":37,"from":"sdaReg82","to":"sdaReg83","type":"model"},{"step":38,"from":"sdaReg6","to":"sdaReg84","type":"model"},{"step":39,"from":"sdaReg80","to":"sdaReg84","type":"model"},{"step":40,"from":"sdaReg80","to":"sdaReg85","type":"model"},{"step":41,"from":"sdaReg84","to":"sdaReg80","type":"model"},{"step":42,"from":"sdaReg84","to":"sdaReg85","type":"model"},{"step":43,"from":"sdaReg6","to":"sdaReg86","type":"model"},{"step":44,"from":"sdaReg80","to":"sdaReg86","type":"model"},{"step":45,"from":"sdaReg80","to":"sdaReg87","type":"model"},{"step":46,"from":"sdaReg86","to":"sdaReg80","type":"model"},{"step":47,"from":"sdaReg86","to":"sdaReg87","type":"model"},{"step":48,"from":"sdaReg6","to":"sdaReg88","type":"model"},{"step":49,"from":"sdaReg80","to":"sdaReg88","type":"model"},{"step":50,"from":"sdaReg80","to":"sdaReg89","type":"model"},{"step":51,"from":"sdaReg88","to":"sdaReg80","type":"model"},{"step":52,"from":"sdaReg88","to":"sdaReg89","type":"model"},{"step":53,"from":"sdaReg6","to":"sdaReg90","type":"model"},{"step":54,"from":"sdaReg6","to":"sdaReg93","type":"model"},{"step":55,"from":"sdaReg91","to":"sdaReg93","type":"model"},{"step":56,"from":"sdaReg91","to":"sdaReg94","type":"model"},{"step":57,"from":"sdaReg93","to":"sdaReg91","type":"model"},{"step":58,"from":"sdaReg93","to":"sdaReg94","type":"model"},{"step":59,"from":"sdaReg6","to":"sdaReg95","type":"model"},{"step":60,"from":"sdaReg91","to":"sdaReg95","type":"model"},{"step":61,"from":"sdaReg91","to":"sdaReg96","type":"model"},{"step":62,"from":"sdaReg95","to":"sdaReg91","type":"model"},{"step":63,"from":"sdaReg95","to":"sdaReg96","type":"model"},{"step":64,"from":"sdaReg6","to":"sdaReg97","type":"model"},{"step":65,"from":"sdaReg91","to":"sdaReg97","type":"model"},{"step":66,"from":"sdaReg91","to":"sdaReg98","type":"model"},{"step":67,"from":"sdaReg97","to":"sdaReg91","type":"model"},{"step":68,"from":"sdaReg97","to":"sdaReg98","type":"model"},{"step":69,"from":"sdaReg6","to":"sdaReg99","type":"model"},{"step":70,"from":"sdaReg91","to":"sdaReg99","type":"model"},{"step":71,"from":"sdaReg91","to":"sdaReg100","type":"model"},{"step":72,"from":"sdaReg99","to":"sdaReg91","type":"model"},{"step":73,"from":"sdaReg99","to":"sdaReg100","type":"model"},{"step":74,"from":"sdaReg6","to":"sdaReg106","type":"model"},{"step":75,"from":"sdaReg104","to":"sdaReg106","type":"model"},{"step":76,"from":"sdaReg104","to":"sdaReg107","type":"model"},{"step":77,"from":"sdaReg106","to":"sdaReg104","type":"model"},{"step":78,"from":"sdaReg106","to":"sdaReg107","type":"model"},{"step":79,"from":"sdaReg6","to":"sdaReg108","type":"model"},{"step":80,"from":"sdaReg104","to":"sdaReg108","type":"model"},{"step":81,"from":"sdaReg104","to":"sdaReg109","type":"model"},{"step":82,"from":"sdaReg108","to":"sdaReg104","type":"model"},{"step":83,"from":"sdaReg108","to":"sdaReg109","type":"model"},{"step":84,"from":"sdaReg6","to":"sdaReg110","type":"model"},{"step":85,"from":"sdaReg104","to":"sdaReg110","type":"model"},{"step":86,"from":"sdaReg104","to":"sdaReg111","type":"model"},{"step":87,"from":"sdaReg110","to":"sdaReg104","type":"model"},{"step":88,"from":"sdaReg110","to":"sdaReg111","type":"model"},{"step":89,"from":"sdaReg6","to":"sdaReg112","type":"model"},{"step":90,"from":"sdaReg104","to":"sdaReg112","type":"model"},{"step":91,"from":"sdaReg104","to":"sdaReg113","type":"model"},{"step":92,"from":"sdaReg112","to":"sdaReg104","type":"model"},{"step":93,"from":"sdaReg112","to":"sdaReg113","type":"model"},{"step":94,"from":"sdaReg6","to":"sdaReg116","type":"model"},{"step":95,"from":"sdaReg114","to":"sdaReg116","type":"model"},{"step":96,"from":"sdaReg114","to":"sdaReg117","type":"model"},{"step":97,"from":"sdaReg116","to":"sdaReg114","type":"model"},{"step":98,"from":"sdaReg116","to":"sdaReg117","type":"model"},{"step":99,"from":"sdaReg6","to":"sdaReg118","type":"model"},{"step":100,"from":"sdaReg114","to":"sdaReg118","type":"model"},{"step":101,"from":"sdaReg114","to":"sdaReg119","type":"model"},{"step":102,"from":"sdaReg118","to":"sdaReg114","type":"model"},{"step":103,"from":"sdaReg118","to":"sdaReg119","type":"model"},{"step":104,"from":"sdaReg6","to":"sdaReg120","type":"model"},{"step":105,"from":"sdaReg114","to":"sdaReg120","type":"model"},{"step":106,"from":"sdaReg114","to":"sdaReg121","type":"model"},{"step":107,"from":"sdaReg120","to":"sdaReg114","type":"model"},{"step":108,"from":"sdaReg120","to":"sdaReg121","type":"model"},{"step":109,"from":"sdaReg6","to":"sdaReg122","type":"model"},{"step":110,"from":"sdaReg114","to":"sdaReg122","type":"model"},{"step":111,"from":"sdaReg114","to":"sdaReg123","type":"model"},{"step":112,"from":"sdaReg122","to":"sdaReg114","type":"model"},{"step":113,"from":"sdaReg122","to":"sdaReg123","type":"model"},{"step":114,"from":"sdaReg6","to":"sdaReg124","type":"model"},{"step":115,"from":"sdaReg90","to":"sdaReg130","type":"model"},{"step":116,"from":"sdaReg126","to":"sdaReg131","type":"model"},{"step":117,"from":"sdaReg124","to":"1093651992","type":"store","field":"<java.net.URL: java.lang.String host>"},{"step":118,"from":"sdaReg137","to":"1093651992","type":"store","field":"<java.net.URL: java.lang.String file>"},{"step":119,"from":"sdaReg77","to":"1093651992","type":"store","field":"<java.net.URL: int port>"},{"step":120,"from":"sdaReg128","to":"1093651992","type":"store","field":"<java.net.URL: java.lang.String ref>"},{"step":121,"from":"1093651992","to":"sdaReg139","type":"create","field":"<java.net.URL: int hashCode>"},{"step":122,"from":"sdaReg143","to":"1093651992","type":"store","field":"<java.net.URL: java.lang.String authority>"},{"step":123,"from":"1093651992","to":"sdaReg146","type":"create","field":"<java.net.URL: java.lang.String userInfo>"},{"step":124,"from":"1093651992","to":"sdaReg149","type":"create","field":"<java.net.URL: java.lang.String query>"},{"step":125,"from":"sdaReg150","to":"1093651992","type":"store","field":"<java.net.URL: java.lang.String path>"},{"step":126,"from":"sdaReg90","to":"1093651992","type":"store","field":"<java.net.URL: java.lang.String authority>"},{"step":127,"from":"sdaReg101","to":"1093651992","type":"store","field":"<java.net.URL: java.lang.String userInfo>"},{"step":128,"from":"sdaReg126","to":"1093651992","type":"store","field":"<java.net.URL: java.lang.String path>"},{"step":129,"from":"sdaReg127","to":"1093651992","type":"store","field":"<java.net.URL: java.lang.String query>"}],"parameters":[{"id":"1093651992","name":"this","klass":"java.net.URL"},{"id":"sdaReg0","name":"arg#1","klass":"string"}],"returns":[{"id":"1093651992","name":"return","klass":"java.net.URL"}],"colors":{"heapLocToColor":{"sdaReg125":[24],"1093653960":[23],"1084315112.<java.util.Hashtable: int modCount>":[12],"sdaReg129":[24],"sdaReg68":[23],"sdaReg66":[12],"sdaReg67":[12],"sdaReg64":[22],"1093651992":[0],"sdaReg13":[1, 2, 6],"sdaReg72":[23],"sdaReg11":[1, 2, 5],"sdaReg70":[21],"sdaReg120":[1, 2, 55],"sdaReg19":[11],"sdaReg122":[1, 2, 57],"sdaReg17":[1, 2, 8],"sdaReg121":[56],"sdaReg18":[1, 2, 8, 10],"sdaReg124":[1, 2, 59],"sdaReg15":[1, 2, 7],"sdaReg123":[58],"sdaReg116":[51, 1, 2],"sdaReg117":[52],"sdaReg115":[1, 2, 11],"sdaReg118":[1, 2, 53],"sdaReg119":[54],"1084315112.<java.util.Hashtable: int size>":[12],"sdaReg78":[1, 2, 25],"sdaReg79":[1, 2, 11],"sdaReg73":[23],"sdaReg74":[24],"sdaReg75":[21],"sdaReg76":[0],"sdaReg81":[1, 2, 11],"1084321912":[12],"sdaReg83":[27],"sdaReg82":[1, 2, 26],"sdaReg113":[50],"sdaReg112":[1, 2, 49],"sdaReg111":[48],"1084315112":[12],"sdaReg110":[1, 2, 47],"sdaReg107":[44],"static.<java.net.URL: java.util.Hashtable streamHandlers>":[12],"sdaReg108":[1, 2, 45],"sdaReg109":[46],"sdaReg103":[1, 2, 11],"sdaReg105":[1, 2, 11],"sdaReg106":[1, 2, 43],"sdaReg86":[1, 2, 30],"sdaReg87":[31],"sdaReg84":[1, 2, 28],"sdaReg85":[29],"sdaReg88":[1, 2, 32],"sdaReg89":[33],"sdaReg90":[34, 1, 2],"1084315112.<java.util.Hashtable: java.util.Hashtable$HashtableEntry[] table>":[12],"sdaReg94":[36],"sdaReg93":[1, 35, 2],"sdaReg92":[1, 2, 11],"sdaReg100":[42],"sdaReg102":[1, 2, 11],"sdaReg95":[1, 2, 37],"sdaReg96":[38],"sdaReg97":[1, 2, 39],"sdaReg98":[40],"sdaReg99":[1, 2, 41],"static.<java.net.URL: java.net.URLStreamHandlerFactory streamHandlerFactory>":[14],"sdaReg60":[22],"sdaReg61":[22],"1084315112.<java.util.Hashtable: int threshold>":[12],"sdaReg59":[22],"sdaReg58":[22],"sdaReg57":[22],"sdaReg56":[22],"sdaReg55":[22],"sdaReg54":[22],"sdaReg53":[22],"sdaReg52":[21],"sdaReg50":[12],"1084317688":[1, 2, 8, 9],"sdaReg151":[0],"sdaReg49":[21],"sdaReg48":[21],"sdaReg45":[21],"sdaReg44":[20],"sdaReg47":[21],"sdaReg46":[21],"sdaReg41":[17, 16],"sdaReg40":[16],"sdaReg43":[19],"sdaReg42":[18],"1093472352":[16],"sdaReg148":[64],"sdaReg147":[64],"sdaReg144":[63],"sdaReg39":[15],"sdaReg145":[63],"sdaReg140":[0],"sdaReg142":[62],"sdaReg32":[13],"sdaReg31":[13],"sdaReg30":[13],"1093298752":[17, 16],"sdaReg36":[13],"sdaReg33":[13],"sdaReg9":[1, 2, 4],"sdaReg6":[1, 2],"sdaReg7":[1, 2, 3],"sdaReg4":[0],"sdaReg138":[0],"sdaReg136":[0],"sdaReg134":[21],"sdaReg27":[13],"sdaReg135":[0],"sdaReg26":[13],"sdaReg132":[0],"sdaReg29":[13],"static.<java.util.Locale: java.util.Locale US>":[9],"sdaReg28":[13],"sdaReg130":[34, 1, 2, 60],"sdaReg131":[61],"sdaReg2":[0],"1093653880":[21],"sdaReg21":[1, 2, 11],"sdaReg0":[1],"sdaReg20":[11],"sdaReg23":[12],"sdaReg22":[0],"sdaReg25":[13]},"colorToColor":{"0":[65],"1":[0, 1, 2, 33, 38, 36, 42, 8, 10, 40, 46, 44, 50, 48, 54, 52, 25, 58, 27, 56, 29, 31],"2":[0, 1, 2, 33, 38, 36, 42, 8, 10, 40, 46, 44, 50, 48, 54, 52, 25, 58, 27, 56, 29, 31],"8":[0, 1, 2, 8, 10],"9":[1, 2, 8, 10],"10":[0],"11":[1, 2, 25],"12":[12],"21":[0, 23],"23":[12],"22":[23],"26":[27],"28":[29],"30":[31],"34":[0],"35":[36],"32":[33],"39":[40],"37":[38],"43":[44],"41":[42],"47":[48],"45":[46],"51":[52],"49":[50],"55":[56],"53":[54],"59":[0],"57":[58]},"colorToLabel":{"0":"this","1":"arg#1","9":"<java.util.Locale: java.util.Locale US>","12":"<java.net.URL: java.util.Hashtable streamHandlers>","14":"<java.net.URL: java.net.URLStreamHandlerFactory streamHandlerFactory>","65":"return"}}}

Generated Model
	this->return
	arg#1->this
	arg#1->return

