Scanning method <java.io.ObjectInputStream: void readStreamHeader()>

All seen event types: LoadStaticRecord, MethodReturnRecord, MethodCallRecord, MethodStartRecord, LoadInstanceRecord, IfRecord, MethodEndRecord, 
Ignored event types: IfRecord, 

JSON Encoded Analysis Data (for visualization):{"heapEdges":[{"step":0,"from":"1093539856","to":"1093540056","type":"load","field":"<java.io.ObjectInputStream: java.io.DataInputStream input>"},{"step":1,"from":"1093540056","to":"1093499328","type":"load","field":"<java.io.FilterInputStream: java.io.InputStream in>"},{"step":2,"from":"1093540056","to":"1093499488","type":"load","field":"<java.io.DataInputStream: byte[] scratch>"},{"step":3,"from":"1093499328","to":"1093499488","type":"model"},{"step":4,"from":"1093540056","to":"1093499488","type":"load","field":"<java.io.DataInputStream: byte[] scratch>"},{"step":5,"from":"static.<java.nio.ByteOrder: java.nio.ByteOrder BIG_ENDIAN>","to":"1084339448","type":"load","field":"<java.nio.ByteOrder: java.nio.ByteOrder BIG_ENDIAN>"},{"step":6,"from":"1093499488","to":"sdaReg1","type":"model"},{"step":7,"from":"1093539856","to":"1093540056","type":"load","field":"<java.io.ObjectInputStream: java.io.DataInputStream input>"},{"step":8,"from":"1093540056","to":"1093499328","type":"load","field":"<java.io.FilterInputStream: java.io.InputStream in>"},{"step":9,"from":"1093540056","to":"1093499488","type":"load","field":"<java.io.DataInputStream: byte[] scratch>"},{"step":10,"from":"1093499328","to":"1093499488","type":"model"},{"step":11,"from":"1093540056","to":"1093499488","type":"load","field":"<java.io.DataInputStream: byte[] scratch>"},{"step":12,"from":"static.<java.nio.ByteOrder: java.nio.ByteOrder BIG_ENDIAN>","to":"1084339448","type":"load","field":"<java.nio.ByteOrder: java.nio.ByteOrder BIG_ENDIAN>"},{"step":13,"from":"1093499488","to":"sdaReg3","type":"model"}],"parameters":[{"id":"1093539856","name":"this","klass":"java.io.ObjectInputStream"}],"returns":[{"id":null,"name":"return","klass":null}],"colors":{"heapLocToColor":{"1093499488":[0],"1093499328":[0],"1093540056.<java.io.FilterInputStream: java.io.InputStream in>":[0],"1093539856":[0],"1093540056":[0],"1084339448":[1],"sdaReg3":[3],"sdaReg2":[0],"sdaReg1":[2],"sdaReg0":[0],"static.<java.nio.ByteOrder: java.nio.ByteOrder BIG_ENDIAN>":[1],"1093540056.<java.io.DataInputStream: byte[] scratch>":[0],"1093539856.<java.io.ObjectInputStream: java.io.DataInputStream input>":[0]},"colorToColor":{"0":[0, 2, 3]},"colorToLabel":{"0":"this","1":"<java.nio.ByteOrder: java.nio.ByteOrder BIG_ENDIAN>","4":"return"}}}

Generated Model

