Scanning method <java.io.BufferedWriter: void flush()>

All seen event types: SimpleAssignmentRecord, ExitMonitorRecord, MethodReturnRecord, MethodCallRecord, EnterMonitorRecord, MethodStartRecord, LoadInstanceRecord, MethodEndRecord, IfRecord, StoreInstanceRecord, 
Ignored event types: ExitMonitorRecord, EnterMonitorRecord, IfRecord, 

JSON Encoded Analysis Data (for visualization):{"heapEdges":[{"step":0,"from":"1093600304","to":"1093593000","type":"load","field":"<java.io.Writer: java.lang.Object lock>"},{"step":1,"from":"1093600304","to":"1093593000","type":"load","field":"<java.io.BufferedWriter: java.io.Writer out>"},{"step":2,"from":"1093600304","to":"1093600304.<java.io.BufferedWriter: int pos>","type":"load","field":"<java.io.BufferedWriter: int pos>"},{"step":3,"from":"1093600304","to":"1093593000","type":"load","field":"<java.io.BufferedWriter: java.io.Writer out>"},{"step":4,"from":"1093600304","to":"1093600336","type":"load","field":"<java.io.BufferedWriter: char[] buf>"},{"step":5,"from":"1093600304","to":"1093600304.<java.io.BufferedWriter: int pos>","type":"load","field":"<java.io.BufferedWriter: int pos>"},{"step":6,"from":"1093593000","to":"1093600336","type":"model"},{"step":7,"from":"1093593000","to":"1093600304.<java.io.BufferedWriter: int pos>","type":"model"},{"step":8,"from":"1093600336","to":"1093593000","type":"model"},{"step":9,"from":"1093600336","to":"1093600304.<java.io.BufferedWriter: int pos>","type":"model"},{"step":10,"from":"1093600304.<java.io.BufferedWriter: int pos>","to":"1093593000","type":"model"},{"step":11,"from":"1093600304.<java.io.BufferedWriter: int pos>","to":"1093600336","type":"model"},{"step":12,"from":"1093600304","to":"sdaReg5","type":"create","field":"<java.io.BufferedWriter: int pos>"},{"step":13,"from":"1093600304","to":"1093593000","type":"load","field":"<java.io.BufferedWriter: java.io.Writer out>"}],"parameters":[{"id":"1093600304","name":"this","klass":"java.io.BufferedWriter"}],"returns":[{"id":null,"name":"return","klass":null}],"colors":{"heapLocToColor":{"1093600304":[0],"1093600336":[0],"sdaReg4":[0],"1093593000":[0],"1093600304.<java.io.BufferedWriter: int pos>":[0],"sdaReg2":[0],"sdaReg1":[0],"1093600304.<java.io.BufferedWriter: java.io.Writer out>":[0]},"colorToColor":{"0":[0]},"colorToLabel":{"0":"this","1":"return"}}}

Generated Model

