Scanning method <java.net.InetSocketAddress: void <init>(java.lang.String,int,boolean)>

All seen event types: SimpleAssignmentRecord, MethodReturnRecord, MethodCallRecord, MethodStartRecord, IfRecord, MethodEndRecord, StoreInstanceRecord, 
Ignored event types: IfRecord, 

JSON Encoded Analysis Data (for visualization):{"heapEdges":[{"step":0,"from":"sdaReg0","to":"1093394424","type":"store","field":"<java.net.InetSocketAddress: java.lang.String hostname>"},{"step":1,"from":"sdaReg1","to":"1093394424","type":"store","field":"<java.net.InetSocketAddress: int port>"}],"parameters":[{"id":"1093394424","name":"this","klass":"java.net.InetSocketAddress"},{"id":"sdaReg0","name":"arg#1","klass":"string"},{"id":"sdaReg1","name":"arg#2","klass":"int"},{"id":"sdaReg2","name":"arg#3","klass":"boolean"}],"returns":[{"id":"1093394424","name":"return","klass":"java.net.InetSocketAddress"}],"colors":{"heapLocToColor":{"sdaReg4":[0],"sdaReg5":[0],"sdaReg3":[0],"sdaReg2":[3],"sdaReg1":[2],"sdaReg0":[1],"1093394424":[0]},"colorToColor":{"0":[4],"1":[0],"2":[0]},"colorToLabel":{"0":"this","1":"arg#1","2":"arg#2","3":"arg#3","4":"return"}}}

Generated Model
	this->return
	arg#2->this
	arg#2->return
	arg#1->this
	arg#1->return

