Scanning method <java.net.InetSocketAddress: java.lang.String toString()>

All seen event types: LoadStaticRecord, MethodReturnRecord, MethodCallRecord, MethodStartRecord, LoadInstanceRecord, MethodEndRecord, IfRecord, NewObjectRecord, 
Ignored event types: IfRecord, 

JSON Encoded Analysis Data (for visualization):{"heapEdges":[{"step":0,"from":"1093701648","to":"1093534800","type":"load","field":"<java.net.InetSocketAddress: java.net.InetAddress addr>"},{"step":1,"from":"1093701648","to":"1093534800","type":"load","field":"<java.net.InetSocketAddress: java.net.InetAddress addr>"},{"step":2,"from":"1093534800","to":"1093534800.<java.net.InetAddress: java.lang.String hostName>","type":"load","field":"<java.net.InetAddress: java.lang.String hostName>"},{"step":3,"from":"1093534800","to":"1093534800.<java.net.InetAddress: java.lang.String hostName>","type":"load","field":"<java.net.InetAddress: java.lang.String hostName>"},{"step":4,"from":"1093534800.<java.net.InetAddress: java.lang.String hostName>","to":"1093535720","type":"model"},{"step":5,"from":"1093534800.<java.net.InetAddress: java.lang.String hostName>","to":"1093535720","type":"model"},{"step":6,"from":"static.<libcore.io.Libcore: libcore.io.Os os>","to":"1083982784","type":"load","field":"<libcore.io.Libcore: libcore.io.Os os>"},{"step":7,"from":"static.<libcore.io.OsConstants: int NI_NUMERICHOST>","to":"static.<libcore.io.OsConstants: int NI_NUMERICHOST>","type":"load","field":"<libcore.io.OsConstants: int NI_NUMERICHOST>"},{"step":8,"from":"static.<libcore.io.OsConstants: int NI_NUMERICHOST>","to":"sdaReg6","type":"model"},{"step":9,"from":"1093534800","to":"sdaReg6","type":"model"},{"step":10,"from":"sdaReg6","to":"1093535720","type":"model"},{"step":11,"from":"sdaReg6","to":"1093535720","type":"model"},{"step":12,"from":"1093535720","to":"sdaReg8","type":"model"},{"step":13,"from":"sdaReg8","to":"1093524800","type":"model"},{"step":14,"from":"sdaReg8","to":"1093524800","type":"model"},{"step":15,"from":"1093701648","to":"1093701648.<java.net.InetSocketAddress: int port>","type":"load","field":"<java.net.InetSocketAddress: int port>"},{"step":16,"from":"1093701648.<java.net.InetSocketAddress: int port>","to":"1093524800","type":"model"},{"step":17,"from":"1093701648.<java.net.InetSocketAddress: int port>","to":"1093524800","type":"model"},{"step":18,"from":"1093524800","to":"sdaReg12","type":"model"}],"parameters":[{"id":"1093701648","name":"this","klass":"java.net.InetSocketAddress"}],"returns":[{"id":"sdaReg12","name":"return","klass":"string"}],"colors":{"heapLocToColor":{"sdaReg8":[2, 6],"sdaReg9":[1],"sdaReg6":[5],"1093534800":[0],"sdaReg7":[2],"sdaReg4":[2],"sdaReg5":[0],"static.<libcore.io.OsConstants: int NI_NUMERICHOST>":[4],"1083982784":[3],"1093701648.<java.net.InetSocketAddress: int port>":[0],"static.<libcore.io.Libcore: libcore.io.Os os>":[3],"sdaReg11":[1],"sdaReg12":[1, 7],"sdaReg10":[1],"1093535720":[2],"1093534800.<java.net.InetAddress: java.lang.String hostName>":[0],"sdaReg3":[2],"sdaReg2":[2],"sdaReg1":[0],"1093701648":[0],"sdaReg0":[1],"1093524800":[1],"1093701648.<java.net.InetSocketAddress: java.net.InetAddress addr>":[0]},"colorToColor":{"0":[1, 2, 5],"1":[8],"2":[1],"4":[5],"5":[2],"6":[1],"7":[8]},"colorToLabel":{"0":"this","3":"<libcore.io.Libcore: libcore.io.Os os>","4":"<libcore.io.OsConstants: int NI_NUMERICHOST>","8":"return"}}}

Generated Model
	this->return

