Scanning method <java.io.PrintWriter: void write(java.lang.String,int,int)>

All seen event types: SimpleAssignmentRecord, ExitMonitorRecord, MethodStartRecord, LoadInstanceRecord, IfRecord, NewObjectRecord, StoreInstanceRecord, BinaryOperationRecord, MethodCallRecord, MethodReturnRecord, EnterMonitorRecord, ArrayLengthRecord, MethodEndRecord, 
Ignored event types: ExitMonitorRecord, EnterMonitorRecord, IfRecord, 

JSON Encoded Analysis Data (for visualization):{"heapEdges":[{"step":0,"from":"sdaReg0","to":"sdaReg4","type":"model"},{"step":1,"from":"sdaReg4","to":"1093660056","type":"model"},{"step":2,"from":"1093485048","to":"1093485080","type":"load","field":"<java.io.Writer: java.lang.Object lock>"},{"step":3,"from":"1093485048","to":"1093485080","type":"load","field":"<java.io.PrintWriter: java.io.Writer out>"},{"step":4,"from":"1093485048","to":"1093485080","type":"load","field":"<java.io.PrintWriter: java.io.Writer out>"},{"step":5,"from":"1093485080","to":"1093305120","type":"load","field":"<java.io.Writer: java.lang.Object lock>"},{"step":6,"from":"1093485080","to":"1093497328","type":"load","field":"<java.io.OutputStreamWriter: java.nio.charset.CharsetEncoder encoder>"},{"step":7,"from":"1093660080","to":"sdaReg38","type":"create","field":"<java.nio.Buffer: int mark>"},{"step":8,"from":"1093660080","to":"sdaReg39","type":"create","field":"<java.nio.Buffer: int position>"},{"step":9,"from":"1093660080","to":"sdaReg36","type":"create","field":"<java.nio.Buffer: int _elementSizeShift>"},{"step":10,"from":"sdaReg30","to":"1093660080","type":"store","field":"<java.nio.Buffer: int limit>"},{"step":11,"from":"sdaReg30","to":"1093660080","type":"store","field":"<java.nio.Buffer: int capacity>"},{"step":12,"from":"1093660080","to":"1093660056","type":"create","field":"<java.nio.CharArrayBuffer: char[] backingArray>"},{"step":13,"from":"1093660080","to":"sdaReg33","type":"create","field":"<java.nio.CharArrayBuffer: int offset>"},{"step":14,"from":"1093660080","to":"sdaReg11","type":"create","field":"<java.nio.Buffer: int position>"},{"step":15,"from":"sdaReg46","to":"1093660080","type":"store","field":"<java.nio.Buffer: int limit>"},{"step":16,"from":"1093485080","to":"1093497328","type":"load","field":"<java.io.OutputStreamWriter: java.nio.charset.CharsetEncoder encoder>"},{"step":17,"from":"1093485080","to":"1093485112","type":"load","field":"<java.io.OutputStreamWriter: java.nio.ByteBuffer bytes>"},{"step":18,"from":"1093497328","to":"1093660080","type":"model"},{"step":19,"from":"1093497328","to":"1093485112","type":"model"},{"step":20,"from":"1093497328","to":"1084215096","type":"model"},{"step":21,"from":"1093660080","to":"1093497328","type":"model"},{"step":22,"from":"1093660080","to":"1093485112","type":"model"},{"step":23,"from":"1093660080","to":"1084215096","type":"model"},{"step":24,"from":"1093485112","to":"1093497328","type":"model"},{"step":25,"from":"1093485112","to":"1093660080","type":"model"},{"step":26,"from":"1093485112","to":"1084215096","type":"model"},{"step":27,"from":"1084215096","to":"1084215096.<java.nio.charset.CoderResult: int type>","type":"load","field":"<java.nio.charset.CoderResult: int type>"},{"step":28,"from":"1084215096","to":"1084215096.<java.nio.charset.CoderResult: int type>","type":"load","field":"<java.nio.charset.CoderResult: int type>"},{"step":29,"from":"1084215096","to":"1084215096.<java.nio.charset.CoderResult: int type>","type":"load","field":"<java.nio.charset.CoderResult: int type>"}],"parameters":[{"id":"1093485048","name":"this","klass":"java.io.PrintWriter"},{"id":"sdaReg0","name":"arg#1","klass":"string"},{"id":"sdaReg1","name":"arg#2","klass":"int"},{"id":"sdaReg2","name":"arg#3","klass":"int"}],"returns":[{"id":null,"name":"return","klass":null}],"colors":{"heapLocToColor":{"1093485112":[0],"1093485080.<java.io.OutputStreamWriter: java.nio.charset.CharsetEncoder encoder>":[0],"1093485080":[0],"1093305120":[0],"1093660080":[0, 6],"1093485048.<java.io.PrintWriter: java.io.Writer out>":[0],"1093497328":[0],"sdaReg13":[1, 4, 5],"sdaReg37":[6],"sdaReg12":[0],"sdaReg10":[1, 4, 5],"sdaReg32":[1, 4, 5],"sdaReg31":[6],"1084215096.<java.nio.charset.CoderResult: int type>":[0, 7],"sdaReg53":[0, 7],"sdaReg35":[6],"sdaReg18":[0],"sdaReg34":[6],"sdaReg15":[0],"sdaReg51":[0, 7],"sdaReg16":[1, 4, 5],"1093660056":[1, 4, 5],"sdaReg50":[0, 7],"sdaReg9":[0],"sdaReg6":[0],"sdaReg7":[1, 4, 5],"sdaReg4":[1, 4],"sdaReg5":[1, 4, 5],"sdaReg27":[1, 4, 5],"sdaReg26":[6],"sdaReg29":[1, 4, 5],"sdaReg28":[6],"sdaReg49":[6],"sdaReg48":[0],"1084215096":[0, 7],"sdaReg45":[6],"sdaReg3":[2, 3],"sdaReg44":[6],"sdaReg2":[3],"1093485048":[0],"sdaReg47":[6],"sdaReg1":[2],"sdaReg0":[1],"sdaReg41":[6],"sdaReg40":[6],"sdaReg22":[1, 4, 5],"sdaReg43":[6],"sdaReg42":[6]},"colorToColor":{"0":[0, 6, 7],"1":[6],"4":[6],"5":[6],"6":[0, 7]},"colorToLabel":{"0":"this","1":"arg#1","2":"arg#2","3":"arg#3","8":"return"}}}

Generated Model
	arg#1->this

