Scanning method <java.util.TreeMap: void rotateLeft(java.util.TreeMap$Node)>

All seen event types: BinaryOperationRecord, SimpleAssignmentRecord, MethodReturnRecord, MethodCallRecord, MethodStartRecord, LoadInstanceRecord, MethodEndRecord, IfRecord, StoreInstanceRecord, 
Ignored event types: IfRecord, 

JSON Encoded Analysis Data (for visualization):{"heapEdges":[{"step":0,"from":"1093260488","to":"1095430504","type":"load","field":"<java.util.TreeMap$Node: java.util.TreeMap$Node right>"},{"step":1,"from":"1095430504","to":"1094753824","type":"load","field":"<java.util.TreeMap$Node: java.util.TreeMap$Node right>"},{"step":2,"from":"1093260488","to":"sdaReg3","type":"create","field":"<java.util.TreeMap$Node: java.util.TreeMap$Node parent>"},{"step":3,"from":"1095430504","to":"1093233072","type":"store","field":"<java.util.TreeMap: java.util.TreeMap$Node root>"},{"step":4,"from":"1093260488","to":"1095430504","type":"store","field":"<java.util.TreeMap$Node: java.util.TreeMap$Node left>"},{"step":5,"from":"1095430504","to":"1093260488","type":"store","field":"<java.util.TreeMap$Node: java.util.TreeMap$Node parent>"},{"step":6,"from":"sdaReg4","to":"sdaReg5","type":"model"},{"step":7,"from":"sdaReg4","to":"sdaReg6","type":"model"},{"step":8,"from":"sdaReg5","to":"sdaReg4","type":"model"},{"step":9,"from":"sdaReg5","to":"sdaReg6","type":"model"},{"step":10,"from":"sdaReg7","to":"1093260488","type":"store","field":"<java.util.TreeMap$Node: int height>"},{"step":11,"from":"1094753824","to":"1094753824.<java.util.TreeMap$Node: int height>","type":"load","field":"<java.util.TreeMap$Node: int height>"},{"step":12,"from":"1094753824.<java.util.TreeMap$Node: int height>","to":"sdaReg8","type":"model"},{"step":13,"from":"sdaReg9","to":"1095430504","type":"store","field":"<java.util.TreeMap$Node: int height>"}],"parameters":[{"id":"1093233072","name":"this","klass":"java.util.TreeMap"},{"id":"1093260488","name":"arg#1","klass":"java.util.TreeMap$Node"}],"returns":[{"id":null,"name":"return","klass":null}],"colors":{"heapLocToColor":{"1095430504":[1],"sdaReg8":[3],"sdaReg9":[3],"sdaReg6":[2],"sdaReg7":[2],"1094753824":[1],"sdaReg2":[1],"sdaReg1":[1],"sdaReg0":[0],"1093233072":[0],"1094753824.<java.util.TreeMap$Node: int height>":[1],"1093260488":[1]},"colorToColor":{"1":[0, 1, 3],"2":[1],"3":[1]},"colorToLabel":{"0":"this","1":"arg#1","4":"return"}}}

Generated Model
	arg#1->this

