Scanning method <tests.api.java.util.ArrayListTest: void tearDown()>

All seen event types: SimpleAssignmentRecord, MethodReturnRecord, MethodCallRecord, MethodStartRecord, MethodEndRecord, StoreInstanceRecord, 
Ignored event types: 

JSON Encoded Analysis Data (for visualization):{"heapEdges":[{"step":0,"from":"sdaReg0","to":"1093591392","type":"store","field":"<tests.api.java.util.ArrayListTest: java.lang.Object[] objArray>"},{"step":1,"from":"sdaReg0","to":"1093591392","type":"store","field":"<tests.api.java.util.ArrayListTest: java.util.List alist>"}],"parameters":[{"id":"1093591392","name":"this","klass":"tests.api.java.util.ArrayListTest"}],"returns":[{"id":null,"name":"return","klass":null}],"colors":{"heapLocToColor":{"1093591392":[0],"sdaReg1":[0]},"colorToColor":{},"colorToLabel":{"0":"this","1":"return"}}}

Generated Model

