Scanning method <java.io.CharArrayWriter: void close()>

All seen event types: 
Ignored event types: 

JSON Encoded Analysis Data (for visualization):{"heapEdges":[],"parameters":[{"id":"1093613880","name":"this","klass":"java.io.CharArrayWriter"}],"returns":[{"id":null,"name":"return","klass":null}],"colors":{"heapLocToColor":{"1093613880":[0]},"colorToColor":{},"colorToLabel":{"0":"this","1":"return"}}}

Generated Model

