Scanning method <java.io.PrintWriter: void flush()>

All seen event types: SimpleAssignmentRecord, ExitMonitorRecord, MethodReturnRecord, MethodCallRecord, EnterMonitorRecord, MethodStartRecord, LoadInstanceRecord, MethodEndRecord, IfRecord, 
Ignored event types: ExitMonitorRecord, EnterMonitorRecord, IfRecord, 

JSON Encoded Analysis Data (for visualization):{"heapEdges":[{"step":0,"from":"1093589472","to":"1093589504","type":"load","field":"<java.io.Writer: java.lang.Object lock>"},{"step":1,"from":"1093589472","to":"1093589504","type":"load","field":"<java.io.PrintWriter: java.io.Writer out>"},{"step":2,"from":"1093589472","to":"1093589504","type":"load","field":"<java.io.PrintWriter: java.io.Writer out>"}],"parameters":[{"id":"1093589472","name":"this","klass":"java.io.PrintWriter"}],"returns":[{"id":null,"name":"return","klass":null}],"colors":{"heapLocToColor":{"1093589472.<java.io.PrintWriter: java.io.Writer out>":[0],"1093589472":[0],"sdaReg1":[0],"1093589504":[0]},"colorToColor":{},"colorToLabel":{"0":"this","1":"return"}}}

Generated Model

