Scanning method <android.location.Location: void setLongitude(double)>

All seen event types: StoreInstanceRecord, 
Ignored event types: 

JSON Encoded Analysis Data (for visualization):{"heapEdges":[{"step":0,"from":"sdaReg0","to":"1093975032","type":"store","field":"<android.location.Location: double mLongitude>"}],"parameters":[{"id":"1093975032","name":"this","klass":"android.location.Location"},{"id":"sdaReg0","name":"arg#1","klass":"double"}],"returns":[{"id":null,"name":"return","klass":null}],"colors":{"heapLocToColor":{"1093975032":[0],"sdaReg0":[1]},"colorToColor":{"1":[0]},"colorToLabel":{"0":"this","1":"arg#1","2":"return"}}}

Generated Model
	arg#1->this

