Scanning method <java.io.ObjectInputStream: java.util.List cacheSuperclassesFor(java.lang.Class)>

All seen event types: LoadStaticRecord, SimpleAssignmentRecord, MethodReturnRecord, MethodCallRecord, LoadInstanceRecord, MethodStartRecord, IfRecord, MethodEndRecord, StoreInstanceRecord, NewObjectRecord, 
Ignored event types: IfRecord, 

JSON Encoded Analysis Data (for visualization):{"heapEdges":[{"step":0,"from":"static.<libcore.util.EmptyArray: java.lang.Object[] OBJECT>","to":"1083994088","type":"load","field":"<libcore.util.EmptyArray: java.lang.Object[] OBJECT>"},{"step":1,"from":"1083994088","to":"1093660920","type":"store","field":"<java.util.ArrayList: java.lang.Object[] array>"},{"step":2,"from":"1083934568","to":"1083931088","type":"model"},{"step":3,"from":"1093660920","to":"1083934568","type":"model"},{"step":4,"from":"1083934568","to":"1093660920","type":"model"},{"step":5,"from":"1083931088","to":"1083910288","type":"model"},{"step":6,"from":"1093660920","to":"1083931088","type":"model"},{"step":7,"from":"1083931088","to":"1093660920","type":"model"},{"step":8,"from":"1083910288","to":"0","type":"model"},{"step":9,"from":"1093293768","to":"1093386320","type":"load","field":"<java.io.ObjectInputStream: java.util.HashMap cachedSuperclasses>"},{"step":10,"from":"1093386320","to":"1083934568","type":"model"},{"step":11,"from":"1093386320","to":"1093660920","type":"model"},{"step":12,"from":"1083934568","to":"1093386320","type":"model"},{"step":13,"from":"1083934568","to":"1093660920","type":"model"},{"step":14,"from":"1093660920","to":"1093386320","type":"model"},{"step":15,"from":"1093660920","to":"1083934568","type":"model"}],"parameters":[{"id":"1093293768","name":"this","klass":"java.io.ObjectInputStream"},{"id":"1083934568","name":"arg#1","klass":"java.lang.Integer.class"}],"returns":[{"id":"1093660920","name":"return","klass":"java.util.List"}],"colors":{"heapLocToColor":{"sdaReg8":[1, 4, 5, 6],"sdaReg9":[1, 4],"sdaReg6":[2],"sdaReg7":[2],"sdaReg4":[2],"1083934568":[0, 1, 2],"sdaReg5":[2],"static.<libcore.util.EmptyArray: java.lang.Object[] OBJECT>":[3],"1083910288":[1, 4, 5],"1083931088":[1, 2, 4],"1093660920":[0, 2],"sdaReg11":[1, 4, 5, 6],"0":[1, 4, 5, 6],"1083994088":[3],"sdaReg10":[1, 4, 5],"sdaReg3":[2],"sdaReg2":[2],"1093293768":[0],"sdaReg1":[2],"sdaReg0":[2],"1093386320":[0]},"colorToColor":{"0":[0, 1, 2, 7],"1":[0, 2],"2":[0, 1, 2, 7],"3":[2],"4":[2]},"colorToLabel":{"0":"this","1":"arg#1","3":"<libcore.util.EmptyArray: java.lang.Object[] OBJECT>","7":"return"}}}

Generated Model
	this->return
	this->arg#1
	arg#1->this
	arg#1->return

