Scanning method <java.net.URI: java.net.URI create(java.lang.String)>

All seen event types: SimpleAssignmentRecord, MethodStartRecord, LoadInstanceRecord, IfRecord, NewObjectRecord, StoreInstanceRecord, LoadStaticRecord, BinaryOperationRecord, MethodCallRecord, MethodReturnRecord, ArrayLengthRecord, LoadArrayRecord, MethodEndRecord, 
Ignored event types: IfRecord, 

JSON Encoded Analysis Data (for visualization):{"heapEdges":[{"step":0,"from":"1093480344","to":"sdaReg3","type":"create","field":"<java.net.URI: int port>"},{"step":1,"from":"1093480344","to":"sdaReg4","type":"create","field":"<java.net.URI: boolean serverAuthority>"},{"step":2,"from":"1093480344","to":"sdaReg5","type":"create","field":"<java.net.URI: int hash>"},{"step":3,"from":"sdaReg0","to":"1093480344","type":"store","field":"<java.net.URI: java.lang.String string>"},{"step":4,"from":"sdaReg0","to":"sdaReg12","type":"model"},{"step":5,"from":"sdaReg0","to":"sdaReg14","type":"model"},{"step":6,"from":"sdaReg0","to":"sdaReg16","type":"model"},{"step":7,"from":"sdaReg0","to":"sdaReg18","type":"model"},{"step":8,"from":"sdaReg0","to":"sdaReg20","type":"model"},{"step":9,"from":"sdaReg0","to":"sdaReg22","type":"model"},{"step":10,"from":"sdaReg0","to":"sdaReg24","type":"model"},{"step":11,"from":"sdaReg0","to":"sdaReg26","type":"model"},{"step":12,"from":"sdaReg0","to":"sdaReg28","type":"model"},{"step":13,"from":"sdaReg0","to":"sdaReg30","type":"model"},{"step":14,"from":"sdaReg0","to":"sdaReg32","type":"model"},{"step":15,"from":"sdaReg0","to":"sdaReg34","type":"model"},{"step":16,"from":"sdaReg0","to":"sdaReg36","type":"model"},{"step":17,"from":"sdaReg0","to":"sdaReg42","type":"model"},{"step":18,"from":"sdaReg0","to":"sdaReg44","type":"model"},{"step":19,"from":"sdaReg0","to":"sdaReg46","type":"model"},{"step":20,"from":"sdaReg0","to":"sdaReg48","type":"model"},{"step":21,"from":"sdaReg0","to":"sdaReg50","type":"model"},{"step":22,"from":"sdaReg0","to":"sdaReg52","type":"model"},{"step":23,"from":"sdaReg0","to":"sdaReg54","type":"model"},{"step":24,"from":"sdaReg0","to":"sdaReg56","type":"model"},{"step":25,"from":"sdaReg0","to":"sdaReg58","type":"model"},{"step":26,"from":"sdaReg0","to":"sdaReg60","type":"model"},{"step":27,"from":"sdaReg0","to":"sdaReg62","type":"model"},{"step":28,"from":"sdaReg0","to":"sdaReg64","type":"model"},{"step":29,"from":"sdaReg0","to":"sdaReg66","type":"model"},{"step":30,"from":"sdaReg0","to":"sdaReg71","type":"model"},{"step":31,"from":"1093480344","to":"sdaReg73","type":"create","field":"<java.net.URI: boolean absolute>"},{"step":32,"from":"1093480344","to":"sdaReg75","type":"create","field":"<java.net.URI: boolean opaque>"},{"step":33,"from":"sdaReg0","to":"sdaReg76","type":"model"},{"step":34,"from":"sdaReg76","to":"1093480344","type":"store","field":"<java.net.URI: java.lang.String schemeSpecificPart>"},{"step":35,"from":"sdaReg0","to":"sdaReg81","type":"model"},{"step":36,"from":"sdaReg0","to":"sdaReg83","type":"model"},{"step":37,"from":"sdaReg0","to":"sdaReg85","type":"model"},{"step":38,"from":"sdaReg0","to":"sdaReg87","type":"model"},{"step":39,"from":"sdaReg0","to":"sdaReg89","type":"model"},{"step":40,"from":"sdaReg0","to":"sdaReg91","type":"model"},{"step":41,"from":"sdaReg0","to":"sdaReg93","type":"model"},{"step":42,"from":"sdaReg0","to":"sdaReg95","type":"model"},{"step":43,"from":"static.<java.net.URI: libcore.net.UriCodec AUTHORITY_ENCODER>","to":"1085536376","type":"load","field":"<java.net.URI: libcore.net.UriCodec AUTHORITY_ENCODER>"},{"step":44,"from":"sdaReg0","to":"sdaReg101","type":"model"},{"step":45,"from":"sdaReg0","to":"sdaReg102","type":"model"},{"step":46,"from":"sdaReg0","to":"sdaReg103","type":"model"},{"step":47,"from":"sdaReg0","to":"sdaReg104","type":"model"},{"step":48,"from":"sdaReg0","to":"sdaReg105","type":"model"},{"step":49,"from":"sdaReg0","to":"sdaReg106","type":"model"},{"step":50,"from":"sdaReg0","to":"sdaReg107","type":"model"},{"step":51,"from":"sdaReg0","to":"sdaReg108","type":"model"},{"step":52,"from":"sdaReg108","to":"1093480344","type":"store","field":"<java.net.URI: java.lang.String authority>"},{"step":53,"from":"sdaReg0","to":"sdaReg111","type":"model"},{"step":54,"from":"sdaReg0","to":"sdaReg113","type":"model"},{"step":55,"from":"sdaReg0","to":"sdaReg115","type":"model"},{"step":56,"from":"sdaReg0","to":"sdaReg117","type":"model"},{"step":57,"from":"static.<java.net.URI: libcore.net.UriCodec PATH_ENCODER>","to":"1085474672","type":"load","field":"<java.net.URI: libcore.net.UriCodec PATH_ENCODER>"},{"step":58,"from":"sdaReg0","to":"sdaReg122","type":"model"},{"step":59,"from":"1085474672","to":"1085474672.<java.net.URI$PartEncoder: java.lang.String extraLegalCharacters>","type":"load","field":"<java.net.URI$PartEncoder: java.lang.String extraLegalCharacters>"},{"step":60,"from":"sdaReg0","to":"sdaReg130","type":"model"},{"step":61,"from":"sdaReg0","to":"sdaReg131","type":"model"},{"step":62,"from":"1085474672","to":"1085474672.<java.net.URI$PartEncoder: java.lang.String extraLegalCharacters>","type":"load","field":"<java.net.URI$PartEncoder: java.lang.String extraLegalCharacters>"},{"step":63,"from":"sdaReg0","to":"sdaReg139","type":"model"},{"step":64,"from":"sdaReg0","to":"sdaReg140","type":"model"},{"step":65,"from":"sdaReg140","to":"1093480344","type":"store","field":"<java.net.URI: java.lang.String path>"},{"step":66,"from":"sdaReg148","to":"sdaReg154","type":"model"},{"step":67,"from":"sdaReg148","to":"sdaReg159","type":"model"},{"step":68,"from":"sdaReg148","to":"sdaReg161","type":"model"},{"step":69,"from":"sdaReg148","to":"sdaReg163","type":"model"},{"step":70,"from":"sdaReg148","to":"sdaReg165","type":"model"},{"step":71,"from":"sdaReg148","to":"sdaReg167","type":"model"},{"step":72,"from":"sdaReg148","to":"sdaReg169","type":"model"},{"step":73,"from":"sdaReg148","to":"sdaReg171","type":"model"},{"step":74,"from":"sdaReg148","to":"1093308120","type":"model"},{"step":75,"from":"1093308120","to":"1093308120.arrayIdx_int:0","type":"load","field":"arrayIdx_int:0"},{"step":76,"from":"sdaReg142","to":"1093480344","type":"store","field":"<java.net.URI: java.lang.String userInfo>"},{"step":77,"from":"sdaReg148","to":"1093480344","type":"store","field":"<java.net.URI: java.lang.String host>"},{"step":78,"from":"sdaReg147","to":"1093480344","type":"store","field":"<java.net.URI: int port>"},{"step":79,"from":"1093480344","to":"sdaReg182","type":"create","field":"<java.net.URI: boolean serverAuthority>"}],"parameters":[{"id":"sdaReg0","name":"arg#0","klass":"string"}],"returns":[{"id":"1093480344","name":"return","klass":"java.net.URI"}],"colors":{"heapLocToColor":{"sdaReg125":[96],"sdaReg127":[97],"sdaReg128":[98],"sdaReg66":[0, 54],"sdaReg67":[55],"sdaReg64":[0, 52],"sdaReg65":[53],"sdaReg62":[0, 50],"sdaReg63":[51],"sdaReg13":[4],"sdaReg72":[57],"sdaReg14":[0, 5],"sdaReg71":[0, 56],"1093308120.arrayIdx_int:0":[129],"sdaReg12":[0, 3],"1093480344":[1],"1093308120":[129],"sdaReg19":[10],"sdaReg122":[0, 95],"sdaReg17":[8],"sdaReg18":[0, 9],"sdaReg15":[6],"sdaReg123":[94],"sdaReg16":[0, 7],"sdaReg116":[91],"sdaReg117":[0, 92],"sdaReg114":[89],"sdaReg115":[0, 90],"sdaReg118":[93],"sdaReg119":[94],"sdaReg77":[59],"sdaReg76":[0, 58],"sdaReg81":[0, 60],"sdaReg83":[0, 62],"sdaReg82":[61],"sdaReg113":[0, 88],"sdaReg112":[87],"sdaReg111":[0, 86],"sdaReg107":[0, 84],"sdaReg108":[0, 85],"sdaReg103":[0, 80],"sdaReg104":[0, 81],"sdaReg171":[127],"sdaReg105":[0, 82],"sdaReg170":[126],"sdaReg106":[0, 83],"sdaReg173":[129],"sdaReg86":[65],"sdaReg172":[128],"sdaReg87":[0, 66],"sdaReg84":[63],"sdaReg174":[129],"sdaReg85":[0, 64],"sdaReg177":[130],"sdaReg179":[132],"sdaReg88":[67],"sdaReg178":[131],"sdaReg89":[0, 68],"sdaReg90":[69],"sdaReg94":[73],"sdaReg93":[0, 72],"sdaReg92":[71],"sdaReg91":[0, 70],"sdaReg102":[0, 79],"sdaReg101":[0, 78],"1085474672.<java.net.URI$PartEncoder: java.lang.String extraLegalCharacters>":[94],"sdaReg95":[0, 74],"sdaReg96":[75],"sdaReg97":[76],"sdaReg183":[1],"sdaReg98":[77],"1085536376":[77],"static.<java.net.URI: libcore.net.UriCodec PATH_ENCODER>":[94],"sdaReg60":[0, 48],"sdaReg61":[49],"sdaReg169":[125],"sdaReg161":[117],"sdaReg162":[118],"sdaReg163":[119],"sdaReg164":[120],"sdaReg165":[121],"sdaReg166":[122],"sdaReg167":[123],"sdaReg168":[124],"sdaReg59":[47],"sdaReg58":[0, 46],"sdaReg57":[45],"sdaReg56":[0, 44],"sdaReg55":[43],"sdaReg54":[0, 42],"sdaReg53":[41],"sdaReg52":[0, 40],"sdaReg160":[116],"sdaReg51":[39],"sdaReg50":[0, 38],"sdaReg159":[115],"sdaReg158":[114],"sdaReg152":[111],"sdaReg153":[112],"sdaReg150":[1],"sdaReg151":[110],"sdaReg49":[37],"sdaReg48":[0, 36],"sdaReg154":[113],"sdaReg155":[1],"sdaReg45":[33],"sdaReg44":[0, 32],"sdaReg47":[35],"sdaReg46":[0, 34],"sdaReg43":[31],"sdaReg42":[0, 30],"static.<java.net.URI: libcore.net.UriCodec AUTHORITY_ENCODER>":[77],"sdaReg149":[109],"sdaReg143":[106],"sdaReg145":[107],"1085474672":[94],"sdaReg38":[29],"sdaReg146":[108],"sdaReg37":[28],"sdaReg140":[0, 105],"sdaReg141":[1],"sdaReg32":[0, 23],"sdaReg31":[22],"sdaReg30":[0, 21],"sdaReg36":[0, 27],"sdaReg35":[26],"sdaReg34":[0, 25],"sdaReg33":[24],"sdaReg8":[2],"sdaReg6":[1],"sdaReg139":[0, 104],"sdaReg137":[103],"sdaReg136":[102],"sdaReg134":[101],"sdaReg27":[18],"sdaReg26":[0, 17],"sdaReg132":[94],"sdaReg29":[20],"sdaReg28":[0, 19],"sdaReg130":[0, 99],"sdaReg131":[0, 100],"sdaReg2":[1],"sdaReg1":[1],"sdaReg21":[12],"sdaReg0":[0],"sdaReg20":[0, 11],"sdaReg23":[14],"sdaReg22":[0, 13],"sdaReg25":[16],"sdaReg24":[0, 15]},"colorToColor":{"85":[1],"0":[1],"1":[133],"58":[1],"105":[1]},"colorToLabel":{"0":"arg#0","77":"<java.net.URI: libcore.net.UriCodec AUTHORITY_ENCODER>","94":"<java.net.URI: libcore.net.UriCodec PATH_ENCODER>","133":"return"}}}

Generated Model
	arg#0->return

