Scanning method <java.net.URI: java.net.URI create(java.lang.String)>

All seen event types: LoadStaticRecord, BinaryOperationRecord, SimpleAssignmentRecord, MethodReturnRecord, MethodCallRecord, LoadInstanceRecord, MethodStartRecord, MethodEndRecord, IfRecord, StoreInstanceRecord, NewObjectRecord, 
Ignored event types: IfRecord, 

JSON Encoded Analysis Data (for visualization):{"heapEdges":[{"step":0,"from":"1093667288","to":"sdaReg3","type":"create","field":"<java.net.URI: int port>"},{"step":1,"from":"1093667288","to":"sdaReg4","type":"create","field":"<java.net.URI: boolean serverAuthority>"},{"step":2,"from":"1093667288","to":"sdaReg5","type":"create","field":"<java.net.URI: int hash>"},{"step":3,"from":"sdaReg0","to":"1093667288","type":"store","field":"<java.net.URI: java.lang.String string>"},{"step":4,"from":"sdaReg0","to":"sdaReg12","type":"model"},{"step":5,"from":"sdaReg0","to":"sdaReg14","type":"model"},{"step":6,"from":"sdaReg0","to":"sdaReg16","type":"model"},{"step":7,"from":"sdaReg0","to":"sdaReg18","type":"model"},{"step":8,"from":"sdaReg0","to":"sdaReg20","type":"model"},{"step":9,"from":"sdaReg0","to":"sdaReg26","type":"model"},{"step":10,"from":"sdaReg0","to":"sdaReg28","type":"model"},{"step":11,"from":"sdaReg0","to":"sdaReg30","type":"model"},{"step":12,"from":"sdaReg0","to":"sdaReg32","type":"model"},{"step":13,"from":"sdaReg0","to":"sdaReg34","type":"model"},{"step":14,"from":"sdaReg0","to":"sdaReg39","type":"model"},{"step":15,"from":"1093667288","to":"sdaReg41","type":"create","field":"<java.net.URI: boolean absolute>"},{"step":16,"from":"1093667288","to":"sdaReg43","type":"create","field":"<java.net.URI: boolean opaque>"},{"step":17,"from":"sdaReg0","to":"sdaReg44","type":"model"},{"step":18,"from":"sdaReg44","to":"1093667288","type":"store","field":"<java.net.URI: java.lang.String schemeSpecificPart>"},{"step":19,"from":"sdaReg0","to":"sdaReg49","type":"model"},{"step":20,"from":"sdaReg0","to":"sdaReg51","type":"model"},{"step":21,"from":"sdaReg0","to":"sdaReg53","type":"model"},{"step":22,"from":"sdaReg0","to":"sdaReg55","type":"model"},{"step":23,"from":"sdaReg0","to":"sdaReg57","type":"model"},{"step":24,"from":"static.<java.net.URI: libcore.net.UriCodec PATH_ENCODER>","to":"1085474672","type":"load","field":"<java.net.URI: libcore.net.UriCodec PATH_ENCODER>"},{"step":25,"from":"sdaReg0","to":"sdaReg62","type":"model"},{"step":26,"from":"1085474672","to":"1085474672.<java.net.URI$PartEncoder: java.lang.String extraLegalCharacters>","type":"load","field":"<java.net.URI$PartEncoder: java.lang.String extraLegalCharacters>"},{"step":27,"from":"sdaReg0","to":"sdaReg70","type":"model"},{"step":28,"from":"sdaReg0","to":"sdaReg75","type":"model"},{"step":29,"from":"sdaReg0","to":"sdaReg80","type":"model"},{"step":30,"from":"1085474672","to":"1085474672.<java.net.URI$PartEncoder: java.lang.String extraLegalCharacters>","type":"load","field":"<java.net.URI$PartEncoder: java.lang.String extraLegalCharacters>"},{"step":31,"from":"sdaReg0","to":"sdaReg88","type":"model"},{"step":32,"from":"sdaReg0","to":"sdaReg89","type":"model"},{"step":33,"from":"sdaReg89","to":"1093667288","type":"store","field":"<java.net.URI: java.lang.String path>"},{"step":34,"from":"1093667288","to":"1093667288.<java.net.URI: java.lang.String authority>","type":"load","field":"<java.net.URI: java.lang.String authority>"}],"parameters":[{"id":"sdaReg0","name":"arg#0","klass":"string"}],"returns":[{"id":"1093667288","name":"return","klass":"java.net.URI"}],"colors":{"heapLocToColor":{"sdaReg68":[42],"sdaReg67":[41],"sdaReg65":[40],"sdaReg62":[0, 39],"sdaReg63":[38],"sdaReg13":[4],"sdaReg71":[38],"sdaReg14":[0, 5],"sdaReg70":[0, 43],"sdaReg12":[0, 3],"sdaReg59":[38],"sdaReg58":[37],"sdaReg57":[0, 36],"sdaReg19":[10],"sdaReg56":[35],"sdaReg55":[0, 34],"sdaReg17":[8],"sdaReg54":[33],"sdaReg18":[0, 9],"sdaReg53":[0, 32],"sdaReg15":[6],"sdaReg52":[31],"sdaReg16":[0, 7],"sdaReg51":[0, 30],"sdaReg50":[29],"sdaReg78":[46],"sdaReg73":[44],"sdaReg75":[0, 45],"sdaReg76":[38],"sdaReg81":[38],"sdaReg80":[0, 47],"sdaReg83":[48],"sdaReg49":[0, 28],"sdaReg45":[27],"sdaReg44":[0, 26],"sdaReg40":[25],"1093667288.<java.net.URI: java.lang.String authority>":[1],"sdaReg86":[50],"sdaReg85":[49],"sdaReg88":[0, 51],"sdaReg89":[0, 52],"sdaReg90":[1],"sdaReg39":[0, 24],"1085474672":[38],"sdaReg91":[1],"sdaReg32":[0, 20],"sdaReg31":[19],"sdaReg30":[0, 18],"sdaReg35":[23],"sdaReg34":[0, 22],"sdaReg33":[21],"sdaReg8":[2],"sdaReg6":[1],"1085474672.<java.net.URI$PartEncoder: java.lang.String extraLegalCharacters>":[38],"1093667288":[1],"sdaReg27":[15],"sdaReg26":[0, 14],"sdaReg29":[17],"sdaReg28":[0, 16],"static.<java.net.URI: libcore.net.UriCodec PATH_ENCODER>":[38],"sdaReg2":[1],"sdaReg21":[12],"sdaReg1":[1],"sdaReg20":[0, 11],"sdaReg0":[0],"sdaReg22":[13]},"colorToColor":{"0":[1],"1":[53],"52":[1],"26":[1]},"colorToLabel":{"0":"arg#0","38":"<java.net.URI: libcore.net.UriCodec PATH_ENCODER>","53":"return"}}}

Generated Model
	arg#0->return

