Scanning method <java.net.URI: java.net.URI create(java.lang.String)>

All seen event types: LoadStaticRecord, BinaryOperationRecord, SimpleAssignmentRecord, MethodReturnRecord, MethodCallRecord, LoadInstanceRecord, MethodStartRecord, MethodEndRecord, IfRecord, StoreInstanceRecord, NewObjectRecord, 
Ignored event types: IfRecord, 

JSON Encoded Analysis Data (for visualization):{"heapEdges":[{"step":0,"from":"1093533800","to":"sdaReg3","type":"create","field":"<java.net.URI: int port>"},{"step":1,"from":"1093533800","to":"sdaReg4","type":"create","field":"<java.net.URI: boolean serverAuthority>"},{"step":2,"from":"1093533800","to":"sdaReg5","type":"create","field":"<java.net.URI: int hash>"},{"step":3,"from":"sdaReg0","to":"1093533800","type":"store","field":"<java.net.URI: java.lang.String string>"},{"step":4,"from":"sdaReg0","to":"sdaReg12","type":"model"},{"step":5,"from":"sdaReg0","to":"sdaReg14","type":"model"},{"step":6,"from":"sdaReg0","to":"sdaReg16","type":"model"},{"step":7,"from":"sdaReg0","to":"sdaReg18","type":"model"},{"step":8,"from":"sdaReg0","to":"sdaReg20","type":"model"},{"step":9,"from":"sdaReg0","to":"sdaReg22","type":"model"},{"step":10,"from":"sdaReg0","to":"sdaReg24","type":"model"},{"step":11,"from":"sdaReg0","to":"sdaReg26","type":"model"},{"step":12,"from":"static.<java.net.URI: libcore.net.UriCodec ALL_LEGAL_ENCODER>","to":"1085538000","type":"load","field":"<java.net.URI: libcore.net.UriCodec ALL_LEGAL_ENCODER>"},{"step":13,"from":"sdaReg0","to":"sdaReg34","type":"model"},{"step":14,"from":"sdaReg0","to":"sdaReg35","type":"model"},{"step":15,"from":"sdaReg0","to":"sdaReg36","type":"model"},{"step":16,"from":"sdaReg0","to":"sdaReg37","type":"model"},{"step":17,"from":"sdaReg0","to":"sdaReg38","type":"model"},{"step":18,"from":"sdaReg0","to":"sdaReg39","type":"model"},{"step":19,"from":"sdaReg0","to":"sdaReg40","type":"model"},{"step":20,"from":"sdaReg0","to":"sdaReg41","type":"model"},{"step":21,"from":"sdaReg0","to":"sdaReg42","type":"model"},{"step":22,"from":"sdaReg42","to":"1093533800","type":"store","field":"<java.net.URI: java.lang.String fragment>"},{"step":23,"from":"sdaReg0","to":"sdaReg46","type":"model"},{"step":24,"from":"sdaReg0","to":"sdaReg48","type":"model"},{"step":25,"from":"sdaReg0","to":"sdaReg50","type":"model"},{"step":26,"from":"sdaReg0","to":"sdaReg52","type":"model"},{"step":27,"from":"sdaReg0","to":"sdaReg54","type":"model"},{"step":28,"from":"sdaReg0","to":"sdaReg56","type":"model"},{"step":29,"from":"sdaReg0","to":"sdaReg58","type":"model"},{"step":30,"from":"sdaReg0","to":"sdaReg63","type":"model"},{"step":31,"from":"sdaReg0","to":"sdaReg65","type":"model"},{"step":32,"from":"sdaReg0","to":"sdaReg67","type":"model"},{"step":33,"from":"sdaReg0","to":"sdaReg69","type":"model"},{"step":34,"from":"sdaReg0","to":"sdaReg71","type":"model"},{"step":35,"from":"sdaReg0","to":"sdaReg73","type":"model"},{"step":36,"from":"sdaReg0","to":"sdaReg75","type":"model"},{"step":37,"from":"1093533800","to":"sdaReg77","type":"create","field":"<java.net.URI: boolean absolute>"},{"step":38,"from":"1093533800","to":"sdaReg79","type":"create","field":"<java.net.URI: boolean opaque>"},{"step":39,"from":"sdaReg0","to":"sdaReg80","type":"model"},{"step":40,"from":"sdaReg80","to":"1093533800","type":"store","field":"<java.net.URI: java.lang.String schemeSpecificPart>"},{"step":41,"from":"sdaReg0","to":"sdaReg85","type":"model"},{"step":42,"from":"sdaReg0","to":"sdaReg87","type":"model"},{"step":43,"from":"sdaReg0","to":"sdaReg89","type":"model"},{"step":44,"from":"sdaReg0","to":"sdaReg91","type":"model"},{"step":45,"from":"sdaReg0","to":"sdaReg93","type":"model"},{"step":46,"from":"sdaReg0","to":"sdaReg95","type":"model"},{"step":47,"from":"sdaReg0","to":"sdaReg97","type":"model"},{"step":48,"from":"static.<java.net.URI: libcore.net.UriCodec PATH_ENCODER>","to":"1085474672","type":"load","field":"<java.net.URI: libcore.net.UriCodec PATH_ENCODER>"},{"step":49,"from":"sdaReg0","to":"sdaReg102","type":"model"},{"step":50,"from":"sdaReg0","to":"sdaReg103","type":"model"},{"step":51,"from":"sdaReg0","to":"sdaReg104","type":"model"},{"step":52,"from":"sdaReg0","to":"sdaReg105","type":"model"},{"step":53,"from":"sdaReg0","to":"sdaReg106","type":"model"},{"step":54,"from":"sdaReg0","to":"sdaReg107","type":"model"},{"step":55,"from":"sdaReg0","to":"sdaReg108","type":"model"},{"step":56,"from":"sdaReg0","to":"sdaReg109","type":"model"},{"step":57,"from":"sdaReg109","to":"1093533800","type":"store","field":"<java.net.URI: java.lang.String path>"},{"step":58,"from":"1093533800","to":"1093533800.<java.net.URI: java.lang.String authority>","type":"load","field":"<java.net.URI: java.lang.String authority>"}],"parameters":[{"id":"sdaReg0","name":"arg#0","klass":"string"}],"returns":[{"id":"1093533800","name":"return","klass":"java.net.URI"}],"colors":{"heapLocToColor":{"sdaReg68":[50],"sdaReg69":[0, 51],"sdaReg66":[48],"sdaReg67":[0, 49],"sdaReg64":[46],"sdaReg65":[0, 47],"sdaReg63":[0, 45],"sdaReg72":[54],"sdaReg13":[4],"sdaReg71":[0, 53],"sdaReg14":[0, 5],"sdaReg70":[52],"sdaReg12":[0, 3],"1093533800.<java.net.URI: java.lang.String authority>":[1],"sdaReg59":[44],"sdaReg58":[0, 43],"sdaReg57":[42],"sdaReg19":[10],"sdaReg56":[0, 41],"sdaReg55":[40],"sdaReg17":[8],"sdaReg54":[0, 39],"sdaReg18":[0, 9],"sdaReg53":[38],"sdaReg15":[6],"sdaReg52":[0, 37],"sdaReg16":[0, 7],"sdaReg51":[36],"sdaReg50":[0, 35],"sdaReg73":[0, 55],"static.<java.net.URI: libcore.net.UriCodec ALL_LEGAL_ENCODER>":[20],"sdaReg74":[56],"sdaReg75":[0, 57],"sdaReg76":[58],"sdaReg81":[60],"sdaReg80":[0, 59],"sdaReg49":[34],"sdaReg48":[0, 33],"sdaReg47":[32],"sdaReg46":[0, 31],"sdaReg41":[0, 29],"sdaReg40":[0, 28],"sdaReg111":[1],"sdaReg110":[1],"sdaReg42":[0, 30],"sdaReg107":[0, 81],"sdaReg108":[0, 82],"sdaReg109":[0, 83],"sdaReg103":[0, 77],"sdaReg104":[0, 78],"sdaReg105":[0, 79],"sdaReg106":[0, 80],"sdaReg86":[62],"sdaReg87":[0, 63],"sdaReg85":[0, 61],"sdaReg88":[64],"sdaReg89":[0, 65],"sdaReg90":[66],"sdaReg39":[0, 27],"1085474672":[75],"sdaReg38":[0, 26],"sdaReg37":[0, 25],"sdaReg94":[70],"sdaReg93":[0, 69],"sdaReg92":[68],"sdaReg91":[0, 67],"1085538000":[20],"sdaReg31":[20],"sdaReg102":[0, 76],"sdaReg30":[21],"sdaReg36":[0, 24],"sdaReg35":[0, 23],"1093533800":[1],"sdaReg34":[0, 22],"sdaReg8":[2],"sdaReg6":[1],"sdaReg95":[0, 71],"sdaReg96":[72],"sdaReg97":[0, 73],"sdaReg98":[74],"sdaReg99":[75],"sdaReg27":[18],"sdaReg26":[0, 17],"static.<java.net.URI: libcore.net.UriCodec PATH_ENCODER>":[75],"sdaReg28":[19],"sdaReg2":[1],"sdaReg21":[12],"sdaReg1":[1],"sdaReg20":[0, 11],"sdaReg0":[0],"sdaReg23":[14],"sdaReg22":[0, 13],"sdaReg25":[16],"sdaReg24":[0, 15]},"colorToColor":{"0":[1],"1":[84],"83":[1],"59":[1],"30":[1]},"colorToLabel":{"0":"arg#0","20":"<java.net.URI: libcore.net.UriCodec ALL_LEGAL_ENCODER>","75":"<java.net.URI: libcore.net.UriCodec PATH_ENCODER>","84":"return"}}}

Generated Model
	arg#0->return

