Scanning method <java.io.ObjectInputStream: void readFully(byte[])>

All seen event types: MethodReturnRecord, MethodCallRecord, ArrayLengthRecord, MethodStartRecord, LoadInstanceRecord, MethodEndRecord, 
Ignored event types: 

JSON Encoded Analysis Data (for visualization):{"heapEdges":[{"step":0,"from":"1093472264","to":"1093472680","type":"load","field":"<java.io.ObjectInputStream: java.io.DataInputStream primitiveTypes>"},{"step":1,"from":"1093472680","to":"1093472264","type":"load","field":"<java.io.FilterInputStream: java.io.InputStream in>"},{"step":2,"from":"1093472264","to":"1093264560","type":"model"}],"parameters":[{"id":"1093472264","name":"this","klass":"java.io.ObjectInputStream"},{"id":"1093264560","name":"arg#1","klass":"byte[]"}],"returns":[{"id":null,"name":"return","klass":null}],"colors":{"heapLocToColor":{"1093472264":[0],"sdaReg4":[1],"sdaReg3":[0],"1093472680":[0],"1093472680.<java.io.FilterInputStream: java.io.InputStream in>":[0],"sdaReg1":[1],"sdaReg0":[0],"1093264560":[1]},"colorToColor":{"0":[1]},"colorToLabel":{"0":"this","1":"arg#1","2":"return"}}}

Generated Model
	this->arg#1

