Scanning method <android.os.Bundle: void putCharSequence(java.lang.String,java.lang.CharSequence)>

All seen event types: BinaryOperationRecord, StoreArrayRecord, MethodReturnRecord, MethodCallRecord, ArrayLengthRecord, LoadInstanceRecord, MethodStartRecord, LoadArrayRecord, MethodEndRecord, IfRecord, NewObjectRecord, StoreInstanceRecord, 
Ignored event types: IfRecord, 

JSON Encoded Analysis Data (for visualization):{"heapEdges":[{"step":0,"from":"1093427032","to":"1093772024","type":"load","field":"<android.os.Bundle: java.util.Map mMap>"},{"step":1,"from":"1093772024","to":"1094115944","type":"load","field":"<java.util.HashMap: java.util.HashMap$HashMapEntry[] table>"},{"step":2,"from":"1094115944","to":"1094115984","type":"load","field":"arrayIdx_int:2"},{"step":3,"from":"1094115984","to":"1094115984.<java.util.HashMap$HashMapEntry: int hash>","type":"load","field":"<java.util.HashMap$HashMapEntry: int hash>"},{"step":4,"from":"1093772024","to":"1093772024.<java.util.HashMap: int modCount>","type":"load","field":"<java.util.HashMap: int modCount>"},{"step":5,"from":"sdaReg16","to":"1093772024","type":"store","field":"<java.util.HashMap: int modCount>"},{"step":6,"from":"1093772024","to":"1093772024.<java.util.HashMap: int size>","type":"load","field":"<java.util.HashMap: int size>"},{"step":7,"from":"sdaReg17","to":"1093772024","type":"store","field":"<java.util.HashMap: int size>"},{"step":8,"from":"1093772024","to":"1093772024.<java.util.HashMap: int threshold>","type":"load","field":"<java.util.HashMap: int threshold>"},{"step":9,"from":"1093772024","to":"1094115944","type":"load","field":"<java.util.HashMap: java.util.HashMap$HashMapEntry[] table>"},{"step":10,"from":"1093772024","to":"1094115944","type":"load","field":"<java.util.HashMap: java.util.HashMap$HashMapEntry[] table>"},{"step":11,"from":"1094115944","to":"1094115984","type":"load","field":"arrayIdx_int:2"},{"step":12,"from":"1093509328","to":"1094153280","type":"store","field":"<java.util.HashMap$HashMapEntry: java.lang.Object key>"},{"step":13,"from":"1093772608","to":"1094153280","type":"store","field":"<java.util.HashMap$HashMapEntry: java.lang.Object value>"},{"step":14,"from":"sdaReg12","to":"1094153280","type":"store","field":"<java.util.HashMap$HashMapEntry: int hash>"},{"step":15,"from":"1094115984","to":"1094153280","type":"store","field":"<java.util.HashMap$HashMapEntry: java.util.HashMap$HashMapEntry next>"},{"step":16,"from":"1094115944","to":"1094153280","type":"create","field":"arrayIdx_int:2"}],"parameters":[{"id":"1093427032","name":"this","klass":"android.os.Bundle"},{"id":"sdaReg0","name":"arg#1","klass":"string"},{"id":"1093772608","name":"arg#2","klass":"java.lang.CharSequence"}],"returns":[{"id":null,"name":"return","klass":null}],"colors":{"heapLocToColor":{"1094115944":[0],"1094115984.<java.util.HashMap$HashMapEntry: int hash>":[0],"1094115984":[0],"sdaReg11":[3],"sdaReg12":[3],"1094115944.arrayIdx_int:2":[0],"sdaReg10":[3],"1093772608":[2],"1093772024":[0],"1093772024.<java.util.HashMap: java.util.HashMap$HashMapEntry[] table>":[0],"sdaReg17":[0],"sdaReg18":[0],"sdaReg15":[3],"1093772024.<java.util.HashMap: int modCount>":[0],"sdaReg16":[0],"sdaReg8":[3],"sdaReg9":[3],"sdaReg6":[3],"sdaReg7":[3],"sdaReg4":[3],"sdaReg5":[3],"1094153280":[4],"1093772024.<java.util.HashMap: int size>":[0],"sdaReg26":[4],"sdaReg3":[2],"sdaReg2":[0],"sdaReg21":[4],"sdaReg1":[0],"sdaReg20":[2],"sdaReg0":[1],"1093427032":[0],"sdaReg23":[2],"sdaReg25":[4],"sdaReg24":[0],"1093772024.<java.util.HashMap: int threshold>":[0]},"colorToColor":{"0":[0, 4],"2":[4],"3":[4],"4":[0]},"colorToLabel":{"0":"this","1":"arg#1","2":"arg#2","5":"return"}}}

Generated Model
	arg#2->this

