Scanning method <java.io.BufferedInputStream: int read(byte[],int,int)>

All seen event types: BinaryOperationRecord, SimpleAssignmentRecord, MethodReturnRecord, MethodCallRecord, MethodStartRecord, ArrayLengthRecord, LoadInstanceRecord, MethodEndRecord, IfRecord, 
Ignored event types: IfRecord, 

JSON Encoded Analysis Data (for visualization):{"heapEdges":[{"step":0,"from":"1093282656","to":"1094270688","type":"load","field":"<java.io.BufferedInputStream: byte[] buf>"},{"step":1,"from":"1093282656","to":"1093284784","type":"load","field":"<java.io.FilterInputStream: java.io.InputStream in>"},{"step":2,"from":"1093282656","to":"1093282656.<java.io.BufferedInputStream: int pos>","type":"load","field":"<java.io.BufferedInputStream: int pos>"},{"step":3,"from":"1093282656","to":"1093282656.<java.io.BufferedInputStream: int count>","type":"load","field":"<java.io.BufferedInputStream: int count>"},{"step":4,"from":"1093282656","to":"1093282656.<java.io.BufferedInputStream: int markpos>","type":"load","field":"<java.io.BufferedInputStream: int markpos>"},{"step":5,"from":"1093282656","to":"1093282656.<java.io.BufferedInputStream: int markpos>","type":"load","field":"<java.io.BufferedInputStream: int markpos>"},{"step":6,"from":"1093284784","to":"1093284784.<java.io.ByteArrayInputStream: int pos>","type":"load","field":"<java.io.ByteArrayInputStream: int pos>"},{"step":7,"from":"1093284784","to":"1093284784.<java.io.ByteArrayInputStream: int count>","type":"load","field":"<java.io.ByteArrayInputStream: int count>"}],"parameters":[{"id":"1093282656","name":"this","klass":"java.io.BufferedInputStream"},{"id":"1093359008","name":"arg#1","klass":"byte[]"},{"id":"sdaReg0","name":"arg#2","klass":"int"},{"id":"sdaReg1","name":"arg#3","klass":"int"}],"returns":[{"id":"sdaReg20","name":"return","klass":"int"}],"colors":{"heapLocToColor":{"sdaReg8":[0],"sdaReg9":[0],"1093282656":[0],"1093284784":[0],"1093359008":[1],"sdaReg7":[0],"sdaReg4":[2],"sdaReg5":[3],"1093284784.<java.io.ByteArrayInputStream: int pos>":[0],"1093284784.<java.io.ByteArrayInputStream: int count>":[0],"sdaReg13":[0],"sdaReg14":[0],"sdaReg11":[0],"1093282656.<java.io.BufferedInputStream: int pos>":[0],"sdaReg10":[0],"1093282656.<java.io.BufferedInputStream: int markpos>":[0],"sdaReg3":[2, 3],"sdaReg1":[3],"sdaReg0":[2],"1094270688":[0],"1093282656.<java.io.BufferedInputStream: int count>":[0]},"colorToColor":{},"colorToLabel":{"0":"this","1":"arg#1","2":"arg#2","3":"arg#3","4":"return"}}}

Generated Model

