Scanning method <java.util.ArrayList: void <init>(java.util.Collection)>

All seen event types: NewArrayRecord, MethodReturnRecord, MethodCallRecord, ArrayLengthRecord, LoadInstanceRecord, MethodStartRecord, IfRecord, MethodEndRecord, StoreInstanceRecord, 
Ignored event types: IfRecord, 

JSON Encoded Analysis Data (for visualization):{"heapEdges":[{"step":0,"from":"1093388624","to":"1093388624.<java.util.Vector: int elementCount>","type":"load","field":"<java.util.Vector: int elementCount>"},{"step":1,"from":"1093388624","to":"1093385608","type":"load","field":"<java.util.Vector: java.lang.Object[] elementData>"},{"step":2,"from":"1093388624","to":"1093388624.<java.util.Vector: int elementCount>","type":"load","field":"<java.util.Vector: int elementCount>"},{"step":3,"from":"1093385608","to":"1093382936","type":"model"},{"step":4,"from":"1093382936","to":"1083911824","type":"model"},{"step":5,"from":"1093509864","to":"1093382936","type":"create","field":"<java.util.ArrayList: java.lang.Object[] array>"},{"step":6,"from":"sdaReg8","to":"1093509864","type":"store","field":"<java.util.ArrayList: int size>"}],"parameters":[{"id":"1093509864","name":"this","klass":"java.util.ArrayList"},{"id":"1093388624","name":"arg#1","klass":"java.util.Collection"}],"returns":[{"id":"1093509864","name":"return","klass":"java.util.ArrayList"}],"colors":{"heapLocToColor":{"1093388624":[1],"1093509864":[0],"sdaReg6":[2],"sdaReg7":[2, 3],"1093382936":[2],"sdaReg4":[0],"sdaReg5":[1],"1093388624.<java.util.Vector: int elementCount>":[1],"1083911824":[2, 3],"1093385608":[1],"sdaReg3":[0],"sdaReg2":[0],"sdaReg1":[0],"sdaReg0":[0]},"colorToColor":{"0":[4],"1":[2],"2":[0]},"colorToLabel":{"0":"this","1":"arg#1","4":"return"}}}

Generated Model
	this->return
	arg#1->this
	arg#1->return

