Scanning method <java.util.ArrayList: void <init>(java.util.Collection)>

All seen event types: NewArrayRecord, SimpleAssignmentRecord, MethodReturnRecord, MethodCallRecord, ArrayLengthRecord, CastRecord, LoadInstanceRecord, MethodStartRecord, IfRecord, MethodEndRecord, StoreInstanceRecord, 
Ignored event types: IfRecord, 

JSON Encoded Analysis Data (for visualization):{"heapEdges":[{"step":0,"from":"1093434904","to":"1093730568","type":"load","field":"<java.util.Arrays$ArrayList: java.lang.Object[] a>"},{"step":1,"from":"1093730568","to":"1093730928","type":"model"},{"step":2,"from":"1093730928","to":"1083940496","type":"model"},{"step":3,"from":"1093730928","to":"1093731464","type":"model"},{"step":4,"from":"1093544360","to":"1093731464","type":"create","field":"<java.util.ArrayList: java.lang.Object[] array>"},{"step":5,"from":"sdaReg12","to":"1093544360","type":"store","field":"<java.util.ArrayList: int size>"}],"parameters":[{"id":"1093544360","name":"this","klass":"java.util.ArrayList"},{"id":"1093434904","name":"arg#1","klass":"java.util.Collection"}],"returns":[{"id":"1093544360","name":"return","klass":"java.util.ArrayList"}],"colors":{"heapLocToColor":{"1093731464":[4],"sdaReg8":[1, 2],"sdaReg9":[1, 2, 3],"1093544360":[0],"sdaReg6":[1, 2],"sdaReg7":[1, 2],"sdaReg4":[0],"sdaReg5":[1],"1093730568":[1],"1093434904":[1],"1083940496":[1, 2, 3],"sdaReg3":[0],"sdaReg2":[0],"sdaReg1":[0],"sdaReg0":[0],"1093730928":[1, 2]},"colorToColor":{"0":[5],"1":[4],"2":[4],"4":[0]},"colorToLabel":{"0":"this","1":"arg#1","5":"return"}}}

Generated Model
	this->return
	arg#1->this
	arg#1->return

