Scanning method <java.util.Vector: boolean contains(java.lang.Object)>

All seen event types: BinaryOperationRecord, SimpleAssignmentRecord, MethodReturnRecord, MethodCallRecord, LoadInstanceRecord, MethodStartRecord, LoadArrayRecord, MethodEndRecord, IfRecord, 
Ignored event types: IfRecord, 

JSON Encoded Analysis Data (for visualization):{"heapEdges":[{"step":0,"from":"1093570752","to":"1093570752.<java.util.Vector: int elementCount>","type":"load","field":"<java.util.Vector: int elementCount>"},{"step":1,"from":"1093570752","to":"1093570784","type":"load","field":"<java.util.Vector: java.lang.Object[] elementData>"},{"step":2,"from":"1093570784","to":"1093571584","type":"load","field":"arrayIdx_int:0"},{"step":3,"from":"1093570752","to":"1093570752.<java.util.Vector: int elementCount>","type":"load","field":"<java.util.Vector: int elementCount>"},{"step":4,"from":"1093570752","to":"1093570784","type":"load","field":"<java.util.Vector: java.lang.Object[] elementData>"},{"step":5,"from":"1093570784","to":"1093571760","type":"load","field":"arrayIdx_int:1"},{"step":6,"from":"1093570752","to":"1093570752.<java.util.Vector: int elementCount>","type":"load","field":"<java.util.Vector: int elementCount>"}],"parameters":[{"id":"1093570752","name":"this","klass":"java.util.Vector"},{"id":"1093571936","name":"arg#1","klass":"java.lang.Object"}],"returns":[{"id":"sdaReg7","name":"return","klass":"boolean"}],"colors":{"heapLocToColor":{"1093570752.<java.util.Vector: java.lang.Object[] elementData>":[0],"1093570752.<java.util.Vector: int elementCount>":[0],"1093570752":[0],"sdaReg4":[2],"1093571936":[1],"sdaReg5":[3],"1093571584":[0],"1093570784":[0],"sdaReg1":[1],"sdaReg0":[0],"1093571760":[0]},"colorToColor":{},"colorToLabel":{"0":"this","1":"arg#1","4":"return"}}}

Generated Model

